(module SOD2512X110N (layer F.Cu) (tedit 5EB96B58)
  (descr "Small Outline Diode (SOD-323), 1.70mm W X 1.25mm L X 1.10mm H body,  IPC Medium Density")
  (attr smd)
  (fp_text reference D3 (at 1.21 1.62) (layer F.SilkS)
    (effects (font (size 1 1) (thickness 0.15)))
  )
  (fp_text value BZX384-B18 (at 0 1.976) (layer F.Fab) hide
    (effects (font (size 1 1) (thickness 0.15)))
  )
  (fp_line (start -2 0.95) (end 2 0.95) (layer F.CrtYd) (width 0.05))
  (fp_line (start 2 0.95) (end 2 -0.95) (layer F.CrtYd) (width 0.05))
  (fp_line (start -2 -0.95) (end 2 -0.95) (layer F.CrtYd) (width 0.05))
  (fp_line (start -2 0.95) (end -2 -0.95) (layer F.CrtYd) (width 0.05))
  (fp_line (start -0.85 0.625) (end 0.85 0.625) (layer F.Fab) (width 0.1))
  (fp_line (start 0.85 0.625) (end 0.85 -0.625) (layer F.Fab) (width 0.1))
  (fp_line (start -0.85 -0.625) (end 0.85 -0.625) (layer F.Fab) (width 0.1))
  (fp_line (start -0.85 0.625) (end -0.85 -0.625) (layer F.Fab) (width 0.1))
  (fp_line (start -0.85 0.625) (end -0.85 -0.625) (layer F.Fab) (width 0.1))
  (fp_line (start -0.75 0.625) (end -0.75 -0.625) (layer F.Fab) (width 0.1))
  (fp_line (start -0.65 0.625) (end -0.65 -0.625) (layer F.Fab) (width 0.1))
  (fp_line (start -0.55 0.625) (end -0.55 -0.625) (layer F.Fab) (width 0.1))
  (fp_line (start -0.45 0.625) (end -0.45 -0.625) (layer F.Fab) (width 0.1))
  (fp_line (start -0.35 0.625) (end -0.35 -0.625) (layer F.Fab) (width 0.1))
  (fp_line (start -0.25 0.625) (end -0.25 -0.625) (layer F.Fab) (width 0.1))
  (fp_line (start -0.15 0.625) (end -0.15 -0.625) (layer F.Fab) (width 0.1))
  (fp_line (start -0.85 -0.65) (end 0.85 -0.65) (layer F.SilkS) (width 0.2))
  (fp_line (start -0.85 0.65) (end 0.85 0.65) (layer F.SilkS) (width 0.2))
  (fp_line (start -0.5 0.65) (end -0.5 -0.65) (layer F.SilkS) (width 0.2))
  (fp_line (start -0.3 0.65) (end -0.3 -0.65) (layer F.SilkS) (width 0.2))
  (fp_line (start -0.1 0.65) (end -0.1 -0.65) (layer F.SilkS) (width 0.2))
  (fp_circle (center -1.5 -0.75) (end -1.375 -0.75) (layer F.SilkS) (width 0.25))
  (pad 1 smd rect (at -1.3 0) (size 0.9 0.5) (layers F.Cu F.Paste F.Mask))
  (pad 2 smd rect (at 1.3 0) (size 0.9 0.5) (layers F.Cu F.Paste F.Mask))
  (model "${KISYS3DMOD}/SOD2512X110N(SOD-323).stp"
    (at (xyz 0 0 0))
    (scale (xyz 1 1 1))
    (rotate (xyz 0 0 0))
  )
)
