%TF.GenerationSoftware,KiCad,Pcbnew,5.1.5-52549c5~86~ubuntu18.04.1*%
%TF.CreationDate,2020-06-02T09:11:53-05:00*%
%TF.ProjectId,ctrb0505-A,63747262-3035-4303-952d-412e6b696361,rev?*%
%TF.SameCoordinates,Original*%
%TF.FileFunction,Plated,1,4,PTH,Drill*%
%TF.FilePolarity,Positive*%
%FSLAX46Y46*%
G04 Gerber Fmt 4.6, Leading zero omitted, Abs format (unit mm)*
G04 Created by KiCad (PCBNEW 5.1.5-52549c5~86~ubuntu18.04.1) date 2020-06-02 09:11:53*
%MOMM*%
%LPD*%
G04 APERTURE LIST*
%TA.AperFunction,ComponentDrill*%
%ADD10C,0.304800*%
%TD*%
%TA.AperFunction,ComponentDrill*%
%ADD11C,0.812800*%
%TD*%
%TA.AperFunction,ComponentDrill*%
%ADD12C,0.914400*%
%TD*%
%TA.AperFunction,ComponentDrill*%
%ADD13C,0.965200*%
%TD*%
%TA.AperFunction,ComponentDrill*%
%ADD14C,1.219200*%
%TD*%
%TA.AperFunction,ComponentDrill*%
%ADD15C,1.422400*%
%TD*%
%TA.AperFunction,ComponentDrill*%
%ADD16C,3.505200*%
%TD*%
G04 APERTURE END LIST*
D10*
%TO.C,VI25*%
X74422000Y20002500D03*
%TO.C,VI31*%
X75501500Y25908000D03*
%TO.C,VI61*%
X53022500Y68262500D03*
%TO.C,VI54*%
X46672500Y63500000D03*
%TO.C,VI41*%
X68834000Y36449000D03*
%TO.C,VI10*%
X47498000Y16764000D03*
%TO.C,VI59*%
X49847500Y68262500D03*
%TO.C,VI60*%
X51435000Y68262500D03*
%TO.C,VI58*%
X48260000Y68262500D03*
%TO.C,VI21*%
X57531000Y16510000D03*
%TO.C,VI6*%
X49149000Y35433000D03*
%TO.C,VI23*%
X79438500Y18732500D03*
%TO.C,VI17*%
X66421000Y12446000D03*
%TO.C,VI55*%
X46672500Y65087500D03*
%TO.C,VI72*%
X65722500Y22161500D03*
%TO.C,VI46*%
X67145000Y58039000D03*
%TO.C,VI29*%
X74358500Y24638000D03*
%TO.C,VI85*%
X27559000Y20637500D03*
%TO.C,VI67*%
X75882500Y62547500D03*
%TO.C,VI74*%
X33464500Y16510000D03*
%TO.C,VI82*%
X83185000Y20193000D03*
%TO.C,VI77*%
X69227700Y21145500D03*
%TO.C,VI30*%
X87820500Y25400000D03*
%TO.C,VI9*%
X45593000Y16510000D03*
%TO.C,VI52*%
X61595000Y62547500D03*
%TO.C,VI76*%
X58102500Y10274300D03*
%TO.C,VI86*%
X39624000Y20637500D03*
%TO.C,VI37*%
X87820500Y29527500D03*
%TO.C,VI13*%
X58762900Y6985000D03*
%TO.C,VI62*%
X54610000Y68262500D03*
%TO.C,VI35*%
X77567500Y27622500D03*
%TO.C,VI28*%
X79565500Y22542500D03*
%TO.C,VI2*%
X25400000Y50101500D03*
%TO.C,VI24*%
X87820500Y19278600D03*
%TO.C,VI80*%
X73279000Y21272500D03*
%TO.C,VI33*%
X67564000Y26352500D03*
%TO.C,VI19*%
X78930500Y15049500D03*
%TO.C,VI68*%
X77787500Y62547500D03*
%TO.C,VI51*%
X46672500Y61912500D03*
%TO.C,VI81*%
X83185000Y26352500D03*
%TO.C,VI83*%
X88011000Y31750000D03*
%TO.C,VI4*%
X25273000Y35433000D03*
%TO.C,VI50*%
X69977000Y61404500D03*
%TO.C,VI1*%
X36195000Y50101500D03*
%TO.C,VI40*%
X90233500Y33972500D03*
%TO.C,VI32*%
X60198000Y26733500D03*
%TO.C,VI48*%
X55880000Y59925000D03*
%TO.C,VI49*%
X46672500Y60325000D03*
%TO.C,VI43*%
X67246500Y38417500D03*
%TO.C,VI39*%
X77567500Y32639000D03*
%TO.C,VI5*%
X37338000Y35433000D03*
%TO.C,VI16*%
X65722500Y10274300D03*
%TO.C,VI64*%
X65405000Y58420000D03*
%TO.C,VI26*%
X76771500Y20002500D03*
%TO.C,VI38*%
X65278000Y31940500D03*
%TO.C,VI14*%
X75662500Y9398000D03*
%TO.C,VI47*%
X75882500Y58610500D03*
%TO.C,VI8*%
X35306000Y16891000D03*
%TO.C,VI12*%
X46675000Y6159500D03*
%TO.C,VI36*%
X64769999Y29083000D03*
%TO.C,VI71*%
X65722500Y24765000D03*
%TO.C,VI66*%
X73977500Y62547500D03*
%TO.C,VI18*%
X66421000Y14224000D03*
%TO.C,VI79*%
X73279000Y22542500D03*
%TO.C,VI42*%
X67881500Y37465000D03*
%TO.C,VI87*%
X51689000Y20637500D03*
%TO.C,VI78*%
X73279000Y23812500D03*
%TO.C,VI63*%
X90500000Y70000000D03*
%TO.C,VI56*%
X46672500Y66675000D03*
%TO.C,VI75*%
X46037500Y10274300D03*
%TO.C,VI45*%
X53735000Y52578000D03*
%TO.C,VI73*%
X65722500Y19773900D03*
%TO.C,VI57*%
X46672500Y68262500D03*
%TO.C,VI84*%
X69977000Y59925000D03*
%TO.C,VI34*%
X73279000Y27622500D03*
%TO.C,VI27*%
X78740000Y21272500D03*
%TO.C,VI3*%
X24765000Y54737000D03*
%TO.C,VI44*%
X50292000Y52070000D03*
%TO.C,VI65*%
X17145000Y54483000D03*
%TO.C,VI15*%
X34023300Y10274300D03*
%TO.C,VI11*%
X34925000Y3048000D03*
%TO.C,VI69*%
X68745000Y58039000D03*
%TO.C,VI7*%
X23812500Y17145000D03*
%TO.C,VI22*%
X79470250Y17367250D03*
%TO.C,VI20*%
X67564000Y15621000D03*
%TO.C,VI53*%
X67945000Y62674500D03*
%TO.C,VI70*%
X63563500Y62611000D03*
D11*
%TO.C,C29*%
X26500000Y65500000D03*
X56980000Y65500000D03*
%TO.C,C28*%
X26500000Y52500000D03*
X56980000Y52500000D03*
D12*
%TO.C,J2*%
X63340000Y67945000D03*
X63340000Y65405000D03*
X65880000Y67945000D03*
X65880000Y65405000D03*
X68420000Y67945000D03*
X68420000Y65405000D03*
X70960000Y67945000D03*
X70960000Y65405000D03*
X73500000Y67945000D03*
X73500000Y65405000D03*
D13*
%TO.C,C2*%
X64452500Y55245000D03*
X64452500Y50165000D03*
%TO.C,C27*%
X64452500Y44450000D03*
X64452500Y39370000D03*
D14*
%TO.C,J3*%
X20002500Y18097500D03*
X20002500Y15557500D03*
%TO.C,ZT3*%
X26670000Y31115000D03*
X29210000Y31115000D03*
X31750000Y31115000D03*
%TO.C,ZT7*%
X50800000Y31115000D03*
X53340000Y31115000D03*
X55880000Y31115000D03*
%TO.C,ZT5*%
X38735000Y31115000D03*
X41275000Y31115000D03*
X43815000Y31115000D03*
%TO.C,FI1*%
X5120000Y48537500D03*
X5120000Y43537500D03*
X7620000Y46037500D03*
X10120000Y48537500D03*
X10120000Y43537500D03*
X12620000Y46037500D03*
%TO.C,ZT4*%
X38735000Y22225000D03*
X41275000Y22225000D03*
X43815000Y22225000D03*
%TO.C,J6*%
X20002500Y38417500D03*
X20002500Y35877500D03*
X20002500Y33337500D03*
X20002500Y30797500D03*
X20002500Y28257500D03*
X20002500Y25717500D03*
X20002500Y23177500D03*
X20002500Y20637500D03*
%TO.C,J22*%
X72500000Y57785000D03*
X72500000Y55245000D03*
X72500000Y52705000D03*
X72500000Y50165000D03*
X72500000Y47625000D03*
X72500000Y45085000D03*
X72500000Y42545000D03*
X72500000Y40005000D03*
X72500000Y37465000D03*
%TO.C,ZT2*%
X26670000Y22225000D03*
X29210000Y22225000D03*
X31750000Y22225000D03*
%TO.C,ZT6*%
X50800000Y22225000D03*
X53340000Y22225000D03*
X55880000Y22225000D03*
D15*
%TO.C,J11*%
X2540000Y55245000D03*
X8040000Y55245000D03*
D16*
%TO.C,ZM1*%
X9000000Y9000000D03*
%TO.C,ZM4*%
X9000000Y63200000D03*
%TO.C,ZM2*%
X83600000Y9000000D03*
%TO.C,ZM3*%
X83600000Y63200000D03*
M02*
