%TF.GenerationSoftware,KiCad,Pcbnew,5.1.5-52549c5~86~ubuntu18.04.1*%
%TF.CreationDate,2020-06-02T09:12:00-05:00*%
%TF.ProjectId,ctrb0505-A,63747262-3035-4303-952d-412e6b696361,rev?*%
%TF.SameCoordinates,Original*%
%TF.FileFunction,Soldermask,Top*%
%TF.FilePolarity,Negative*%
%FSLAX46Y46*%
G04 Gerber Fmt 4.6, Leading zero omitted, Abs format (unit mm)*
G04 Created by KiCad (PCBNEW 5.1.5-52549c5~86~ubuntu18.04.1) date 2020-06-02 09:12:00*
%MOMM*%
%LPD*%
G04 APERTURE LIST*
%ADD10C,1.000000*%
%ADD11C,0.050000*%
%ADD12C,0.150000*%
%ADD13C,0.200000*%
%ADD14C,0.254000*%
%ADD15C,0.203200*%
%ADD16C,0.101600*%
%ADD17C,0.020000*%
%ADD18C,2.235200*%
%ADD19O,2.235200X2.235200*%
%ADD20C,1.014400*%
%ADD21C,2.438400*%
%ADD22C,7.010400*%
%ADD23R,4.648200X2.133600*%
%ADD24R,4.038600X2.133600*%
%ADD25R,1.117600X1.320800*%
%ADD26R,1.778000X2.108200*%
%ADD27R,1.778000X3.708400*%
%ADD28R,1.727200X1.727200*%
%ADD29C,3.000000*%
%ADD30C,2.133600*%
%ADD31R,2.133600X2.133600*%
%ADD32C,2.489200*%
%ADD33R,2.489200X2.489200*%
%ADD34C,1.778000*%
%ADD35R,1.778000X1.778000*%
%ADD36R,4.500000X1.900000*%
%ADD37R,1.470000X3.700000*%
%ADD38R,1.727200X1.066800*%
%ADD39R,1.727200X0.812800*%
%ADD40R,1.981200X1.066800*%
%ADD41R,1.981200X0.812800*%
%ADD42R,1.320800X1.117600*%
%ADD43R,4.546600X4.114800*%
%ADD44R,1.778000X2.743200*%
%ADD45R,2.108200X1.778000*%
%ADD46R,1.574800X0.914400*%
%ADD47R,1.676400X1.676400*%
%ADD48C,1.676400*%
%ADD49R,1.803400X1.803400*%
%ADD50C,1.803400*%
%ADD51R,1.473200X1.625600*%
%ADD52R,1.117600X0.762000*%
%ADD53R,1.625600X1.473200*%
%ADD54R,2.540000X3.454400*%
%ADD55C,1.117600*%
G04 APERTURE END LIST*
D10*
X92500000Y0D02*
X0Y0D01*
X92500000Y72000000D02*
X92500000Y0D01*
X0Y72000000D02*
X92500000Y72000000D01*
X0Y0D02*
X0Y72000000D01*
%TO.C,cam5*%
D11*
X98270595Y-49448320D02*
X98270595Y-48448320D01*
X98746785Y-48781654D02*
X98746785Y-49448320D01*
X98746785Y-48876892D02*
X98794404Y-48829273D01*
X98889642Y-48781654D01*
X99032500Y-48781654D01*
X99127738Y-48829273D01*
X99175357Y-48924511D01*
X99175357Y-49448320D01*
X100080119Y-49448320D02*
X100080119Y-48448320D01*
X100080119Y-49400701D02*
X99984880Y-49448320D01*
X99794404Y-49448320D01*
X99699166Y-49400701D01*
X99651547Y-49353082D01*
X99603928Y-49257844D01*
X99603928Y-48972130D01*
X99651547Y-48876892D01*
X99699166Y-48829273D01*
X99794404Y-48781654D01*
X99984880Y-48781654D01*
X100080119Y-48829273D01*
X101318214Y-49353082D02*
X101365833Y-49400701D01*
X101318214Y-49448320D01*
X101270595Y-49400701D01*
X101318214Y-49353082D01*
X101318214Y-49448320D01*
X101318214Y-48829273D02*
X101365833Y-48876892D01*
X101318214Y-48924511D01*
X101270595Y-48876892D01*
X101318214Y-48829273D01*
X101318214Y-48924511D01*
X81270595Y-48924511D02*
X81603928Y-48924511D01*
X81746785Y-49448320D02*
X81270595Y-49448320D01*
X81270595Y-48448320D01*
X81746785Y-48448320D01*
X82603928Y-49400701D02*
X82508690Y-49448320D01*
X82318214Y-49448320D01*
X82222976Y-49400701D01*
X82175357Y-49353082D01*
X82127738Y-49257844D01*
X82127738Y-48972130D01*
X82175357Y-48876892D01*
X82222976Y-48829273D01*
X82318214Y-48781654D01*
X82508690Y-48781654D01*
X82603928Y-48829273D01*
X83032500Y-49448320D02*
X83032500Y-48448320D01*
X83461071Y-49448320D02*
X83461071Y-48924511D01*
X83413452Y-48829273D01*
X83318214Y-48781654D01*
X83175357Y-48781654D01*
X83080119Y-48829273D01*
X83032500Y-48876892D01*
X84699166Y-49353082D02*
X84746785Y-49400701D01*
X84699166Y-49448320D01*
X84651547Y-49400701D01*
X84699166Y-49353082D01*
X84699166Y-49448320D01*
X84699166Y-48829273D02*
X84746785Y-48876892D01*
X84699166Y-48924511D01*
X84651547Y-48876892D01*
X84699166Y-48829273D01*
X84699166Y-48924511D01*
X86461071Y-49448320D02*
X85889642Y-49448320D01*
X86175357Y-49448320D02*
X86175357Y-48448320D01*
X86080119Y-48591178D01*
X85984880Y-48686416D01*
X85889642Y-48734035D01*
X87603928Y-48400701D02*
X86746785Y-49686416D01*
X88461071Y-49448320D02*
X87889642Y-49448320D01*
X88175357Y-49448320D02*
X88175357Y-48448320D01*
X88080119Y-48591178D01*
X87984880Y-48686416D01*
X87889642Y-48734035D01*
X81270595Y-54448320D02*
X81270595Y-53448320D01*
X81508690Y-53448320D01*
X81651547Y-53495940D01*
X81746785Y-53591178D01*
X81794404Y-53686416D01*
X81842023Y-53876892D01*
X81842023Y-54019749D01*
X81794404Y-54210225D01*
X81746785Y-54305463D01*
X81651547Y-54400701D01*
X81508690Y-54448320D01*
X81270595Y-54448320D01*
X82413452Y-54448320D02*
X82318214Y-54400701D01*
X82270595Y-54353082D01*
X82222976Y-54257844D01*
X82222976Y-53972130D01*
X82270595Y-53876892D01*
X82318214Y-53829273D01*
X82413452Y-53781654D01*
X82556309Y-53781654D01*
X82651547Y-53829273D01*
X82699166Y-53876892D01*
X82746785Y-53972130D01*
X82746785Y-54257844D01*
X82699166Y-54353082D01*
X82651547Y-54400701D01*
X82556309Y-54448320D01*
X82413452Y-54448320D01*
X83127738Y-54400701D02*
X83222976Y-54448320D01*
X83413452Y-54448320D01*
X83508690Y-54400701D01*
X83556309Y-54305463D01*
X83556309Y-54257844D01*
X83508690Y-54162606D01*
X83413452Y-54114987D01*
X83270595Y-54114987D01*
X83175357Y-54067368D01*
X83127738Y-53972130D01*
X83127738Y-53924511D01*
X83175357Y-53829273D01*
X83270595Y-53781654D01*
X83413452Y-53781654D01*
X83508690Y-53829273D01*
X83937261Y-54400701D02*
X84032500Y-54448320D01*
X84222976Y-54448320D01*
X84318214Y-54400701D01*
X84365833Y-54305463D01*
X84365833Y-54257844D01*
X84318214Y-54162606D01*
X84222976Y-54114987D01*
X84080119Y-54114987D01*
X83984880Y-54067368D01*
X83937261Y-53972130D01*
X83937261Y-53924511D01*
X83984880Y-53829273D01*
X84080119Y-53781654D01*
X84222976Y-53781654D01*
X84318214Y-53829273D01*
X84794404Y-54448320D02*
X84794404Y-53781654D01*
X84794404Y-53448320D02*
X84746785Y-53495940D01*
X84794404Y-53543559D01*
X84842023Y-53495940D01*
X84794404Y-53448320D01*
X84794404Y-53543559D01*
X85651547Y-54400701D02*
X85556309Y-54448320D01*
X85365833Y-54448320D01*
X85270595Y-54400701D01*
X85222976Y-54305463D01*
X85222976Y-53924511D01*
X85270595Y-53829273D01*
X85365833Y-53781654D01*
X85556309Y-53781654D01*
X85651547Y-53829273D01*
X85699166Y-53924511D01*
X85699166Y-54019749D01*
X85222976Y-54114987D01*
X86127738Y-54448320D02*
X86127738Y-53781654D01*
X86127738Y-53972130D02*
X86175357Y-53876892D01*
X86222976Y-53829273D01*
X86318214Y-53781654D01*
X86413452Y-53781654D01*
X87508690Y-54448320D02*
X87508690Y-53448320D01*
X88080119Y-54448320D01*
X88080119Y-53448320D01*
X88413452Y-53400701D02*
X88556309Y-53543559D01*
X88937261Y-54353082D02*
X88984880Y-54400701D01*
X88937261Y-54448320D01*
X88889642Y-54400701D01*
X88937261Y-54353082D01*
X88937261Y-54448320D01*
X88937261Y-53829273D02*
X88984880Y-53876892D01*
X88937261Y-53924511D01*
X88889642Y-53876892D01*
X88937261Y-53829273D01*
X88937261Y-53924511D01*
X55270595Y-54448320D02*
X55270595Y-53448320D01*
X55508690Y-53448320D01*
X55651547Y-53495940D01*
X55746785Y-53591178D01*
X55794404Y-53686416D01*
X55842023Y-53876892D01*
X55842023Y-54019749D01*
X55794404Y-54210225D01*
X55746785Y-54305463D01*
X55651547Y-54400701D01*
X55508690Y-54448320D01*
X55270595Y-54448320D01*
X56699166Y-54448320D02*
X56699166Y-53924511D01*
X56651547Y-53829273D01*
X56556309Y-53781654D01*
X56365833Y-53781654D01*
X56270595Y-53829273D01*
X56699166Y-54400701D02*
X56603928Y-54448320D01*
X56365833Y-54448320D01*
X56270595Y-54400701D01*
X56222976Y-54305463D01*
X56222976Y-54210225D01*
X56270595Y-54114987D01*
X56365833Y-54067368D01*
X56603928Y-54067368D01*
X56699166Y-54019749D01*
X57032500Y-53781654D02*
X57413452Y-53781654D01*
X57175357Y-53448320D02*
X57175357Y-54305463D01*
X57222976Y-54400701D01*
X57318214Y-54448320D01*
X57413452Y-54448320D01*
X58127738Y-54400701D02*
X58032500Y-54448320D01*
X57842023Y-54448320D01*
X57746785Y-54400701D01*
X57699166Y-54305463D01*
X57699166Y-53924511D01*
X57746785Y-53829273D01*
X57842023Y-53781654D01*
X58032500Y-53781654D01*
X58127738Y-53829273D01*
X58175357Y-53924511D01*
X58175357Y-54019749D01*
X57699166Y-54114987D01*
X59365833Y-54353082D02*
X59413452Y-54400701D01*
X59365833Y-54448320D01*
X59318214Y-54400701D01*
X59365833Y-54353082D01*
X59365833Y-54448320D01*
X59365833Y-53829273D02*
X59413452Y-53876892D01*
X59365833Y-53924511D01*
X59318214Y-53876892D01*
X59365833Y-53829273D01*
X59365833Y-53924511D01*
X-14657976Y-49353082D02*
X-14705595Y-49400701D01*
X-14848452Y-49448320D01*
X-14943690Y-49448320D01*
X-15086547Y-49400701D01*
X-15181785Y-49305463D01*
X-15229404Y-49210225D01*
X-15277023Y-49019749D01*
X-15277023Y-48876892D01*
X-15229404Y-48686416D01*
X-15181785Y-48591178D01*
X-15086547Y-48495940D01*
X-14943690Y-48448320D01*
X-14848452Y-48448320D01*
X-14705595Y-48495940D01*
X-14657976Y-48543559D01*
X-13800833Y-49448320D02*
X-13800833Y-48924511D01*
X-13848452Y-48829273D01*
X-13943690Y-48781654D01*
X-14134166Y-48781654D01*
X-14229404Y-48829273D01*
X-13800833Y-49400701D02*
X-13896071Y-49448320D01*
X-14134166Y-49448320D01*
X-14229404Y-49400701D01*
X-14277023Y-49305463D01*
X-14277023Y-49210225D01*
X-14229404Y-49114987D01*
X-14134166Y-49067368D01*
X-13896071Y-49067368D01*
X-13800833Y-49019749D01*
X-13324642Y-49448320D02*
X-13324642Y-48781654D01*
X-13324642Y-48972130D02*
X-13277023Y-48876892D01*
X-13229404Y-48829273D01*
X-13134166Y-48781654D01*
X-13038928Y-48781654D01*
X-12848452Y-48781654D02*
X-12467500Y-48781654D01*
X-12705595Y-48448320D02*
X-12705595Y-49305463D01*
X-12657976Y-49400701D01*
X-12562738Y-49448320D01*
X-12467500Y-49448320D01*
X-11753214Y-49400701D02*
X-11848452Y-49448320D01*
X-12038928Y-49448320D01*
X-12134166Y-49400701D01*
X-12181785Y-49305463D01*
X-12181785Y-48924511D01*
X-12134166Y-48829273D01*
X-12038928Y-48781654D01*
X-11848452Y-48781654D01*
X-11753214Y-48829273D01*
X-11705595Y-48924511D01*
X-11705595Y-49019749D01*
X-12181785Y-49114987D01*
X-10515119Y-49353082D02*
X-10467500Y-49400701D01*
X-10515119Y-49448320D01*
X-10562738Y-49400701D01*
X-10515119Y-49353082D01*
X-10515119Y-49448320D01*
X-10515119Y-48829273D02*
X-10467500Y-48876892D01*
X-10515119Y-48924511D01*
X-10562738Y-48876892D01*
X-10515119Y-48829273D01*
X-10515119Y-48924511D01*
X29603928Y-53924511D02*
X29270595Y-53924511D01*
X29270595Y-54448320D02*
X29270595Y-53448320D01*
X29746785Y-53448320D01*
X30556309Y-54448320D02*
X30556309Y-53924511D01*
X30508690Y-53829273D01*
X30413452Y-53781654D01*
X30222976Y-53781654D01*
X30127738Y-53829273D01*
X30556309Y-54400701D02*
X30461071Y-54448320D01*
X30222976Y-54448320D01*
X30127738Y-54400701D01*
X30080119Y-54305463D01*
X30080119Y-54210225D01*
X30127738Y-54114987D01*
X30222976Y-54067368D01*
X30461071Y-54067368D01*
X30556309Y-54019749D01*
X31032500Y-54448320D02*
X31032500Y-53781654D01*
X31032500Y-53448320D02*
X30984880Y-53495940D01*
X31032500Y-53543559D01*
X31080119Y-53495940D01*
X31032500Y-53448320D01*
X31032500Y-53543559D01*
X31365833Y-53781654D02*
X31746785Y-53781654D01*
X31508690Y-53448320D02*
X31508690Y-54305463D01*
X31556309Y-54400701D01*
X31651547Y-54448320D01*
X31746785Y-54448320D01*
X32842023Y-53781654D02*
X32842023Y-54781654D01*
X32842023Y-53829273D02*
X32937261Y-53781654D01*
X33127738Y-53781654D01*
X33222976Y-53829273D01*
X33270595Y-53876892D01*
X33318214Y-53972130D01*
X33318214Y-54257844D01*
X33270595Y-54353082D01*
X33222976Y-54400701D01*
X33127738Y-54448320D01*
X32937261Y-54448320D01*
X32842023Y-54400701D01*
X34175357Y-54448320D02*
X34175357Y-53924511D01*
X34127738Y-53829273D01*
X34032500Y-53781654D01*
X33842023Y-53781654D01*
X33746785Y-53829273D01*
X34175357Y-54400701D02*
X34080119Y-54448320D01*
X33842023Y-54448320D01*
X33746785Y-54400701D01*
X33699166Y-54305463D01*
X33699166Y-54210225D01*
X33746785Y-54114987D01*
X33842023Y-54067368D01*
X34080119Y-54067368D01*
X34175357Y-54019749D01*
X34651547Y-54448320D02*
X34651547Y-53781654D01*
X34651547Y-53972130D02*
X34699166Y-53876892D01*
X34746785Y-53829273D01*
X34842023Y-53781654D01*
X34937261Y-53781654D01*
X36032500Y-54353082D02*
X36080119Y-54400701D01*
X36032500Y-54448320D01*
X35984880Y-54400701D01*
X36032500Y-54353082D01*
X36032500Y-54448320D01*
X36032500Y-53829273D02*
X36080119Y-53876892D01*
X36032500Y-53924511D01*
X35984880Y-53876892D01*
X36032500Y-53829273D01*
X36032500Y-53924511D01*
X37603928Y-53924511D02*
X37270595Y-53924511D01*
X37270595Y-54448320D02*
X37270595Y-53448320D01*
X37746785Y-53448320D01*
X38127738Y-53924511D02*
X38461071Y-53924511D01*
X38603928Y-54448320D02*
X38127738Y-54448320D01*
X38127738Y-53448320D01*
X38603928Y-53448320D01*
X39032500Y-53924511D02*
X39365833Y-53924511D01*
X39508690Y-54448320D02*
X39032500Y-54448320D01*
X39032500Y-53448320D01*
X39508690Y-53448320D01*
X-14657976Y-54353082D02*
X-14705595Y-54400701D01*
X-14848452Y-54448320D01*
X-14943690Y-54448320D01*
X-15086547Y-54400701D01*
X-15181785Y-54305463D01*
X-15229404Y-54210225D01*
X-15277023Y-54019749D01*
X-15277023Y-53876892D01*
X-15229404Y-53686416D01*
X-15181785Y-53591178D01*
X-15086547Y-53495940D01*
X-14943690Y-53448320D01*
X-14848452Y-53448320D01*
X-14705595Y-53495940D01*
X-14657976Y-53543559D01*
X-14086547Y-54448320D02*
X-14181785Y-54400701D01*
X-14229404Y-54305463D01*
X-14229404Y-53448320D01*
X-13705595Y-54448320D02*
X-13705595Y-53781654D01*
X-13705595Y-53448320D02*
X-13753214Y-53495940D01*
X-13705595Y-53543559D01*
X-13657976Y-53495940D01*
X-13705595Y-53448320D01*
X-13705595Y-53543559D01*
X-12848452Y-54400701D02*
X-12943690Y-54448320D01*
X-13134166Y-54448320D01*
X-13229404Y-54400701D01*
X-13277023Y-54305463D01*
X-13277023Y-53924511D01*
X-13229404Y-53829273D01*
X-13134166Y-53781654D01*
X-12943690Y-53781654D01*
X-12848452Y-53829273D01*
X-12800833Y-53924511D01*
X-12800833Y-54019749D01*
X-13277023Y-54114987D01*
X-12372261Y-53781654D02*
X-12372261Y-54448320D01*
X-12372261Y-53876892D02*
X-12324642Y-53829273D01*
X-12229404Y-53781654D01*
X-12086547Y-53781654D01*
X-11991309Y-53829273D01*
X-11943690Y-53924511D01*
X-11943690Y-54448320D01*
X-11610357Y-53781654D02*
X-11229404Y-53781654D01*
X-11467500Y-53448320D02*
X-11467500Y-54305463D01*
X-11419880Y-54400701D01*
X-11324642Y-54448320D01*
X-11229404Y-54448320D01*
X-10134166Y-54353082D02*
X-10086547Y-54400701D01*
X-10134166Y-54448320D01*
X-10181785Y-54400701D01*
X-10134166Y-54353082D01*
X-10134166Y-54448320D01*
X-10134166Y-53829273D02*
X-10086547Y-53876892D01*
X-10134166Y-53924511D01*
X-10181785Y-53876892D01*
X-10134166Y-53829273D01*
X-10134166Y-53924511D01*
X-63290238Y-52158491D02*
X-63623571Y-52158491D01*
X-63623571Y-52682300D02*
X-63623571Y-51682300D01*
X-63147380Y-51682300D01*
X-62766428Y-52682300D02*
X-62766428Y-52015634D01*
X-62766428Y-52206110D02*
X-62718809Y-52110872D01*
X-62671190Y-52063253D01*
X-62575952Y-52015634D01*
X-62480714Y-52015634D01*
X-61718809Y-52682300D02*
X-61718809Y-52158491D01*
X-61766428Y-52063253D01*
X-61861666Y-52015634D01*
X-62052142Y-52015634D01*
X-62147380Y-52063253D01*
X-61718809Y-52634681D02*
X-61814047Y-52682300D01*
X-62052142Y-52682300D01*
X-62147380Y-52634681D01*
X-62195000Y-52539443D01*
X-62195000Y-52444205D01*
X-62147380Y-52348967D01*
X-62052142Y-52301348D01*
X-61814047Y-52301348D01*
X-61718809Y-52253729D01*
X-61242619Y-52015634D02*
X-61242619Y-52682300D01*
X-61242619Y-52110872D02*
X-61195000Y-52063253D01*
X-61099761Y-52015634D01*
X-60956904Y-52015634D01*
X-60861666Y-52063253D01*
X-60814047Y-52158491D01*
X-60814047Y-52682300D01*
X-59909285Y-52634681D02*
X-60004523Y-52682300D01*
X-60195000Y-52682300D01*
X-60290238Y-52634681D01*
X-60337857Y-52587062D01*
X-60385476Y-52491824D01*
X-60385476Y-52206110D01*
X-60337857Y-52110872D01*
X-60290238Y-52063253D01*
X-60195000Y-52015634D01*
X-60004523Y-52015634D01*
X-59909285Y-52063253D01*
X-59099761Y-52634681D02*
X-59195000Y-52682300D01*
X-59385476Y-52682300D01*
X-59480714Y-52634681D01*
X-59528333Y-52539443D01*
X-59528333Y-52158491D01*
X-59480714Y-52063253D01*
X-59385476Y-52015634D01*
X-59195000Y-52015634D01*
X-59099761Y-52063253D01*
X-59052142Y-52158491D01*
X-59052142Y-52253729D01*
X-59528333Y-52348967D01*
X-57861666Y-52158491D02*
X-57528333Y-52158491D01*
X-57385476Y-52682300D02*
X-57861666Y-52682300D01*
X-57861666Y-51682300D01*
X-57385476Y-51682300D01*
X-57099761Y-52015634D02*
X-56718809Y-52015634D01*
X-56956904Y-51682300D02*
X-56956904Y-52539443D01*
X-56909285Y-52634681D01*
X-56814047Y-52682300D01*
X-56718809Y-52682300D01*
X-55956904Y-52015634D02*
X-55956904Y-52682300D01*
X-56385476Y-52015634D02*
X-56385476Y-52539443D01*
X-56337857Y-52634681D01*
X-56242619Y-52682300D01*
X-56099761Y-52682300D01*
X-56004523Y-52634681D01*
X-55956904Y-52587062D01*
X-55052142Y-52682300D02*
X-55052142Y-51682300D01*
X-55052142Y-52634681D02*
X-55147380Y-52682300D01*
X-55337857Y-52682300D01*
X-55433095Y-52634681D01*
X-55480714Y-52587062D01*
X-55528333Y-52491824D01*
X-55528333Y-52206110D01*
X-55480714Y-52110872D01*
X-55433095Y-52063253D01*
X-55337857Y-52015634D01*
X-55147380Y-52015634D01*
X-55052142Y-52063253D01*
X-54195000Y-52634681D02*
X-54290238Y-52682300D01*
X-54480714Y-52682300D01*
X-54575952Y-52634681D01*
X-54623571Y-52539443D01*
X-54623571Y-52158491D01*
X-54575952Y-52063253D01*
X-54480714Y-52015634D01*
X-54290238Y-52015634D01*
X-54195000Y-52063253D01*
X-54147380Y-52158491D01*
X-54147380Y-52253729D01*
X-54623571Y-52348967D01*
X-53766428Y-52634681D02*
X-53671190Y-52682300D01*
X-53480714Y-52682300D01*
X-53385476Y-52634681D01*
X-53337857Y-52539443D01*
X-53337857Y-52491824D01*
X-53385476Y-52396586D01*
X-53480714Y-52348967D01*
X-53623571Y-52348967D01*
X-53718809Y-52301348D01*
X-53766428Y-52206110D01*
X-53766428Y-52158491D01*
X-53718809Y-52063253D01*
X-53623571Y-52015634D01*
X-53480714Y-52015634D01*
X-53385476Y-52063253D01*
X-52147380Y-52158491D02*
X-51814047Y-52158491D01*
X-51671190Y-52682300D02*
X-52147380Y-52682300D01*
X-52147380Y-51682300D01*
X-51671190Y-51682300D01*
X-51099761Y-52682300D02*
X-51195000Y-52634681D01*
X-51242619Y-52539443D01*
X-51242619Y-51682300D01*
X-50337857Y-52634681D02*
X-50433095Y-52682300D01*
X-50623571Y-52682300D01*
X-50718809Y-52634681D01*
X-50766428Y-52539443D01*
X-50766428Y-52158491D01*
X-50718809Y-52063253D01*
X-50623571Y-52015634D01*
X-50433095Y-52015634D01*
X-50337857Y-52063253D01*
X-50290238Y-52158491D01*
X-50290238Y-52253729D01*
X-50766428Y-52348967D01*
X-49433095Y-52634681D02*
X-49528333Y-52682300D01*
X-49718809Y-52682300D01*
X-49814047Y-52634681D01*
X-49861666Y-52587062D01*
X-49909285Y-52491824D01*
X-49909285Y-52206110D01*
X-49861666Y-52110872D01*
X-49814047Y-52063253D01*
X-49718809Y-52015634D01*
X-49528333Y-52015634D01*
X-49433095Y-52063253D01*
X-49147380Y-52015634D02*
X-48766428Y-52015634D01*
X-49004523Y-51682300D02*
X-49004523Y-52539443D01*
X-48956904Y-52634681D01*
X-48861666Y-52682300D01*
X-48766428Y-52682300D01*
X-48433095Y-52682300D02*
X-48433095Y-52015634D01*
X-48433095Y-52206110D02*
X-48385476Y-52110872D01*
X-48337857Y-52063253D01*
X-48242619Y-52015634D01*
X-48147380Y-52015634D01*
X-47671190Y-52682300D02*
X-47766428Y-52634681D01*
X-47814047Y-52587062D01*
X-47861666Y-52491824D01*
X-47861666Y-52206110D01*
X-47814047Y-52110872D01*
X-47766428Y-52063253D01*
X-47671190Y-52015634D01*
X-47528333Y-52015634D01*
X-47433095Y-52063253D01*
X-47385476Y-52110872D01*
X-47337857Y-52206110D01*
X-47337857Y-52491824D01*
X-47385476Y-52587062D01*
X-47433095Y-52634681D01*
X-47528333Y-52682300D01*
X-47671190Y-52682300D01*
X-46909285Y-52015634D02*
X-46909285Y-52682300D01*
X-46909285Y-52110872D02*
X-46861666Y-52063253D01*
X-46766428Y-52015634D01*
X-46623571Y-52015634D01*
X-46528333Y-52063253D01*
X-46480714Y-52158491D01*
X-46480714Y-52682300D01*
X-46004523Y-52682300D02*
X-46004523Y-52015634D01*
X-46004523Y-51682300D02*
X-46052142Y-51729920D01*
X-46004523Y-51777539D01*
X-45956904Y-51729920D01*
X-46004523Y-51682300D01*
X-46004523Y-51777539D01*
X-45099761Y-52015634D02*
X-45099761Y-53015634D01*
X-45099761Y-52634681D02*
X-45195000Y-52682300D01*
X-45385476Y-52682300D01*
X-45480714Y-52634681D01*
X-45528333Y-52587062D01*
X-45575952Y-52491824D01*
X-45575952Y-52206110D01*
X-45528333Y-52110872D01*
X-45480714Y-52063253D01*
X-45385476Y-52015634D01*
X-45195000Y-52015634D01*
X-45099761Y-52063253D01*
X-44195000Y-52015634D02*
X-44195000Y-52682300D01*
X-44623571Y-52015634D02*
X-44623571Y-52539443D01*
X-44575952Y-52634681D01*
X-44480714Y-52682300D01*
X-44337857Y-52682300D01*
X-44242619Y-52634681D01*
X-44195000Y-52587062D01*
X-43337857Y-52634681D02*
X-43433095Y-52682300D01*
X-43623571Y-52682300D01*
X-43718809Y-52634681D01*
X-43766428Y-52539443D01*
X-43766428Y-52158491D01*
X-43718809Y-52063253D01*
X-43623571Y-52015634D01*
X-43433095Y-52015634D01*
X-43337857Y-52063253D01*
X-43290238Y-52158491D01*
X-43290238Y-52253729D01*
X-43766428Y-52348967D01*
X-42909285Y-52634681D02*
X-42814047Y-52682300D01*
X-42623571Y-52682300D01*
X-42528333Y-52634681D01*
X-42480714Y-52539443D01*
X-42480714Y-52491824D01*
X-42528333Y-52396586D01*
X-42623571Y-52348967D01*
X-42766428Y-52348967D01*
X-42861666Y-52301348D01*
X-42909285Y-52206110D01*
X-42909285Y-52158491D01*
X-42861666Y-52063253D01*
X-42766428Y-52015634D01*
X-42623571Y-52015634D01*
X-42528333Y-52063253D01*
X29127738Y-48448320D02*
X29461071Y-49448320D01*
X29794404Y-48448320D01*
X30508690Y-49400701D02*
X30413452Y-49448320D01*
X30222976Y-49448320D01*
X30127738Y-49400701D01*
X30080119Y-49305463D01*
X30080119Y-48924511D01*
X30127738Y-48829273D01*
X30222976Y-48781654D01*
X30413452Y-48781654D01*
X30508690Y-48829273D01*
X30556309Y-48924511D01*
X30556309Y-49019749D01*
X30080119Y-49114987D01*
X30984880Y-49448320D02*
X30984880Y-48781654D01*
X30984880Y-48972130D02*
X31032500Y-48876892D01*
X31080119Y-48829273D01*
X31175357Y-48781654D01*
X31270595Y-48781654D01*
X31603928Y-48781654D02*
X31603928Y-49448320D01*
X31603928Y-48876892D02*
X31651547Y-48829273D01*
X31746785Y-48781654D01*
X31889642Y-48781654D01*
X31984880Y-48829273D01*
X32032500Y-48924511D01*
X32032500Y-49448320D01*
X32508690Y-49448320D02*
X32508690Y-48781654D01*
X32508690Y-48448320D02*
X32461071Y-48495940D01*
X32508690Y-48543559D01*
X32556309Y-48495940D01*
X32508690Y-48448320D01*
X32508690Y-48543559D01*
X32937261Y-49400701D02*
X33032500Y-49448320D01*
X33222976Y-49448320D01*
X33318214Y-49400701D01*
X33365833Y-49305463D01*
X33365833Y-49257844D01*
X33318214Y-49162606D01*
X33222976Y-49114987D01*
X33080119Y-49114987D01*
X32984880Y-49067368D01*
X32937261Y-48972130D01*
X32937261Y-48924511D01*
X32984880Y-48829273D01*
X33080119Y-48781654D01*
X33222976Y-48781654D01*
X33318214Y-48829273D01*
X34937261Y-49400701D02*
X34842023Y-49448320D01*
X34651547Y-49448320D01*
X34556309Y-49400701D01*
X34508690Y-49305463D01*
X34508690Y-48924511D01*
X34556309Y-48829273D01*
X34651547Y-48781654D01*
X34842023Y-48781654D01*
X34937261Y-48829273D01*
X34984880Y-48924511D01*
X34984880Y-49019749D01*
X34508690Y-49114987D01*
X35413452Y-48781654D02*
X35413452Y-49781654D01*
X35413452Y-48829273D02*
X35508690Y-48781654D01*
X35699166Y-48781654D01*
X35794404Y-48829273D01*
X35842023Y-48876892D01*
X35889642Y-48972130D01*
X35889642Y-49257844D01*
X35842023Y-49353082D01*
X35794404Y-49400701D01*
X35699166Y-49448320D01*
X35508690Y-49448320D01*
X35413452Y-49400701D01*
X36746785Y-49448320D02*
X36746785Y-48924511D01*
X36699166Y-48829273D01*
X36603928Y-48781654D01*
X36413452Y-48781654D01*
X36318214Y-48829273D01*
X36746785Y-49400701D02*
X36651547Y-49448320D01*
X36413452Y-49448320D01*
X36318214Y-49400701D01*
X36270595Y-49305463D01*
X36270595Y-49210225D01*
X36318214Y-49114987D01*
X36413452Y-49067368D01*
X36651547Y-49067368D01*
X36746785Y-49019749D01*
X37222976Y-49448320D02*
X37222976Y-48781654D01*
X37222976Y-48972130D02*
X37270595Y-48876892D01*
X37318214Y-48829273D01*
X37413452Y-48781654D01*
X37508690Y-48781654D01*
X38270595Y-48781654D02*
X38270595Y-49591178D01*
X38222976Y-49686416D01*
X38175357Y-49734035D01*
X38080119Y-49781654D01*
X37937261Y-49781654D01*
X37842023Y-49734035D01*
X38270595Y-49400701D02*
X38175357Y-49448320D01*
X37984880Y-49448320D01*
X37889642Y-49400701D01*
X37842023Y-49353082D01*
X37794404Y-49257844D01*
X37794404Y-48972130D01*
X37842023Y-48876892D01*
X37889642Y-48829273D01*
X37984880Y-48781654D01*
X38175357Y-48781654D01*
X38270595Y-48829273D01*
X38746785Y-48781654D02*
X38746785Y-49448320D01*
X38746785Y-48876892D02*
X38794404Y-48829273D01*
X38889642Y-48781654D01*
X39032500Y-48781654D01*
X39127738Y-48829273D01*
X39175357Y-48924511D01*
X39175357Y-49448320D01*
X40032500Y-49400701D02*
X39937261Y-49448320D01*
X39746785Y-49448320D01*
X39651547Y-49400701D01*
X39603928Y-49305463D01*
X39603928Y-48924511D01*
X39651547Y-48829273D01*
X39746785Y-48781654D01*
X39937261Y-48781654D01*
X40032500Y-48829273D01*
X40080119Y-48924511D01*
X40080119Y-49019749D01*
X39603928Y-49114987D01*
X41127738Y-48781654D02*
X41508690Y-48781654D01*
X41270595Y-49448320D02*
X41270595Y-48591178D01*
X41318214Y-48495940D01*
X41413452Y-48448320D01*
X41508690Y-48448320D01*
X42270595Y-49448320D02*
X42270595Y-48924511D01*
X42222976Y-48829273D01*
X42127738Y-48781654D01*
X41937261Y-48781654D01*
X41842023Y-48829273D01*
X42270595Y-49400701D02*
X42175357Y-49448320D01*
X41937261Y-49448320D01*
X41842023Y-49400701D01*
X41794404Y-49305463D01*
X41794404Y-49210225D01*
X41842023Y-49114987D01*
X41937261Y-49067368D01*
X42175357Y-49067368D01*
X42270595Y-49019749D01*
X43175357Y-49400701D02*
X43080119Y-49448320D01*
X42889642Y-49448320D01*
X42794404Y-49400701D01*
X42746785Y-49353082D01*
X42699166Y-49257844D01*
X42699166Y-48972130D01*
X42746785Y-48876892D01*
X42794404Y-48829273D01*
X42889642Y-48781654D01*
X43080119Y-48781654D01*
X43175357Y-48829273D01*
X43984880Y-49400701D02*
X43889642Y-49448320D01*
X43699166Y-49448320D01*
X43603928Y-49400701D01*
X43556309Y-49305463D01*
X43556309Y-48924511D01*
X43603928Y-48829273D01*
X43699166Y-48781654D01*
X43889642Y-48781654D01*
X43984880Y-48829273D01*
X44032500Y-48924511D01*
X44032500Y-49019749D01*
X43556309Y-49114987D01*
X45651547Y-49400701D02*
X45556309Y-49448320D01*
X45365833Y-49448320D01*
X45270595Y-49400701D01*
X45222976Y-49353082D01*
X45175357Y-49257844D01*
X45175357Y-48972130D01*
X45222976Y-48876892D01*
X45270595Y-48829273D01*
X45365833Y-48781654D01*
X45556309Y-48781654D01*
X45651547Y-48829273D01*
X46222976Y-49448320D02*
X46127738Y-49400701D01*
X46080119Y-49353082D01*
X46032500Y-49257844D01*
X46032500Y-48972130D01*
X46080119Y-48876892D01*
X46127738Y-48829273D01*
X46222976Y-48781654D01*
X46365833Y-48781654D01*
X46461071Y-48829273D01*
X46508690Y-48876892D01*
X46556309Y-48972130D01*
X46556309Y-49257844D01*
X46508690Y-49353082D01*
X46461071Y-49400701D01*
X46365833Y-49448320D01*
X46222976Y-49448320D01*
X46984880Y-49448320D02*
X46984880Y-48781654D01*
X46984880Y-48876892D02*
X47032500Y-48829273D01*
X47127738Y-48781654D01*
X47270595Y-48781654D01*
X47365833Y-48829273D01*
X47413452Y-48924511D01*
X47413452Y-49448320D01*
X47413452Y-48924511D02*
X47461071Y-48829273D01*
X47556309Y-48781654D01*
X47699166Y-48781654D01*
X47794404Y-48829273D01*
X47842023Y-48924511D01*
X47842023Y-49448320D01*
X48318214Y-48781654D02*
X48318214Y-49781654D01*
X48318214Y-48829273D02*
X48413452Y-48781654D01*
X48603928Y-48781654D01*
X48699166Y-48829273D01*
X48746785Y-48876892D01*
X48794404Y-48972130D01*
X48794404Y-49257844D01*
X48746785Y-49353082D01*
X48699166Y-49400701D01*
X48603928Y-49448320D01*
X48413452Y-49448320D01*
X48318214Y-49400701D01*
X49365833Y-49448320D02*
X49270595Y-49400701D01*
X49222976Y-49353082D01*
X49175357Y-49257844D01*
X49175357Y-48972130D01*
X49222976Y-48876892D01*
X49270595Y-48829273D01*
X49365833Y-48781654D01*
X49508690Y-48781654D01*
X49603928Y-48829273D01*
X49651547Y-48876892D01*
X49699166Y-48972130D01*
X49699166Y-49257844D01*
X49651547Y-49353082D01*
X49603928Y-49400701D01*
X49508690Y-49448320D01*
X49365833Y-49448320D01*
X50080119Y-49400701D02*
X50175357Y-49448320D01*
X50365833Y-49448320D01*
X50461071Y-49400701D01*
X50508690Y-49305463D01*
X50508690Y-49257844D01*
X50461071Y-49162606D01*
X50365833Y-49114987D01*
X50222976Y-49114987D01*
X50127738Y-49067368D01*
X50080119Y-48972130D01*
X50080119Y-48924511D01*
X50127738Y-48829273D01*
X50222976Y-48781654D01*
X50365833Y-48781654D01*
X50461071Y-48829273D01*
X51365833Y-49448320D02*
X51365833Y-48924511D01*
X51318214Y-48829273D01*
X51222976Y-48781654D01*
X51032499Y-48781654D01*
X50937261Y-48829273D01*
X51365833Y-49400701D02*
X51270595Y-49448320D01*
X51032499Y-49448320D01*
X50937261Y-49400701D01*
X50889642Y-49305463D01*
X50889642Y-49210225D01*
X50937261Y-49114987D01*
X51032499Y-49067368D01*
X51270595Y-49067368D01*
X51365833Y-49019749D01*
X51842023Y-48781654D02*
X51842023Y-49448320D01*
X51842023Y-48876892D02*
X51889642Y-48829273D01*
X51984880Y-48781654D01*
X52127738Y-48781654D01*
X52222976Y-48829273D01*
X52270595Y-48924511D01*
X52270595Y-49448320D01*
X52603928Y-48781654D02*
X52984880Y-48781654D01*
X52746785Y-48448320D02*
X52746785Y-49305463D01*
X52794404Y-49400701D01*
X52889642Y-49448320D01*
X52984880Y-49448320D01*
X53270595Y-49400701D02*
X53365833Y-49448320D01*
X53556309Y-49448320D01*
X53651547Y-49400701D01*
X53699166Y-49305463D01*
X53699166Y-49257844D01*
X53651547Y-49162606D01*
X53556309Y-49114987D01*
X53413452Y-49114987D01*
X53318214Y-49067368D01*
X53270595Y-48972130D01*
X53270595Y-48924511D01*
X53318214Y-48829273D01*
X53413452Y-48781654D01*
X53556309Y-48781654D01*
X53651547Y-48829273D01*
D12*
G36*
X153680000Y-47800000D02*
G01*
X153680000Y-46200000D01*
X155280000Y-46200000D01*
X155273585Y-46303658D01*
X155260665Y-46406707D01*
X155241291Y-46508740D01*
X155215539Y-46609352D01*
X155183512Y-46708147D01*
X155145336Y-46804731D01*
X155101162Y-46898725D01*
X155051166Y-46989755D01*
X154995544Y-47077460D01*
X154934518Y-47161495D01*
X154868328Y-47241526D01*
X154797237Y-47317237D01*
X154721526Y-47388328D01*
X154641495Y-47454518D01*
X154557460Y-47515544D01*
X154469755Y-47571166D01*
X154378725Y-47621162D01*
X154284731Y-47665336D01*
X154188147Y-47703512D01*
X154089352Y-47735539D01*
X153988740Y-47761291D01*
X153886707Y-47780665D01*
X153783658Y-47793585D01*
X153680000Y-47800000D01*
G37*
G36*
X153680000Y-44600000D02*
G01*
X153680000Y-46200000D01*
X152080000Y-46200000D01*
X152086415Y-46096342D01*
X152099335Y-45993293D01*
X152118709Y-45891260D01*
X152144461Y-45790648D01*
X152176488Y-45691853D01*
X152214664Y-45595269D01*
X152258838Y-45501275D01*
X152308834Y-45410245D01*
X152364456Y-45322540D01*
X152425482Y-45238505D01*
X152491672Y-45158474D01*
X152562763Y-45082763D01*
X152638474Y-45011672D01*
X152718505Y-44945482D01*
X152802540Y-44884456D01*
X152890245Y-44828834D01*
X152981275Y-44778838D01*
X153075269Y-44734664D01*
X153171853Y-44696488D01*
X153270648Y-44664461D01*
X153371260Y-44638709D01*
X153473293Y-44619335D01*
X153576342Y-44606415D01*
X153680000Y-44600000D01*
G37*
G36*
X153680000Y104600000D02*
G01*
X153680000Y106200000D01*
X155280000Y106200000D01*
X155273585Y106096342D01*
X155260665Y105993293D01*
X155241291Y105891260D01*
X155215539Y105790648D01*
X155183512Y105691853D01*
X155145336Y105595269D01*
X155101162Y105501275D01*
X155051166Y105410245D01*
X154995544Y105322540D01*
X154934518Y105238505D01*
X154868328Y105158474D01*
X154797237Y105082763D01*
X154721526Y105011672D01*
X154641495Y104945482D01*
X154557460Y104884456D01*
X154469755Y104828834D01*
X154378725Y104778838D01*
X154284731Y104734664D01*
X154188147Y104696488D01*
X154089352Y104664461D01*
X153988740Y104638709D01*
X153886707Y104619335D01*
X153783658Y104606415D01*
X153680000Y104600000D01*
G37*
G36*
X153680000Y107800000D02*
G01*
X153680000Y106200000D01*
X152080000Y106200000D01*
X152086415Y106303658D01*
X152099335Y106406707D01*
X152118709Y106508740D01*
X152144461Y106609352D01*
X152176488Y106708147D01*
X152214664Y106804731D01*
X152258838Y106898725D01*
X152308834Y106989755D01*
X152364456Y107077460D01*
X152425482Y107161495D01*
X152491672Y107241526D01*
X152562763Y107317237D01*
X152638474Y107388328D01*
X152718505Y107454518D01*
X152802540Y107515544D01*
X152890245Y107571166D01*
X152981275Y107621162D01*
X153075269Y107665336D01*
X153171853Y107703512D01*
X153270648Y107735539D01*
X153371260Y107761291D01*
X153473293Y107780665D01*
X153576342Y107793585D01*
X153680000Y107800000D01*
G37*
G36*
X-59680000Y104600000D02*
G01*
X-59680000Y106200000D01*
X-58080000Y106200000D01*
X-58086414Y106096342D01*
X-58099334Y105993293D01*
X-58118708Y105891260D01*
X-58144459Y105790647D01*
X-58176486Y105691852D01*
X-58214662Y105595267D01*
X-58258835Y105501273D01*
X-58308832Y105410244D01*
X-58364453Y105322537D01*
X-58425479Y105238502D01*
X-58491669Y105158471D01*
X-58562760Y105082760D01*
X-58638471Y105011669D01*
X-58718502Y104945479D01*
X-58802537Y104884453D01*
X-58890244Y104828832D01*
X-58981273Y104778835D01*
X-59075267Y104734662D01*
X-59171852Y104696486D01*
X-59270647Y104664459D01*
X-59371260Y104638708D01*
X-59473293Y104619334D01*
X-59576342Y104606414D01*
X-59680000Y104600000D01*
G37*
G36*
X-59680000Y107800000D02*
G01*
X-59680000Y106200000D01*
X-61280000Y106200000D01*
X-61273585Y106303657D01*
X-61260664Y106406706D01*
X-61241289Y106508739D01*
X-61215537Y106609351D01*
X-61183509Y106708145D01*
X-61145333Y106804730D01*
X-61101159Y106898723D01*
X-61051163Y106989753D01*
X-60995541Y107077458D01*
X-60934515Y107161493D01*
X-60868326Y107241524D01*
X-60797235Y107317235D01*
X-60721524Y107388326D01*
X-60641493Y107454515D01*
X-60557458Y107515541D01*
X-60469753Y107571163D01*
X-60378723Y107621159D01*
X-60284730Y107665333D01*
X-60188145Y107703509D01*
X-60089351Y107735537D01*
X-59988739Y107761289D01*
X-59886706Y107780664D01*
X-59783657Y107793585D01*
X-59680000Y107800000D01*
G37*
G36*
X-53000290Y-47905830D02*
G01*
X-53018022Y-47796972D01*
X-53050534Y-47691580D01*
X-53097212Y-47591651D01*
X-53157169Y-47499079D01*
X-53229271Y-47415617D01*
X-53312151Y-47342847D01*
X-53404239Y-47282148D01*
X-53503790Y-47234670D01*
X-53406123Y-47211250D01*
X-53310940Y-47179198D01*
X-53219001Y-47138768D01*
X-53131042Y-47090286D01*
X-53047767Y-47034139D01*
X-52969841Y-46970776D01*
X-52897889Y-46900704D01*
X-52832486Y-46824483D01*
X-52774154Y-46742723D01*
X-52723361Y-46656078D01*
X-52680512Y-46565242D01*
X-52645952Y-46470940D01*
X-52619955Y-46373927D01*
X-52602730Y-46274980D01*
X-52136200Y-46209420D01*
X-52033992Y-46201001D01*
X-51931564Y-46206065D01*
X-51830685Y-46224527D01*
X-51733101Y-46256066D01*
X-51640500Y-46300137D01*
X-51554482Y-46355978D01*
X-51476535Y-46422624D01*
X-51408008Y-46498921D01*
X-51350084Y-46583551D01*
X-51303767Y-46675049D01*
X-51269856Y-46771834D01*
X-51248938Y-46872232D01*
X-51241375Y-46974507D01*
X-51247298Y-47076889D01*
X-51266604Y-47177610D01*
X-51298959Y-47274926D01*
X-51343805Y-47367155D01*
X-51400365Y-47452702D01*
X-51467661Y-47530087D01*
X-51544529Y-47597973D01*
X-51629641Y-47655186D01*
X-51721525Y-47700735D01*
X-51818590Y-47733834D01*
X-51919160Y-47753910D01*
X-53000290Y-47905830D01*
G37*
G36*
X-56569590Y-49404900D02*
G01*
X-53686550Y-48999750D01*
X-53583022Y-48979279D01*
X-53482865Y-48946026D01*
X-53387651Y-48900513D01*
X-53298874Y-48843454D01*
X-53217927Y-48775744D01*
X-53146079Y-48698445D01*
X-53084459Y-48612771D01*
X-53034033Y-48520066D01*
X-52995591Y-48421783D01*
X-52969739Y-48319466D01*
X-52956880Y-48214720D01*
X-52236130Y-48113440D01*
X-52133410Y-48120112D01*
X-52032204Y-48138912D01*
X-51933941Y-48169576D01*
X-51840005Y-48211671D01*
X-51751720Y-48264603D01*
X-51670332Y-48327627D01*
X-51596988Y-48399853D01*
X-51532722Y-48480264D01*
X-51478440Y-48567725D01*
X-51434908Y-48661004D01*
X-51402739Y-48758785D01*
X-51382386Y-48859690D01*
X-51374138Y-48962295D01*
X-51378109Y-49065156D01*
X-51394245Y-49166820D01*
X-51422317Y-49265855D01*
X-51461930Y-49360864D01*
X-51512525Y-49450509D01*
X-51573390Y-49533524D01*
X-51643664Y-49608740D01*
X-51722359Y-49675096D01*
X-51808365Y-49731656D01*
X-51900468Y-49777624D01*
X-51997370Y-49812350D01*
X-55601160Y-50318790D01*
X-55706664Y-50315790D01*
X-55811172Y-50301017D01*
X-55913374Y-50274656D01*
X-56011989Y-50237037D01*
X-56105782Y-50188633D01*
X-56193577Y-50130048D01*
X-56274275Y-50062018D01*
X-56346863Y-49985395D01*
X-56410433Y-49901139D01*
X-56464187Y-49810307D01*
X-56507452Y-49714035D01*
X-56539687Y-49613531D01*
X-56560486Y-49510054D01*
X-56569590Y-49404900D01*
G37*
G36*
X-62437040Y-43982000D02*
G01*
X-62449527Y-43882272D01*
X-62458996Y-43782213D01*
X-62465438Y-43681913D01*
X-62468847Y-43581464D01*
X-62469221Y-43480958D01*
X-62466559Y-43380487D01*
X-62460864Y-43280142D01*
X-62452140Y-43180015D01*
X-62440396Y-43080197D01*
X-62425643Y-42980779D01*
X-62407893Y-42881853D01*
X-62387163Y-42783507D01*
X-62363472Y-42685833D01*
X-62336841Y-42588918D01*
X-62307296Y-42492853D01*
X-62274862Y-42397723D01*
X-62239570Y-42303617D01*
X-62201451Y-42210620D01*
X-62160541Y-42118816D01*
X-62116876Y-42028290D01*
X-62070497Y-41939124D01*
X-62021446Y-41851400D01*
X-61969768Y-41765197D01*
X-61915509Y-41680595D01*
X-61858720Y-41597670D01*
X-61799452Y-41516498D01*
X-61737759Y-41437154D01*
X-61673698Y-41359709D01*
X-61607327Y-41284234D01*
X-61538706Y-41210799D01*
X-61467898Y-41139470D01*
X-61394969Y-41070312D01*
X-61319984Y-41003388D01*
X-61243011Y-40938760D01*
X-61164122Y-40876486D01*
X-61083387Y-40816624D01*
X-61000881Y-40759228D01*
X-60916679Y-40704349D01*
X-60830859Y-40652040D01*
X-60743497Y-40602346D01*
X-60654674Y-40555314D01*
X-60564471Y-40510986D01*
X-60472970Y-40469402D01*
X-60380255Y-40430602D01*
X-60286410Y-40394620D01*
X-60191521Y-40361489D01*
X-60095675Y-40331239D01*
X-59998959Y-40303898D01*
X-59901461Y-40279490D01*
X-59803270Y-40258039D01*
X-59704477Y-40239563D01*
X-59605170Y-40224080D01*
X-55486530Y-39645290D01*
X-55375223Y-39657770D01*
X-55267887Y-39689765D01*
X-55167913Y-39740264D01*
X-55078463Y-39807671D01*
X-55002365Y-39889854D01*
X-54942025Y-39984214D01*
X-54899350Y-40087770D01*
X-54889639Y-40190321D01*
X-54888386Y-40293324D01*
X-54895599Y-40396081D01*
X-54911229Y-40497899D01*
X-54935170Y-40598088D01*
X-54967262Y-40695972D01*
X-55007286Y-40790888D01*
X-55054972Y-40882196D01*
X-55109998Y-40969278D01*
X-55171992Y-41051545D01*
X-55240535Y-41128440D01*
X-55315163Y-41199445D01*
X-55395372Y-41264080D01*
X-55480620Y-41321906D01*
X-55570330Y-41372534D01*
X-55663896Y-41415621D01*
X-55760686Y-41450876D01*
X-55860044Y-41478060D01*
X-55961300Y-41496990D01*
X-58393750Y-41838820D01*
X-58501777Y-41875121D01*
X-58600423Y-41932186D01*
X-58685744Y-42007736D01*
X-58754331Y-42098750D01*
X-58803440Y-42201589D01*
X-58831108Y-42312142D01*
X-58836230Y-42425990D01*
X-51770330Y-41433040D01*
X-51670191Y-41424081D01*
X-51569773Y-41429005D01*
X-51470990Y-41447717D01*
X-51375728Y-41479860D01*
X-51285803Y-41524823D01*
X-51202931Y-41581746D01*
X-51128692Y-41649545D01*
X-51064502Y-41726925D01*
X-51011585Y-41812412D01*
X-50970952Y-41904374D01*
X-50943376Y-42001057D01*
X-50929385Y-42100618D01*
X-50929244Y-42201157D01*
X-50942957Y-42300757D01*
X-50970262Y-42397517D01*
X-51010638Y-42489592D01*
X-51063315Y-42575227D01*
X-51127288Y-42652786D01*
X-51201337Y-42720792D01*
X-51284050Y-42777947D01*
X-51373849Y-42823161D01*
X-51469020Y-42855572D01*
X-51567750Y-42874560D01*
X-59084250Y-43930840D01*
X-59176611Y-43973933D01*
X-59264967Y-44024733D01*
X-59348678Y-44082870D01*
X-59427135Y-44147923D01*
X-59499770Y-44219420D01*
X-59566054Y-44296840D01*
X-59625505Y-44379623D01*
X-59677694Y-44467167D01*
X-59722240Y-44558835D01*
X-59758820Y-44653963D01*
X-59787168Y-44751861D01*
X-59807079Y-44851816D01*
X-59818408Y-44953103D01*
X-59821073Y-45054987D01*
X-59815054Y-45156729D01*
X-59800396Y-45257588D01*
X-59777204Y-45356833D01*
X-59745647Y-45453744D01*
X-59705954Y-45547616D01*
X-59658413Y-45637768D01*
X-59603370Y-45723545D01*
X-59541224Y-45804325D01*
X-59472427Y-45879520D01*
X-59397477Y-45948586D01*
X-59316920Y-46011020D01*
X-59386106Y-46087348D01*
X-59448349Y-46169436D01*
X-59503172Y-46256655D01*
X-59550154Y-46348335D01*
X-59588936Y-46443774D01*
X-59619219Y-46542240D01*
X-59640773Y-46642978D01*
X-59653430Y-46745215D01*
X-59657095Y-46848168D01*
X-59651739Y-46951046D01*
X-59637403Y-47053062D01*
X-59614197Y-47153432D01*
X-59582299Y-47251387D01*
X-59541954Y-47346176D01*
X-59493472Y-47437071D01*
X-59437223Y-47523377D01*
X-59373639Y-47604431D01*
X-59303208Y-47679612D01*
X-59226470Y-47748343D01*
X-59144013Y-47810097D01*
X-59056470Y-47864400D01*
X-59132361Y-47936131D01*
X-59200351Y-48015391D01*
X-59259697Y-48101314D01*
X-59309751Y-48192962D01*
X-59349967Y-48289333D01*
X-59379905Y-48389376D01*
X-59399238Y-48491997D01*
X-59407755Y-48596075D01*
X-59405362Y-48700473D01*
X-59392087Y-48804052D01*
X-59368074Y-48905679D01*
X-59333585Y-49004245D01*
X-59288997Y-49098673D01*
X-59234797Y-49187932D01*
X-59171577Y-49271047D01*
X-59100028Y-49347109D01*
X-59020931Y-49415288D01*
X-58935150Y-49474840D01*
X-59034512Y-49494438D01*
X-59134361Y-49511383D01*
X-59234626Y-49525664D01*
X-59335236Y-49537271D01*
X-59436118Y-49546196D01*
X-59537203Y-49552432D01*
X-59638418Y-49555974D01*
X-59739691Y-49556820D01*
X-59840950Y-49554970D01*
X-59942125Y-49550425D01*
X-60043143Y-49543188D01*
X-60143932Y-49533265D01*
X-60244422Y-49520662D01*
X-60344540Y-49505387D01*
X-60444216Y-49487453D01*
X-60543380Y-49466872D01*
X-60641960Y-49443658D01*
X-60739887Y-49417828D01*
X-60837092Y-49389400D01*
X-60933506Y-49358395D01*
X-61029060Y-49324833D01*
X-61123687Y-49288740D01*
X-61217320Y-49250140D01*
X-61309891Y-49209061D01*
X-61401336Y-49165533D01*
X-61491590Y-49119585D01*
X-61580589Y-49071251D01*
X-61668270Y-49020564D01*
X-61754570Y-48967562D01*
X-61839428Y-48912280D01*
X-61922784Y-48854760D01*
X-62004580Y-48795040D01*
X-62084757Y-48733164D01*
X-62163258Y-48669175D01*
X-62240028Y-48603120D01*
X-62315012Y-48535044D01*
X-62388157Y-48464995D01*
X-62459412Y-48393025D01*
X-62528725Y-48319183D01*
X-62596048Y-48243522D01*
X-62661333Y-48166095D01*
X-62724533Y-48086958D01*
X-62785604Y-48006166D01*
X-62844503Y-47923777D01*
X-62901187Y-47839850D01*
X-62955617Y-47754443D01*
X-63007754Y-47667617D01*
X-63057561Y-47579434D01*
X-63105003Y-47489956D01*
X-63150045Y-47399247D01*
X-63192657Y-47307371D01*
X-63232808Y-47214394D01*
X-63270470Y-47120380D01*
X-63305615Y-47025397D01*
X-63338219Y-46929512D01*
X-63368259Y-46832793D01*
X-63395714Y-46735308D01*
X-63420563Y-46637128D01*
X-63442790Y-46538320D01*
X-63775580Y-44170110D01*
X-62437040Y-43982000D01*
G37*
G36*
X-52243750Y-45909530D02*
G01*
X-52646140Y-45966080D01*
X-52648810Y-45864600D01*
X-52664804Y-45764352D01*
X-52693846Y-45667080D01*
X-52735429Y-45574472D01*
X-52788833Y-45488139D01*
X-52853127Y-45409580D01*
X-52927197Y-45340160D01*
X-53009754Y-45281086D01*
X-53099363Y-45233384D01*
X-53194469Y-45197884D01*
X-53293417Y-45175201D01*
X-53394490Y-45165730D01*
X-53306592Y-45102808D01*
X-53227538Y-45029080D01*
X-53158649Y-44945776D01*
X-53101073Y-44854286D01*
X-53055772Y-44756138D01*
X-53023501Y-44652969D01*
X-53004800Y-44546500D01*
X-52446320Y-44468010D01*
X-52342433Y-44460439D01*
X-52238529Y-44467774D01*
X-52136736Y-44489865D01*
X-52039139Y-44526261D01*
X-51947737Y-44576215D01*
X-51864401Y-44638705D01*
X-51790839Y-44712450D01*
X-51728556Y-44795941D01*
X-51678829Y-44887467D01*
X-51642676Y-44985155D01*
X-51620837Y-45087002D01*
X-51613760Y-45190924D01*
X-51621590Y-45294792D01*
X-51644166Y-45396478D01*
X-51681025Y-45493901D01*
X-51731414Y-45585065D01*
X-51794299Y-45668102D01*
X-51868394Y-45741313D01*
X-51952180Y-45803197D01*
X-52043942Y-45852488D01*
X-52141800Y-45888176D01*
X-52243750Y-45909530D01*
G37*
D13*
X96000000Y-45000000D02*
X96000000Y-50000000D01*
X79000000Y-45000000D02*
X79000000Y-55000000D01*
X52500000Y-50000000D02*
X52500000Y-55000000D01*
X27000000Y-55000000D02*
X27500000Y-55000000D01*
X27000000Y-45000000D02*
X27000000Y-55000000D01*
X-17000000Y-50000000D02*
X111000000Y-50000000D01*
X111000000Y-45000000D02*
X-17000000Y-45000000D01*
X111000000Y-55000000D02*
X111000000Y-45000000D01*
X-17000000Y-55000000D02*
X111000000Y-55000000D01*
X-17000000Y-45000000D02*
X-17000000Y-55000000D01*
D14*
X-68000000Y115000000D02*
X-68000000Y-55000000D01*
X162000000Y115000000D02*
X-68000000Y115000000D01*
X162000000Y-55000000D02*
X162000000Y115000000D01*
X-68000000Y-55000000D02*
X162000000Y-55000000D01*
D15*
X-56712990Y-45487600D02*
X-53829960Y-45082450D01*
X-53786550Y-45391350D02*
X-56669590Y-45796490D01*
X-56452540Y-47340980D02*
X-53569510Y-46935830D01*
X-54092410Y-47324310D02*
X-56409140Y-47649870D01*
X-58008470Y-49344620D02*
X-53889840Y-48765830D01*
X-54032540Y-43640930D02*
X-58717480Y-44299290D01*
D14*
X-59299000Y-52296000D02*
X-53711000Y-52296000D01*
D16*
X155280000Y-46200000D02*
G75*
G03X155280000Y-46200000I-1600000J0D01*
G01*
X155280000Y106200000D02*
G75*
G03X155280000Y106200000I-1600000J0D01*
G01*
X-58080000Y106200000D02*
G75*
G03X-58080000Y106200000I-1599990J0D01*
G01*
D15*
X-56712989Y-45487600D02*
G75*
G03X-56669590Y-45796490I23263J-154225D01*
G01*
X-53786550Y-45391350D02*
G75*
G02X-53569510Y-46935830I119741J-770663D01*
G01*
X-56452539Y-47340980D02*
G75*
G03X-56409140Y-47649870I23263J-154225D01*
G01*
X-54092409Y-47324310D02*
G75*
G02X-53889840Y-48765830I114815J-718859D01*
G01*
X-58008469Y-49344620D02*
G75*
G02X-58211040Y-47903090I-147788J714230D01*
G01*
X-58211040Y-47903090D02*
G75*
G03X-58254450Y-47594200I-21705J154445D01*
G01*
X-58254449Y-47594200D02*
G75*
G02X-58471500Y-46049720I-137577J768157D01*
G01*
X-58471501Y-46049721D02*
G75*
G03X-58514900Y-45740820I-20735J154586D01*
G01*
X-58514900Y-45740820D02*
G75*
G02X-58717480Y-44299290I-151481J713712D01*
G01*
X-54032541Y-43640930D02*
G75*
G02X-53829960Y-45082450I56285J-727085D01*
G01*
D17*
%TO.C,cam4*%
G36*
X92500000Y75810000D02*
G01*
X93770000Y75810000D01*
X93770000Y73270000D01*
X96310000Y73270000D01*
X96310000Y72000000D01*
X92500000Y72000000D01*
X92500000Y75810000D01*
G37*
X92500000Y75810000D02*
X93770000Y75810000D01*
X93770000Y73270000D01*
X96310000Y73270000D01*
X96310000Y72000000D01*
X92500000Y72000000D01*
X92500000Y75810000D01*
%TO.C,cam3*%
G36*
X96310000Y0D02*
G01*
X96310000Y-1270000D01*
X93770000Y-1270000D01*
X93770000Y-3810000D01*
X92500000Y-3810000D01*
X92500000Y0D01*
X96310000Y0D01*
G37*
X96310000Y0D02*
X96310000Y-1270000D01*
X93770000Y-1270000D01*
X93770000Y-3810000D01*
X92500000Y-3810000D01*
X92500000Y0D01*
X96310000Y0D01*
%TO.C,cam2*%
G36*
X0Y-3810000D02*
G01*
X-1270000Y-3810000D01*
X-1270000Y-1270000D01*
X-3810000Y-1270000D01*
X-3810000Y0D01*
X0Y0D01*
X0Y-3810000D01*
G37*
X0Y-3810000D02*
X-1270000Y-3810000D01*
X-1270000Y-1270000D01*
X-3810000Y-1270000D01*
X-3810000Y0D01*
X0Y0D01*
X0Y-3810000D01*
%TO.C,cam1*%
G36*
X-3810000Y72000000D02*
G01*
X-3810000Y73270000D01*
X-1270000Y73270000D01*
X-1270000Y75810000D01*
X0Y75810000D01*
X0Y72000000D01*
X-3810000Y72000000D01*
G37*
X-3810000Y72000000D02*
X-3810000Y73270000D01*
X-1270000Y73270000D01*
X-1270000Y75810000D01*
X0Y75810000D01*
X0Y72000000D01*
X-3810000Y72000000D01*
%TD*%
D18*
%TO.C,J4*%
X5120000Y43548300D03*
X5120000Y48526700D03*
%TD*%
D19*
%TO.C,L1*%
X10120000Y48537500D03*
X10120000Y43537500D03*
%TD*%
D20*
%TO.C,NT1*%
X65278000Y31940500D03*
X64769999Y29083000D03*
%TD*%
D21*
%TO.C,ZT7*%
X53340000Y31115000D03*
X50800000Y31115000D03*
X55880000Y31115000D03*
%TD*%
%TO.C,ZT6*%
X53340000Y22225000D03*
X55880000Y22225000D03*
X50800000Y22225000D03*
%TD*%
%TO.C,ZT5*%
X41275000Y31115000D03*
X38735000Y31115000D03*
X43815000Y31115000D03*
%TD*%
%TO.C,ZT4*%
X41275000Y22225000D03*
X43815000Y22225000D03*
X38735000Y22225000D03*
%TD*%
%TO.C,ZT3*%
X29210000Y31115000D03*
X26670000Y31115000D03*
X31750000Y31115000D03*
%TD*%
%TO.C,ZT2*%
X29210000Y22225000D03*
X31750000Y22225000D03*
X26670000Y22225000D03*
%TD*%
D22*
%TO.C,ZM4*%
X9000000Y63200000D03*
%TD*%
%TO.C,ZM3*%
X83600000Y63200000D03*
%TD*%
%TO.C,ZM2*%
X83600000Y9000000D03*
%TD*%
%TO.C,ZM1*%
X9000000Y9000000D03*
%TD*%
D23*
%TO.C,ZC27*%
X68652500Y41910000D03*
X60252500Y41910000D03*
%TD*%
D24*
%TO.C,ZC2*%
X67335000Y52705000D03*
X60935000Y52705000D03*
%TD*%
D25*
%TO.C,T10*%
X41605200Y42456100D03*
X39674800Y42456100D03*
X40640000Y44538900D03*
%TD*%
%TO.C,T8*%
X86372700Y19278600D03*
X84442300Y19278600D03*
X85407500Y21361400D03*
%TD*%
%TO.C,T1*%
X67297300Y19773900D03*
X69227700Y19773900D03*
X68262500Y17691100D03*
%TD*%
D26*
%TO.C,R60*%
X56680100Y11747500D03*
X59524900Y11747500D03*
%TD*%
%TO.C,R59*%
X44615100Y11747500D03*
X47459900Y11747500D03*
%TD*%
%TO.C,R58*%
X32550100Y11747500D03*
X35394900Y11747500D03*
%TD*%
D25*
%TO.C,R50*%
X67627500Y8572500D03*
X68897500Y8572500D03*
%TD*%
%TO.C,R42*%
X84772500Y33972500D03*
X86042500Y33972500D03*
%TD*%
%TO.C,R41*%
X86042500Y27305000D03*
X84772500Y27305000D03*
%TD*%
D27*
%TO.C,R40*%
X60960000Y33972500D03*
X67310000Y33972500D03*
%TD*%
D25*
%TO.C,R39*%
X69850000Y34290000D03*
X71120000Y34290000D03*
%TD*%
%TO.C,R38*%
X63500000Y26670000D03*
X64770000Y26670000D03*
%TD*%
%TO.C,R37*%
X68897500Y10477500D03*
X67627500Y10477500D03*
%TD*%
%TO.C,R35*%
X30162500Y19685000D03*
X28892500Y19685000D03*
%TD*%
%TO.C,R33*%
X39052500Y38417500D03*
X40322500Y38417500D03*
%TD*%
%TO.C,R32*%
X42227500Y19685000D03*
X40957500Y19685000D03*
%TD*%
%TO.C,R31*%
X27305000Y38417500D03*
X28575000Y38417500D03*
%TD*%
%TO.C,R30*%
X51117500Y38417500D03*
X52387500Y38417500D03*
%TD*%
%TO.C,R20*%
X54292500Y19685000D03*
X53022500Y19685000D03*
%TD*%
%TO.C,R13*%
X49530000Y11747500D03*
X50800000Y11747500D03*
%TD*%
%TO.C,R12*%
X37465000Y11747500D03*
X38735000Y11747500D03*
%TD*%
%TO.C,R11*%
X25400000Y11747500D03*
X26670000Y11747500D03*
%TD*%
%TO.C,R10*%
X54927500Y2857500D03*
X53657500Y2857500D03*
%TD*%
%TO.C,R9*%
X43180000Y2857500D03*
X41910000Y2857500D03*
%TD*%
%TO.C,R8*%
X86042500Y23495000D03*
X84772500Y23495000D03*
%TD*%
%TO.C,R7*%
X87630000Y33972500D03*
X88900000Y33972500D03*
%TD*%
%TO.C,R6*%
X31115000Y2857500D03*
X29845000Y2857500D03*
%TD*%
%TO.C,R5*%
X84772500Y25400000D03*
X86042500Y25400000D03*
%TD*%
%TO.C,R4*%
X24130000Y48260000D03*
X25400000Y48260000D03*
%TD*%
%TO.C,R3*%
X36195000Y44450000D03*
X37465000Y44450000D03*
%TD*%
%TO.C,R2*%
X68897500Y22542500D03*
X67627500Y22542500D03*
%TD*%
D27*
%TO.C,R1*%
X67310000Y29845000D03*
X60960000Y29845000D03*
%TD*%
D28*
%TO.C,PT1*%
X86630000Y69850000D03*
X88630000Y69850000D03*
%TD*%
D29*
%TO.C,MIR2*%
X89217500Y2857500D03*
%TD*%
%TO.C,MIR1*%
X2540000Y69532500D03*
%TD*%
D30*
%TO.C,J22*%
X72500000Y37465000D03*
X72500000Y40005000D03*
X72500000Y42545000D03*
X72500000Y45085000D03*
X72500000Y47625000D03*
X72500000Y50165000D03*
X72500000Y52705000D03*
X72500000Y55245000D03*
D31*
X72500000Y57785000D03*
%TD*%
D32*
%TO.C,J11*%
X8040000Y55245000D03*
D33*
X2540000Y55245000D03*
%TD*%
D30*
%TO.C,J6*%
X20002500Y38417500D03*
X20002500Y35877500D03*
X20002500Y33337500D03*
X20002500Y30797500D03*
X20002500Y28257500D03*
X20002500Y25717500D03*
X20002500Y23177500D03*
D31*
X20002500Y20637500D03*
%TD*%
D30*
%TO.C,J3*%
X20002500Y18097500D03*
D31*
X20002500Y15557500D03*
%TD*%
D34*
%TO.C,J2*%
X63340000Y65405000D03*
X63340000Y67945000D03*
X65880000Y65405000D03*
X65880000Y67945000D03*
X68420000Y65405000D03*
X68420000Y67945000D03*
X70960000Y65405000D03*
X70960000Y67945000D03*
X73500000Y65405000D03*
D35*
X73500000Y67945000D03*
%TD*%
D36*
%TO.C,J1*%
X15050000Y57470000D03*
X24950000Y57470000D03*
D37*
X21500000Y52290000D03*
X18500000Y52290000D03*
%TD*%
D38*
%TO.C,IC5*%
X50640000Y13843000D03*
D39*
X50640000Y15240000D03*
X50640000Y16510000D03*
D38*
X50640000Y17907000D03*
X56040000Y17907000D03*
D39*
X56040000Y16510000D03*
X56040000Y15240000D03*
D38*
X56040000Y13843000D03*
%TD*%
%TO.C,IC4*%
X38575000Y13843000D03*
D39*
X38575000Y15240000D03*
X38575000Y16510000D03*
D38*
X38575000Y17907000D03*
X43975000Y17907000D03*
D39*
X43975000Y16510000D03*
X43975000Y15240000D03*
D38*
X43975000Y13843000D03*
%TD*%
%TO.C,IC3*%
X26510000Y13843000D03*
D39*
X26510000Y15240000D03*
X26510000Y16510000D03*
D38*
X26510000Y17907000D03*
X31910000Y17907000D03*
D39*
X31910000Y16510000D03*
X31910000Y15240000D03*
D38*
X31910000Y13843000D03*
%TD*%
%TO.C,IC2*%
X71912500Y9398000D03*
D39*
X71912500Y10795000D03*
X71912500Y12065000D03*
D38*
X71912500Y13462000D03*
X77312500Y13462000D03*
D39*
X77312500Y12065000D03*
X77312500Y10795000D03*
D38*
X77312500Y9398000D03*
%TD*%
D40*
%TO.C,IC1*%
X71564500Y17335500D03*
D41*
X71564500Y18732500D03*
X71564500Y20002500D03*
X71564500Y21272500D03*
X71564500Y22542500D03*
X71564500Y23812500D03*
X71564500Y25082500D03*
X71564500Y26352500D03*
X71564500Y27622500D03*
X71564500Y28892500D03*
X71564500Y30162500D03*
D40*
X71564500Y31559500D03*
X81470500Y31559500D03*
D41*
X81470500Y30162500D03*
X81470500Y28892500D03*
X81470500Y27622500D03*
X81470500Y26352500D03*
X81470500Y25082500D03*
X81470500Y23812500D03*
X81470500Y22542500D03*
X81470500Y21272500D03*
X81470500Y20002500D03*
X81470500Y18732500D03*
D40*
X81470500Y17335500D03*
%TD*%
D42*
%TO.C,FI9*%
X72072500Y60007500D03*
X72072500Y61277500D03*
%TD*%
%TO.C,FI8*%
X73977500Y60007500D03*
X73977500Y61277500D03*
%TD*%
%TO.C,FI7*%
X75882500Y60007500D03*
X75882500Y61277500D03*
%TD*%
%TO.C,FI6*%
X77787500Y60007500D03*
X77787500Y61277500D03*
%TD*%
%TO.C,FI5*%
X65405000Y60007500D03*
X65405000Y61277500D03*
%TD*%
%TO.C,FI4*%
X63500000Y60007500D03*
X63500000Y61277500D03*
%TD*%
%TO.C,FI3*%
X61595000Y60007500D03*
X61595000Y61277500D03*
%TD*%
D21*
%TO.C,FI1*%
X5120000Y48537500D03*
X12620000Y46037500D03*
X7620000Y46037500D03*
X5120000Y43537500D03*
X10120000Y43537500D03*
X10120000Y48537500D03*
%TD*%
D43*
%TO.C,F1*%
X22872700Y43180000D03*
X16497300Y43180000D03*
%TD*%
D25*
%TO.C,D24*%
X44450000Y44538900D03*
X45415200Y42456100D03*
X43484800Y42456100D03*
%TD*%
D44*
%TO.C,D23*%
X51435000Y34925000D03*
X55880000Y34925000D03*
%TD*%
%TO.C,D22*%
X53340000Y26670000D03*
X48895000Y26670000D03*
%TD*%
%TO.C,D21*%
X39370000Y34925000D03*
X43815000Y34925000D03*
%TD*%
%TO.C,D20*%
X41275000Y26670000D03*
X36830000Y26670000D03*
%TD*%
%TO.C,D19*%
X27305000Y34925000D03*
X31750000Y34925000D03*
%TD*%
%TO.C,D18*%
X29210000Y26670000D03*
X24765000Y26670000D03*
%TD*%
D42*
%TO.C,D16*%
X48488600Y8572500D03*
X50571400Y9537700D03*
X50571400Y7607300D03*
%TD*%
%TO.C,D15*%
X36741100Y8572500D03*
X38823900Y9537700D03*
X38823900Y7607300D03*
%TD*%
%TO.C,D14*%
X24676100Y8572500D03*
X26758900Y9537700D03*
X26758900Y7607300D03*
%TD*%
D26*
%TO.C,D13*%
X55892500Y5715000D03*
X52692500Y5715000D03*
%TD*%
%TO.C,D12*%
X44145000Y5715000D03*
X40945000Y5715000D03*
%TD*%
%TO.C,D11*%
X32080000Y5715000D03*
X28880000Y5715000D03*
%TD*%
D45*
%TO.C,D10*%
X47307500Y22542500D03*
X47307500Y18732500D03*
%TD*%
%TO.C,D9*%
X35242500Y22860000D03*
X35242500Y19050000D03*
%TD*%
%TO.C,D8*%
X23812500Y22860000D03*
X23812500Y19050000D03*
%TD*%
D46*
%TO.C,D7*%
X54462500Y38417500D03*
X56662500Y38417500D03*
%TD*%
%TO.C,D6*%
X42397500Y38417500D03*
X44597500Y38417500D03*
%TD*%
%TO.C,D5*%
X30650000Y38417500D03*
X32850000Y38417500D03*
%TD*%
%TO.C,D4*%
X52557500Y11747500D03*
X54757500Y11747500D03*
%TD*%
%TO.C,D3*%
X40492500Y11747500D03*
X42692500Y11747500D03*
%TD*%
%TO.C,D2*%
X28427500Y11747500D03*
X30627500Y11747500D03*
%TD*%
D44*
%TO.C,D1*%
X52387500Y43815000D03*
X47942500Y43815000D03*
%TD*%
D47*
%TO.C,C29*%
X26500000Y65500000D03*
D48*
X56980000Y65500000D03*
%TD*%
D47*
%TO.C,C28*%
X26500000Y52500000D03*
D48*
X56980000Y52500000D03*
%TD*%
D49*
%TO.C,C27*%
X64452500Y39370000D03*
D50*
X64452500Y44450000D03*
%TD*%
D51*
%TO.C,C26*%
X57882500Y26670000D03*
X55782500Y26670000D03*
%TD*%
%TO.C,C25*%
X45817500Y26670000D03*
X43717500Y26670000D03*
%TD*%
%TO.C,C24*%
X33752500Y26670000D03*
X31652500Y26670000D03*
%TD*%
D52*
%TO.C,C23*%
X68745000Y61525000D03*
X68745000Y60725000D03*
X68745000Y59925000D03*
X68745000Y59125000D03*
X67145000Y59125000D03*
X67145000Y59925000D03*
X67145000Y60725000D03*
X67145000Y61525000D03*
%TD*%
%TO.C,C22*%
X57302500Y59125000D03*
X57302500Y59925000D03*
X57302500Y60725000D03*
X57302500Y61525000D03*
X58902500Y61525000D03*
X58902500Y60725000D03*
X58902500Y59925000D03*
X58902500Y59125000D03*
%TD*%
D51*
%TO.C,C21*%
X77567500Y34290000D03*
X75467500Y34290000D03*
%TD*%
D25*
%TO.C,C20*%
X84772500Y29527500D03*
X86042500Y29527500D03*
%TD*%
D51*
%TO.C,C19*%
X67212500Y24765000D03*
X69312500Y24765000D03*
%TD*%
%TO.C,C18*%
X86457500Y31750000D03*
X84357500Y31750000D03*
%TD*%
D25*
%TO.C,C17*%
X48895000Y5715000D03*
X50165000Y5715000D03*
%TD*%
D26*
%TO.C,C16*%
X55714900Y8572500D03*
X52870100Y8572500D03*
%TD*%
D51*
%TO.C,C15*%
X58005000Y14287500D03*
X60105000Y14287500D03*
%TD*%
D25*
%TO.C,C14*%
X37147500Y5715000D03*
X38417500Y5715000D03*
%TD*%
D26*
%TO.C,C13*%
X43967400Y8572500D03*
X41122600Y8572500D03*
%TD*%
D51*
%TO.C,C12*%
X45940000Y14287500D03*
X48040000Y14287500D03*
%TD*%
D25*
%TO.C,C11*%
X25082500Y5715000D03*
X26352500Y5715000D03*
%TD*%
D26*
%TO.C,C10*%
X31902400Y8572500D03*
X29057600Y8572500D03*
%TD*%
D51*
%TO.C,C9*%
X33875000Y14287500D03*
X35975000Y14287500D03*
%TD*%
D25*
%TO.C,C8*%
X68897500Y14287500D03*
X67627500Y14287500D03*
%TD*%
%TO.C,C7*%
X68897500Y12382500D03*
X67627500Y12382500D03*
%TD*%
D51*
%TO.C,C6*%
X73562500Y7302500D03*
X75662500Y7302500D03*
%TD*%
D53*
%TO.C,C5*%
X55880000Y42130000D03*
X55880000Y44230000D03*
%TD*%
D54*
%TO.C,C4*%
X33477200Y43180000D03*
X27482800Y43180000D03*
%TD*%
D53*
%TO.C,C3*%
X57785000Y48992500D03*
X57785000Y46892500D03*
%TD*%
D49*
%TO.C,C2*%
X64452500Y50165000D03*
D50*
X64452500Y55245000D03*
%TD*%
D51*
%TO.C,C1*%
X18195000Y48260000D03*
X16095000Y48260000D03*
%TD*%
D55*
%TO.C,VI87*%
X51689000Y20637500D03*
%TD*%
%TO.C,VI86*%
X39624000Y20637500D03*
%TD*%
%TO.C,VI85*%
X27559000Y20637500D03*
%TD*%
%TO.C,VI84*%
X69977000Y59925000D03*
%TD*%
%TO.C,VI83*%
X88011000Y31750000D03*
%TD*%
%TO.C,VI82*%
X83185000Y20193000D03*
%TD*%
%TO.C,VI81*%
X83185000Y26352500D03*
%TD*%
%TO.C,VI80*%
X73279000Y21272500D03*
%TD*%
%TO.C,VI79*%
X73279000Y22542500D03*
%TD*%
%TO.C,VI78*%
X73279000Y23812500D03*
%TD*%
%TO.C,VI77*%
X69227700Y21145500D03*
%TD*%
%TO.C,VI76*%
X58102500Y10274300D03*
%TD*%
%TO.C,VI75*%
X46037500Y10274300D03*
%TD*%
%TO.C,VI74*%
X33464500Y16510000D03*
%TD*%
%TO.C,VI73*%
X65722500Y19773900D03*
%TD*%
%TO.C,VI72*%
X65722500Y22161500D03*
%TD*%
%TO.C,VI71*%
X65722500Y24765000D03*
%TD*%
%TO.C,VI70*%
X63563500Y62611000D03*
%TD*%
%TO.C,VI69*%
X68745000Y58039000D03*
%TD*%
%TO.C,VI68*%
X77787500Y62547500D03*
%TD*%
%TO.C,VI67*%
X75882500Y62547500D03*
%TD*%
%TO.C,VI66*%
X73977500Y62547500D03*
%TD*%
%TO.C,VI65*%
X17145000Y54483000D03*
%TD*%
%TO.C,VI64*%
X65405000Y58420000D03*
%TD*%
%TO.C,VI63*%
X90500000Y70000000D03*
%TD*%
%TO.C,VI62*%
X54610000Y68262500D03*
%TD*%
%TO.C,VI61*%
X53022500Y68262500D03*
%TD*%
%TO.C,VI60*%
X51435000Y68262500D03*
%TD*%
%TO.C,VI59*%
X49847500Y68262500D03*
%TD*%
%TO.C,VI58*%
X48260000Y68262500D03*
%TD*%
%TO.C,VI57*%
X46672500Y68262500D03*
%TD*%
%TO.C,VI56*%
X46672500Y66675000D03*
%TD*%
%TO.C,VI55*%
X46672500Y65087500D03*
%TD*%
%TO.C,VI54*%
X46672500Y63500000D03*
%TD*%
%TO.C,VI53*%
X67945000Y62674500D03*
%TD*%
%TO.C,VI52*%
X61595000Y62547500D03*
%TD*%
%TO.C,VI51*%
X46672500Y61912500D03*
%TD*%
%TO.C,VI50*%
X69977000Y61404500D03*
%TD*%
%TO.C,VI49*%
X46672500Y60325000D03*
%TD*%
%TO.C,VI48*%
X55880000Y59925000D03*
%TD*%
%TO.C,VI47*%
X75882500Y58610500D03*
%TD*%
%TO.C,VI46*%
X67145000Y58039000D03*
%TD*%
%TO.C,VI45*%
X53735000Y52578000D03*
%TD*%
%TO.C,VI44*%
X50292000Y52070000D03*
%TD*%
%TO.C,VI43*%
X67246500Y38417500D03*
%TD*%
%TO.C,VI42*%
X67881500Y37465000D03*
%TD*%
%TO.C,VI41*%
X68834000Y36449000D03*
%TD*%
%TO.C,VI40*%
X90233500Y33972500D03*
%TD*%
%TO.C,VI39*%
X77567500Y32639000D03*
%TD*%
%TO.C,VI38*%
X65278000Y31940500D03*
%TD*%
%TO.C,VI37*%
X87820500Y29527500D03*
%TD*%
%TO.C,VI36*%
X64769999Y29083000D03*
%TD*%
%TO.C,VI35*%
X77567500Y27622500D03*
%TD*%
%TO.C,VI34*%
X73279000Y27622500D03*
%TD*%
%TO.C,VI33*%
X67564000Y26352500D03*
%TD*%
%TO.C,VI32*%
X60198000Y26733500D03*
%TD*%
%TO.C,VI31*%
X75501500Y25908000D03*
%TD*%
%TO.C,VI30*%
X87820500Y25400000D03*
%TD*%
%TO.C,VI29*%
X74358500Y24638000D03*
%TD*%
%TO.C,VI28*%
X79565500Y22542500D03*
%TD*%
%TO.C,VI27*%
X78740000Y21272500D03*
%TD*%
%TO.C,VI26*%
X76771500Y20002500D03*
%TD*%
%TO.C,VI25*%
X74422000Y20002500D03*
%TD*%
%TO.C,VI24*%
X87820500Y19278600D03*
%TD*%
%TO.C,VI23*%
X79438500Y18732500D03*
%TD*%
%TO.C,VI22*%
X79470250Y17367250D03*
%TD*%
%TO.C,VI21*%
X57531000Y16510000D03*
%TD*%
%TO.C,VI20*%
X67564000Y15621000D03*
%TD*%
%TO.C,VI19*%
X78930500Y15049500D03*
%TD*%
%TO.C,VI18*%
X66421000Y14224000D03*
%TD*%
%TO.C,VI17*%
X66421000Y12446000D03*
%TD*%
%TO.C,VI16*%
X65722500Y10274300D03*
%TD*%
%TO.C,VI15*%
X34023300Y10274300D03*
%TD*%
%TO.C,VI14*%
X75662500Y9398000D03*
%TD*%
%TO.C,VI13*%
X58762900Y6985000D03*
%TD*%
%TO.C,VI12*%
X46675000Y6159500D03*
%TD*%
%TO.C,VI11*%
X34925000Y3048000D03*
%TD*%
%TO.C,VI10*%
X47498000Y16764000D03*
%TD*%
%TO.C,VI9*%
X45593000Y16510000D03*
%TD*%
%TO.C,VI8*%
X35306000Y16891000D03*
%TD*%
%TO.C,VI7*%
X23812500Y17145000D03*
%TD*%
%TO.C,VI6*%
X49149000Y35433000D03*
%TD*%
%TO.C,VI5*%
X37338000Y35433000D03*
%TD*%
%TO.C,VI4*%
X25273000Y35433000D03*
%TD*%
%TO.C,VI3*%
X24765000Y54737000D03*
%TD*%
%TO.C,VI2*%
X25400000Y50101500D03*
%TD*%
%TO.C,VI1*%
X36195000Y50101500D03*
%TD*%
D14*
G36*
X83672640Y66822260D02*
G01*
X83769468Y66819022D01*
X83866122Y66813202D01*
X83962654Y66804791D01*
X84058884Y66793810D01*
X84154789Y66780259D01*
X84250304Y66764147D01*
X84345370Y66745485D01*
X84439884Y66724292D01*
X84533791Y66700582D01*
X84627066Y66674360D01*
X84719559Y66645668D01*
X84811275Y66614506D01*
X84902146Y66580896D01*
X84992058Y66544880D01*
X85080954Y66506481D01*
X85168838Y66465699D01*
X85255581Y66422590D01*
X85341126Y66377187D01*
X85425478Y66329484D01*
X85508465Y66279578D01*
X85590116Y66227454D01*
X85670339Y66173169D01*
X85749073Y66116766D01*
X85826298Y66058258D01*
X85901918Y65997716D01*
X85975856Y65935206D01*
X86048160Y65870684D01*
X86118679Y65804284D01*
X86187394Y65736028D01*
X86254277Y65665939D01*
X86319231Y65594122D01*
X86382282Y65520548D01*
X86443310Y65445357D01*
X86502334Y65368524D01*
X86559270Y65290158D01*
X86614077Y65210319D01*
X86666757Y65129000D01*
X86717226Y65046332D01*
X86765459Y64962359D01*
X86811467Y64877058D01*
X86855123Y64790665D01*
X86896506Y64703026D01*
X86935504Y64614376D01*
X86972133Y64524675D01*
X87006325Y64434095D01*
X87038103Y64342579D01*
X87067426Y64250236D01*
X87094262Y64157172D01*
X87118601Y64063419D01*
X87140423Y63969055D01*
X87159718Y63874129D01*
X87176473Y63778696D01*
X87190660Y63682914D01*
X87202290Y63586720D01*
X87211341Y63490285D01*
X87217808Y63393664D01*
X87221693Y63296864D01*
X87222988Y63200000D01*
X87221693Y63103135D01*
X87217808Y63006335D01*
X87211341Y62909714D01*
X87202290Y62813279D01*
X87190660Y62717085D01*
X87176473Y62621303D01*
X87159718Y62525870D01*
X87140423Y62430944D01*
X87118601Y62336580D01*
X87094262Y62242827D01*
X87067426Y62149763D01*
X87038103Y62057420D01*
X87006325Y61965904D01*
X86972133Y61875324D01*
X86935504Y61785623D01*
X86896506Y61696973D01*
X86855123Y61609334D01*
X86811467Y61522941D01*
X86765459Y61437640D01*
X86717226Y61353667D01*
X86666757Y61270999D01*
X86614077Y61189680D01*
X86559270Y61109841D01*
X86502334Y61031475D01*
X86443310Y60954642D01*
X86382282Y60879451D01*
X86319231Y60805877D01*
X86254277Y60734060D01*
X86187394Y60663971D01*
X86118679Y60595715D01*
X86048160Y60529315D01*
X85975856Y60464793D01*
X85901918Y60402283D01*
X85826298Y60341741D01*
X85749073Y60283233D01*
X85670339Y60226830D01*
X85590116Y60172545D01*
X85508465Y60120421D01*
X85425478Y60070515D01*
X85341126Y60022812D01*
X85255581Y59977409D01*
X85168838Y59934300D01*
X85080954Y59893518D01*
X84992058Y59855119D01*
X84902146Y59819103D01*
X84811275Y59785493D01*
X84719559Y59754331D01*
X84627066Y59725639D01*
X84533791Y59699417D01*
X84439884Y59675707D01*
X84345370Y59654514D01*
X84250304Y59635852D01*
X84154789Y59619740D01*
X84058884Y59606189D01*
X83962654Y59595208D01*
X83866122Y59586797D01*
X83769468Y59580977D01*
X83672640Y59577739D01*
X83575772Y59577091D01*
X83478954Y59579034D01*
X83382182Y59583564D01*
X83285569Y59590681D01*
X83189196Y59600376D01*
X83093109Y59612645D01*
X82997385Y59627479D01*
X82902102Y59644864D01*
X82807310Y59664792D01*
X82713078Y59687249D01*
X82619488Y59712214D01*
X82526596Y59739674D01*
X82434496Y59769599D01*
X82343158Y59802001D01*
X82252789Y59836805D01*
X82163373Y59874019D01*
X82074966Y59913616D01*
X81987638Y59955569D01*
X81901464Y59999839D01*
X81816560Y60046368D01*
X81732879Y60095180D01*
X81650525Y60146216D01*
X81569595Y60199417D01*
X81490098Y60254773D01*
X81412097Y60312245D01*
X81335707Y60371745D01*
X81260903Y60433292D01*
X81187776Y60496812D01*
X81116356Y60562281D01*
X81046735Y60629613D01*
X80978939Y60698782D01*
X80912995Y60769762D01*
X80849007Y60842441D01*
X80786946Y60916850D01*
X80726905Y60992881D01*
X80668957Y61070438D01*
X80613056Y61149582D01*
X80559298Y61230182D01*
X80507737Y61312154D01*
X80458372Y61395500D01*
X80411259Y61480122D01*
X80366420Y61565985D01*
X80323877Y61653046D01*
X80283706Y61741150D01*
X80245881Y61830353D01*
X80210470Y61920494D01*
X80177478Y62011556D01*
X80146920Y62103513D01*
X80118851Y62196179D01*
X80093255Y62289621D01*
X80070171Y62383693D01*
X80049606Y62478366D01*
X80031585Y62573526D01*
X80016117Y62669124D01*
X80003199Y62765171D01*
X79992865Y62861431D01*
X79985100Y62958037D01*
X79979925Y63054705D01*
X79977335Y63151581D01*
X79977335Y63248418D01*
X79979925Y63345294D01*
X79985100Y63441962D01*
X79992865Y63538568D01*
X80003199Y63634828D01*
X80016117Y63730875D01*
X80031585Y63826473D01*
X80049606Y63921633D01*
X80070171Y64016306D01*
X80093255Y64110378D01*
X80118851Y64203820D01*
X80146920Y64296486D01*
X80177478Y64388443D01*
X80210470Y64479505D01*
X80245881Y64569646D01*
X80283706Y64658849D01*
X80323877Y64746953D01*
X80366420Y64834014D01*
X80411259Y64919877D01*
X80458372Y65004499D01*
X80507737Y65087845D01*
X80559298Y65169817D01*
X80613056Y65250417D01*
X80668957Y65329561D01*
X80726905Y65407118D01*
X80786946Y65483149D01*
X80849007Y65557558D01*
X80912995Y65630237D01*
X80978939Y65701217D01*
X81046735Y65770386D01*
X81116356Y65837718D01*
X81187776Y65903187D01*
X81260903Y65966707D01*
X81335707Y66028254D01*
X81412097Y66087754D01*
X81490098Y66145226D01*
X81569595Y66200582D01*
X81650525Y66253783D01*
X81732879Y66304819D01*
X81816560Y66353631D01*
X81901464Y66400160D01*
X81987638Y66444430D01*
X82074966Y66486383D01*
X82163373Y66525980D01*
X82252789Y66563194D01*
X82343158Y66597998D01*
X82434496Y66630400D01*
X82526596Y66660325D01*
X82619488Y66687785D01*
X82713078Y66712750D01*
X82807310Y66735207D01*
X82902102Y66755135D01*
X82997385Y66772520D01*
X83093109Y66787354D01*
X83189196Y66799623D01*
X83285569Y66809318D01*
X83382182Y66816435D01*
X83478954Y66820965D01*
X83575772Y66822908D01*
X83672640Y66822260D01*
G37*
X83672640Y66822260D02*
X83769468Y66819022D01*
X83866122Y66813202D01*
X83962654Y66804791D01*
X84058884Y66793810D01*
X84154789Y66780259D01*
X84250304Y66764147D01*
X84345370Y66745485D01*
X84439884Y66724292D01*
X84533791Y66700582D01*
X84627066Y66674360D01*
X84719559Y66645668D01*
X84811275Y66614506D01*
X84902146Y66580896D01*
X84992058Y66544880D01*
X85080954Y66506481D01*
X85168838Y66465699D01*
X85255581Y66422590D01*
X85341126Y66377187D01*
X85425478Y66329484D01*
X85508465Y66279578D01*
X85590116Y66227454D01*
X85670339Y66173169D01*
X85749073Y66116766D01*
X85826298Y66058258D01*
X85901918Y65997716D01*
X85975856Y65935206D01*
X86048160Y65870684D01*
X86118679Y65804284D01*
X86187394Y65736028D01*
X86254277Y65665939D01*
X86319231Y65594122D01*
X86382282Y65520548D01*
X86443310Y65445357D01*
X86502334Y65368524D01*
X86559270Y65290158D01*
X86614077Y65210319D01*
X86666757Y65129000D01*
X86717226Y65046332D01*
X86765459Y64962359D01*
X86811467Y64877058D01*
X86855123Y64790665D01*
X86896506Y64703026D01*
X86935504Y64614376D01*
X86972133Y64524675D01*
X87006325Y64434095D01*
X87038103Y64342579D01*
X87067426Y64250236D01*
X87094262Y64157172D01*
X87118601Y64063419D01*
X87140423Y63969055D01*
X87159718Y63874129D01*
X87176473Y63778696D01*
X87190660Y63682914D01*
X87202290Y63586720D01*
X87211341Y63490285D01*
X87217808Y63393664D01*
X87221693Y63296864D01*
X87222988Y63200000D01*
X87221693Y63103135D01*
X87217808Y63006335D01*
X87211341Y62909714D01*
X87202290Y62813279D01*
X87190660Y62717085D01*
X87176473Y62621303D01*
X87159718Y62525870D01*
X87140423Y62430944D01*
X87118601Y62336580D01*
X87094262Y62242827D01*
X87067426Y62149763D01*
X87038103Y62057420D01*
X87006325Y61965904D01*
X86972133Y61875324D01*
X86935504Y61785623D01*
X86896506Y61696973D01*
X86855123Y61609334D01*
X86811467Y61522941D01*
X86765459Y61437640D01*
X86717226Y61353667D01*
X86666757Y61270999D01*
X86614077Y61189680D01*
X86559270Y61109841D01*
X86502334Y61031475D01*
X86443310Y60954642D01*
X86382282Y60879451D01*
X86319231Y60805877D01*
X86254277Y60734060D01*
X86187394Y60663971D01*
X86118679Y60595715D01*
X86048160Y60529315D01*
X85975856Y60464793D01*
X85901918Y60402283D01*
X85826298Y60341741D01*
X85749073Y60283233D01*
X85670339Y60226830D01*
X85590116Y60172545D01*
X85508465Y60120421D01*
X85425478Y60070515D01*
X85341126Y60022812D01*
X85255581Y59977409D01*
X85168838Y59934300D01*
X85080954Y59893518D01*
X84992058Y59855119D01*
X84902146Y59819103D01*
X84811275Y59785493D01*
X84719559Y59754331D01*
X84627066Y59725639D01*
X84533791Y59699417D01*
X84439884Y59675707D01*
X84345370Y59654514D01*
X84250304Y59635852D01*
X84154789Y59619740D01*
X84058884Y59606189D01*
X83962654Y59595208D01*
X83866122Y59586797D01*
X83769468Y59580977D01*
X83672640Y59577739D01*
X83575772Y59577091D01*
X83478954Y59579034D01*
X83382182Y59583564D01*
X83285569Y59590681D01*
X83189196Y59600376D01*
X83093109Y59612645D01*
X82997385Y59627479D01*
X82902102Y59644864D01*
X82807310Y59664792D01*
X82713078Y59687249D01*
X82619488Y59712214D01*
X82526596Y59739674D01*
X82434496Y59769599D01*
X82343158Y59802001D01*
X82252789Y59836805D01*
X82163373Y59874019D01*
X82074966Y59913616D01*
X81987638Y59955569D01*
X81901464Y59999839D01*
X81816560Y60046368D01*
X81732879Y60095180D01*
X81650525Y60146216D01*
X81569595Y60199417D01*
X81490098Y60254773D01*
X81412097Y60312245D01*
X81335707Y60371745D01*
X81260903Y60433292D01*
X81187776Y60496812D01*
X81116356Y60562281D01*
X81046735Y60629613D01*
X80978939Y60698782D01*
X80912995Y60769762D01*
X80849007Y60842441D01*
X80786946Y60916850D01*
X80726905Y60992881D01*
X80668957Y61070438D01*
X80613056Y61149582D01*
X80559298Y61230182D01*
X80507737Y61312154D01*
X80458372Y61395500D01*
X80411259Y61480122D01*
X80366420Y61565985D01*
X80323877Y61653046D01*
X80283706Y61741150D01*
X80245881Y61830353D01*
X80210470Y61920494D01*
X80177478Y62011556D01*
X80146920Y62103513D01*
X80118851Y62196179D01*
X80093255Y62289621D01*
X80070171Y62383693D01*
X80049606Y62478366D01*
X80031585Y62573526D01*
X80016117Y62669124D01*
X80003199Y62765171D01*
X79992865Y62861431D01*
X79985100Y62958037D01*
X79979925Y63054705D01*
X79977335Y63151581D01*
X79977335Y63248418D01*
X79979925Y63345294D01*
X79985100Y63441962D01*
X79992865Y63538568D01*
X80003199Y63634828D01*
X80016117Y63730875D01*
X80031585Y63826473D01*
X80049606Y63921633D01*
X80070171Y64016306D01*
X80093255Y64110378D01*
X80118851Y64203820D01*
X80146920Y64296486D01*
X80177478Y64388443D01*
X80210470Y64479505D01*
X80245881Y64569646D01*
X80283706Y64658849D01*
X80323877Y64746953D01*
X80366420Y64834014D01*
X80411259Y64919877D01*
X80458372Y65004499D01*
X80507737Y65087845D01*
X80559298Y65169817D01*
X80613056Y65250417D01*
X80668957Y65329561D01*
X80726905Y65407118D01*
X80786946Y65483149D01*
X80849007Y65557558D01*
X80912995Y65630237D01*
X80978939Y65701217D01*
X81046735Y65770386D01*
X81116356Y65837718D01*
X81187776Y65903187D01*
X81260903Y65966707D01*
X81335707Y66028254D01*
X81412097Y66087754D01*
X81490098Y66145226D01*
X81569595Y66200582D01*
X81650525Y66253783D01*
X81732879Y66304819D01*
X81816560Y66353631D01*
X81901464Y66400160D01*
X81987638Y66444430D01*
X82074966Y66486383D01*
X82163373Y66525980D01*
X82252789Y66563194D01*
X82343158Y66597998D01*
X82434496Y66630400D01*
X82526596Y66660325D01*
X82619488Y66687785D01*
X82713078Y66712750D01*
X82807310Y66735207D01*
X82902102Y66755135D01*
X82997385Y66772520D01*
X83093109Y66787354D01*
X83189196Y66799623D01*
X83285569Y66809318D01*
X83382182Y66816435D01*
X83478954Y66820965D01*
X83575772Y66822908D01*
X83672640Y66822260D01*
G36*
X9072640Y66822260D02*
G01*
X9169468Y66819022D01*
X9266122Y66813202D01*
X9362654Y66804791D01*
X9458884Y66793810D01*
X9554789Y66780259D01*
X9650304Y66764147D01*
X9745370Y66745485D01*
X9839884Y66724292D01*
X9933791Y66700582D01*
X10027066Y66674360D01*
X10119559Y66645668D01*
X10211275Y66614506D01*
X10302146Y66580896D01*
X10392058Y66544880D01*
X10480954Y66506481D01*
X10568838Y66465699D01*
X10655581Y66422590D01*
X10741126Y66377187D01*
X10825478Y66329484D01*
X10908465Y66279578D01*
X10990116Y66227454D01*
X11070339Y66173169D01*
X11149073Y66116766D01*
X11226298Y66058258D01*
X11301918Y65997716D01*
X11375856Y65935206D01*
X11448160Y65870684D01*
X11518679Y65804284D01*
X11587394Y65736028D01*
X11654277Y65665939D01*
X11719231Y65594122D01*
X11782282Y65520548D01*
X11843310Y65445357D01*
X11902334Y65368524D01*
X11959270Y65290158D01*
X12014077Y65210319D01*
X12066757Y65129000D01*
X12117226Y65046332D01*
X12165459Y64962359D01*
X12211467Y64877058D01*
X12255123Y64790665D01*
X12296506Y64703026D01*
X12335504Y64614376D01*
X12372133Y64524675D01*
X12406325Y64434095D01*
X12438103Y64342579D01*
X12467426Y64250236D01*
X12494262Y64157172D01*
X12518601Y64063419D01*
X12540423Y63969055D01*
X12559718Y63874129D01*
X12576473Y63778696D01*
X12590660Y63682914D01*
X12602290Y63586720D01*
X12611341Y63490285D01*
X12617808Y63393664D01*
X12621693Y63296864D01*
X12622988Y63200000D01*
X12621693Y63103135D01*
X12617808Y63006335D01*
X12611341Y62909714D01*
X12602290Y62813279D01*
X12590660Y62717085D01*
X12576473Y62621303D01*
X12559718Y62525870D01*
X12540423Y62430944D01*
X12518601Y62336580D01*
X12494262Y62242827D01*
X12467426Y62149763D01*
X12438103Y62057420D01*
X12406325Y61965904D01*
X12372133Y61875324D01*
X12335504Y61785623D01*
X12296506Y61696973D01*
X12255123Y61609334D01*
X12211467Y61522941D01*
X12165459Y61437640D01*
X12117226Y61353667D01*
X12066757Y61270999D01*
X12014077Y61189680D01*
X11959270Y61109841D01*
X11902334Y61031475D01*
X11843310Y60954642D01*
X11782282Y60879451D01*
X11719231Y60805877D01*
X11654277Y60734060D01*
X11587394Y60663971D01*
X11518679Y60595715D01*
X11448160Y60529315D01*
X11375856Y60464793D01*
X11301918Y60402283D01*
X11226298Y60341741D01*
X11149073Y60283233D01*
X11070339Y60226830D01*
X10990116Y60172545D01*
X10908465Y60120421D01*
X10825478Y60070515D01*
X10741126Y60022812D01*
X10655581Y59977409D01*
X10568838Y59934300D01*
X10480954Y59893518D01*
X10392058Y59855119D01*
X10302146Y59819103D01*
X10211275Y59785493D01*
X10119559Y59754331D01*
X10027066Y59725639D01*
X9933791Y59699417D01*
X9839884Y59675707D01*
X9745370Y59654514D01*
X9650304Y59635852D01*
X9554789Y59619740D01*
X9458884Y59606189D01*
X9362654Y59595208D01*
X9266122Y59586797D01*
X9169468Y59580977D01*
X9072640Y59577739D01*
X8975772Y59577091D01*
X8878954Y59579034D01*
X8782182Y59583564D01*
X8685569Y59590681D01*
X8589196Y59600376D01*
X8493109Y59612645D01*
X8397385Y59627479D01*
X8302102Y59644864D01*
X8207310Y59664792D01*
X8113078Y59687249D01*
X8019488Y59712214D01*
X7926596Y59739674D01*
X7834496Y59769599D01*
X7743158Y59802001D01*
X7652789Y59836805D01*
X7563373Y59874019D01*
X7474966Y59913616D01*
X7387638Y59955569D01*
X7301464Y59999839D01*
X7216560Y60046368D01*
X7132879Y60095180D01*
X7050525Y60146216D01*
X6969595Y60199417D01*
X6890098Y60254773D01*
X6812097Y60312245D01*
X6735707Y60371745D01*
X6660903Y60433292D01*
X6587776Y60496812D01*
X6516356Y60562281D01*
X6446735Y60629613D01*
X6378939Y60698782D01*
X6312995Y60769762D01*
X6249007Y60842441D01*
X6186946Y60916850D01*
X6126905Y60992881D01*
X6068957Y61070438D01*
X6013056Y61149582D01*
X5959298Y61230182D01*
X5907737Y61312154D01*
X5858372Y61395500D01*
X5811259Y61480122D01*
X5766420Y61565985D01*
X5723877Y61653046D01*
X5683706Y61741150D01*
X5645881Y61830353D01*
X5610470Y61920494D01*
X5577478Y62011556D01*
X5546920Y62103513D01*
X5518851Y62196179D01*
X5493255Y62289621D01*
X5470171Y62383693D01*
X5449606Y62478366D01*
X5431585Y62573526D01*
X5416117Y62669124D01*
X5403199Y62765171D01*
X5392865Y62861431D01*
X5385100Y62958037D01*
X5379925Y63054705D01*
X5377335Y63151581D01*
X5377335Y63248418D01*
X5379925Y63345294D01*
X5385100Y63441962D01*
X5392865Y63538568D01*
X5403199Y63634828D01*
X5416117Y63730875D01*
X5431585Y63826473D01*
X5449606Y63921633D01*
X5470171Y64016306D01*
X5493255Y64110378D01*
X5518851Y64203820D01*
X5546920Y64296486D01*
X5577478Y64388443D01*
X5610470Y64479505D01*
X5645881Y64569646D01*
X5683706Y64658849D01*
X5723877Y64746953D01*
X5766420Y64834014D01*
X5811259Y64919877D01*
X5858372Y65004499D01*
X5907737Y65087845D01*
X5959298Y65169817D01*
X6013056Y65250417D01*
X6068957Y65329561D01*
X6126905Y65407118D01*
X6186946Y65483149D01*
X6249007Y65557558D01*
X6312995Y65630237D01*
X6378939Y65701217D01*
X6446735Y65770386D01*
X6516356Y65837718D01*
X6587776Y65903187D01*
X6660903Y65966707D01*
X6735707Y66028254D01*
X6812097Y66087754D01*
X6890098Y66145226D01*
X6969595Y66200582D01*
X7050525Y66253783D01*
X7132879Y66304819D01*
X7216560Y66353631D01*
X7301464Y66400160D01*
X7387638Y66444430D01*
X7474966Y66486383D01*
X7563373Y66525980D01*
X7652789Y66563194D01*
X7743158Y66597998D01*
X7834496Y66630400D01*
X7926596Y66660325D01*
X8019488Y66687785D01*
X8113078Y66712750D01*
X8207310Y66735207D01*
X8302102Y66755135D01*
X8397385Y66772520D01*
X8493109Y66787354D01*
X8589196Y66799623D01*
X8685569Y66809318D01*
X8782182Y66816435D01*
X8878954Y66820965D01*
X8975772Y66822908D01*
X9072640Y66822260D01*
G37*
X9072640Y66822260D02*
X9169468Y66819022D01*
X9266122Y66813202D01*
X9362654Y66804791D01*
X9458884Y66793810D01*
X9554789Y66780259D01*
X9650304Y66764147D01*
X9745370Y66745485D01*
X9839884Y66724292D01*
X9933791Y66700582D01*
X10027066Y66674360D01*
X10119559Y66645668D01*
X10211275Y66614506D01*
X10302146Y66580896D01*
X10392058Y66544880D01*
X10480954Y66506481D01*
X10568838Y66465699D01*
X10655581Y66422590D01*
X10741126Y66377187D01*
X10825478Y66329484D01*
X10908465Y66279578D01*
X10990116Y66227454D01*
X11070339Y66173169D01*
X11149073Y66116766D01*
X11226298Y66058258D01*
X11301918Y65997716D01*
X11375856Y65935206D01*
X11448160Y65870684D01*
X11518679Y65804284D01*
X11587394Y65736028D01*
X11654277Y65665939D01*
X11719231Y65594122D01*
X11782282Y65520548D01*
X11843310Y65445357D01*
X11902334Y65368524D01*
X11959270Y65290158D01*
X12014077Y65210319D01*
X12066757Y65129000D01*
X12117226Y65046332D01*
X12165459Y64962359D01*
X12211467Y64877058D01*
X12255123Y64790665D01*
X12296506Y64703026D01*
X12335504Y64614376D01*
X12372133Y64524675D01*
X12406325Y64434095D01*
X12438103Y64342579D01*
X12467426Y64250236D01*
X12494262Y64157172D01*
X12518601Y64063419D01*
X12540423Y63969055D01*
X12559718Y63874129D01*
X12576473Y63778696D01*
X12590660Y63682914D01*
X12602290Y63586720D01*
X12611341Y63490285D01*
X12617808Y63393664D01*
X12621693Y63296864D01*
X12622988Y63200000D01*
X12621693Y63103135D01*
X12617808Y63006335D01*
X12611341Y62909714D01*
X12602290Y62813279D01*
X12590660Y62717085D01*
X12576473Y62621303D01*
X12559718Y62525870D01*
X12540423Y62430944D01*
X12518601Y62336580D01*
X12494262Y62242827D01*
X12467426Y62149763D01*
X12438103Y62057420D01*
X12406325Y61965904D01*
X12372133Y61875324D01*
X12335504Y61785623D01*
X12296506Y61696973D01*
X12255123Y61609334D01*
X12211467Y61522941D01*
X12165459Y61437640D01*
X12117226Y61353667D01*
X12066757Y61270999D01*
X12014077Y61189680D01*
X11959270Y61109841D01*
X11902334Y61031475D01*
X11843310Y60954642D01*
X11782282Y60879451D01*
X11719231Y60805877D01*
X11654277Y60734060D01*
X11587394Y60663971D01*
X11518679Y60595715D01*
X11448160Y60529315D01*
X11375856Y60464793D01*
X11301918Y60402283D01*
X11226298Y60341741D01*
X11149073Y60283233D01*
X11070339Y60226830D01*
X10990116Y60172545D01*
X10908465Y60120421D01*
X10825478Y60070515D01*
X10741126Y60022812D01*
X10655581Y59977409D01*
X10568838Y59934300D01*
X10480954Y59893518D01*
X10392058Y59855119D01*
X10302146Y59819103D01*
X10211275Y59785493D01*
X10119559Y59754331D01*
X10027066Y59725639D01*
X9933791Y59699417D01*
X9839884Y59675707D01*
X9745370Y59654514D01*
X9650304Y59635852D01*
X9554789Y59619740D01*
X9458884Y59606189D01*
X9362654Y59595208D01*
X9266122Y59586797D01*
X9169468Y59580977D01*
X9072640Y59577739D01*
X8975772Y59577091D01*
X8878954Y59579034D01*
X8782182Y59583564D01*
X8685569Y59590681D01*
X8589196Y59600376D01*
X8493109Y59612645D01*
X8397385Y59627479D01*
X8302102Y59644864D01*
X8207310Y59664792D01*
X8113078Y59687249D01*
X8019488Y59712214D01*
X7926596Y59739674D01*
X7834496Y59769599D01*
X7743158Y59802001D01*
X7652789Y59836805D01*
X7563373Y59874019D01*
X7474966Y59913616D01*
X7387638Y59955569D01*
X7301464Y59999839D01*
X7216560Y60046368D01*
X7132879Y60095180D01*
X7050525Y60146216D01*
X6969595Y60199417D01*
X6890098Y60254773D01*
X6812097Y60312245D01*
X6735707Y60371745D01*
X6660903Y60433292D01*
X6587776Y60496812D01*
X6516356Y60562281D01*
X6446735Y60629613D01*
X6378939Y60698782D01*
X6312995Y60769762D01*
X6249007Y60842441D01*
X6186946Y60916850D01*
X6126905Y60992881D01*
X6068957Y61070438D01*
X6013056Y61149582D01*
X5959298Y61230182D01*
X5907737Y61312154D01*
X5858372Y61395500D01*
X5811259Y61480122D01*
X5766420Y61565985D01*
X5723877Y61653046D01*
X5683706Y61741150D01*
X5645881Y61830353D01*
X5610470Y61920494D01*
X5577478Y62011556D01*
X5546920Y62103513D01*
X5518851Y62196179D01*
X5493255Y62289621D01*
X5470171Y62383693D01*
X5449606Y62478366D01*
X5431585Y62573526D01*
X5416117Y62669124D01*
X5403199Y62765171D01*
X5392865Y62861431D01*
X5385100Y62958037D01*
X5379925Y63054705D01*
X5377335Y63151581D01*
X5377335Y63248418D01*
X5379925Y63345294D01*
X5385100Y63441962D01*
X5392865Y63538568D01*
X5403199Y63634828D01*
X5416117Y63730875D01*
X5431585Y63826473D01*
X5449606Y63921633D01*
X5470171Y64016306D01*
X5493255Y64110378D01*
X5518851Y64203820D01*
X5546920Y64296486D01*
X5577478Y64388443D01*
X5610470Y64479505D01*
X5645881Y64569646D01*
X5683706Y64658849D01*
X5723877Y64746953D01*
X5766420Y64834014D01*
X5811259Y64919877D01*
X5858372Y65004499D01*
X5907737Y65087845D01*
X5959298Y65169817D01*
X6013056Y65250417D01*
X6068957Y65329561D01*
X6126905Y65407118D01*
X6186946Y65483149D01*
X6249007Y65557558D01*
X6312995Y65630237D01*
X6378939Y65701217D01*
X6446735Y65770386D01*
X6516356Y65837718D01*
X6587776Y65903187D01*
X6660903Y65966707D01*
X6735707Y66028254D01*
X6812097Y66087754D01*
X6890098Y66145226D01*
X6969595Y66200582D01*
X7050525Y66253783D01*
X7132879Y66304819D01*
X7216560Y66353631D01*
X7301464Y66400160D01*
X7387638Y66444430D01*
X7474966Y66486383D01*
X7563373Y66525980D01*
X7652789Y66563194D01*
X7743158Y66597998D01*
X7834496Y66630400D01*
X7926596Y66660325D01*
X8019488Y66687785D01*
X8113078Y66712750D01*
X8207310Y66735207D01*
X8302102Y66755135D01*
X8397385Y66772520D01*
X8493109Y66787354D01*
X8589196Y66799623D01*
X8685569Y66809318D01*
X8782182Y66816435D01*
X8878954Y66820965D01*
X8975772Y66822908D01*
X9072640Y66822260D01*
G36*
X21873000Y627000D02*
G01*
X127000Y627000D01*
X127000Y13873000D01*
X21873000Y13873000D01*
X21873000Y627000D01*
G37*
X21873000Y627000D02*
X127000Y627000D01*
X127000Y13873000D01*
X21873000Y13873000D01*
X21873000Y627000D01*
G36*
X92373000Y127000D02*
G01*
X79627000Y127000D01*
X79627000Y13873000D01*
X92373000Y13873000D01*
X92373000Y127000D01*
G37*
X92373000Y127000D02*
X79627000Y127000D01*
X79627000Y13873000D01*
X92373000Y13873000D01*
X92373000Y127000D01*
M02*
