%TF.GenerationSoftware,KiCad,Pcbnew,5.1.5-52549c5~86~ubuntu18.04.1*%
%TF.CreationDate,2020-06-02T09:12:00-05:00*%
%TF.ProjectId,ctrb0505-A,63747262-3035-4303-952d-412e6b696361,rev?*%
%TF.SameCoordinates,Original*%
%TF.FileFunction,Soldermask,Bot*%
%TF.FilePolarity,Negative*%
%FSLAX46Y46*%
G04 Gerber Fmt 4.6, Leading zero omitted, Abs format (unit mm)*
G04 Created by KiCad (PCBNEW 5.1.5-52549c5~86~ubuntu18.04.1) date 2020-06-02 09:12:00*
%MOMM*%
%LPD*%
G04 APERTURE LIST*
%ADD10C,1.000000*%
%ADD11C,0.050000*%
%ADD12C,0.150000*%
%ADD13C,0.200000*%
%ADD14C,0.254000*%
%ADD15C,0.203200*%
%ADD16C,0.101600*%
%ADD17C,0.020000*%
%ADD18C,2.438400*%
%ADD19C,7.010400*%
%ADD20R,1.778000X3.378200*%
%ADD21R,6.908800X6.908800*%
%ADD22C,3.000000*%
%ADD23C,2.133600*%
%ADD24R,2.133600X2.133600*%
%ADD25C,2.489200*%
%ADD26R,2.489200X2.489200*%
%ADD27C,1.778000*%
%ADD28R,1.778000X1.778000*%
%ADD29R,1.676400X1.676400*%
%ADD30C,1.676400*%
%ADD31R,1.803400X1.803400*%
%ADD32C,1.803400*%
%ADD33C,1.117600*%
G04 APERTURE END LIST*
D10*
X92500000Y0D02*
X0Y0D01*
X92500000Y72000000D02*
X92500000Y0D01*
X0Y72000000D02*
X92500000Y72000000D01*
X0Y0D02*
X0Y72000000D01*
%TO.C,cam5*%
D11*
X-4270595Y-49448320D02*
X-4270595Y-48448320D01*
X-4746785Y-48781654D02*
X-4746785Y-49448320D01*
X-4746785Y-48876892D02*
X-4794404Y-48829273D01*
X-4889642Y-48781654D01*
X-5032500Y-48781654D01*
X-5127738Y-48829273D01*
X-5175357Y-48924511D01*
X-5175357Y-49448320D01*
X-6080119Y-49448320D02*
X-6080119Y-48448320D01*
X-6080119Y-49400701D02*
X-5984880Y-49448320D01*
X-5794404Y-49448320D01*
X-5699166Y-49400701D01*
X-5651547Y-49353082D01*
X-5603928Y-49257844D01*
X-5603928Y-48972130D01*
X-5651547Y-48876892D01*
X-5699166Y-48829273D01*
X-5794404Y-48781654D01*
X-5984880Y-48781654D01*
X-6080119Y-48829273D01*
X-7318214Y-49353082D02*
X-7365833Y-49400701D01*
X-7318214Y-49448320D01*
X-7270595Y-49400701D01*
X-7318214Y-49353082D01*
X-7318214Y-49448320D01*
X-7318214Y-48829273D02*
X-7365833Y-48876892D01*
X-7318214Y-48924511D01*
X-7270595Y-48876892D01*
X-7318214Y-48829273D01*
X-7318214Y-48924511D01*
X12729404Y-48924511D02*
X12396071Y-48924511D01*
X12253214Y-49448320D02*
X12729404Y-49448320D01*
X12729404Y-48448320D01*
X12253214Y-48448320D01*
X11396071Y-49400701D02*
X11491309Y-49448320D01*
X11681785Y-49448320D01*
X11777023Y-49400701D01*
X11824642Y-49353082D01*
X11872261Y-49257844D01*
X11872261Y-48972130D01*
X11824642Y-48876892D01*
X11777023Y-48829273D01*
X11681785Y-48781654D01*
X11491309Y-48781654D01*
X11396071Y-48829273D01*
X10967500Y-49448320D02*
X10967500Y-48448320D01*
X10538928Y-49448320D02*
X10538928Y-48924511D01*
X10586547Y-48829273D01*
X10681785Y-48781654D01*
X10824642Y-48781654D01*
X10919880Y-48829273D01*
X10967500Y-48876892D01*
X9300833Y-49353082D02*
X9253214Y-49400701D01*
X9300833Y-49448320D01*
X9348452Y-49400701D01*
X9300833Y-49353082D01*
X9300833Y-49448320D01*
X9300833Y-48829273D02*
X9253214Y-48876892D01*
X9300833Y-48924511D01*
X9348452Y-48876892D01*
X9300833Y-48829273D01*
X9300833Y-48924511D01*
X7538928Y-49448320D02*
X8110357Y-49448320D01*
X7824642Y-49448320D02*
X7824642Y-48448320D01*
X7919880Y-48591178D01*
X8015119Y-48686416D01*
X8110357Y-48734035D01*
X6396071Y-48400701D02*
X7253214Y-49686416D01*
X5538928Y-49448320D02*
X6110357Y-49448320D01*
X5824642Y-49448320D02*
X5824642Y-48448320D01*
X5919880Y-48591178D01*
X6015119Y-48686416D01*
X6110357Y-48734035D01*
X12729404Y-54448320D02*
X12729404Y-53448320D01*
X12491309Y-53448320D01*
X12348452Y-53495940D01*
X12253214Y-53591178D01*
X12205595Y-53686416D01*
X12157976Y-53876892D01*
X12157976Y-54019749D01*
X12205595Y-54210225D01*
X12253214Y-54305463D01*
X12348452Y-54400701D01*
X12491309Y-54448320D01*
X12729404Y-54448320D01*
X11586547Y-54448320D02*
X11681785Y-54400701D01*
X11729404Y-54353082D01*
X11777023Y-54257844D01*
X11777023Y-53972130D01*
X11729404Y-53876892D01*
X11681785Y-53829273D01*
X11586547Y-53781654D01*
X11443690Y-53781654D01*
X11348452Y-53829273D01*
X11300833Y-53876892D01*
X11253214Y-53972130D01*
X11253214Y-54257844D01*
X11300833Y-54353082D01*
X11348452Y-54400701D01*
X11443690Y-54448320D01*
X11586547Y-54448320D01*
X10872261Y-54400701D02*
X10777023Y-54448320D01*
X10586547Y-54448320D01*
X10491309Y-54400701D01*
X10443690Y-54305463D01*
X10443690Y-54257844D01*
X10491309Y-54162606D01*
X10586547Y-54114987D01*
X10729404Y-54114987D01*
X10824642Y-54067368D01*
X10872261Y-53972130D01*
X10872261Y-53924511D01*
X10824642Y-53829273D01*
X10729404Y-53781654D01*
X10586547Y-53781654D01*
X10491309Y-53829273D01*
X10062738Y-54400701D02*
X9967500Y-54448320D01*
X9777023Y-54448320D01*
X9681785Y-54400701D01*
X9634166Y-54305463D01*
X9634166Y-54257844D01*
X9681785Y-54162606D01*
X9777023Y-54114987D01*
X9919880Y-54114987D01*
X10015119Y-54067368D01*
X10062738Y-53972130D01*
X10062738Y-53924511D01*
X10015119Y-53829273D01*
X9919880Y-53781654D01*
X9777023Y-53781654D01*
X9681785Y-53829273D01*
X9205595Y-54448320D02*
X9205595Y-53781654D01*
X9205595Y-53448320D02*
X9253214Y-53495940D01*
X9205595Y-53543559D01*
X9157976Y-53495940D01*
X9205595Y-53448320D01*
X9205595Y-53543559D01*
X8348452Y-54400701D02*
X8443690Y-54448320D01*
X8634166Y-54448320D01*
X8729404Y-54400701D01*
X8777023Y-54305463D01*
X8777023Y-53924511D01*
X8729404Y-53829273D01*
X8634166Y-53781654D01*
X8443690Y-53781654D01*
X8348452Y-53829273D01*
X8300833Y-53924511D01*
X8300833Y-54019749D01*
X8777023Y-54114987D01*
X7872261Y-54448320D02*
X7872261Y-53781654D01*
X7872261Y-53972130D02*
X7824642Y-53876892D01*
X7777023Y-53829273D01*
X7681785Y-53781654D01*
X7586547Y-53781654D01*
X6491309Y-54448320D02*
X6491309Y-53448320D01*
X5919880Y-54448320D01*
X5919880Y-53448320D01*
X5586547Y-53400701D02*
X5443690Y-53543559D01*
X5062738Y-54353082D02*
X5015119Y-54400701D01*
X5062738Y-54448320D01*
X5110357Y-54400701D01*
X5062738Y-54353082D01*
X5062738Y-54448320D01*
X5062738Y-53829273D02*
X5015119Y-53876892D01*
X5062738Y-53924511D01*
X5110357Y-53876892D01*
X5062738Y-53829273D01*
X5062738Y-53924511D01*
X38729404Y-54448320D02*
X38729404Y-53448320D01*
X38491309Y-53448320D01*
X38348452Y-53495940D01*
X38253214Y-53591178D01*
X38205595Y-53686416D01*
X38157976Y-53876892D01*
X38157976Y-54019749D01*
X38205595Y-54210225D01*
X38253214Y-54305463D01*
X38348452Y-54400701D01*
X38491309Y-54448320D01*
X38729404Y-54448320D01*
X37300833Y-54448320D02*
X37300833Y-53924511D01*
X37348452Y-53829273D01*
X37443690Y-53781654D01*
X37634166Y-53781654D01*
X37729404Y-53829273D01*
X37300833Y-54400701D02*
X37396071Y-54448320D01*
X37634166Y-54448320D01*
X37729404Y-54400701D01*
X37777023Y-54305463D01*
X37777023Y-54210225D01*
X37729404Y-54114987D01*
X37634166Y-54067368D01*
X37396071Y-54067368D01*
X37300833Y-54019749D01*
X36967500Y-53781654D02*
X36586547Y-53781654D01*
X36824642Y-53448320D02*
X36824642Y-54305463D01*
X36777023Y-54400701D01*
X36681785Y-54448320D01*
X36586547Y-54448320D01*
X35872261Y-54400701D02*
X35967500Y-54448320D01*
X36157976Y-54448320D01*
X36253214Y-54400701D01*
X36300833Y-54305463D01*
X36300833Y-53924511D01*
X36253214Y-53829273D01*
X36157976Y-53781654D01*
X35967500Y-53781654D01*
X35872261Y-53829273D01*
X35824642Y-53924511D01*
X35824642Y-54019749D01*
X36300833Y-54114987D01*
X34634166Y-54353082D02*
X34586547Y-54400701D01*
X34634166Y-54448320D01*
X34681785Y-54400701D01*
X34634166Y-54353082D01*
X34634166Y-54448320D01*
X34634166Y-53829273D02*
X34586547Y-53876892D01*
X34634166Y-53924511D01*
X34681785Y-53876892D01*
X34634166Y-53829273D01*
X34634166Y-53924511D01*
X108657976Y-49353082D02*
X108705595Y-49400701D01*
X108848452Y-49448320D01*
X108943690Y-49448320D01*
X109086547Y-49400701D01*
X109181785Y-49305463D01*
X109229404Y-49210225D01*
X109277023Y-49019749D01*
X109277023Y-48876892D01*
X109229404Y-48686416D01*
X109181785Y-48591178D01*
X109086547Y-48495940D01*
X108943690Y-48448320D01*
X108848452Y-48448320D01*
X108705595Y-48495940D01*
X108657976Y-48543559D01*
X107800833Y-49448320D02*
X107800833Y-48924511D01*
X107848452Y-48829273D01*
X107943690Y-48781654D01*
X108134166Y-48781654D01*
X108229404Y-48829273D01*
X107800833Y-49400701D02*
X107896071Y-49448320D01*
X108134166Y-49448320D01*
X108229404Y-49400701D01*
X108277023Y-49305463D01*
X108277023Y-49210225D01*
X108229404Y-49114987D01*
X108134166Y-49067368D01*
X107896071Y-49067368D01*
X107800833Y-49019749D01*
X107324642Y-49448320D02*
X107324642Y-48781654D01*
X107324642Y-48972130D02*
X107277023Y-48876892D01*
X107229404Y-48829273D01*
X107134166Y-48781654D01*
X107038928Y-48781654D01*
X106848452Y-48781654D02*
X106467500Y-48781654D01*
X106705595Y-48448320D02*
X106705595Y-49305463D01*
X106657976Y-49400701D01*
X106562738Y-49448320D01*
X106467500Y-49448320D01*
X105753214Y-49400701D02*
X105848452Y-49448320D01*
X106038928Y-49448320D01*
X106134166Y-49400701D01*
X106181785Y-49305463D01*
X106181785Y-48924511D01*
X106134166Y-48829273D01*
X106038928Y-48781654D01*
X105848452Y-48781654D01*
X105753214Y-48829273D01*
X105705595Y-48924511D01*
X105705595Y-49019749D01*
X106181785Y-49114987D01*
X104515119Y-49353082D02*
X104467500Y-49400701D01*
X104515119Y-49448320D01*
X104562738Y-49400701D01*
X104515119Y-49353082D01*
X104515119Y-49448320D01*
X104515119Y-48829273D02*
X104467500Y-48876892D01*
X104515119Y-48924511D01*
X104562738Y-48876892D01*
X104515119Y-48829273D01*
X104515119Y-48924511D01*
X64396071Y-53924511D02*
X64729404Y-53924511D01*
X64729404Y-54448320D02*
X64729404Y-53448320D01*
X64253214Y-53448320D01*
X63443690Y-54448320D02*
X63443690Y-53924511D01*
X63491309Y-53829273D01*
X63586547Y-53781654D01*
X63777023Y-53781654D01*
X63872261Y-53829273D01*
X63443690Y-54400701D02*
X63538928Y-54448320D01*
X63777023Y-54448320D01*
X63872261Y-54400701D01*
X63919880Y-54305463D01*
X63919880Y-54210225D01*
X63872261Y-54114987D01*
X63777023Y-54067368D01*
X63538928Y-54067368D01*
X63443690Y-54019749D01*
X62967500Y-54448320D02*
X62967500Y-53781654D01*
X62967500Y-53448320D02*
X63015119Y-53495940D01*
X62967500Y-53543559D01*
X62919880Y-53495940D01*
X62967500Y-53448320D01*
X62967500Y-53543559D01*
X62634166Y-53781654D02*
X62253214Y-53781654D01*
X62491309Y-53448320D02*
X62491309Y-54305463D01*
X62443690Y-54400701D01*
X62348452Y-54448320D01*
X62253214Y-54448320D01*
X61157976Y-53781654D02*
X61157976Y-54781654D01*
X61157976Y-53829273D02*
X61062738Y-53781654D01*
X60872261Y-53781654D01*
X60777023Y-53829273D01*
X60729404Y-53876892D01*
X60681785Y-53972130D01*
X60681785Y-54257844D01*
X60729404Y-54353082D01*
X60777023Y-54400701D01*
X60872261Y-54448320D01*
X61062738Y-54448320D01*
X61157976Y-54400701D01*
X59824642Y-54448320D02*
X59824642Y-53924511D01*
X59872261Y-53829273D01*
X59967500Y-53781654D01*
X60157976Y-53781654D01*
X60253214Y-53829273D01*
X59824642Y-54400701D02*
X59919880Y-54448320D01*
X60157976Y-54448320D01*
X60253214Y-54400701D01*
X60300833Y-54305463D01*
X60300833Y-54210225D01*
X60253214Y-54114987D01*
X60157976Y-54067368D01*
X59919880Y-54067368D01*
X59824642Y-54019749D01*
X59348452Y-54448320D02*
X59348452Y-53781654D01*
X59348452Y-53972130D02*
X59300833Y-53876892D01*
X59253214Y-53829273D01*
X59157976Y-53781654D01*
X59062738Y-53781654D01*
X57967500Y-54353082D02*
X57919880Y-54400701D01*
X57967500Y-54448320D01*
X58015119Y-54400701D01*
X57967500Y-54353082D01*
X57967500Y-54448320D01*
X57967500Y-53829273D02*
X57919880Y-53876892D01*
X57967500Y-53924511D01*
X58015119Y-53876892D01*
X57967500Y-53829273D01*
X57967500Y-53924511D01*
X56396071Y-53924511D02*
X56729404Y-53924511D01*
X56729404Y-54448320D02*
X56729404Y-53448320D01*
X56253214Y-53448320D01*
X55872261Y-53924511D02*
X55538928Y-53924511D01*
X55396071Y-54448320D02*
X55872261Y-54448320D01*
X55872261Y-53448320D01*
X55396071Y-53448320D01*
X54967500Y-53924511D02*
X54634166Y-53924511D01*
X54491309Y-54448320D02*
X54967500Y-54448320D01*
X54967500Y-53448320D01*
X54491309Y-53448320D01*
X108657976Y-54353082D02*
X108705595Y-54400701D01*
X108848452Y-54448320D01*
X108943690Y-54448320D01*
X109086547Y-54400701D01*
X109181785Y-54305463D01*
X109229404Y-54210225D01*
X109277023Y-54019749D01*
X109277023Y-53876892D01*
X109229404Y-53686416D01*
X109181785Y-53591178D01*
X109086547Y-53495940D01*
X108943690Y-53448320D01*
X108848452Y-53448320D01*
X108705595Y-53495940D01*
X108657976Y-53543559D01*
X108086547Y-54448320D02*
X108181785Y-54400701D01*
X108229404Y-54305463D01*
X108229404Y-53448320D01*
X107705595Y-54448320D02*
X107705595Y-53781654D01*
X107705595Y-53448320D02*
X107753214Y-53495940D01*
X107705595Y-53543559D01*
X107657976Y-53495940D01*
X107705595Y-53448320D01*
X107705595Y-53543559D01*
X106848452Y-54400701D02*
X106943690Y-54448320D01*
X107134166Y-54448320D01*
X107229404Y-54400701D01*
X107277023Y-54305463D01*
X107277023Y-53924511D01*
X107229404Y-53829273D01*
X107134166Y-53781654D01*
X106943690Y-53781654D01*
X106848452Y-53829273D01*
X106800833Y-53924511D01*
X106800833Y-54019749D01*
X107277023Y-54114987D01*
X106372261Y-53781654D02*
X106372261Y-54448320D01*
X106372261Y-53876892D02*
X106324642Y-53829273D01*
X106229404Y-53781654D01*
X106086547Y-53781654D01*
X105991309Y-53829273D01*
X105943690Y-53924511D01*
X105943690Y-54448320D01*
X105610357Y-53781654D02*
X105229404Y-53781654D01*
X105467500Y-53448320D02*
X105467500Y-54305463D01*
X105419880Y-54400701D01*
X105324642Y-54448320D01*
X105229404Y-54448320D01*
X104134166Y-54353082D02*
X104086547Y-54400701D01*
X104134166Y-54448320D01*
X104181785Y-54400701D01*
X104134166Y-54353082D01*
X104134166Y-54448320D01*
X104134166Y-53829273D02*
X104086547Y-53876892D01*
X104134166Y-53924511D01*
X104181785Y-53876892D01*
X104134166Y-53829273D01*
X104134166Y-53924511D01*
X-43369761Y-52158491D02*
X-43036428Y-52158491D01*
X-43036428Y-52682300D02*
X-43036428Y-51682300D01*
X-43512619Y-51682300D01*
X-43893571Y-52682300D02*
X-43893571Y-52015634D01*
X-43893571Y-52206110D02*
X-43941190Y-52110872D01*
X-43988809Y-52063253D01*
X-44084047Y-52015634D01*
X-44179285Y-52015634D01*
X-44941190Y-52682300D02*
X-44941190Y-52158491D01*
X-44893571Y-52063253D01*
X-44798333Y-52015634D01*
X-44607857Y-52015634D01*
X-44512619Y-52063253D01*
X-44941190Y-52634681D02*
X-44845952Y-52682300D01*
X-44607857Y-52682300D01*
X-44512619Y-52634681D01*
X-44465000Y-52539443D01*
X-44465000Y-52444205D01*
X-44512619Y-52348967D01*
X-44607857Y-52301348D01*
X-44845952Y-52301348D01*
X-44941190Y-52253729D01*
X-45417380Y-52015634D02*
X-45417380Y-52682300D01*
X-45417380Y-52110872D02*
X-45465000Y-52063253D01*
X-45560238Y-52015634D01*
X-45703095Y-52015634D01*
X-45798333Y-52063253D01*
X-45845952Y-52158491D01*
X-45845952Y-52682300D01*
X-46750714Y-52634681D02*
X-46655476Y-52682300D01*
X-46465000Y-52682300D01*
X-46369761Y-52634681D01*
X-46322142Y-52587062D01*
X-46274523Y-52491824D01*
X-46274523Y-52206110D01*
X-46322142Y-52110872D01*
X-46369761Y-52063253D01*
X-46465000Y-52015634D01*
X-46655476Y-52015634D01*
X-46750714Y-52063253D01*
X-47560238Y-52634681D02*
X-47465000Y-52682300D01*
X-47274523Y-52682300D01*
X-47179285Y-52634681D01*
X-47131666Y-52539443D01*
X-47131666Y-52158491D01*
X-47179285Y-52063253D01*
X-47274523Y-52015634D01*
X-47465000Y-52015634D01*
X-47560238Y-52063253D01*
X-47607857Y-52158491D01*
X-47607857Y-52253729D01*
X-47131666Y-52348967D01*
X-48798333Y-52158491D02*
X-49131666Y-52158491D01*
X-49274523Y-52682300D02*
X-48798333Y-52682300D01*
X-48798333Y-51682300D01*
X-49274523Y-51682300D01*
X-49560238Y-52015634D02*
X-49941190Y-52015634D01*
X-49703095Y-51682300D02*
X-49703095Y-52539443D01*
X-49750714Y-52634681D01*
X-49845952Y-52682300D01*
X-49941190Y-52682300D01*
X-50703095Y-52015634D02*
X-50703095Y-52682300D01*
X-50274523Y-52015634D02*
X-50274523Y-52539443D01*
X-50322142Y-52634681D01*
X-50417380Y-52682300D01*
X-50560238Y-52682300D01*
X-50655476Y-52634681D01*
X-50703095Y-52587062D01*
X-51607857Y-52682300D02*
X-51607857Y-51682300D01*
X-51607857Y-52634681D02*
X-51512619Y-52682300D01*
X-51322142Y-52682300D01*
X-51226904Y-52634681D01*
X-51179285Y-52587062D01*
X-51131666Y-52491824D01*
X-51131666Y-52206110D01*
X-51179285Y-52110872D01*
X-51226904Y-52063253D01*
X-51322142Y-52015634D01*
X-51512619Y-52015634D01*
X-51607857Y-52063253D01*
X-52465000Y-52634681D02*
X-52369761Y-52682300D01*
X-52179285Y-52682300D01*
X-52084047Y-52634681D01*
X-52036428Y-52539443D01*
X-52036428Y-52158491D01*
X-52084047Y-52063253D01*
X-52179285Y-52015634D01*
X-52369761Y-52015634D01*
X-52465000Y-52063253D01*
X-52512619Y-52158491D01*
X-52512619Y-52253729D01*
X-52036428Y-52348967D01*
X-52893571Y-52634681D02*
X-52988809Y-52682300D01*
X-53179285Y-52682300D01*
X-53274523Y-52634681D01*
X-53322142Y-52539443D01*
X-53322142Y-52491824D01*
X-53274523Y-52396586D01*
X-53179285Y-52348967D01*
X-53036428Y-52348967D01*
X-52941190Y-52301348D01*
X-52893571Y-52206110D01*
X-52893571Y-52158491D01*
X-52941190Y-52063253D01*
X-53036428Y-52015634D01*
X-53179285Y-52015634D01*
X-53274523Y-52063253D01*
X-54512619Y-52158491D02*
X-54845952Y-52158491D01*
X-54988809Y-52682300D02*
X-54512619Y-52682300D01*
X-54512619Y-51682300D01*
X-54988809Y-51682300D01*
X-55560238Y-52682300D02*
X-55465000Y-52634681D01*
X-55417380Y-52539443D01*
X-55417380Y-51682300D01*
X-56322142Y-52634681D02*
X-56226904Y-52682300D01*
X-56036428Y-52682300D01*
X-55941190Y-52634681D01*
X-55893571Y-52539443D01*
X-55893571Y-52158491D01*
X-55941190Y-52063253D01*
X-56036428Y-52015634D01*
X-56226904Y-52015634D01*
X-56322142Y-52063253D01*
X-56369761Y-52158491D01*
X-56369761Y-52253729D01*
X-55893571Y-52348967D01*
X-57226904Y-52634681D02*
X-57131666Y-52682300D01*
X-56941190Y-52682300D01*
X-56845952Y-52634681D01*
X-56798333Y-52587062D01*
X-56750714Y-52491824D01*
X-56750714Y-52206110D01*
X-56798333Y-52110872D01*
X-56845952Y-52063253D01*
X-56941190Y-52015634D01*
X-57131666Y-52015634D01*
X-57226904Y-52063253D01*
X-57512619Y-52015634D02*
X-57893571Y-52015634D01*
X-57655476Y-51682300D02*
X-57655476Y-52539443D01*
X-57703095Y-52634681D01*
X-57798333Y-52682300D01*
X-57893571Y-52682300D01*
X-58226904Y-52682300D02*
X-58226904Y-52015634D01*
X-58226904Y-52206110D02*
X-58274523Y-52110872D01*
X-58322142Y-52063253D01*
X-58417380Y-52015634D01*
X-58512619Y-52015634D01*
X-58988809Y-52682300D02*
X-58893571Y-52634681D01*
X-58845952Y-52587062D01*
X-58798333Y-52491824D01*
X-58798333Y-52206110D01*
X-58845952Y-52110872D01*
X-58893571Y-52063253D01*
X-58988809Y-52015634D01*
X-59131666Y-52015634D01*
X-59226904Y-52063253D01*
X-59274523Y-52110872D01*
X-59322142Y-52206110D01*
X-59322142Y-52491824D01*
X-59274523Y-52587062D01*
X-59226904Y-52634681D01*
X-59131666Y-52682300D01*
X-58988809Y-52682300D01*
X-59750714Y-52015634D02*
X-59750714Y-52682300D01*
X-59750714Y-52110872D02*
X-59798333Y-52063253D01*
X-59893571Y-52015634D01*
X-60036428Y-52015634D01*
X-60131666Y-52063253D01*
X-60179285Y-52158491D01*
X-60179285Y-52682300D01*
X-60655476Y-52682300D02*
X-60655476Y-52015634D01*
X-60655476Y-51682300D02*
X-60607857Y-51729920D01*
X-60655476Y-51777539D01*
X-60703095Y-51729920D01*
X-60655476Y-51682300D01*
X-60655476Y-51777539D01*
X-61560238Y-52015634D02*
X-61560238Y-53015634D01*
X-61560238Y-52634681D02*
X-61465000Y-52682300D01*
X-61274523Y-52682300D01*
X-61179285Y-52634681D01*
X-61131666Y-52587062D01*
X-61084047Y-52491824D01*
X-61084047Y-52206110D01*
X-61131666Y-52110872D01*
X-61179285Y-52063253D01*
X-61274523Y-52015634D01*
X-61465000Y-52015634D01*
X-61560238Y-52063253D01*
X-62465000Y-52015634D02*
X-62465000Y-52682300D01*
X-62036428Y-52015634D02*
X-62036428Y-52539443D01*
X-62084047Y-52634681D01*
X-62179285Y-52682300D01*
X-62322142Y-52682300D01*
X-62417380Y-52634681D01*
X-62465000Y-52587062D01*
X-63322142Y-52634681D02*
X-63226904Y-52682300D01*
X-63036428Y-52682300D01*
X-62941190Y-52634681D01*
X-62893571Y-52539443D01*
X-62893571Y-52158491D01*
X-62941190Y-52063253D01*
X-63036428Y-52015634D01*
X-63226904Y-52015634D01*
X-63322142Y-52063253D01*
X-63369761Y-52158491D01*
X-63369761Y-52253729D01*
X-62893571Y-52348967D01*
X-63750714Y-52634681D02*
X-63845952Y-52682300D01*
X-64036428Y-52682300D01*
X-64131666Y-52634681D01*
X-64179285Y-52539443D01*
X-64179285Y-52491824D01*
X-64131666Y-52396586D01*
X-64036428Y-52348967D01*
X-63893571Y-52348967D01*
X-63798333Y-52301348D01*
X-63750714Y-52206110D01*
X-63750714Y-52158491D01*
X-63798333Y-52063253D01*
X-63893571Y-52015634D01*
X-64036428Y-52015634D01*
X-64131666Y-52063253D01*
X64872261Y-48448320D02*
X64538928Y-49448320D01*
X64205595Y-48448320D01*
X63491309Y-49400701D02*
X63586547Y-49448320D01*
X63777023Y-49448320D01*
X63872261Y-49400701D01*
X63919880Y-49305463D01*
X63919880Y-48924511D01*
X63872261Y-48829273D01*
X63777023Y-48781654D01*
X63586547Y-48781654D01*
X63491309Y-48829273D01*
X63443690Y-48924511D01*
X63443690Y-49019749D01*
X63919880Y-49114987D01*
X63015119Y-49448320D02*
X63015119Y-48781654D01*
X63015119Y-48972130D02*
X62967500Y-48876892D01*
X62919880Y-48829273D01*
X62824642Y-48781654D01*
X62729404Y-48781654D01*
X62396071Y-48781654D02*
X62396071Y-49448320D01*
X62396071Y-48876892D02*
X62348452Y-48829273D01*
X62253214Y-48781654D01*
X62110357Y-48781654D01*
X62015119Y-48829273D01*
X61967500Y-48924511D01*
X61967500Y-49448320D01*
X61491309Y-49448320D02*
X61491309Y-48781654D01*
X61491309Y-48448320D02*
X61538928Y-48495940D01*
X61491309Y-48543559D01*
X61443690Y-48495940D01*
X61491309Y-48448320D01*
X61491309Y-48543559D01*
X61062738Y-49400701D02*
X60967500Y-49448320D01*
X60777023Y-49448320D01*
X60681785Y-49400701D01*
X60634166Y-49305463D01*
X60634166Y-49257844D01*
X60681785Y-49162606D01*
X60777023Y-49114987D01*
X60919880Y-49114987D01*
X61015119Y-49067368D01*
X61062738Y-48972130D01*
X61062738Y-48924511D01*
X61015119Y-48829273D01*
X60919880Y-48781654D01*
X60777023Y-48781654D01*
X60681785Y-48829273D01*
X59062738Y-49400701D02*
X59157976Y-49448320D01*
X59348452Y-49448320D01*
X59443690Y-49400701D01*
X59491309Y-49305463D01*
X59491309Y-48924511D01*
X59443690Y-48829273D01*
X59348452Y-48781654D01*
X59157976Y-48781654D01*
X59062738Y-48829273D01*
X59015119Y-48924511D01*
X59015119Y-49019749D01*
X59491309Y-49114987D01*
X58586547Y-48781654D02*
X58586547Y-49781654D01*
X58586547Y-48829273D02*
X58491309Y-48781654D01*
X58300833Y-48781654D01*
X58205595Y-48829273D01*
X58157976Y-48876892D01*
X58110357Y-48972130D01*
X58110357Y-49257844D01*
X58157976Y-49353082D01*
X58205595Y-49400701D01*
X58300833Y-49448320D01*
X58491309Y-49448320D01*
X58586547Y-49400701D01*
X57253214Y-49448320D02*
X57253214Y-48924511D01*
X57300833Y-48829273D01*
X57396071Y-48781654D01*
X57586547Y-48781654D01*
X57681785Y-48829273D01*
X57253214Y-49400701D02*
X57348452Y-49448320D01*
X57586547Y-49448320D01*
X57681785Y-49400701D01*
X57729404Y-49305463D01*
X57729404Y-49210225D01*
X57681785Y-49114987D01*
X57586547Y-49067368D01*
X57348452Y-49067368D01*
X57253214Y-49019749D01*
X56777023Y-49448320D02*
X56777023Y-48781654D01*
X56777023Y-48972130D02*
X56729404Y-48876892D01*
X56681785Y-48829273D01*
X56586547Y-48781654D01*
X56491309Y-48781654D01*
X55729404Y-48781654D02*
X55729404Y-49591178D01*
X55777023Y-49686416D01*
X55824642Y-49734035D01*
X55919880Y-49781654D01*
X56062738Y-49781654D01*
X56157976Y-49734035D01*
X55729404Y-49400701D02*
X55824642Y-49448320D01*
X56015119Y-49448320D01*
X56110357Y-49400701D01*
X56157976Y-49353082D01*
X56205595Y-49257844D01*
X56205595Y-48972130D01*
X56157976Y-48876892D01*
X56110357Y-48829273D01*
X56015119Y-48781654D01*
X55824642Y-48781654D01*
X55729404Y-48829273D01*
X55253214Y-48781654D02*
X55253214Y-49448320D01*
X55253214Y-48876892D02*
X55205595Y-48829273D01*
X55110357Y-48781654D01*
X54967500Y-48781654D01*
X54872261Y-48829273D01*
X54824642Y-48924511D01*
X54824642Y-49448320D01*
X53967500Y-49400701D02*
X54062738Y-49448320D01*
X54253214Y-49448320D01*
X54348452Y-49400701D01*
X54396071Y-49305463D01*
X54396071Y-48924511D01*
X54348452Y-48829273D01*
X54253214Y-48781654D01*
X54062738Y-48781654D01*
X53967500Y-48829273D01*
X53919880Y-48924511D01*
X53919880Y-49019749D01*
X54396071Y-49114987D01*
X52872261Y-48781654D02*
X52491309Y-48781654D01*
X52729404Y-49448320D02*
X52729404Y-48591178D01*
X52681785Y-48495940D01*
X52586547Y-48448320D01*
X52491309Y-48448320D01*
X51729404Y-49448320D02*
X51729404Y-48924511D01*
X51777023Y-48829273D01*
X51872261Y-48781654D01*
X52062738Y-48781654D01*
X52157976Y-48829273D01*
X51729404Y-49400701D02*
X51824642Y-49448320D01*
X52062738Y-49448320D01*
X52157976Y-49400701D01*
X52205595Y-49305463D01*
X52205595Y-49210225D01*
X52157976Y-49114987D01*
X52062738Y-49067368D01*
X51824642Y-49067368D01*
X51729404Y-49019749D01*
X50824642Y-49400701D02*
X50919880Y-49448320D01*
X51110357Y-49448320D01*
X51205595Y-49400701D01*
X51253214Y-49353082D01*
X51300833Y-49257844D01*
X51300833Y-48972130D01*
X51253214Y-48876892D01*
X51205595Y-48829273D01*
X51110357Y-48781654D01*
X50919880Y-48781654D01*
X50824642Y-48829273D01*
X50015119Y-49400701D02*
X50110357Y-49448320D01*
X50300833Y-49448320D01*
X50396071Y-49400701D01*
X50443690Y-49305463D01*
X50443690Y-48924511D01*
X50396071Y-48829273D01*
X50300833Y-48781654D01*
X50110357Y-48781654D01*
X50015119Y-48829273D01*
X49967500Y-48924511D01*
X49967500Y-49019749D01*
X50443690Y-49114987D01*
X48824642Y-49400701D02*
X48729404Y-49448320D01*
X48538928Y-49448320D01*
X48443690Y-49400701D01*
X48396071Y-49305463D01*
X48396071Y-49257844D01*
X48443690Y-49162606D01*
X48538928Y-49114987D01*
X48681785Y-49114987D01*
X48777023Y-49067368D01*
X48824642Y-48972130D01*
X48824642Y-48924511D01*
X48777023Y-48829273D01*
X48681785Y-48781654D01*
X48538928Y-48781654D01*
X48443690Y-48829273D01*
X47824642Y-49448320D02*
X47919880Y-49400701D01*
X47967500Y-49353082D01*
X48015119Y-49257844D01*
X48015119Y-48972130D01*
X47967500Y-48876892D01*
X47919880Y-48829273D01*
X47824642Y-48781654D01*
X47681785Y-48781654D01*
X47586547Y-48829273D01*
X47538928Y-48876892D01*
X47491309Y-48972130D01*
X47491309Y-49257844D01*
X47538928Y-49353082D01*
X47586547Y-49400701D01*
X47681785Y-49448320D01*
X47824642Y-49448320D01*
X46634166Y-48781654D02*
X46634166Y-49448320D01*
X47062738Y-48781654D02*
X47062738Y-49305463D01*
X47015119Y-49400701D01*
X46919880Y-49448320D01*
X46777023Y-49448320D01*
X46681785Y-49400701D01*
X46634166Y-49353082D01*
X45729404Y-49448320D02*
X45729404Y-48448320D01*
X45729404Y-49400701D02*
X45824642Y-49448320D01*
X46015119Y-49448320D01*
X46110357Y-49400701D01*
X46157976Y-49353082D01*
X46205595Y-49257844D01*
X46205595Y-48972130D01*
X46157976Y-48876892D01*
X46110357Y-48829273D01*
X46015119Y-48781654D01*
X45824642Y-48781654D01*
X45729404Y-48829273D01*
X44824642Y-48781654D02*
X44824642Y-49448320D01*
X45253214Y-48781654D02*
X45253214Y-49305463D01*
X45205595Y-49400701D01*
X45110357Y-49448320D01*
X44967500Y-49448320D01*
X44872261Y-49400701D01*
X44824642Y-49353082D01*
X44348452Y-49448320D02*
X44348452Y-48781654D01*
X44348452Y-48972130D02*
X44300833Y-48876892D01*
X44253214Y-48829273D01*
X44157976Y-48781654D01*
X44062738Y-48781654D01*
X43348452Y-49400701D02*
X43443690Y-49448320D01*
X43634166Y-49448320D01*
X43729404Y-49400701D01*
X43777023Y-49305463D01*
X43777023Y-48924511D01*
X43729404Y-48829273D01*
X43634166Y-48781654D01*
X43443690Y-48781654D01*
X43348452Y-48829273D01*
X43300833Y-48924511D01*
X43300833Y-49019749D01*
X43777023Y-49114987D01*
X42919880Y-49400701D02*
X42824642Y-49448320D01*
X42634166Y-49448320D01*
X42538928Y-49400701D01*
X42491309Y-49305463D01*
X42491309Y-49257844D01*
X42538928Y-49162606D01*
X42634166Y-49114987D01*
X42777023Y-49114987D01*
X42872261Y-49067368D01*
X42919880Y-48972130D01*
X42919880Y-48924511D01*
X42872261Y-48829273D01*
X42777023Y-48781654D01*
X42634166Y-48781654D01*
X42538928Y-48829273D01*
D12*
G36*
X153680000Y-47800000D02*
G01*
X153680000Y-46200000D01*
X155280000Y-46200000D01*
X155273585Y-46303658D01*
X155260665Y-46406707D01*
X155241291Y-46508740D01*
X155215539Y-46609352D01*
X155183512Y-46708147D01*
X155145336Y-46804731D01*
X155101162Y-46898725D01*
X155051166Y-46989755D01*
X154995544Y-47077460D01*
X154934518Y-47161495D01*
X154868328Y-47241526D01*
X154797237Y-47317237D01*
X154721526Y-47388328D01*
X154641495Y-47454518D01*
X154557460Y-47515544D01*
X154469755Y-47571166D01*
X154378725Y-47621162D01*
X154284731Y-47665336D01*
X154188147Y-47703512D01*
X154089352Y-47735539D01*
X153988740Y-47761291D01*
X153886707Y-47780665D01*
X153783658Y-47793585D01*
X153680000Y-47800000D01*
G37*
G36*
X153680000Y-44600000D02*
G01*
X153680000Y-46200000D01*
X152080000Y-46200000D01*
X152086415Y-46096342D01*
X152099335Y-45993293D01*
X152118709Y-45891260D01*
X152144461Y-45790648D01*
X152176488Y-45691853D01*
X152214664Y-45595269D01*
X152258838Y-45501275D01*
X152308834Y-45410245D01*
X152364456Y-45322540D01*
X152425482Y-45238505D01*
X152491672Y-45158474D01*
X152562763Y-45082763D01*
X152638474Y-45011672D01*
X152718505Y-44945482D01*
X152802540Y-44884456D01*
X152890245Y-44828834D01*
X152981275Y-44778838D01*
X153075269Y-44734664D01*
X153171853Y-44696488D01*
X153270648Y-44664461D01*
X153371260Y-44638709D01*
X153473293Y-44619335D01*
X153576342Y-44606415D01*
X153680000Y-44600000D01*
G37*
G36*
X153680000Y104600000D02*
G01*
X153680000Y106200000D01*
X155280000Y106200000D01*
X155273585Y106096342D01*
X155260665Y105993293D01*
X155241291Y105891260D01*
X155215539Y105790648D01*
X155183512Y105691853D01*
X155145336Y105595269D01*
X155101162Y105501275D01*
X155051166Y105410245D01*
X154995544Y105322540D01*
X154934518Y105238505D01*
X154868328Y105158474D01*
X154797237Y105082763D01*
X154721526Y105011672D01*
X154641495Y104945482D01*
X154557460Y104884456D01*
X154469755Y104828834D01*
X154378725Y104778838D01*
X154284731Y104734664D01*
X154188147Y104696488D01*
X154089352Y104664461D01*
X153988740Y104638709D01*
X153886707Y104619335D01*
X153783658Y104606415D01*
X153680000Y104600000D01*
G37*
G36*
X153680000Y107800000D02*
G01*
X153680000Y106200000D01*
X152080000Y106200000D01*
X152086415Y106303658D01*
X152099335Y106406707D01*
X152118709Y106508740D01*
X152144461Y106609352D01*
X152176488Y106708147D01*
X152214664Y106804731D01*
X152258838Y106898725D01*
X152308834Y106989755D01*
X152364456Y107077460D01*
X152425482Y107161495D01*
X152491672Y107241526D01*
X152562763Y107317237D01*
X152638474Y107388328D01*
X152718505Y107454518D01*
X152802540Y107515544D01*
X152890245Y107571166D01*
X152981275Y107621162D01*
X153075269Y107665336D01*
X153171853Y107703512D01*
X153270648Y107735539D01*
X153371260Y107761291D01*
X153473293Y107780665D01*
X153576342Y107793585D01*
X153680000Y107800000D01*
G37*
G36*
X-59680000Y104600000D02*
G01*
X-59680000Y106200000D01*
X-58080000Y106200000D01*
X-58086414Y106096342D01*
X-58099334Y105993293D01*
X-58118708Y105891260D01*
X-58144459Y105790647D01*
X-58176486Y105691852D01*
X-58214662Y105595267D01*
X-58258835Y105501273D01*
X-58308832Y105410244D01*
X-58364453Y105322537D01*
X-58425479Y105238502D01*
X-58491669Y105158471D01*
X-58562760Y105082760D01*
X-58638471Y105011669D01*
X-58718502Y104945479D01*
X-58802537Y104884453D01*
X-58890244Y104828832D01*
X-58981273Y104778835D01*
X-59075267Y104734662D01*
X-59171852Y104696486D01*
X-59270647Y104664459D01*
X-59371260Y104638708D01*
X-59473293Y104619334D01*
X-59576342Y104606414D01*
X-59680000Y104600000D01*
G37*
G36*
X-59680000Y107800000D02*
G01*
X-59680000Y106200000D01*
X-61280000Y106200000D01*
X-61273585Y106303657D01*
X-61260664Y106406706D01*
X-61241289Y106508739D01*
X-61215537Y106609351D01*
X-61183509Y106708145D01*
X-61145333Y106804730D01*
X-61101159Y106898723D01*
X-61051163Y106989753D01*
X-60995541Y107077458D01*
X-60934515Y107161493D01*
X-60868326Y107241524D01*
X-60797235Y107317235D01*
X-60721524Y107388326D01*
X-60641493Y107454515D01*
X-60557458Y107515541D01*
X-60469753Y107571163D01*
X-60378723Y107621159D01*
X-60284730Y107665333D01*
X-60188145Y107703509D01*
X-60089351Y107735537D01*
X-59988739Y107761289D01*
X-59886706Y107780664D01*
X-59783657Y107793585D01*
X-59680000Y107800000D01*
G37*
G36*
X-54416250Y-45909530D02*
G01*
X-54517388Y-45887385D01*
X-54614362Y-45851114D01*
X-54705207Y-45801451D01*
X-54788087Y-45739401D01*
X-54861325Y-45666219D01*
X-54923438Y-45583385D01*
X-54973170Y-45492577D01*
X-55009513Y-45395631D01*
X-55031734Y-45294509D01*
X-55039383Y-45191258D01*
X-55032304Y-45087966D01*
X-55010640Y-44986723D01*
X-54974831Y-44889578D01*
X-54925601Y-44798497D01*
X-54863946Y-44715323D01*
X-54791113Y-44641738D01*
X-54708576Y-44579232D01*
X-54618005Y-44529069D01*
X-54521233Y-44492264D01*
X-54420219Y-44469562D01*
X-54317005Y-44461422D01*
X-54213680Y-44468010D01*
X-53655200Y-44546500D01*
X-53636499Y-44652969D01*
X-53604228Y-44756138D01*
X-53558927Y-44854286D01*
X-53501351Y-44945776D01*
X-53432462Y-45029080D01*
X-53353408Y-45102808D01*
X-53265510Y-45165730D01*
X-53366582Y-45175202D01*
X-53465530Y-45197886D01*
X-53560635Y-45233387D01*
X-53650244Y-45281089D01*
X-53732800Y-45340163D01*
X-53806869Y-45409583D01*
X-53871164Y-45488141D01*
X-53924568Y-45574474D01*
X-53966151Y-45667081D01*
X-53995193Y-45764353D01*
X-54011189Y-45864600D01*
X-54013860Y-45966080D01*
X-54416250Y-45909530D01*
G37*
G36*
X-44222960Y-43982000D02*
G01*
X-42884440Y-44170110D01*
X-43217230Y-46538320D01*
X-43239456Y-46637128D01*
X-43264305Y-46735308D01*
X-43291759Y-46832793D01*
X-43321798Y-46929512D01*
X-43354402Y-47025397D01*
X-43389546Y-47120380D01*
X-43427207Y-47214394D01*
X-43467357Y-47307372D01*
X-43509969Y-47399248D01*
X-43555011Y-47489957D01*
X-43602452Y-47579434D01*
X-43652259Y-47667617D01*
X-43704395Y-47754443D01*
X-43758825Y-47839850D01*
X-43815509Y-47923778D01*
X-43874407Y-48006167D01*
X-43935477Y-48086959D01*
X-43998677Y-48166096D01*
X-44063961Y-48243523D01*
X-44131284Y-48319184D01*
X-44200597Y-48393026D01*
X-44271851Y-48464997D01*
X-44344996Y-48535045D01*
X-44419979Y-48603121D01*
X-44496749Y-48669177D01*
X-44575250Y-48733166D01*
X-44655426Y-48795042D01*
X-44737222Y-48854762D01*
X-44820578Y-48912282D01*
X-44905436Y-48967564D01*
X-44991736Y-49020567D01*
X-45079416Y-49071253D01*
X-45168415Y-49119587D01*
X-45258668Y-49165535D01*
X-45350113Y-49209064D01*
X-45442685Y-49250142D01*
X-45536317Y-49288742D01*
X-45630944Y-49324836D01*
X-45726498Y-49358397D01*
X-45822911Y-49389403D01*
X-45920116Y-49417831D01*
X-46018043Y-49443661D01*
X-46116623Y-49466875D01*
X-46215787Y-49487456D01*
X-46315463Y-49505390D01*
X-46415581Y-49520664D01*
X-46516070Y-49533267D01*
X-46616859Y-49543190D01*
X-46717877Y-49550427D01*
X-46819051Y-49554972D01*
X-46920311Y-49556822D01*
X-47021584Y-49555975D01*
X-47122798Y-49552433D01*
X-47223883Y-49546197D01*
X-47324765Y-49537272D01*
X-47425375Y-49525665D01*
X-47525639Y-49511384D01*
X-47625488Y-49494438D01*
X-47724850Y-49474840D01*
X-47639069Y-49415288D01*
X-47559972Y-49347109D01*
X-47488423Y-49271047D01*
X-47425203Y-49187932D01*
X-47371003Y-49098673D01*
X-47326415Y-49004245D01*
X-47291926Y-48905679D01*
X-47267913Y-48804052D01*
X-47254638Y-48700473D01*
X-47252245Y-48596075D01*
X-47260762Y-48491997D01*
X-47280095Y-48389376D01*
X-47310033Y-48289333D01*
X-47350249Y-48192962D01*
X-47400303Y-48101314D01*
X-47459649Y-48015391D01*
X-47527639Y-47936131D01*
X-47603530Y-47864400D01*
X-47515987Y-47810097D01*
X-47433530Y-47748343D01*
X-47356792Y-47679612D01*
X-47286361Y-47604431D01*
X-47222777Y-47523377D01*
X-47166528Y-47437071D01*
X-47118046Y-47346176D01*
X-47077701Y-47251387D01*
X-47045803Y-47153432D01*
X-47022597Y-47053062D01*
X-47008261Y-46951046D01*
X-47002905Y-46848168D01*
X-47006570Y-46745215D01*
X-47019227Y-46642978D01*
X-47040781Y-46542240D01*
X-47071064Y-46443774D01*
X-47109846Y-46348335D01*
X-47156828Y-46256655D01*
X-47211651Y-46169436D01*
X-47273894Y-46087348D01*
X-47343080Y-46011020D01*
X-47262520Y-45948588D01*
X-47187568Y-45879523D01*
X-47118768Y-45804328D01*
X-47056619Y-45723549D01*
X-47001574Y-45637772D01*
X-46954031Y-45547619D01*
X-46914336Y-45453747D01*
X-46882778Y-45356836D01*
X-46859585Y-45257590D01*
X-46844925Y-45156729D01*
X-46838906Y-45054987D01*
X-46841571Y-44953101D01*
X-46852900Y-44851813D01*
X-46872811Y-44751857D01*
X-46901160Y-44653958D01*
X-46937742Y-44558829D01*
X-46982289Y-44467160D01*
X-47034479Y-44379616D01*
X-47093933Y-44296833D01*
X-47160219Y-44219413D01*
X-47232855Y-44147917D01*
X-47311315Y-44082865D01*
X-47395028Y-44024729D01*
X-47483387Y-43973931D01*
X-47575750Y-43930840D01*
X-55092250Y-42874560D01*
X-55191039Y-42855631D01*
X-55286275Y-42823265D01*
X-55376141Y-42778081D01*
X-55458921Y-42720941D01*
X-55533035Y-42652935D01*
X-55597067Y-42575363D01*
X-55649795Y-42489706D01*
X-55690213Y-42397597D01*
X-55717548Y-42300797D01*
X-55731280Y-42201153D01*
X-55731146Y-42100567D01*
X-55717148Y-42000960D01*
X-55689553Y-41904233D01*
X-55648889Y-41812233D01*
X-55595932Y-41726717D01*
X-55531693Y-41649316D01*
X-55457398Y-41581510D01*
X-55374466Y-41524591D01*
X-55284479Y-41479647D01*
X-55189157Y-41447536D01*
X-55090318Y-41428871D01*
X-54989850Y-41424008D01*
X-54889670Y-41433040D01*
X-47823770Y-42425990D01*
X-47828889Y-42312141D01*
X-47856556Y-42201587D01*
X-47905664Y-42098747D01*
X-47974251Y-42007732D01*
X-48059574Y-41932183D01*
X-48158221Y-41875118D01*
X-48266250Y-41838820D01*
X-50698700Y-41496990D01*
X-50799956Y-41478060D01*
X-50899314Y-41450876D01*
X-50996104Y-41415621D01*
X-51089670Y-41372534D01*
X-51179380Y-41321906D01*
X-51264628Y-41264080D01*
X-51344837Y-41199445D01*
X-51419465Y-41128440D01*
X-51488008Y-41051545D01*
X-51550002Y-40969278D01*
X-51605028Y-40882196D01*
X-51652714Y-40790888D01*
X-51692738Y-40695972D01*
X-51724830Y-40598088D01*
X-51748771Y-40497899D01*
X-51764401Y-40396081D01*
X-51771614Y-40293324D01*
X-51770361Y-40190321D01*
X-51760650Y-40087770D01*
X-51717972Y-39984216D01*
X-51657631Y-39889857D01*
X-51581533Y-39807676D01*
X-51492083Y-39740270D01*
X-51392111Y-39689770D01*
X-51284775Y-39657773D01*
X-51173470Y-39645290D01*
X-47054830Y-40224080D01*
X-46955523Y-40239563D01*
X-46856730Y-40258039D01*
X-46758539Y-40279490D01*
X-46661041Y-40303898D01*
X-46564325Y-40331239D01*
X-46468479Y-40361489D01*
X-46373590Y-40394620D01*
X-46279745Y-40430602D01*
X-46187030Y-40469402D01*
X-46095529Y-40510986D01*
X-46005326Y-40555314D01*
X-45916503Y-40602346D01*
X-45829141Y-40652040D01*
X-45743321Y-40704349D01*
X-45659119Y-40759228D01*
X-45576613Y-40816624D01*
X-45495878Y-40876486D01*
X-45416989Y-40938760D01*
X-45340016Y-41003388D01*
X-45265031Y-41070312D01*
X-45192102Y-41139470D01*
X-45121294Y-41210799D01*
X-45052673Y-41284234D01*
X-44986302Y-41359709D01*
X-44922241Y-41437154D01*
X-44860548Y-41516498D01*
X-44801280Y-41597670D01*
X-44744491Y-41680595D01*
X-44690232Y-41765197D01*
X-44638554Y-41851400D01*
X-44589503Y-41939124D01*
X-44543124Y-42028290D01*
X-44499459Y-42118816D01*
X-44458549Y-42210620D01*
X-44420430Y-42303617D01*
X-44385138Y-42397723D01*
X-44352704Y-42492853D01*
X-44323159Y-42588918D01*
X-44296528Y-42685833D01*
X-44272837Y-42783507D01*
X-44252107Y-42881853D01*
X-44234357Y-42980779D01*
X-44219604Y-43080197D01*
X-44207860Y-43180015D01*
X-44199136Y-43280142D01*
X-44193441Y-43380487D01*
X-44190779Y-43480958D01*
X-44191153Y-43581464D01*
X-44194562Y-43681913D01*
X-44201004Y-43782213D01*
X-44210473Y-43882272D01*
X-44222960Y-43982000D01*
G37*
G36*
X-50090410Y-49404900D02*
G01*
X-50099511Y-49510053D01*
X-50120307Y-49613530D01*
X-50152539Y-49714035D01*
X-50195802Y-49810307D01*
X-50249555Y-49901140D01*
X-50313123Y-49985397D01*
X-50385710Y-50062020D01*
X-50466406Y-50130050D01*
X-50554200Y-50188635D01*
X-50647993Y-50237040D01*
X-50746607Y-50274658D01*
X-50848809Y-50301019D01*
X-50953316Y-50315791D01*
X-51058820Y-50318790D01*
X-54662610Y-49812350D01*
X-54759512Y-49777624D01*
X-54851614Y-49731657D01*
X-54937619Y-49675097D01*
X-55016313Y-49608742D01*
X-55086588Y-49533527D01*
X-55147452Y-49450513D01*
X-55198048Y-49360870D01*
X-55237661Y-49265861D01*
X-55265734Y-49166827D01*
X-55281870Y-49065164D01*
X-55285843Y-48962305D01*
X-55277595Y-48859699D01*
X-55257244Y-48758795D01*
X-55225077Y-48661014D01*
X-55181546Y-48567736D01*
X-55127266Y-48480275D01*
X-55063002Y-48399864D01*
X-54989659Y-48327637D01*
X-54908273Y-48264612D01*
X-54819990Y-48211678D01*
X-54726056Y-48169582D01*
X-54627794Y-48138917D01*
X-54526589Y-48120114D01*
X-54423870Y-48113440D01*
X-53703120Y-48214720D01*
X-53690259Y-48319466D01*
X-53664405Y-48421782D01*
X-53625963Y-48520063D01*
X-53575537Y-48612768D01*
X-53513916Y-48698441D01*
X-53442069Y-48775740D01*
X-53361122Y-48843450D01*
X-53272346Y-48900509D01*
X-53177133Y-48946023D01*
X-53076977Y-48979277D01*
X-52973450Y-48999750D01*
X-50090410Y-49404900D01*
G37*
G36*
X-53659710Y-47905830D02*
G01*
X-54740840Y-47753910D01*
X-54841410Y-47733834D01*
X-54938475Y-47700735D01*
X-55030359Y-47655186D01*
X-55115471Y-47597973D01*
X-55192339Y-47530087D01*
X-55259635Y-47452702D01*
X-55316195Y-47367155D01*
X-55361041Y-47274926D01*
X-55393396Y-47177610D01*
X-55412702Y-47076889D01*
X-55418625Y-46974507D01*
X-55411062Y-46872232D01*
X-55390144Y-46771834D01*
X-55356233Y-46675049D01*
X-55309916Y-46583551D01*
X-55251992Y-46498921D01*
X-55183465Y-46422624D01*
X-55105518Y-46355978D01*
X-55019500Y-46300137D01*
X-54926899Y-46256066D01*
X-54829315Y-46224527D01*
X-54728436Y-46206065D01*
X-54626008Y-46201001D01*
X-54523800Y-46209420D01*
X-54057270Y-46274980D01*
X-54040045Y-46373927D01*
X-54014048Y-46470940D01*
X-53979488Y-46565242D01*
X-53936639Y-46656078D01*
X-53885846Y-46742723D01*
X-53827514Y-46824483D01*
X-53762111Y-46900704D01*
X-53690159Y-46970776D01*
X-53612233Y-47034139D01*
X-53528958Y-47090286D01*
X-53440999Y-47138768D01*
X-53349060Y-47179198D01*
X-53253877Y-47211250D01*
X-53156210Y-47234670D01*
X-53255760Y-47282149D01*
X-53347847Y-47342849D01*
X-53430726Y-47415619D01*
X-53502828Y-47499081D01*
X-53562786Y-47591653D01*
X-53609463Y-47691581D01*
X-53641977Y-47796972D01*
X-53659710Y-47905830D01*
G37*
D13*
X-2000000Y-45000000D02*
X-2000000Y-50000000D01*
X15000000Y-45000000D02*
X15000000Y-55000000D01*
X41500000Y-50000000D02*
X41500000Y-55000000D01*
X67000000Y-55000000D02*
X66500000Y-55000000D01*
X67000000Y-45000000D02*
X67000000Y-55000000D01*
X111000000Y-50000000D02*
X-17000000Y-50000000D01*
X-17000000Y-45000000D02*
X111000000Y-45000000D01*
X-17000000Y-55000000D02*
X-17000000Y-45000000D01*
X111000000Y-55000000D02*
X-17000000Y-55000000D01*
X111000000Y-45000000D02*
X111000000Y-55000000D01*
D14*
X-68000000Y115000000D02*
X-68000000Y-55000000D01*
X162000000Y115000000D02*
X-68000000Y115000000D01*
X162000000Y-55000000D02*
X162000000Y115000000D01*
X-68000000Y-55000000D02*
X162000000Y-55000000D01*
D15*
X-49947010Y-45487600D02*
X-52830040Y-45082450D01*
X-52873450Y-45391350D02*
X-49990410Y-45796490D01*
X-50207460Y-47340980D02*
X-53090490Y-46935830D01*
X-52567590Y-47324310D02*
X-50250860Y-47649870D01*
X-48651530Y-49344620D02*
X-52770160Y-48765830D01*
X-52627460Y-43640930D02*
X-47942520Y-44299290D01*
D14*
X-47361000Y-52296000D02*
X-53076000Y-52296000D01*
D16*
X155280000Y-46200000D02*
G75*
G03X155280000Y-46200000I-1600000J0D01*
G01*
X155280000Y106200000D02*
G75*
G03X155280000Y106200000I-1600000J0D01*
G01*
X-58080000Y106200000D02*
G75*
G03X-58080000Y106200000I-1599990J0D01*
G01*
D15*
X-49947009Y-45487600D02*
G75*
G02X-49990410Y-45796490I-20137J-154665D01*
G01*
X-52873450Y-45391350D02*
G75*
G03X-53090490Y-46935830I-119741J-770663D01*
G01*
X-50207459Y-47340980D02*
G75*
G02X-50250860Y-47649870I-20137J-154665D01*
G01*
X-52567589Y-47324310D02*
G75*
G03X-52770160Y-48765830I-115334J-718786D01*
G01*
X-48651531Y-49344620D02*
G75*
G03X-48448960Y-47903090I147788J714230D01*
G01*
X-48448960Y-47903090D02*
G75*
G02X-48405550Y-47594200I21705J154445D01*
G01*
X-48405551Y-47594200D02*
G75*
G03X-48188500Y-46049720I137577J768157D01*
G01*
X-48188501Y-46049719D02*
G75*
G02X-48145100Y-45740820I22665J154314D01*
G01*
X-48145100Y-45740820D02*
G75*
G03X-47942520Y-44299290I151481J713712D01*
G01*
X-52627460Y-43640930D02*
G75*
G03X-52830040Y-45082450I-56126J-727107D01*
G01*
D17*
%TO.C,cam4*%
G36*
X92500000Y75810000D02*
G01*
X93770000Y75810000D01*
X93770000Y73270000D01*
X96310000Y73270000D01*
X96310000Y72000000D01*
X92500000Y72000000D01*
X92500000Y75810000D01*
G37*
X92500000Y75810000D02*
X93770000Y75810000D01*
X93770000Y73270000D01*
X96310000Y73270000D01*
X96310000Y72000000D01*
X92500000Y72000000D01*
X92500000Y75810000D01*
%TO.C,cam3*%
G36*
X96310000Y0D02*
G01*
X96310000Y-1270000D01*
X93770000Y-1270000D01*
X93770000Y-3810000D01*
X92500000Y-3810000D01*
X92500000Y0D01*
X96310000Y0D01*
G37*
X96310000Y0D02*
X96310000Y-1270000D01*
X93770000Y-1270000D01*
X93770000Y-3810000D01*
X92500000Y-3810000D01*
X92500000Y0D01*
X96310000Y0D01*
%TO.C,cam2*%
G36*
X0Y-3810000D02*
G01*
X-1270000Y-3810000D01*
X-1270000Y-1270000D01*
X-3810000Y-1270000D01*
X-3810000Y0D01*
X0Y0D01*
X0Y-3810000D01*
G37*
X0Y-3810000D02*
X-1270000Y-3810000D01*
X-1270000Y-1270000D01*
X-3810000Y-1270000D01*
X-3810000Y0D01*
X0Y0D01*
X0Y-3810000D01*
%TO.C,cam1*%
G36*
X-3810000Y72000000D02*
G01*
X-3810000Y73270000D01*
X-1270000Y73270000D01*
X-1270000Y75810000D01*
X0Y75810000D01*
X0Y72000000D01*
X-3810000Y72000000D01*
G37*
X-3810000Y72000000D02*
X-3810000Y73270000D01*
X-1270000Y73270000D01*
X-1270000Y75810000D01*
X0Y75810000D01*
X0Y72000000D01*
X-3810000Y72000000D01*
%TD*%
D18*
%TO.C,ZT7*%
X53340000Y31115000D03*
X50800000Y31115000D03*
X55880000Y31115000D03*
%TD*%
%TO.C,ZT6*%
X53340000Y22225000D03*
X55880000Y22225000D03*
X50800000Y22225000D03*
%TD*%
%TO.C,ZT5*%
X41275000Y31115000D03*
X38735000Y31115000D03*
X43815000Y31115000D03*
%TD*%
%TO.C,ZT4*%
X41275000Y22225000D03*
X43815000Y22225000D03*
X38735000Y22225000D03*
%TD*%
%TO.C,ZT3*%
X29210000Y31115000D03*
X26670000Y31115000D03*
X31750000Y31115000D03*
%TD*%
%TO.C,ZT2*%
X29210000Y22225000D03*
X31750000Y22225000D03*
X26670000Y22225000D03*
%TD*%
D19*
%TO.C,ZM4*%
X9000000Y63200000D03*
%TD*%
%TO.C,ZM3*%
X83600000Y63200000D03*
%TD*%
%TO.C,ZM2*%
X83600000Y9000000D03*
%TD*%
%TO.C,ZM1*%
X9000000Y9000000D03*
%TD*%
D20*
%TO.C,T9*%
X17385000Y57340500D03*
X21985000Y57340500D03*
D21*
X19685000Y64008000D03*
%TD*%
D20*
%TO.C,T7*%
X51040000Y35433000D03*
X55640000Y35433000D03*
D21*
X53340000Y42100500D03*
%TD*%
D20*
%TO.C,T6*%
X55640000Y18224500D03*
X51040000Y18224500D03*
D21*
X53340000Y11557000D03*
%TD*%
D20*
%TO.C,T5*%
X38975000Y35433000D03*
X43575000Y35433000D03*
D21*
X41275000Y42100500D03*
%TD*%
D20*
%TO.C,T4*%
X43575000Y18224500D03*
X38975000Y18224500D03*
D21*
X41275000Y11557000D03*
%TD*%
D20*
%TO.C,T3*%
X26910000Y35433000D03*
X31510000Y35433000D03*
D21*
X29210000Y42100500D03*
%TD*%
D20*
%TO.C,T2*%
X31510000Y18224500D03*
X26910000Y18224500D03*
D21*
X29210000Y11557000D03*
%TD*%
D22*
%TO.C,MIR4*%
X8572500Y2222500D03*
%TD*%
%TO.C,MIR3*%
X90170000Y66675000D03*
%TD*%
D23*
%TO.C,J22*%
X72500000Y37465000D03*
X72500000Y40005000D03*
X72500000Y42545000D03*
X72500000Y45085000D03*
X72500000Y47625000D03*
X72500000Y50165000D03*
X72500000Y52705000D03*
X72500000Y55245000D03*
D24*
X72500000Y57785000D03*
%TD*%
D25*
%TO.C,J11*%
X8040000Y55245000D03*
D26*
X2540000Y55245000D03*
%TD*%
D23*
%TO.C,J6*%
X20002500Y38417500D03*
X20002500Y35877500D03*
X20002500Y33337500D03*
X20002500Y30797500D03*
X20002500Y28257500D03*
X20002500Y25717500D03*
X20002500Y23177500D03*
D24*
X20002500Y20637500D03*
%TD*%
D23*
%TO.C,J3*%
X20002500Y18097500D03*
D24*
X20002500Y15557500D03*
%TD*%
D27*
%TO.C,J2*%
X63340000Y65405000D03*
X63340000Y67945000D03*
X65880000Y65405000D03*
X65880000Y67945000D03*
X68420000Y65405000D03*
X68420000Y67945000D03*
X70960000Y65405000D03*
X70960000Y67945000D03*
X73500000Y65405000D03*
D28*
X73500000Y67945000D03*
%TD*%
D20*
%TO.C,IC6*%
X49135000Y57023000D03*
D21*
X51435000Y63690500D03*
D20*
X53735000Y57023000D03*
%TD*%
D18*
%TO.C,FI1*%
X5120000Y48537500D03*
X12620000Y46037500D03*
X7620000Y46037500D03*
X5120000Y43537500D03*
X10120000Y43537500D03*
X10120000Y48537500D03*
%TD*%
D21*
%TO.C,D17*%
X33020000Y58864500D03*
D20*
X35320000Y65532000D03*
X30720000Y65532000D03*
%TD*%
D29*
%TO.C,C29*%
X26500000Y65500000D03*
D30*
X56980000Y65500000D03*
%TD*%
D29*
%TO.C,C28*%
X26500000Y52500000D03*
D30*
X56980000Y52500000D03*
%TD*%
D31*
%TO.C,C27*%
X64452500Y39370000D03*
D32*
X64452500Y44450000D03*
%TD*%
D31*
%TO.C,C2*%
X64452500Y50165000D03*
D32*
X64452500Y55245000D03*
%TD*%
D33*
%TO.C,VI87*%
X51689000Y20637500D03*
%TD*%
%TO.C,VI86*%
X39624000Y20637500D03*
%TD*%
%TO.C,VI85*%
X27559000Y20637500D03*
%TD*%
%TO.C,VI84*%
X69977000Y59925000D03*
%TD*%
%TO.C,VI83*%
X88011000Y31750000D03*
%TD*%
%TO.C,VI82*%
X83185000Y20193000D03*
%TD*%
%TO.C,VI81*%
X83185000Y26352500D03*
%TD*%
%TO.C,VI80*%
X73279000Y21272500D03*
%TD*%
%TO.C,VI79*%
X73279000Y22542500D03*
%TD*%
%TO.C,VI78*%
X73279000Y23812500D03*
%TD*%
%TO.C,VI77*%
X69227700Y21145500D03*
%TD*%
%TO.C,VI76*%
X58102500Y10274300D03*
%TD*%
%TO.C,VI75*%
X46037500Y10274300D03*
%TD*%
%TO.C,VI74*%
X33464500Y16510000D03*
%TD*%
%TO.C,VI73*%
X65722500Y19773900D03*
%TD*%
%TO.C,VI72*%
X65722500Y22161500D03*
%TD*%
%TO.C,VI71*%
X65722500Y24765000D03*
%TD*%
%TO.C,VI70*%
X63563500Y62611000D03*
%TD*%
%TO.C,VI69*%
X68745000Y58039000D03*
%TD*%
%TO.C,VI68*%
X77787500Y62547500D03*
%TD*%
%TO.C,VI67*%
X75882500Y62547500D03*
%TD*%
%TO.C,VI66*%
X73977500Y62547500D03*
%TD*%
%TO.C,VI65*%
X17145000Y54483000D03*
%TD*%
%TO.C,VI64*%
X65405000Y58420000D03*
%TD*%
%TO.C,VI63*%
X90500000Y70000000D03*
%TD*%
%TO.C,VI62*%
X54610000Y68262500D03*
%TD*%
%TO.C,VI61*%
X53022500Y68262500D03*
%TD*%
%TO.C,VI60*%
X51435000Y68262500D03*
%TD*%
%TO.C,VI59*%
X49847500Y68262500D03*
%TD*%
%TO.C,VI58*%
X48260000Y68262500D03*
%TD*%
%TO.C,VI57*%
X46672500Y68262500D03*
%TD*%
%TO.C,VI56*%
X46672500Y66675000D03*
%TD*%
%TO.C,VI55*%
X46672500Y65087500D03*
%TD*%
%TO.C,VI54*%
X46672500Y63500000D03*
%TD*%
%TO.C,VI53*%
X67945000Y62674500D03*
%TD*%
%TO.C,VI52*%
X61595000Y62547500D03*
%TD*%
%TO.C,VI51*%
X46672500Y61912500D03*
%TD*%
%TO.C,VI50*%
X69977000Y61404500D03*
%TD*%
%TO.C,VI49*%
X46672500Y60325000D03*
%TD*%
%TO.C,VI48*%
X55880000Y59925000D03*
%TD*%
%TO.C,VI47*%
X75882500Y58610500D03*
%TD*%
%TO.C,VI46*%
X67145000Y58039000D03*
%TD*%
%TO.C,VI45*%
X53735000Y52578000D03*
%TD*%
%TO.C,VI44*%
X50292000Y52070000D03*
%TD*%
%TO.C,VI43*%
X67246500Y38417500D03*
%TD*%
%TO.C,VI42*%
X67881500Y37465000D03*
%TD*%
%TO.C,VI41*%
X68834000Y36449000D03*
%TD*%
%TO.C,VI40*%
X90233500Y33972500D03*
%TD*%
%TO.C,VI39*%
X77567500Y32639000D03*
%TD*%
%TO.C,VI38*%
X65278000Y31940500D03*
%TD*%
%TO.C,VI37*%
X87820500Y29527500D03*
%TD*%
%TO.C,VI36*%
X64769999Y29083000D03*
%TD*%
%TO.C,VI35*%
X77567500Y27622500D03*
%TD*%
%TO.C,VI34*%
X73279000Y27622500D03*
%TD*%
%TO.C,VI33*%
X67564000Y26352500D03*
%TD*%
%TO.C,VI32*%
X60198000Y26733500D03*
%TD*%
%TO.C,VI31*%
X75501500Y25908000D03*
%TD*%
%TO.C,VI30*%
X87820500Y25400000D03*
%TD*%
%TO.C,VI29*%
X74358500Y24638000D03*
%TD*%
%TO.C,VI28*%
X79565500Y22542500D03*
%TD*%
%TO.C,VI27*%
X78740000Y21272500D03*
%TD*%
%TO.C,VI26*%
X76771500Y20002500D03*
%TD*%
%TO.C,VI25*%
X74422000Y20002500D03*
%TD*%
%TO.C,VI24*%
X87820500Y19278600D03*
%TD*%
%TO.C,VI23*%
X79438500Y18732500D03*
%TD*%
%TO.C,VI22*%
X79470250Y17367250D03*
%TD*%
%TO.C,VI21*%
X57531000Y16510000D03*
%TD*%
%TO.C,VI20*%
X67564000Y15621000D03*
%TD*%
%TO.C,VI19*%
X78930500Y15049500D03*
%TD*%
%TO.C,VI18*%
X66421000Y14224000D03*
%TD*%
%TO.C,VI17*%
X66421000Y12446000D03*
%TD*%
%TO.C,VI16*%
X65722500Y10274300D03*
%TD*%
%TO.C,VI15*%
X34023300Y10274300D03*
%TD*%
%TO.C,VI14*%
X75662500Y9398000D03*
%TD*%
%TO.C,VI13*%
X58762900Y6985000D03*
%TD*%
%TO.C,VI12*%
X46675000Y6159500D03*
%TD*%
%TO.C,VI11*%
X34925000Y3048000D03*
%TD*%
%TO.C,VI10*%
X47498000Y16764000D03*
%TD*%
%TO.C,VI9*%
X45593000Y16510000D03*
%TD*%
%TO.C,VI8*%
X35306000Y16891000D03*
%TD*%
%TO.C,VI7*%
X23812500Y17145000D03*
%TD*%
%TO.C,VI6*%
X49149000Y35433000D03*
%TD*%
%TO.C,VI5*%
X37338000Y35433000D03*
%TD*%
%TO.C,VI4*%
X25273000Y35433000D03*
%TD*%
%TO.C,VI3*%
X24765000Y54737000D03*
%TD*%
%TO.C,VI2*%
X25400000Y50101500D03*
%TD*%
%TO.C,VI1*%
X36195000Y50101500D03*
%TD*%
D14*
G36*
X83672640Y66822260D02*
G01*
X83769468Y66819022D01*
X83866122Y66813202D01*
X83962654Y66804791D01*
X84058884Y66793810D01*
X84154789Y66780259D01*
X84250304Y66764147D01*
X84345370Y66745485D01*
X84439884Y66724292D01*
X84533791Y66700582D01*
X84627066Y66674360D01*
X84719559Y66645668D01*
X84811275Y66614506D01*
X84902146Y66580896D01*
X84992058Y66544880D01*
X85080954Y66506481D01*
X85168838Y66465699D01*
X85255581Y66422590D01*
X85341126Y66377187D01*
X85425478Y66329484D01*
X85508465Y66279578D01*
X85590116Y66227454D01*
X85670339Y66173169D01*
X85749073Y66116766D01*
X85826298Y66058258D01*
X85901918Y65997716D01*
X85975856Y65935206D01*
X86048160Y65870684D01*
X86118679Y65804284D01*
X86187394Y65736028D01*
X86254277Y65665939D01*
X86319231Y65594122D01*
X86382282Y65520548D01*
X86443310Y65445357D01*
X86502334Y65368524D01*
X86559270Y65290158D01*
X86614077Y65210319D01*
X86666757Y65129000D01*
X86717226Y65046332D01*
X86765459Y64962359D01*
X86811467Y64877058D01*
X86855123Y64790665D01*
X86896506Y64703026D01*
X86935504Y64614376D01*
X86972133Y64524675D01*
X87006325Y64434095D01*
X87038103Y64342579D01*
X87067426Y64250236D01*
X87094262Y64157172D01*
X87118601Y64063419D01*
X87140423Y63969055D01*
X87159718Y63874129D01*
X87176473Y63778696D01*
X87190660Y63682914D01*
X87202290Y63586720D01*
X87211341Y63490285D01*
X87217808Y63393664D01*
X87221693Y63296864D01*
X87222988Y63200000D01*
X87221693Y63103135D01*
X87217808Y63006335D01*
X87211341Y62909714D01*
X87202290Y62813279D01*
X87190660Y62717085D01*
X87176473Y62621303D01*
X87159718Y62525870D01*
X87140423Y62430944D01*
X87118601Y62336580D01*
X87094262Y62242827D01*
X87067426Y62149763D01*
X87038103Y62057420D01*
X87006325Y61965904D01*
X86972133Y61875324D01*
X86935504Y61785623D01*
X86896506Y61696973D01*
X86855123Y61609334D01*
X86811467Y61522941D01*
X86765459Y61437640D01*
X86717226Y61353667D01*
X86666757Y61270999D01*
X86614077Y61189680D01*
X86559270Y61109841D01*
X86502334Y61031475D01*
X86443310Y60954642D01*
X86382282Y60879451D01*
X86319231Y60805877D01*
X86254277Y60734060D01*
X86187394Y60663971D01*
X86118679Y60595715D01*
X86048160Y60529315D01*
X85975856Y60464793D01*
X85901918Y60402283D01*
X85826298Y60341741D01*
X85749073Y60283233D01*
X85670339Y60226830D01*
X85590116Y60172545D01*
X85508465Y60120421D01*
X85425478Y60070515D01*
X85341126Y60022812D01*
X85255581Y59977409D01*
X85168838Y59934300D01*
X85080954Y59893518D01*
X84992058Y59855119D01*
X84902146Y59819103D01*
X84811275Y59785493D01*
X84719559Y59754331D01*
X84627066Y59725639D01*
X84533791Y59699417D01*
X84439884Y59675707D01*
X84345370Y59654514D01*
X84250304Y59635852D01*
X84154789Y59619740D01*
X84058884Y59606189D01*
X83962654Y59595208D01*
X83866122Y59586797D01*
X83769468Y59580977D01*
X83672640Y59577739D01*
X83575772Y59577091D01*
X83478954Y59579034D01*
X83382182Y59583564D01*
X83285569Y59590681D01*
X83189196Y59600376D01*
X83093109Y59612645D01*
X82997385Y59627479D01*
X82902102Y59644864D01*
X82807310Y59664792D01*
X82713078Y59687249D01*
X82619488Y59712214D01*
X82526596Y59739674D01*
X82434496Y59769599D01*
X82343158Y59802001D01*
X82252789Y59836805D01*
X82163373Y59874019D01*
X82074966Y59913616D01*
X81987638Y59955569D01*
X81901464Y59999839D01*
X81816560Y60046368D01*
X81732879Y60095180D01*
X81650525Y60146216D01*
X81569595Y60199417D01*
X81490098Y60254773D01*
X81412097Y60312245D01*
X81335707Y60371745D01*
X81260903Y60433292D01*
X81187776Y60496812D01*
X81116356Y60562281D01*
X81046735Y60629613D01*
X80978939Y60698782D01*
X80912995Y60769762D01*
X80849007Y60842441D01*
X80786946Y60916850D01*
X80726905Y60992881D01*
X80668957Y61070438D01*
X80613056Y61149582D01*
X80559298Y61230182D01*
X80507737Y61312154D01*
X80458372Y61395500D01*
X80411259Y61480122D01*
X80366420Y61565985D01*
X80323877Y61653046D01*
X80283706Y61741150D01*
X80245881Y61830353D01*
X80210470Y61920494D01*
X80177478Y62011556D01*
X80146920Y62103513D01*
X80118851Y62196179D01*
X80093255Y62289621D01*
X80070171Y62383693D01*
X80049606Y62478366D01*
X80031585Y62573526D01*
X80016117Y62669124D01*
X80003199Y62765171D01*
X79992865Y62861431D01*
X79985100Y62958037D01*
X79979925Y63054705D01*
X79977335Y63151581D01*
X79977335Y63248418D01*
X79979925Y63345294D01*
X79985100Y63441962D01*
X79992865Y63538568D01*
X80003199Y63634828D01*
X80016117Y63730875D01*
X80031585Y63826473D01*
X80049606Y63921633D01*
X80070171Y64016306D01*
X80093255Y64110378D01*
X80118851Y64203820D01*
X80146920Y64296486D01*
X80177478Y64388443D01*
X80210470Y64479505D01*
X80245881Y64569646D01*
X80283706Y64658849D01*
X80323877Y64746953D01*
X80366420Y64834014D01*
X80411259Y64919877D01*
X80458372Y65004499D01*
X80507737Y65087845D01*
X80559298Y65169817D01*
X80613056Y65250417D01*
X80668957Y65329561D01*
X80726905Y65407118D01*
X80786946Y65483149D01*
X80849007Y65557558D01*
X80912995Y65630237D01*
X80978939Y65701217D01*
X81046735Y65770386D01*
X81116356Y65837718D01*
X81187776Y65903187D01*
X81260903Y65966707D01*
X81335707Y66028254D01*
X81412097Y66087754D01*
X81490098Y66145226D01*
X81569595Y66200582D01*
X81650525Y66253783D01*
X81732879Y66304819D01*
X81816560Y66353631D01*
X81901464Y66400160D01*
X81987638Y66444430D01*
X82074966Y66486383D01*
X82163373Y66525980D01*
X82252789Y66563194D01*
X82343158Y66597998D01*
X82434496Y66630400D01*
X82526596Y66660325D01*
X82619488Y66687785D01*
X82713078Y66712750D01*
X82807310Y66735207D01*
X82902102Y66755135D01*
X82997385Y66772520D01*
X83093109Y66787354D01*
X83189196Y66799623D01*
X83285569Y66809318D01*
X83382182Y66816435D01*
X83478954Y66820965D01*
X83575772Y66822908D01*
X83672640Y66822260D01*
G37*
X83672640Y66822260D02*
X83769468Y66819022D01*
X83866122Y66813202D01*
X83962654Y66804791D01*
X84058884Y66793810D01*
X84154789Y66780259D01*
X84250304Y66764147D01*
X84345370Y66745485D01*
X84439884Y66724292D01*
X84533791Y66700582D01*
X84627066Y66674360D01*
X84719559Y66645668D01*
X84811275Y66614506D01*
X84902146Y66580896D01*
X84992058Y66544880D01*
X85080954Y66506481D01*
X85168838Y66465699D01*
X85255581Y66422590D01*
X85341126Y66377187D01*
X85425478Y66329484D01*
X85508465Y66279578D01*
X85590116Y66227454D01*
X85670339Y66173169D01*
X85749073Y66116766D01*
X85826298Y66058258D01*
X85901918Y65997716D01*
X85975856Y65935206D01*
X86048160Y65870684D01*
X86118679Y65804284D01*
X86187394Y65736028D01*
X86254277Y65665939D01*
X86319231Y65594122D01*
X86382282Y65520548D01*
X86443310Y65445357D01*
X86502334Y65368524D01*
X86559270Y65290158D01*
X86614077Y65210319D01*
X86666757Y65129000D01*
X86717226Y65046332D01*
X86765459Y64962359D01*
X86811467Y64877058D01*
X86855123Y64790665D01*
X86896506Y64703026D01*
X86935504Y64614376D01*
X86972133Y64524675D01*
X87006325Y64434095D01*
X87038103Y64342579D01*
X87067426Y64250236D01*
X87094262Y64157172D01*
X87118601Y64063419D01*
X87140423Y63969055D01*
X87159718Y63874129D01*
X87176473Y63778696D01*
X87190660Y63682914D01*
X87202290Y63586720D01*
X87211341Y63490285D01*
X87217808Y63393664D01*
X87221693Y63296864D01*
X87222988Y63200000D01*
X87221693Y63103135D01*
X87217808Y63006335D01*
X87211341Y62909714D01*
X87202290Y62813279D01*
X87190660Y62717085D01*
X87176473Y62621303D01*
X87159718Y62525870D01*
X87140423Y62430944D01*
X87118601Y62336580D01*
X87094262Y62242827D01*
X87067426Y62149763D01*
X87038103Y62057420D01*
X87006325Y61965904D01*
X86972133Y61875324D01*
X86935504Y61785623D01*
X86896506Y61696973D01*
X86855123Y61609334D01*
X86811467Y61522941D01*
X86765459Y61437640D01*
X86717226Y61353667D01*
X86666757Y61270999D01*
X86614077Y61189680D01*
X86559270Y61109841D01*
X86502334Y61031475D01*
X86443310Y60954642D01*
X86382282Y60879451D01*
X86319231Y60805877D01*
X86254277Y60734060D01*
X86187394Y60663971D01*
X86118679Y60595715D01*
X86048160Y60529315D01*
X85975856Y60464793D01*
X85901918Y60402283D01*
X85826298Y60341741D01*
X85749073Y60283233D01*
X85670339Y60226830D01*
X85590116Y60172545D01*
X85508465Y60120421D01*
X85425478Y60070515D01*
X85341126Y60022812D01*
X85255581Y59977409D01*
X85168838Y59934300D01*
X85080954Y59893518D01*
X84992058Y59855119D01*
X84902146Y59819103D01*
X84811275Y59785493D01*
X84719559Y59754331D01*
X84627066Y59725639D01*
X84533791Y59699417D01*
X84439884Y59675707D01*
X84345370Y59654514D01*
X84250304Y59635852D01*
X84154789Y59619740D01*
X84058884Y59606189D01*
X83962654Y59595208D01*
X83866122Y59586797D01*
X83769468Y59580977D01*
X83672640Y59577739D01*
X83575772Y59577091D01*
X83478954Y59579034D01*
X83382182Y59583564D01*
X83285569Y59590681D01*
X83189196Y59600376D01*
X83093109Y59612645D01*
X82997385Y59627479D01*
X82902102Y59644864D01*
X82807310Y59664792D01*
X82713078Y59687249D01*
X82619488Y59712214D01*
X82526596Y59739674D01*
X82434496Y59769599D01*
X82343158Y59802001D01*
X82252789Y59836805D01*
X82163373Y59874019D01*
X82074966Y59913616D01*
X81987638Y59955569D01*
X81901464Y59999839D01*
X81816560Y60046368D01*
X81732879Y60095180D01*
X81650525Y60146216D01*
X81569595Y60199417D01*
X81490098Y60254773D01*
X81412097Y60312245D01*
X81335707Y60371745D01*
X81260903Y60433292D01*
X81187776Y60496812D01*
X81116356Y60562281D01*
X81046735Y60629613D01*
X80978939Y60698782D01*
X80912995Y60769762D01*
X80849007Y60842441D01*
X80786946Y60916850D01*
X80726905Y60992881D01*
X80668957Y61070438D01*
X80613056Y61149582D01*
X80559298Y61230182D01*
X80507737Y61312154D01*
X80458372Y61395500D01*
X80411259Y61480122D01*
X80366420Y61565985D01*
X80323877Y61653046D01*
X80283706Y61741150D01*
X80245881Y61830353D01*
X80210470Y61920494D01*
X80177478Y62011556D01*
X80146920Y62103513D01*
X80118851Y62196179D01*
X80093255Y62289621D01*
X80070171Y62383693D01*
X80049606Y62478366D01*
X80031585Y62573526D01*
X80016117Y62669124D01*
X80003199Y62765171D01*
X79992865Y62861431D01*
X79985100Y62958037D01*
X79979925Y63054705D01*
X79977335Y63151581D01*
X79977335Y63248418D01*
X79979925Y63345294D01*
X79985100Y63441962D01*
X79992865Y63538568D01*
X80003199Y63634828D01*
X80016117Y63730875D01*
X80031585Y63826473D01*
X80049606Y63921633D01*
X80070171Y64016306D01*
X80093255Y64110378D01*
X80118851Y64203820D01*
X80146920Y64296486D01*
X80177478Y64388443D01*
X80210470Y64479505D01*
X80245881Y64569646D01*
X80283706Y64658849D01*
X80323877Y64746953D01*
X80366420Y64834014D01*
X80411259Y64919877D01*
X80458372Y65004499D01*
X80507737Y65087845D01*
X80559298Y65169817D01*
X80613056Y65250417D01*
X80668957Y65329561D01*
X80726905Y65407118D01*
X80786946Y65483149D01*
X80849007Y65557558D01*
X80912995Y65630237D01*
X80978939Y65701217D01*
X81046735Y65770386D01*
X81116356Y65837718D01*
X81187776Y65903187D01*
X81260903Y65966707D01*
X81335707Y66028254D01*
X81412097Y66087754D01*
X81490098Y66145226D01*
X81569595Y66200582D01*
X81650525Y66253783D01*
X81732879Y66304819D01*
X81816560Y66353631D01*
X81901464Y66400160D01*
X81987638Y66444430D01*
X82074966Y66486383D01*
X82163373Y66525980D01*
X82252789Y66563194D01*
X82343158Y66597998D01*
X82434496Y66630400D01*
X82526596Y66660325D01*
X82619488Y66687785D01*
X82713078Y66712750D01*
X82807310Y66735207D01*
X82902102Y66755135D01*
X82997385Y66772520D01*
X83093109Y66787354D01*
X83189196Y66799623D01*
X83285569Y66809318D01*
X83382182Y66816435D01*
X83478954Y66820965D01*
X83575772Y66822908D01*
X83672640Y66822260D01*
G36*
X9072640Y66822260D02*
G01*
X9169468Y66819022D01*
X9266122Y66813202D01*
X9362654Y66804791D01*
X9458884Y66793810D01*
X9554789Y66780259D01*
X9650304Y66764147D01*
X9745370Y66745485D01*
X9839884Y66724292D01*
X9933791Y66700582D01*
X10027066Y66674360D01*
X10119559Y66645668D01*
X10211275Y66614506D01*
X10302146Y66580896D01*
X10392058Y66544880D01*
X10480954Y66506481D01*
X10568838Y66465699D01*
X10655581Y66422590D01*
X10741126Y66377187D01*
X10825478Y66329484D01*
X10908465Y66279578D01*
X10990116Y66227454D01*
X11070339Y66173169D01*
X11149073Y66116766D01*
X11226298Y66058258D01*
X11301918Y65997716D01*
X11375856Y65935206D01*
X11448160Y65870684D01*
X11518679Y65804284D01*
X11587394Y65736028D01*
X11654277Y65665939D01*
X11719231Y65594122D01*
X11782282Y65520548D01*
X11843310Y65445357D01*
X11902334Y65368524D01*
X11959270Y65290158D01*
X12014077Y65210319D01*
X12066757Y65129000D01*
X12117226Y65046332D01*
X12165459Y64962359D01*
X12211467Y64877058D01*
X12255123Y64790665D01*
X12296506Y64703026D01*
X12335504Y64614376D01*
X12372133Y64524675D01*
X12406325Y64434095D01*
X12438103Y64342579D01*
X12467426Y64250236D01*
X12494262Y64157172D01*
X12518601Y64063419D01*
X12540423Y63969055D01*
X12559718Y63874129D01*
X12576473Y63778696D01*
X12590660Y63682914D01*
X12602290Y63586720D01*
X12611341Y63490285D01*
X12617808Y63393664D01*
X12621693Y63296864D01*
X12622988Y63200000D01*
X12621693Y63103135D01*
X12617808Y63006335D01*
X12611341Y62909714D01*
X12602290Y62813279D01*
X12590660Y62717085D01*
X12576473Y62621303D01*
X12559718Y62525870D01*
X12540423Y62430944D01*
X12518601Y62336580D01*
X12494262Y62242827D01*
X12467426Y62149763D01*
X12438103Y62057420D01*
X12406325Y61965904D01*
X12372133Y61875324D01*
X12335504Y61785623D01*
X12296506Y61696973D01*
X12255123Y61609334D01*
X12211467Y61522941D01*
X12165459Y61437640D01*
X12117226Y61353667D01*
X12066757Y61270999D01*
X12014077Y61189680D01*
X11959270Y61109841D01*
X11902334Y61031475D01*
X11843310Y60954642D01*
X11782282Y60879451D01*
X11719231Y60805877D01*
X11654277Y60734060D01*
X11587394Y60663971D01*
X11518679Y60595715D01*
X11448160Y60529315D01*
X11375856Y60464793D01*
X11301918Y60402283D01*
X11226298Y60341741D01*
X11149073Y60283233D01*
X11070339Y60226830D01*
X10990116Y60172545D01*
X10908465Y60120421D01*
X10825478Y60070515D01*
X10741126Y60022812D01*
X10655581Y59977409D01*
X10568838Y59934300D01*
X10480954Y59893518D01*
X10392058Y59855119D01*
X10302146Y59819103D01*
X10211275Y59785493D01*
X10119559Y59754331D01*
X10027066Y59725639D01*
X9933791Y59699417D01*
X9839884Y59675707D01*
X9745370Y59654514D01*
X9650304Y59635852D01*
X9554789Y59619740D01*
X9458884Y59606189D01*
X9362654Y59595208D01*
X9266122Y59586797D01*
X9169468Y59580977D01*
X9072640Y59577739D01*
X8975772Y59577091D01*
X8878954Y59579034D01*
X8782182Y59583564D01*
X8685569Y59590681D01*
X8589196Y59600376D01*
X8493109Y59612645D01*
X8397385Y59627479D01*
X8302102Y59644864D01*
X8207310Y59664792D01*
X8113078Y59687249D01*
X8019488Y59712214D01*
X7926596Y59739674D01*
X7834496Y59769599D01*
X7743158Y59802001D01*
X7652789Y59836805D01*
X7563373Y59874019D01*
X7474966Y59913616D01*
X7387638Y59955569D01*
X7301464Y59999839D01*
X7216560Y60046368D01*
X7132879Y60095180D01*
X7050525Y60146216D01*
X6969595Y60199417D01*
X6890098Y60254773D01*
X6812097Y60312245D01*
X6735707Y60371745D01*
X6660903Y60433292D01*
X6587776Y60496812D01*
X6516356Y60562281D01*
X6446735Y60629613D01*
X6378939Y60698782D01*
X6312995Y60769762D01*
X6249007Y60842441D01*
X6186946Y60916850D01*
X6126905Y60992881D01*
X6068957Y61070438D01*
X6013056Y61149582D01*
X5959298Y61230182D01*
X5907737Y61312154D01*
X5858372Y61395500D01*
X5811259Y61480122D01*
X5766420Y61565985D01*
X5723877Y61653046D01*
X5683706Y61741150D01*
X5645881Y61830353D01*
X5610470Y61920494D01*
X5577478Y62011556D01*
X5546920Y62103513D01*
X5518851Y62196179D01*
X5493255Y62289621D01*
X5470171Y62383693D01*
X5449606Y62478366D01*
X5431585Y62573526D01*
X5416117Y62669124D01*
X5403199Y62765171D01*
X5392865Y62861431D01*
X5385100Y62958037D01*
X5379925Y63054705D01*
X5377335Y63151581D01*
X5377335Y63248418D01*
X5379925Y63345294D01*
X5385100Y63441962D01*
X5392865Y63538568D01*
X5403199Y63634828D01*
X5416117Y63730875D01*
X5431585Y63826473D01*
X5449606Y63921633D01*
X5470171Y64016306D01*
X5493255Y64110378D01*
X5518851Y64203820D01*
X5546920Y64296486D01*
X5577478Y64388443D01*
X5610470Y64479505D01*
X5645881Y64569646D01*
X5683706Y64658849D01*
X5723877Y64746953D01*
X5766420Y64834014D01*
X5811259Y64919877D01*
X5858372Y65004499D01*
X5907737Y65087845D01*
X5959298Y65169817D01*
X6013056Y65250417D01*
X6068957Y65329561D01*
X6126905Y65407118D01*
X6186946Y65483149D01*
X6249007Y65557558D01*
X6312995Y65630237D01*
X6378939Y65701217D01*
X6446735Y65770386D01*
X6516356Y65837718D01*
X6587776Y65903187D01*
X6660903Y65966707D01*
X6735707Y66028254D01*
X6812097Y66087754D01*
X6890098Y66145226D01*
X6969595Y66200582D01*
X7050525Y66253783D01*
X7132879Y66304819D01*
X7216560Y66353631D01*
X7301464Y66400160D01*
X7387638Y66444430D01*
X7474966Y66486383D01*
X7563373Y66525980D01*
X7652789Y66563194D01*
X7743158Y66597998D01*
X7834496Y66630400D01*
X7926596Y66660325D01*
X8019488Y66687785D01*
X8113078Y66712750D01*
X8207310Y66735207D01*
X8302102Y66755135D01*
X8397385Y66772520D01*
X8493109Y66787354D01*
X8589196Y66799623D01*
X8685569Y66809318D01*
X8782182Y66816435D01*
X8878954Y66820965D01*
X8975772Y66822908D01*
X9072640Y66822260D01*
G37*
X9072640Y66822260D02*
X9169468Y66819022D01*
X9266122Y66813202D01*
X9362654Y66804791D01*
X9458884Y66793810D01*
X9554789Y66780259D01*
X9650304Y66764147D01*
X9745370Y66745485D01*
X9839884Y66724292D01*
X9933791Y66700582D01*
X10027066Y66674360D01*
X10119559Y66645668D01*
X10211275Y66614506D01*
X10302146Y66580896D01*
X10392058Y66544880D01*
X10480954Y66506481D01*
X10568838Y66465699D01*
X10655581Y66422590D01*
X10741126Y66377187D01*
X10825478Y66329484D01*
X10908465Y66279578D01*
X10990116Y66227454D01*
X11070339Y66173169D01*
X11149073Y66116766D01*
X11226298Y66058258D01*
X11301918Y65997716D01*
X11375856Y65935206D01*
X11448160Y65870684D01*
X11518679Y65804284D01*
X11587394Y65736028D01*
X11654277Y65665939D01*
X11719231Y65594122D01*
X11782282Y65520548D01*
X11843310Y65445357D01*
X11902334Y65368524D01*
X11959270Y65290158D01*
X12014077Y65210319D01*
X12066757Y65129000D01*
X12117226Y65046332D01*
X12165459Y64962359D01*
X12211467Y64877058D01*
X12255123Y64790665D01*
X12296506Y64703026D01*
X12335504Y64614376D01*
X12372133Y64524675D01*
X12406325Y64434095D01*
X12438103Y64342579D01*
X12467426Y64250236D01*
X12494262Y64157172D01*
X12518601Y64063419D01*
X12540423Y63969055D01*
X12559718Y63874129D01*
X12576473Y63778696D01*
X12590660Y63682914D01*
X12602290Y63586720D01*
X12611341Y63490285D01*
X12617808Y63393664D01*
X12621693Y63296864D01*
X12622988Y63200000D01*
X12621693Y63103135D01*
X12617808Y63006335D01*
X12611341Y62909714D01*
X12602290Y62813279D01*
X12590660Y62717085D01*
X12576473Y62621303D01*
X12559718Y62525870D01*
X12540423Y62430944D01*
X12518601Y62336580D01*
X12494262Y62242827D01*
X12467426Y62149763D01*
X12438103Y62057420D01*
X12406325Y61965904D01*
X12372133Y61875324D01*
X12335504Y61785623D01*
X12296506Y61696973D01*
X12255123Y61609334D01*
X12211467Y61522941D01*
X12165459Y61437640D01*
X12117226Y61353667D01*
X12066757Y61270999D01*
X12014077Y61189680D01*
X11959270Y61109841D01*
X11902334Y61031475D01*
X11843310Y60954642D01*
X11782282Y60879451D01*
X11719231Y60805877D01*
X11654277Y60734060D01*
X11587394Y60663971D01*
X11518679Y60595715D01*
X11448160Y60529315D01*
X11375856Y60464793D01*
X11301918Y60402283D01*
X11226298Y60341741D01*
X11149073Y60283233D01*
X11070339Y60226830D01*
X10990116Y60172545D01*
X10908465Y60120421D01*
X10825478Y60070515D01*
X10741126Y60022812D01*
X10655581Y59977409D01*
X10568838Y59934300D01*
X10480954Y59893518D01*
X10392058Y59855119D01*
X10302146Y59819103D01*
X10211275Y59785493D01*
X10119559Y59754331D01*
X10027066Y59725639D01*
X9933791Y59699417D01*
X9839884Y59675707D01*
X9745370Y59654514D01*
X9650304Y59635852D01*
X9554789Y59619740D01*
X9458884Y59606189D01*
X9362654Y59595208D01*
X9266122Y59586797D01*
X9169468Y59580977D01*
X9072640Y59577739D01*
X8975772Y59577091D01*
X8878954Y59579034D01*
X8782182Y59583564D01*
X8685569Y59590681D01*
X8589196Y59600376D01*
X8493109Y59612645D01*
X8397385Y59627479D01*
X8302102Y59644864D01*
X8207310Y59664792D01*
X8113078Y59687249D01*
X8019488Y59712214D01*
X7926596Y59739674D01*
X7834496Y59769599D01*
X7743158Y59802001D01*
X7652789Y59836805D01*
X7563373Y59874019D01*
X7474966Y59913616D01*
X7387638Y59955569D01*
X7301464Y59999839D01*
X7216560Y60046368D01*
X7132879Y60095180D01*
X7050525Y60146216D01*
X6969595Y60199417D01*
X6890098Y60254773D01*
X6812097Y60312245D01*
X6735707Y60371745D01*
X6660903Y60433292D01*
X6587776Y60496812D01*
X6516356Y60562281D01*
X6446735Y60629613D01*
X6378939Y60698782D01*
X6312995Y60769762D01*
X6249007Y60842441D01*
X6186946Y60916850D01*
X6126905Y60992881D01*
X6068957Y61070438D01*
X6013056Y61149582D01*
X5959298Y61230182D01*
X5907737Y61312154D01*
X5858372Y61395500D01*
X5811259Y61480122D01*
X5766420Y61565985D01*
X5723877Y61653046D01*
X5683706Y61741150D01*
X5645881Y61830353D01*
X5610470Y61920494D01*
X5577478Y62011556D01*
X5546920Y62103513D01*
X5518851Y62196179D01*
X5493255Y62289621D01*
X5470171Y62383693D01*
X5449606Y62478366D01*
X5431585Y62573526D01*
X5416117Y62669124D01*
X5403199Y62765171D01*
X5392865Y62861431D01*
X5385100Y62958037D01*
X5379925Y63054705D01*
X5377335Y63151581D01*
X5377335Y63248418D01*
X5379925Y63345294D01*
X5385100Y63441962D01*
X5392865Y63538568D01*
X5403199Y63634828D01*
X5416117Y63730875D01*
X5431585Y63826473D01*
X5449606Y63921633D01*
X5470171Y64016306D01*
X5493255Y64110378D01*
X5518851Y64203820D01*
X5546920Y64296486D01*
X5577478Y64388443D01*
X5610470Y64479505D01*
X5645881Y64569646D01*
X5683706Y64658849D01*
X5723877Y64746953D01*
X5766420Y64834014D01*
X5811259Y64919877D01*
X5858372Y65004499D01*
X5907737Y65087845D01*
X5959298Y65169817D01*
X6013056Y65250417D01*
X6068957Y65329561D01*
X6126905Y65407118D01*
X6186946Y65483149D01*
X6249007Y65557558D01*
X6312995Y65630237D01*
X6378939Y65701217D01*
X6446735Y65770386D01*
X6516356Y65837718D01*
X6587776Y65903187D01*
X6660903Y65966707D01*
X6735707Y66028254D01*
X6812097Y66087754D01*
X6890098Y66145226D01*
X6969595Y66200582D01*
X7050525Y66253783D01*
X7132879Y66304819D01*
X7216560Y66353631D01*
X7301464Y66400160D01*
X7387638Y66444430D01*
X7474966Y66486383D01*
X7563373Y66525980D01*
X7652789Y66563194D01*
X7743158Y66597998D01*
X7834496Y66630400D01*
X7926596Y66660325D01*
X8019488Y66687785D01*
X8113078Y66712750D01*
X8207310Y66735207D01*
X8302102Y66755135D01*
X8397385Y66772520D01*
X8493109Y66787354D01*
X8589196Y66799623D01*
X8685569Y66809318D01*
X8782182Y66816435D01*
X8878954Y66820965D01*
X8975772Y66822908D01*
X9072640Y66822260D01*
G36*
X9072640Y12622260D02*
G01*
X9169468Y12619022D01*
X9266122Y12613202D01*
X9362654Y12604791D01*
X9458884Y12593810D01*
X9554789Y12580259D01*
X9650304Y12564147D01*
X9745370Y12545485D01*
X9839884Y12524292D01*
X9933791Y12500582D01*
X10027066Y12474360D01*
X10119559Y12445668D01*
X10211275Y12414506D01*
X10302146Y12380896D01*
X10392058Y12344880D01*
X10480954Y12306481D01*
X10568838Y12265699D01*
X10655581Y12222590D01*
X10741126Y12177187D01*
X10825478Y12129484D01*
X10908465Y12079578D01*
X10990116Y12027454D01*
X11070339Y11973169D01*
X11149073Y11916766D01*
X11226298Y11858258D01*
X11301918Y11797716D01*
X11375856Y11735206D01*
X11448160Y11670684D01*
X11518679Y11604284D01*
X11587394Y11536028D01*
X11654277Y11465939D01*
X11719231Y11394122D01*
X11782282Y11320548D01*
X11843310Y11245357D01*
X11902334Y11168524D01*
X11959270Y11090158D01*
X12014077Y11010319D01*
X12066757Y10929000D01*
X12117226Y10846332D01*
X12165459Y10762359D01*
X12211467Y10677058D01*
X12255123Y10590665D01*
X12296506Y10503026D01*
X12335504Y10414376D01*
X12372133Y10324675D01*
X12406325Y10234095D01*
X12438103Y10142579D01*
X12467426Y10050236D01*
X12494262Y9957172D01*
X12518601Y9863419D01*
X12540423Y9769055D01*
X12559718Y9674129D01*
X12576473Y9578696D01*
X12590660Y9482914D01*
X12602290Y9386720D01*
X12611341Y9290285D01*
X12617808Y9193664D01*
X12621693Y9096864D01*
X12622988Y9000000D01*
X12621693Y8903135D01*
X12617808Y8806335D01*
X12611341Y8709714D01*
X12602290Y8613279D01*
X12590660Y8517085D01*
X12576473Y8421303D01*
X12559718Y8325870D01*
X12540423Y8230944D01*
X12518601Y8136580D01*
X12494262Y8042827D01*
X12467426Y7949763D01*
X12438103Y7857420D01*
X12406325Y7765904D01*
X12372133Y7675324D01*
X12335504Y7585623D01*
X12296506Y7496973D01*
X12255123Y7409334D01*
X12211467Y7322941D01*
X12165459Y7237640D01*
X12117226Y7153667D01*
X12066757Y7070999D01*
X12014077Y6989680D01*
X11959270Y6909841D01*
X11902334Y6831475D01*
X11843310Y6754642D01*
X11782282Y6679451D01*
X11719231Y6605877D01*
X11654277Y6534060D01*
X11587394Y6463971D01*
X11518679Y6395715D01*
X11448160Y6329315D01*
X11375856Y6264793D01*
X11301918Y6202283D01*
X11226298Y6141741D01*
X11149073Y6083233D01*
X11070339Y6026830D01*
X10990116Y5972545D01*
X10908465Y5920421D01*
X10825478Y5870515D01*
X10741126Y5822812D01*
X10655581Y5777409D01*
X10568838Y5734300D01*
X10480954Y5693518D01*
X10392058Y5655119D01*
X10302146Y5619103D01*
X10211275Y5585493D01*
X10119559Y5554331D01*
X10027066Y5525639D01*
X9933791Y5499417D01*
X9839884Y5475707D01*
X9745370Y5454514D01*
X9650304Y5435852D01*
X9554789Y5419740D01*
X9458884Y5406189D01*
X9362654Y5395208D01*
X9266122Y5386797D01*
X9169468Y5380977D01*
X9072640Y5377739D01*
X8975772Y5377091D01*
X8878954Y5379034D01*
X8782182Y5383564D01*
X8685569Y5390681D01*
X8589196Y5400376D01*
X8493109Y5412645D01*
X8397385Y5427479D01*
X8302102Y5444864D01*
X8207310Y5464792D01*
X8113078Y5487249D01*
X8019488Y5512214D01*
X7926596Y5539674D01*
X7834496Y5569599D01*
X7743158Y5602001D01*
X7652789Y5636805D01*
X7563373Y5674019D01*
X7474966Y5713616D01*
X7387638Y5755569D01*
X7301464Y5799839D01*
X7216560Y5846368D01*
X7132879Y5895180D01*
X7050525Y5946216D01*
X6969595Y5999417D01*
X6890098Y6054773D01*
X6812097Y6112245D01*
X6735707Y6171745D01*
X6660903Y6233292D01*
X6587776Y6296812D01*
X6516356Y6362281D01*
X6446735Y6429613D01*
X6378939Y6498782D01*
X6312995Y6569762D01*
X6249007Y6642441D01*
X6186946Y6716850D01*
X6126905Y6792881D01*
X6068957Y6870438D01*
X6013056Y6949582D01*
X5959298Y7030182D01*
X5907737Y7112154D01*
X5858372Y7195500D01*
X5811259Y7280122D01*
X5766420Y7365985D01*
X5723877Y7453046D01*
X5683706Y7541150D01*
X5645881Y7630353D01*
X5610470Y7720494D01*
X5577478Y7811556D01*
X5546920Y7903513D01*
X5518851Y7996179D01*
X5493255Y8089621D01*
X5470171Y8183693D01*
X5449606Y8278366D01*
X5431585Y8373526D01*
X5416117Y8469124D01*
X5403199Y8565171D01*
X5392865Y8661431D01*
X5385100Y8758037D01*
X5379925Y8854705D01*
X5377335Y8951581D01*
X5377335Y9048418D01*
X5379925Y9145294D01*
X5385100Y9241962D01*
X5392865Y9338568D01*
X5403199Y9434828D01*
X5416117Y9530875D01*
X5431585Y9626473D01*
X5449606Y9721633D01*
X5470171Y9816306D01*
X5493255Y9910378D01*
X5518851Y10003820D01*
X5546920Y10096486D01*
X5577478Y10188443D01*
X5610470Y10279505D01*
X5645881Y10369646D01*
X5683706Y10458849D01*
X5723877Y10546953D01*
X5766420Y10634014D01*
X5811259Y10719877D01*
X5858372Y10804499D01*
X5907737Y10887845D01*
X5959298Y10969817D01*
X6013056Y11050417D01*
X6068957Y11129561D01*
X6126905Y11207118D01*
X6186946Y11283149D01*
X6249007Y11357558D01*
X6312995Y11430237D01*
X6378939Y11501217D01*
X6446735Y11570386D01*
X6516356Y11637718D01*
X6587776Y11703187D01*
X6660903Y11766707D01*
X6735707Y11828254D01*
X6812097Y11887754D01*
X6890098Y11945226D01*
X6969595Y12000582D01*
X7050525Y12053783D01*
X7132879Y12104819D01*
X7216560Y12153631D01*
X7301464Y12200160D01*
X7387638Y12244430D01*
X7474966Y12286383D01*
X7563373Y12325980D01*
X7652789Y12363194D01*
X7743158Y12397998D01*
X7834496Y12430400D01*
X7926596Y12460325D01*
X8019488Y12487785D01*
X8113078Y12512750D01*
X8207310Y12535207D01*
X8302102Y12555135D01*
X8397385Y12572520D01*
X8493109Y12587354D01*
X8589196Y12599623D01*
X8685569Y12609318D01*
X8782182Y12616435D01*
X8878954Y12620965D01*
X8975772Y12622908D01*
X9072640Y12622260D01*
G37*
X9072640Y12622260D02*
X9169468Y12619022D01*
X9266122Y12613202D01*
X9362654Y12604791D01*
X9458884Y12593810D01*
X9554789Y12580259D01*
X9650304Y12564147D01*
X9745370Y12545485D01*
X9839884Y12524292D01*
X9933791Y12500582D01*
X10027066Y12474360D01*
X10119559Y12445668D01*
X10211275Y12414506D01*
X10302146Y12380896D01*
X10392058Y12344880D01*
X10480954Y12306481D01*
X10568838Y12265699D01*
X10655581Y12222590D01*
X10741126Y12177187D01*
X10825478Y12129484D01*
X10908465Y12079578D01*
X10990116Y12027454D01*
X11070339Y11973169D01*
X11149073Y11916766D01*
X11226298Y11858258D01*
X11301918Y11797716D01*
X11375856Y11735206D01*
X11448160Y11670684D01*
X11518679Y11604284D01*
X11587394Y11536028D01*
X11654277Y11465939D01*
X11719231Y11394122D01*
X11782282Y11320548D01*
X11843310Y11245357D01*
X11902334Y11168524D01*
X11959270Y11090158D01*
X12014077Y11010319D01*
X12066757Y10929000D01*
X12117226Y10846332D01*
X12165459Y10762359D01*
X12211467Y10677058D01*
X12255123Y10590665D01*
X12296506Y10503026D01*
X12335504Y10414376D01*
X12372133Y10324675D01*
X12406325Y10234095D01*
X12438103Y10142579D01*
X12467426Y10050236D01*
X12494262Y9957172D01*
X12518601Y9863419D01*
X12540423Y9769055D01*
X12559718Y9674129D01*
X12576473Y9578696D01*
X12590660Y9482914D01*
X12602290Y9386720D01*
X12611341Y9290285D01*
X12617808Y9193664D01*
X12621693Y9096864D01*
X12622988Y9000000D01*
X12621693Y8903135D01*
X12617808Y8806335D01*
X12611341Y8709714D01*
X12602290Y8613279D01*
X12590660Y8517085D01*
X12576473Y8421303D01*
X12559718Y8325870D01*
X12540423Y8230944D01*
X12518601Y8136580D01*
X12494262Y8042827D01*
X12467426Y7949763D01*
X12438103Y7857420D01*
X12406325Y7765904D01*
X12372133Y7675324D01*
X12335504Y7585623D01*
X12296506Y7496973D01*
X12255123Y7409334D01*
X12211467Y7322941D01*
X12165459Y7237640D01*
X12117226Y7153667D01*
X12066757Y7070999D01*
X12014077Y6989680D01*
X11959270Y6909841D01*
X11902334Y6831475D01*
X11843310Y6754642D01*
X11782282Y6679451D01*
X11719231Y6605877D01*
X11654277Y6534060D01*
X11587394Y6463971D01*
X11518679Y6395715D01*
X11448160Y6329315D01*
X11375856Y6264793D01*
X11301918Y6202283D01*
X11226298Y6141741D01*
X11149073Y6083233D01*
X11070339Y6026830D01*
X10990116Y5972545D01*
X10908465Y5920421D01*
X10825478Y5870515D01*
X10741126Y5822812D01*
X10655581Y5777409D01*
X10568838Y5734300D01*
X10480954Y5693518D01*
X10392058Y5655119D01*
X10302146Y5619103D01*
X10211275Y5585493D01*
X10119559Y5554331D01*
X10027066Y5525639D01*
X9933791Y5499417D01*
X9839884Y5475707D01*
X9745370Y5454514D01*
X9650304Y5435852D01*
X9554789Y5419740D01*
X9458884Y5406189D01*
X9362654Y5395208D01*
X9266122Y5386797D01*
X9169468Y5380977D01*
X9072640Y5377739D01*
X8975772Y5377091D01*
X8878954Y5379034D01*
X8782182Y5383564D01*
X8685569Y5390681D01*
X8589196Y5400376D01*
X8493109Y5412645D01*
X8397385Y5427479D01*
X8302102Y5444864D01*
X8207310Y5464792D01*
X8113078Y5487249D01*
X8019488Y5512214D01*
X7926596Y5539674D01*
X7834496Y5569599D01*
X7743158Y5602001D01*
X7652789Y5636805D01*
X7563373Y5674019D01*
X7474966Y5713616D01*
X7387638Y5755569D01*
X7301464Y5799839D01*
X7216560Y5846368D01*
X7132879Y5895180D01*
X7050525Y5946216D01*
X6969595Y5999417D01*
X6890098Y6054773D01*
X6812097Y6112245D01*
X6735707Y6171745D01*
X6660903Y6233292D01*
X6587776Y6296812D01*
X6516356Y6362281D01*
X6446735Y6429613D01*
X6378939Y6498782D01*
X6312995Y6569762D01*
X6249007Y6642441D01*
X6186946Y6716850D01*
X6126905Y6792881D01*
X6068957Y6870438D01*
X6013056Y6949582D01*
X5959298Y7030182D01*
X5907737Y7112154D01*
X5858372Y7195500D01*
X5811259Y7280122D01*
X5766420Y7365985D01*
X5723877Y7453046D01*
X5683706Y7541150D01*
X5645881Y7630353D01*
X5610470Y7720494D01*
X5577478Y7811556D01*
X5546920Y7903513D01*
X5518851Y7996179D01*
X5493255Y8089621D01*
X5470171Y8183693D01*
X5449606Y8278366D01*
X5431585Y8373526D01*
X5416117Y8469124D01*
X5403199Y8565171D01*
X5392865Y8661431D01*
X5385100Y8758037D01*
X5379925Y8854705D01*
X5377335Y8951581D01*
X5377335Y9048418D01*
X5379925Y9145294D01*
X5385100Y9241962D01*
X5392865Y9338568D01*
X5403199Y9434828D01*
X5416117Y9530875D01*
X5431585Y9626473D01*
X5449606Y9721633D01*
X5470171Y9816306D01*
X5493255Y9910378D01*
X5518851Y10003820D01*
X5546920Y10096486D01*
X5577478Y10188443D01*
X5610470Y10279505D01*
X5645881Y10369646D01*
X5683706Y10458849D01*
X5723877Y10546953D01*
X5766420Y10634014D01*
X5811259Y10719877D01*
X5858372Y10804499D01*
X5907737Y10887845D01*
X5959298Y10969817D01*
X6013056Y11050417D01*
X6068957Y11129561D01*
X6126905Y11207118D01*
X6186946Y11283149D01*
X6249007Y11357558D01*
X6312995Y11430237D01*
X6378939Y11501217D01*
X6446735Y11570386D01*
X6516356Y11637718D01*
X6587776Y11703187D01*
X6660903Y11766707D01*
X6735707Y11828254D01*
X6812097Y11887754D01*
X6890098Y11945226D01*
X6969595Y12000582D01*
X7050525Y12053783D01*
X7132879Y12104819D01*
X7216560Y12153631D01*
X7301464Y12200160D01*
X7387638Y12244430D01*
X7474966Y12286383D01*
X7563373Y12325980D01*
X7652789Y12363194D01*
X7743158Y12397998D01*
X7834496Y12430400D01*
X7926596Y12460325D01*
X8019488Y12487785D01*
X8113078Y12512750D01*
X8207310Y12535207D01*
X8302102Y12555135D01*
X8397385Y12572520D01*
X8493109Y12587354D01*
X8589196Y12599623D01*
X8685569Y12609318D01*
X8782182Y12616435D01*
X8878954Y12620965D01*
X8975772Y12622908D01*
X9072640Y12622260D01*
G36*
X83672640Y12622260D02*
G01*
X83769468Y12619022D01*
X83866122Y12613202D01*
X83962654Y12604791D01*
X84058884Y12593810D01*
X84154789Y12580259D01*
X84250304Y12564147D01*
X84345370Y12545485D01*
X84439884Y12524292D01*
X84533791Y12500582D01*
X84627066Y12474360D01*
X84719559Y12445668D01*
X84811275Y12414506D01*
X84902146Y12380896D01*
X84992058Y12344880D01*
X85080954Y12306481D01*
X85168838Y12265699D01*
X85255581Y12222590D01*
X85341126Y12177187D01*
X85425478Y12129484D01*
X85508465Y12079578D01*
X85590116Y12027454D01*
X85670339Y11973169D01*
X85749073Y11916766D01*
X85826298Y11858258D01*
X85901918Y11797716D01*
X85975856Y11735206D01*
X86048160Y11670684D01*
X86118679Y11604284D01*
X86187394Y11536028D01*
X86254277Y11465939D01*
X86319231Y11394122D01*
X86382282Y11320548D01*
X86443310Y11245357D01*
X86502334Y11168524D01*
X86559270Y11090158D01*
X86614077Y11010319D01*
X86666757Y10929000D01*
X86717226Y10846332D01*
X86765459Y10762359D01*
X86811467Y10677058D01*
X86855123Y10590665D01*
X86896506Y10503026D01*
X86935504Y10414376D01*
X86972133Y10324675D01*
X87006325Y10234095D01*
X87038103Y10142579D01*
X87067426Y10050236D01*
X87094262Y9957172D01*
X87118601Y9863419D01*
X87140423Y9769055D01*
X87159718Y9674129D01*
X87176473Y9578696D01*
X87190660Y9482914D01*
X87202290Y9386720D01*
X87211341Y9290285D01*
X87217808Y9193664D01*
X87221693Y9096864D01*
X87222988Y9000000D01*
X87221693Y8903135D01*
X87217808Y8806335D01*
X87211341Y8709714D01*
X87202290Y8613279D01*
X87190660Y8517085D01*
X87176473Y8421303D01*
X87159718Y8325870D01*
X87140423Y8230944D01*
X87118601Y8136580D01*
X87094262Y8042827D01*
X87067426Y7949763D01*
X87038103Y7857420D01*
X87006325Y7765904D01*
X86972133Y7675324D01*
X86935504Y7585623D01*
X86896506Y7496973D01*
X86855123Y7409334D01*
X86811467Y7322941D01*
X86765459Y7237640D01*
X86717226Y7153667D01*
X86666757Y7070999D01*
X86614077Y6989680D01*
X86559270Y6909841D01*
X86502334Y6831475D01*
X86443310Y6754642D01*
X86382282Y6679451D01*
X86319231Y6605877D01*
X86254277Y6534060D01*
X86187394Y6463971D01*
X86118679Y6395715D01*
X86048160Y6329315D01*
X85975856Y6264793D01*
X85901918Y6202283D01*
X85826298Y6141741D01*
X85749073Y6083233D01*
X85670339Y6026830D01*
X85590116Y5972545D01*
X85508465Y5920421D01*
X85425478Y5870515D01*
X85341126Y5822812D01*
X85255581Y5777409D01*
X85168838Y5734300D01*
X85080954Y5693518D01*
X84992058Y5655119D01*
X84902146Y5619103D01*
X84811275Y5585493D01*
X84719559Y5554331D01*
X84627066Y5525639D01*
X84533791Y5499417D01*
X84439884Y5475707D01*
X84345370Y5454514D01*
X84250304Y5435852D01*
X84154789Y5419740D01*
X84058884Y5406189D01*
X83962654Y5395208D01*
X83866122Y5386797D01*
X83769468Y5380977D01*
X83672640Y5377739D01*
X83575772Y5377091D01*
X83478954Y5379034D01*
X83382182Y5383564D01*
X83285569Y5390681D01*
X83189196Y5400376D01*
X83093109Y5412645D01*
X82997385Y5427479D01*
X82902102Y5444864D01*
X82807310Y5464792D01*
X82713078Y5487249D01*
X82619488Y5512214D01*
X82526596Y5539674D01*
X82434496Y5569599D01*
X82343158Y5602001D01*
X82252789Y5636805D01*
X82163373Y5674019D01*
X82074966Y5713616D01*
X81987638Y5755569D01*
X81901464Y5799839D01*
X81816560Y5846368D01*
X81732879Y5895180D01*
X81650525Y5946216D01*
X81569595Y5999417D01*
X81490098Y6054773D01*
X81412097Y6112245D01*
X81335707Y6171745D01*
X81260903Y6233292D01*
X81187776Y6296812D01*
X81116356Y6362281D01*
X81046735Y6429613D01*
X80978939Y6498782D01*
X80912995Y6569762D01*
X80849007Y6642441D01*
X80786946Y6716850D01*
X80726905Y6792881D01*
X80668957Y6870438D01*
X80613056Y6949582D01*
X80559298Y7030182D01*
X80507737Y7112154D01*
X80458372Y7195500D01*
X80411259Y7280122D01*
X80366420Y7365985D01*
X80323877Y7453046D01*
X80283706Y7541150D01*
X80245881Y7630353D01*
X80210470Y7720494D01*
X80177478Y7811556D01*
X80146920Y7903513D01*
X80118851Y7996179D01*
X80093255Y8089621D01*
X80070171Y8183693D01*
X80049606Y8278366D01*
X80031585Y8373526D01*
X80016117Y8469124D01*
X80003199Y8565171D01*
X79992865Y8661431D01*
X79985100Y8758037D01*
X79979925Y8854705D01*
X79977335Y8951581D01*
X79977335Y9048418D01*
X79979925Y9145294D01*
X79985100Y9241962D01*
X79992865Y9338568D01*
X80003199Y9434828D01*
X80016117Y9530875D01*
X80031585Y9626473D01*
X80049606Y9721633D01*
X80070171Y9816306D01*
X80093255Y9910378D01*
X80118851Y10003820D01*
X80146920Y10096486D01*
X80177478Y10188443D01*
X80210470Y10279505D01*
X80245881Y10369646D01*
X80283706Y10458849D01*
X80323877Y10546953D01*
X80366420Y10634014D01*
X80411259Y10719877D01*
X80458372Y10804499D01*
X80507737Y10887845D01*
X80559298Y10969817D01*
X80613056Y11050417D01*
X80668957Y11129561D01*
X80726905Y11207118D01*
X80786946Y11283149D01*
X80849007Y11357558D01*
X80912995Y11430237D01*
X80978939Y11501217D01*
X81046735Y11570386D01*
X81116356Y11637718D01*
X81187776Y11703187D01*
X81260903Y11766707D01*
X81335707Y11828254D01*
X81412097Y11887754D01*
X81490098Y11945226D01*
X81569595Y12000582D01*
X81650525Y12053783D01*
X81732879Y12104819D01*
X81816560Y12153631D01*
X81901464Y12200160D01*
X81987638Y12244430D01*
X82074966Y12286383D01*
X82163373Y12325980D01*
X82252789Y12363194D01*
X82343158Y12397998D01*
X82434496Y12430400D01*
X82526596Y12460325D01*
X82619488Y12487785D01*
X82713078Y12512750D01*
X82807310Y12535207D01*
X82902102Y12555135D01*
X82997385Y12572520D01*
X83093109Y12587354D01*
X83189196Y12599623D01*
X83285569Y12609318D01*
X83382182Y12616435D01*
X83478954Y12620965D01*
X83575772Y12622908D01*
X83672640Y12622260D01*
G37*
X83672640Y12622260D02*
X83769468Y12619022D01*
X83866122Y12613202D01*
X83962654Y12604791D01*
X84058884Y12593810D01*
X84154789Y12580259D01*
X84250304Y12564147D01*
X84345370Y12545485D01*
X84439884Y12524292D01*
X84533791Y12500582D01*
X84627066Y12474360D01*
X84719559Y12445668D01*
X84811275Y12414506D01*
X84902146Y12380896D01*
X84992058Y12344880D01*
X85080954Y12306481D01*
X85168838Y12265699D01*
X85255581Y12222590D01*
X85341126Y12177187D01*
X85425478Y12129484D01*
X85508465Y12079578D01*
X85590116Y12027454D01*
X85670339Y11973169D01*
X85749073Y11916766D01*
X85826298Y11858258D01*
X85901918Y11797716D01*
X85975856Y11735206D01*
X86048160Y11670684D01*
X86118679Y11604284D01*
X86187394Y11536028D01*
X86254277Y11465939D01*
X86319231Y11394122D01*
X86382282Y11320548D01*
X86443310Y11245357D01*
X86502334Y11168524D01*
X86559270Y11090158D01*
X86614077Y11010319D01*
X86666757Y10929000D01*
X86717226Y10846332D01*
X86765459Y10762359D01*
X86811467Y10677058D01*
X86855123Y10590665D01*
X86896506Y10503026D01*
X86935504Y10414376D01*
X86972133Y10324675D01*
X87006325Y10234095D01*
X87038103Y10142579D01*
X87067426Y10050236D01*
X87094262Y9957172D01*
X87118601Y9863419D01*
X87140423Y9769055D01*
X87159718Y9674129D01*
X87176473Y9578696D01*
X87190660Y9482914D01*
X87202290Y9386720D01*
X87211341Y9290285D01*
X87217808Y9193664D01*
X87221693Y9096864D01*
X87222988Y9000000D01*
X87221693Y8903135D01*
X87217808Y8806335D01*
X87211341Y8709714D01*
X87202290Y8613279D01*
X87190660Y8517085D01*
X87176473Y8421303D01*
X87159718Y8325870D01*
X87140423Y8230944D01*
X87118601Y8136580D01*
X87094262Y8042827D01*
X87067426Y7949763D01*
X87038103Y7857420D01*
X87006325Y7765904D01*
X86972133Y7675324D01*
X86935504Y7585623D01*
X86896506Y7496973D01*
X86855123Y7409334D01*
X86811467Y7322941D01*
X86765459Y7237640D01*
X86717226Y7153667D01*
X86666757Y7070999D01*
X86614077Y6989680D01*
X86559270Y6909841D01*
X86502334Y6831475D01*
X86443310Y6754642D01*
X86382282Y6679451D01*
X86319231Y6605877D01*
X86254277Y6534060D01*
X86187394Y6463971D01*
X86118679Y6395715D01*
X86048160Y6329315D01*
X85975856Y6264793D01*
X85901918Y6202283D01*
X85826298Y6141741D01*
X85749073Y6083233D01*
X85670339Y6026830D01*
X85590116Y5972545D01*
X85508465Y5920421D01*
X85425478Y5870515D01*
X85341126Y5822812D01*
X85255581Y5777409D01*
X85168838Y5734300D01*
X85080954Y5693518D01*
X84992058Y5655119D01*
X84902146Y5619103D01*
X84811275Y5585493D01*
X84719559Y5554331D01*
X84627066Y5525639D01*
X84533791Y5499417D01*
X84439884Y5475707D01*
X84345370Y5454514D01*
X84250304Y5435852D01*
X84154789Y5419740D01*
X84058884Y5406189D01*
X83962654Y5395208D01*
X83866122Y5386797D01*
X83769468Y5380977D01*
X83672640Y5377739D01*
X83575772Y5377091D01*
X83478954Y5379034D01*
X83382182Y5383564D01*
X83285569Y5390681D01*
X83189196Y5400376D01*
X83093109Y5412645D01*
X82997385Y5427479D01*
X82902102Y5444864D01*
X82807310Y5464792D01*
X82713078Y5487249D01*
X82619488Y5512214D01*
X82526596Y5539674D01*
X82434496Y5569599D01*
X82343158Y5602001D01*
X82252789Y5636805D01*
X82163373Y5674019D01*
X82074966Y5713616D01*
X81987638Y5755569D01*
X81901464Y5799839D01*
X81816560Y5846368D01*
X81732879Y5895180D01*
X81650525Y5946216D01*
X81569595Y5999417D01*
X81490098Y6054773D01*
X81412097Y6112245D01*
X81335707Y6171745D01*
X81260903Y6233292D01*
X81187776Y6296812D01*
X81116356Y6362281D01*
X81046735Y6429613D01*
X80978939Y6498782D01*
X80912995Y6569762D01*
X80849007Y6642441D01*
X80786946Y6716850D01*
X80726905Y6792881D01*
X80668957Y6870438D01*
X80613056Y6949582D01*
X80559298Y7030182D01*
X80507737Y7112154D01*
X80458372Y7195500D01*
X80411259Y7280122D01*
X80366420Y7365985D01*
X80323877Y7453046D01*
X80283706Y7541150D01*
X80245881Y7630353D01*
X80210470Y7720494D01*
X80177478Y7811556D01*
X80146920Y7903513D01*
X80118851Y7996179D01*
X80093255Y8089621D01*
X80070171Y8183693D01*
X80049606Y8278366D01*
X80031585Y8373526D01*
X80016117Y8469124D01*
X80003199Y8565171D01*
X79992865Y8661431D01*
X79985100Y8758037D01*
X79979925Y8854705D01*
X79977335Y8951581D01*
X79977335Y9048418D01*
X79979925Y9145294D01*
X79985100Y9241962D01*
X79992865Y9338568D01*
X80003199Y9434828D01*
X80016117Y9530875D01*
X80031585Y9626473D01*
X80049606Y9721633D01*
X80070171Y9816306D01*
X80093255Y9910378D01*
X80118851Y10003820D01*
X80146920Y10096486D01*
X80177478Y10188443D01*
X80210470Y10279505D01*
X80245881Y10369646D01*
X80283706Y10458849D01*
X80323877Y10546953D01*
X80366420Y10634014D01*
X80411259Y10719877D01*
X80458372Y10804499D01*
X80507737Y10887845D01*
X80559298Y10969817D01*
X80613056Y11050417D01*
X80668957Y11129561D01*
X80726905Y11207118D01*
X80786946Y11283149D01*
X80849007Y11357558D01*
X80912995Y11430237D01*
X80978939Y11501217D01*
X81046735Y11570386D01*
X81116356Y11637718D01*
X81187776Y11703187D01*
X81260903Y11766707D01*
X81335707Y11828254D01*
X81412097Y11887754D01*
X81490098Y11945226D01*
X81569595Y12000582D01*
X81650525Y12053783D01*
X81732879Y12104819D01*
X81816560Y12153631D01*
X81901464Y12200160D01*
X81987638Y12244430D01*
X82074966Y12286383D01*
X82163373Y12325980D01*
X82252789Y12363194D01*
X82343158Y12397998D01*
X82434496Y12430400D01*
X82526596Y12460325D01*
X82619488Y12487785D01*
X82713078Y12512750D01*
X82807310Y12535207D01*
X82902102Y12555135D01*
X82997385Y12572520D01*
X83093109Y12587354D01*
X83189196Y12599623D01*
X83285569Y12609318D01*
X83382182Y12616435D01*
X83478954Y12620965D01*
X83575772Y12622908D01*
X83672640Y12622260D01*
M02*
