(module 03512-H=12.5 (layer F.Cu) (tedit 0)
  (fp_text reference REF** (at 0 0) (layer F.SilkS)
    (effects (font (size 1 1) (thickness 0.15)))
  )
  (fp_text value 03512-H=12.5 (at 0 2) (layer F.Fab) hide
    (effects (font (size 1 1) (thickness 0.15)))
  )
  (fp_arc (start 0 0) (end 3.302 0) (angle 360) (layer F.SilkS) (width 0.18))
  (fp_arc (start 0 0) (end 3.25 0) (angle 360) (layer F.CrtYd) (width 0.02))
  (fp_arc (start 1.27 0) (end 2.0701 0) (angle 360) (layer B.CrtYd) (width 0.02))
  (fp_arc (start 0 0) (end 3.302 0) (angle 360) (layer F.Fab) (width 0.1))
  (fp_line (start -3.392 3.392) (end -3.392 -3.392) (layer Dwgs.User) (width 0.05))
  (fp_line (start -3.392 -3.392) (end 3.392 -3.392) (layer Dwgs.User) (width 0.05))
  (fp_line (start 3.392 -3.392) (end 3.392 3.392) (layer Dwgs.User) (width 0.05))
  (fp_line (start 3.392 3.392) (end -3.392 3.392) (layer Dwgs.User) (width 0.05))
  (fp_line (start -1.905 -1.905) (end -0.635 -1.905) (layer F.SilkS) (width 0.18))
  (fp_line (start -1.27 -1.27) (end -1.27 -2.54) (layer F.SilkS) (width 0.18))
  (fp_line (start -0.4699 -0.8001) (end -0.4699 0.8001) (layer B.CrtYd) (width 0.02))
  (fp_line (start -0.4699 0.8001) (end -2.0701 0.8001) (layer B.CrtYd) (width 0.02))
  (fp_line (start -2.0701 0.8001) (end -2.0701 -0.8001) (layer B.CrtYd) (width 0.02))
  (fp_line (start -2.0701 -0.8001) (end -0.4699 -0.8001) (layer B.CrtYd) (width 0.02))
  (pad + thru_hole rect (at -1.27 0) (size 1.6002 1.6002) (drill 0.95 (offset 0 0 )) (layers *.Cu *.Mask)
    (solder_mask_margin 0.1016)
    (zone_connect 2))
  (pad - thru_hole circle (at 1.27 0) (size 1.6002 1.6002) (drill 0.95 (offset 0 0 )) (layers *.Cu *.Mask)
    (clearance 0.2159) (solder_mask_margin 0.1016)
    (zone_connect 2))
  (fp_text user + (at -2.8575 1.58235) (layer F.Fab)
    (effects (font (size 1 1) (thickness 0.1)) (justify left))
  )
)