(module 1mm3NP (layer F.Cu) (tedit 0)
  (fp_text reference REF** (at 0 0) (layer F.SilkS) hide
    (effects (font (size 1 1) (thickness 0.15)))
  )
  (fp_text value 1mm3NP (at 0 2) (layer F.Fab) hide
    (effects (font (size 1 1) (thickness 0.15)))
  )
  (fp_line (start -0.762 0.762) (end -0.762 -0.762) (layer F.CrtYd) (width 0.05))
  (fp_line (start -0.762 -0.762) (end 0.762 -0.762) (layer F.CrtYd) (width 0.05))
  (fp_line (start 0.762 -0.762) (end 0.762 0.762) (layer F.CrtYd) (width 0.05))
  (fp_line (start 0.762 0.762) (end -0.762 0.762) (layer F.CrtYd) (width 0.05))
  (pad ~ smd custom (at 0 0) (size 0.2 0.2) (layers F.Cu F.Mask F.Paste)
    (options (clearance outline) (anchor circle))
    (primitives
      (gr_poly (pts
         (xy -0.635 0.635) (xy 0 -0.635) (xy 0.635 0.635) (xy -0.635 0.635)) (width 0))
    )
    (zone_connect 2))
  (pad ~ smd custom (at 0 0) (size 0.2 0.2) (layers F.Cu F.Mask F.Paste)
    (options (clearance outline) (anchor circle))
    (primitives
      (gr_poly (pts
         (xy -0.635 0.635) (xy 0 -0.635) (xy 0.635 0.635) (xy -0.635 0.635)) (width 0))
    )
    (zone_connect 2))
  (pad ~ smd custom (at 0 0) (size 0.2 0.2) (layers F.Cu F.Mask F.Paste)
    (options (clearance outline) (anchor circle))
    (primitives
      (gr_poly (pts
         (xy -0.635 0.635) (xy 0 -0.635) (xy 0.635 0.635) (xy -0.635 0.635)) (width 0))
    )
    (zone_connect 2))
)