(module 2mm0NP (layer F.Cu) (tedit 0)
  (fp_text reference REF** (at 0 0) (layer F.SilkS) hide
    (effects (font (size 1 1) (thickness 0.15)))
  )
  (fp_text value 2mm0NP (at 0 2) (layer F.Fab) hide
    (effects (font (size 1 1) (thickness 0.15)))
  )
  (fp_line (start -1.31982 1.4605) (end -1.31982 -0.8255) (layer F.CrtYd) (width 0.05))
  (fp_line (start -1.31982 -0.8255) (end 1.31982 -0.8255) (layer F.CrtYd) (width 0.05))
  (fp_line (start 1.31982 -0.8255) (end 1.31982 1.4605) (layer F.CrtYd) (width 0.05))
  (fp_line (start 1.31982 1.4605) (end -1.31982 1.4605) (layer F.CrtYd) (width 0.05))
  (pad ~ smd custom (at 0 0) (size 0.2 0.2) (layers F.Cu F.Mask F.Paste)
    (options (clearance outline) (anchor circle))
    (primitives
      (gr_poly (pts
         (xy 0 1.3) (xy -1.1 0.6) (xy 1.1 -0.6) (xy 1.1 0.6)) (width 0))
    )
    (zone_connect 2))
)