(module 3mm0NP (layer F.Cu) (tedit 0)
  (fp_text reference REF** (at 0 0) (layer F.SilkS) hide
    (effects (font (size 1 1) (thickness 0.15)))
  )
  (fp_text value 3mm0NP (at 0 2) (layer F.Fab) hide
    (effects (font (size 1 1) (thickness 0.15)))
  )
  (fp_line (start -1.23 1.23) (end -1.23 -1.23) (layer F.CrtYd) (width 0.05))
  (fp_line (start -1.23 -1.23) (end 1.23 -1.23) (layer F.CrtYd) (width 0.05))
  (fp_line (start 1.23 -1.23) (end 1.23 1.23) (layer F.CrtYd) (width 0.05))
  (fp_line (start 1.23 1.23) (end -1.23 1.23) (layer F.CrtYd) (width 0.05))
  (pad ~ smd custom (at 0 0) (size 0.2 0.2) (layers F.Cu F.Mask F.Paste)
    (options (clearance outline) (anchor circle))
    (primitives
      (gr_arc (start 0 0) (end 0.5 0) (angle 360) (width 0))
    )
    (zone_connect 2))
)