(module BAR7-3-2-COVIDIEN (layer F.Cu) (tedit 0)
  (fp_text reference REF** (at 0 0) (layer F.SilkS)
    (effects (font (size 1 1) (thickness 0.15)))
  )
  (fp_text value BAR7-3-2-COVIDIEN (at 0 2) (layer F.Fab) hide
    (effects (font (size 1 1) (thickness 0.15)))
  )
  (fp_arc (start 0 0) (end 1.016 0) (angle 360) (layer B.CrtYd) (width 0.02))
  (fp_arc (start 1.397 2.54) (end 2.413 2.54) (angle 360) (layer B.CrtYd) (width 0.02))
  (fp_arc (start 2.794 0) (end 3.81 0) (angle 360) (layer B.CrtYd) (width 0.02))
  (fp_arc (start 4.191 2.54) (end 5.207 2.54) (angle 360) (layer B.CrtYd) (width 0.02))
  (fp_arc (start 5.588 0) (end 6.604 0) (angle 360) (layer B.CrtYd) (width 0.02))
  (fp_arc (start 6.985 2.54) (end 8.001 2.54) (angle 360) (layer B.CrtYd) (width 0.02))
  (fp_arc (start 8.382 0) (end 9.398 0) (angle 360) (layer B.CrtYd) (width 0.02))
  (fp_line (start -1.397 3.81) (end -1.397 -1.27) (layer Dwgs.User) (width 0.05))
  (fp_line (start -1.397 -1.27) (end 9.779 -1.27) (layer Dwgs.User) (width 0.05))
  (fp_line (start 9.779 -1.27) (end 9.779 3.81) (layer Dwgs.User) (width 0.05))
  (fp_line (start 9.779 3.81) (end -1.397 3.81) (layer Dwgs.User) (width 0.05))
  (fp_line (start 9.779 -1.27) (end 9.779 1.27) (layer F.CrtYd) (width 0.02))
  (fp_line (start 9.779 1.27) (end 8.382 1.27) (layer F.CrtYd) (width 0.02))
  (fp_line (start 8.382 1.27) (end 8.382 3.81) (layer F.CrtYd) (width 0.02))
  (fp_line (start 8.382 3.81) (end 0 3.81) (layer F.CrtYd) (width 0.02))
  (fp_line (start 0 3.81) (end 0 1.27) (layer F.CrtYd) (width 0.02))
  (fp_line (start 0 1.27) (end -1.397 1.27) (layer F.CrtYd) (width 0.02))
  (fp_line (start -1.397 1.27) (end -1.397 -1.27) (layer F.CrtYd) (width 0.02))
  (fp_line (start -1.397 -1.27) (end 9.779 -1.27) (layer F.CrtYd) (width 0.02))
  (pad 1 thru_hole circle (at 0 0) (size 2.032 2.032) (drill 0.7 (offset 0 0 )) (layers *.Cu *.Mask)
    (solder_mask_margin 0.0889)
    (zone_connect 2))
  (pad 2 thru_hole circle (at 1.397 2.54) (size 2.032 2.032) (drill 0.7 (offset 0 0 )) (layers *.Cu *.Mask)
    (solder_mask_margin 0.0889)
    (zone_connect 2))
  (pad 3 thru_hole circle (at 2.794 0) (size 2.032 2.032) (drill 0.7 (offset 0 0 )) (layers *.Cu *.Mask)
    (solder_mask_margin 0.0889)
    (zone_connect 2))
  (pad 4 thru_hole circle (at 4.191 2.54) (size 2.032 2.032) (drill 0.7 (offset 0 0 )) (layers *.Cu *.Mask)
    (solder_mask_margin 0.0889)
    (zone_connect 2))
  (pad 5 thru_hole circle (at 5.588 0) (size 2.032 2.032) (drill 0.7 (offset 0 0 )) (layers *.Cu *.Mask)
    (solder_mask_margin 0.0889)
    (zone_connect 2))
  (pad 6 thru_hole circle (at 6.985 2.54) (size 2.032 2.032) (drill 0.7 (offset 0 0 )) (layers *.Cu *.Mask)
    (solder_mask_margin 0.0889)
    (zone_connect 2))
  (pad 7 thru_hole circle (at 8.382 0) (size 2.032 2.032) (drill 0.7 (offset 0 0 )) (layers *.Cu *.Mask)
    (solder_mask_margin 0.0889)
    (zone_connect 2))
)