(module BCN16 (layer F.Cu) (tedit 0)
  (attr smd)
  (fp_text reference REF** (at 0 0) (layer F.SilkS)
    (effects (font (size 1 1) (thickness 0.15)))
  )
  (fp_text value BCN16 (at 0 2) (layer F.Fab) hide
    (effects (font (size 1 1) (thickness 0.15)))
  )
  (fp_line (start -1.79 1.59) (end -1.79 -1.59) (layer Dwgs.User) (width 0.05))
  (fp_line (start -1.79 -1.59) (end 1.79 -1.59) (layer Dwgs.User) (width 0.05))
  (fp_line (start 1.79 -1.59) (end 1.79 1.59) (layer Dwgs.User) (width 0.05))
  (fp_line (start 1.79 1.59) (end -1.79 1.59) (layer Dwgs.User) (width 0.05))
  (fp_line (start -1.7 1.5) (end 1.7 1.5) (layer F.SilkS) (width 0.18))
  (fp_line (start 1.7 1.5) (end 1.7 -1.5) (layer F.SilkS) (width 0.18))
  (fp_line (start 1.7 -1.5) (end -1.7 -1.5) (layer F.SilkS) (width 0.18))
  (fp_line (start -1.7 -1.5) (end -1.7 1.5) (layer F.SilkS) (width 0.18))
  (fp_line (start 1.7 -1.5) (end 1.7 1.5) (layer F.CrtYd) (width 0.02))
  (fp_line (start 1.7 1.5) (end -1.7 1.5) (layer F.CrtYd) (width 0.02))
  (fp_line (start -1.7 1.5) (end -1.7 -1.5) (layer F.CrtYd) (width 0.02))
  (fp_line (start -1.7 -1.5) (end 1.7 -1.5) (layer F.CrtYd) (width 0.02))
  (fp_line (start -1.6 0.6) (end -1.4 0.6) (layer F.Fab) (width 0.1))
  (fp_line (start -1.4 0.6) (end -1.4 0.8) (layer F.Fab) (width 0.1))
  (fp_line (start -1.4 0.8) (end -1 0.8) (layer F.Fab) (width 0.1))
  (fp_line (start -1 0.8) (end -1 0.6) (layer F.Fab) (width 0.1))
  (fp_line (start -1 0.6) (end -0.6 0.6) (layer F.Fab) (width 0.1))
  (fp_line (start -0.6 0.6) (end -0.6 0.8) (layer F.Fab) (width 0.1))
  (fp_line (start -0.6 0.8) (end -0.2 0.8) (layer F.Fab) (width 0.1))
  (fp_line (start -0.2 0.8) (end -0.2 0.6) (layer F.Fab) (width 0.1))
  (fp_line (start -0.2 0.6) (end 0.2 0.6) (layer F.Fab) (width 0.1))
  (fp_line (start 0.2 0.6) (end 0.2 0.8) (layer F.Fab) (width 0.1))
  (fp_line (start 0.2 0.8) (end 0.6 0.8) (layer F.Fab) (width 0.1))
  (fp_line (start 0.6 0.8) (end 0.6 0.6) (layer F.Fab) (width 0.1))
  (fp_line (start 0.6 0.6) (end 1 0.6) (layer F.Fab) (width 0.1))
  (fp_line (start 1 0.6) (end 1 0.8) (layer F.Fab) (width 0.1))
  (fp_line (start 1 0.8) (end 1.4 0.8) (layer F.Fab) (width 0.1))
  (fp_line (start 1.4 0.8) (end 1.4 0.6) (layer F.Fab) (width 0.1))
  (fp_line (start 1.4 0.6) (end 1.6 0.6) (layer F.Fab) (width 0.1))
  (fp_line (start 1.6 0.6) (end 1.6 -0.6) (layer F.Fab) (width 0.1))
  (fp_line (start 1.6 -0.6) (end 1.4 -0.6) (layer F.Fab) (width 0.1))
  (fp_line (start 1.4 -0.6) (end 1.4 -0.8) (layer F.Fab) (width 0.1))
  (fp_line (start 1.4 -0.8) (end 1 -0.8) (layer F.Fab) (width 0.1))
  (fp_line (start 1 -0.8) (end 1 -0.6) (layer F.Fab) (width 0.1))
  (fp_line (start 1 -0.6) (end 0.6 -0.6) (layer F.Fab) (width 0.1))
  (fp_line (start 0.6 -0.6) (end 0.6 -0.8) (layer F.Fab) (width 0.1))
  (fp_line (start 0.6 -0.8) (end 0.2 -0.8) (layer F.Fab) (width 0.1))
  (fp_line (start 0.2 -0.8) (end 0.2 -0.6) (layer F.Fab) (width 0.1))
  (fp_line (start 0.2 -0.6) (end -0.2 -0.6) (layer F.Fab) (width 0.1))
  (fp_line (start -0.2 -0.6) (end -0.2 -0.8) (layer F.Fab) (width 0.1))
  (fp_line (start -0.2 -0.8) (end -0.6 -0.8) (layer F.Fab) (width 0.1))
  (fp_line (start -0.6 -0.8) (end -0.6 -0.6) (layer F.Fab) (width 0.1))
  (fp_line (start -0.6 -0.6) (end -1 -0.6) (layer F.Fab) (width 0.1))
  (fp_line (start -1 -0.6) (end -1 -0.8) (layer F.Fab) (width 0.1))
  (fp_line (start -1 -0.8) (end -1.4 -0.8) (layer F.Fab) (width 0.1))
  (fp_line (start -1.4 -0.8) (end -1.4 -0.6) (layer F.Fab) (width 0.1))
  (fp_line (start -1.4 -0.6) (end -1.6 -0.6) (layer F.Fab) (width 0.1))
  (fp_line (start -1.6 -0.6) (end -1.6 0.6) (layer F.Fab) (width 0.1))
  (pad 1 smd rect (at -1.26 0.8) (size 0.68 0.91) (layers F.Cu F.Mask F.Paste)
    (solder_mask_margin 0.1)
    (zone_connect 2))
  (pad 2 smd rect (at -0.4 0.8) (size 0.56 0.91) (layers F.Cu F.Mask F.Paste)
    (solder_mask_margin 0.1)
    (zone_connect 2))
  (pad 3 smd rect (at 0.4 0.8) (size 0.5588 0.9144) (layers F.Cu F.Mask F.Paste)
    (clearance 0.3048) (solder_mask_margin 0.1016)
    (zone_connect 2))
  (pad 4 smd rect (at 1.26 0.8) (size 0.68 0.91) (layers F.Cu F.Mask F.Paste)
    (solder_mask_margin 0.1)
    (zone_connect 2))
  (pad 5 smd rect (at 1.26 -0.8) (size 0.68 0.91) (layers F.Cu F.Mask F.Paste)
    (solder_mask_margin 0.1)
    (zone_connect 2))
  (pad 6 smd rect (at 0.4 -0.8) (size 0.56 0.91) (layers F.Cu F.Mask F.Paste)
    (solder_mask_margin 0.1)
    (zone_connect 2))
  (pad 7 smd rect (at -0.4 -0.8) (size 0.56 0.91) (layers F.Cu F.Mask F.Paste)
    (solder_mask_margin 0.1)
    (zone_connect 2))
  (pad 8 smd rect (at -1.26 -0.8) (size 0.68 0.91) (layers F.Cu F.Mask F.Paste)
    (solder_mask_margin 0.1)
    (zone_connect 2))
  (model ${KIPRJMOD}/../Library/Footprints.3dshapes/BLACK_CAPCAF80P160X320X90-8N.step
    (offset (xyz 0 0 0))
    (scale (xyz 1 1 1))
    (rotate (xyz 0 0 90))
  )
)