(module C7343 (layer F.Cu) (tedit 0)
  (attr smd)
  (fp_text reference REF** (at 0 0) (layer F.SilkS)
    (effects (font (size 1 1) (thickness 0.15)))
  )
  (fp_text value C7343 (at 0 2) (layer F.Fab) hide
    (effects (font (size 1 1) (thickness 0.15)))
  )
  (fp_line (start -4.535 2.3125) (end -4.535 -2.3125) (layer Dwgs.User) (width 0.05))
  (fp_line (start -4.535 -2.3125) (end 4.535 -2.3125) (layer Dwgs.User) (width 0.05))
  (fp_line (start 4.535 -2.3125) (end 4.535 2.3125) (layer Dwgs.User) (width 0.05))
  (fp_line (start 4.535 2.3125) (end -4.535 2.3125) (layer Dwgs.User) (width 0.05))
  (fp_line (start 4.445 -2.2225) (end -3.96875 -2.2225) (layer F.SilkS) (width 0.18))
  (fp_line (start -3.96875 -2.2225) (end -4.445 -1.74625) (layer F.SilkS) (width 0.18))
  (fp_line (start -4.445 -1.74625) (end -4.445 1.74625) (layer F.SilkS) (width 0.18))
  (fp_line (start -4.445 1.74625) (end -3.96875 2.2225) (layer F.SilkS) (width 0.18))
  (fp_line (start -3.96875 2.2225) (end 4.445 2.2225) (layer F.SilkS) (width 0.18))
  (fp_line (start 4.445 2.2225) (end 4.445 -2.2225) (layer F.SilkS) (width 0.18))
  (fp_line (start 4.445 -2.2225) (end 4.445 2.2225) (layer F.CrtYd) (width 0.02))
  (fp_line (start 4.445 2.2225) (end -4.445 2.2225) (layer F.CrtYd) (width 0.02))
  (fp_line (start -4.445 2.2225) (end -4.445 -2.2225) (layer F.CrtYd) (width 0.02))
  (fp_line (start -4.445 -2.2225) (end 4.445 -2.2225) (layer F.CrtYd) (width 0.02))
  (fp_line (start 3.81 -2.2225) (end -3.81 -2.2225) (layer F.Fab) (width 0.1))
  (fp_line (start -3.81 -2.2225) (end -3.81 2.2225) (layer F.Fab) (width 0.1))
  (fp_line (start -3.81 2.2225) (end 3.81 2.2225) (layer F.Fab) (width 0.1))
  (fp_line (start 3.81 2.2225) (end 3.81 -2.2225) (layer F.Fab) (width 0.1))
  (pad + smd rect (at -2.9972 0) (size 2.286 3.2004) (layers F.Cu F.Mask F.Paste)
    (clearance 0.2032) (solder_mask_margin 0.127)
    (zone_connect 2))
  (pad - smd rect (at 2.9972 0) (size 2.286 3.2004) (layers F.Cu F.Mask F.Paste)
    (clearance 0.2032) (solder_mask_margin 0.127)
    (zone_connect 2))
  (fp_poly (pts (xy -3.33375 -2.2225) (xy -2.69875 -2.2225) (xy -2.69875 2.2225) (xy -3.33375 2.2225)
     (xy -3.33375 -2.2225)) (layer F.Fab) (width 0.02))
  (fp_text user + (at -2.38125 -0.64254) (layer F.Fab)
    (effects (font (size 1 1) (thickness 0.1)) (justify left))
  )
  (model ${KISYS3DMOD}/Capacitor_Tantalum_SMD.3dshapes/CP_EIA-7343-30_AVX-N.wrl
    (offset (xyz 0 0 0))
    (scale (xyz 1 1 1))
    (rotate (xyz 0 0 0))
  )
)