(module CART-COVIDIEN-PER (layer F.Cu) (tedit 0)
  (attr virtual)
  (fp_text reference REF** (at 0 0) (layer F.SilkS)
    (effects (font (size 1 1) (thickness 0.15)))
  )
  (fp_text value CART-COVIDIEN-PER (at 0 2) (layer F.Fab) hide
    (effects (font (size 1 1) (thickness 0.15)))
  )
  (fp_line (start -146.05 0.05) (end -146.05 -23.05) (layer Dwgs.User) (width 0.05))
  (fp_line (start -146.05 -23.05) (end 0.05 -23.05) (layer Dwgs.User) (width 0.05))
  (fp_line (start 0.05 -23.05) (end 0.05 0.05) (layer Dwgs.User) (width 0.05))
  (fp_line (start 0.05 0.05) (end -146.05 0.05) (layer Dwgs.User) (width 0.05))
  (fp_line (start 0 0) (end -146 0) (layer Dwgs.User) (width 0.1))
  (fp_line (start -146 0) (end -146 -23) (layer Dwgs.User) (width 0.1))
  (fp_line (start -146 -23) (end 0 -23) (layer Dwgs.User) (width 0.1))
  (fp_line (start 0 -23) (end 0 0) (layer Dwgs.User) (width 0.1))
  (fp_line (start -146 -23) (end 0 -23) (layer Dwgs.User) (width 0.1))
  (fp_line (start 0 -23) (end 0 0) (layer Dwgs.User) (width 0.1))
  (fp_line (start 0 0) (end -146 0) (layer Dwgs.User) (width 0.1))
  (fp_line (start -146 0) (end -146 -23) (layer Dwgs.User) (width 0.1))
  (fp_line (start -42 -6) (end 0 -6) (layer Dwgs.User) (width 0.1))
  (fp_line (start 0 -6) (end 0 0) (layer Dwgs.User) (width 0.1))
  (fp_line (start 0 0) (end -42 0) (layer Dwgs.User) (width 0.1))
  (fp_line (start -42 0) (end -42 -6) (layer Dwgs.User) (width 0.1))
  (fp_line (start 0 -6) (end -14 -6) (layer Dwgs.User) (width 0.1))
  (fp_line (start -14 -6) (end -14 -15) (layer Dwgs.User) (width 0.1))
  (fp_line (start -14 -15) (end 0 -15) (layer Dwgs.User) (width 0.1))
  (fp_line (start 0 -15) (end 0 -6) (layer Dwgs.User) (width 0.1))
  (fp_line (start 0 -15) (end -95 -15) (layer Dwgs.User) (width 0.1))
  (fp_line (start -95 -15) (end -95 -23) (layer Dwgs.User) (width 0.1))
  (fp_line (start -95 -23) (end 0 -23) (layer Dwgs.User) (width 0.1))
  (fp_line (start 0 -23) (end 0 -15) (layer Dwgs.User) (width 0.1))
  (fp_line (start -95 -15) (end -14 -15) (layer Dwgs.User) (width 0.1))
  (fp_line (start -14 -15) (end -14 -6) (layer Dwgs.User) (width 0.1))
  (fp_line (start -14 -6) (end -95 -6) (layer Dwgs.User) (width 0.1))
  (fp_line (start -95 -6) (end -95 -15) (layer Dwgs.User) (width 0.1))
  (fp_line (start -95 -15) (end -88 -15) (layer Dwgs.User) (width 0.1))
  (fp_line (start -88 -15) (end -88 -6) (layer Dwgs.User) (width 0.1))
  (fp_line (start -88 -6) (end -95 -6) (layer Dwgs.User) (width 0.1))
  (fp_line (start -95 -6) (end -95 -15) (layer Dwgs.User) (width 0.1))
  (fp_line (start -54 -6) (end -88 -6) (layer Dwgs.User) (width 0.1))
  (fp_line (start -88 -6) (end -88 -15) (layer Dwgs.User) (width 0.1))
  (fp_line (start -88 -15) (end -54 -15) (layer Dwgs.User) (width 0.1))
  (fp_line (start -54 -15) (end -54 -6) (layer Dwgs.User) (width 0.1))
  (fp_line (start -95 -6) (end -74 -6) (layer Dwgs.User) (width 0.1))
  (fp_line (start -74 -6) (end -74 0) (layer Dwgs.User) (width 0.1))
  (fp_line (start -74 0) (end -95 0) (layer Dwgs.User) (width 0.1))
  (fp_line (start -95 0) (end -95 -6) (layer Dwgs.User) (width 0.1))
  (fp_line (start -95 -6) (end -146 -6) (layer Dwgs.User) (width 0.1))
  (fp_line (start -146 -6) (end -146 0) (layer Dwgs.User) (width 0.1))
  (fp_line (start -146 0) (end -95 0) (layer Dwgs.User) (width 0.1))
  (fp_line (start -95 0) (end -95 -6) (layer Dwgs.User) (width 0.1))
  (fp_text user SHEET (at -39 -2) (layer Dwgs.User)
    (effects (font (size 1 1) (thickness 0.2)) (justify left))
  )
  (fp_text user REV (at -9 -12) (layer Dwgs.User)
    (effects (font (size 1 1) (thickness 0.2)) (justify left))
  )
  (fp_text user "6135 Gunbarrel Avenue" (at -134.5 -13.25) (layer Dwgs.User)
    (effects (font (size 1 1) (thickness 0.2)) (justify left))
  )
  (fp_text user COVIDIEN (at -130.5 -16) (layer Dwgs.User)
    (effects (font (size 1 1) (thickness 0.3)) (justify left))
  )
  (fp_text user "Boulder, Colorado 80301" (at -135.8 -10.25) (layer Dwgs.User)
    (effects (font (size 1 1) (thickness 0.2)) (justify left))
  )
  (fp_text user DRAWN (at -142.35 -2) (layer Dwgs.User)
    (effects (font (size 1 1) (thickness 0.2)) (justify left))
  )
  (fp_text user "DWG NUMBER" (at -40.85 -12) (layer Dwgs.User)
    (effects (font (size 1 1) (thickness 0.2)) (justify left))
  )
  (fp_text user FILENAME (at -75.7 -12.25) (layer Dwgs.User)
    (effects (font (size 1 1) (thickness 0.2)) (justify left))
  )
  (fp_text user B (at -92.5 -7) (layer Dwgs.User)
    (effects (font (size 1 1) (thickness 0.2)) (justify left))
  )
  (fp_text user SIZE (at -93 -12) (layer Dwgs.User)
    (effects (font (size 1 1) (thickness 0.3)) (justify left))
  )
  (fp_text user "eqfc.(hpg, dxf, pdf)" (at -83.85 -8.25) (layer Dwgs.User)
    (effects (font (size 1 1) (thickness 0.2)) (justify left))
  )
  (fp_text user "PROPRIETARY & CONFIDENTIAL. THIS DOCUMENT MAY NOT BE COPIED, DISCLOSED," (at -92 -20) (layer Dwgs.User)
    (effects (font (size 1 1) (thickness 0.2)) (justify left))
  )
  (fp_text user " OR USED IN WHOLE OR IN PART WITHOUT CONSENT OF COVIDIEN." (at -93 -17) (layer Dwgs.User)
    (effects (font (size 1 1) (thickness 0.2)) (justify left))
  )
  (fp_text user "SCALE  N/A" (at -93.35 -2) (layer Dwgs.User)
    (effects (font (size 1 1) (thickness 0.2)) (justify left))
  )
  (fp_text user X/X (at -25 -2) (layer Dwgs.User)
    (effects (font (size 1 1) (thickness 0.2)) (justify left))
  )
  (fp_text user X (at -8 -7) (layer Dwgs.User)
    (effects (font (size 1 1) (thickness 0.2)) (justify left))
  )
  (fp_text user F.E.E. (at -117.25 -2) (layer Dwgs.User)
    (effects (font (size 1 1) (thickness 0.2)) (justify left))
  )
)