(module CART-COVIDIEN-REV (layer F.Cu) (tedit 0)
  (attr virtual)
  (fp_text reference REF** (at 0 0) (layer F.SilkS)
    (effects (font (size 1 1) (thickness 0.15)))
  )
  (fp_text value CART-COVIDIEN-REV (at 0 2) (layer F.Fab) hide
    (effects (font (size 1 1) (thickness 0.15)))
  )
  (fp_line (start -140.05 33.05) (end -140.05 -0.05) (layer Dwgs.User) (width 0.05))
  (fp_line (start -140.05 -0.05) (end 0.05 -0.05) (layer Dwgs.User) (width 0.05))
  (fp_line (start 0.05 -0.05) (end 0.05 33.05) (layer Dwgs.User) (width 0.05))
  (fp_line (start 0.05 33.05) (end -140.05 33.05) (layer Dwgs.User) (width 0.05))
  (fp_line (start -140 0) (end 0 0) (layer Dwgs.User) (width 0.1))
  (fp_line (start 0 0) (end 0 11) (layer Dwgs.User) (width 0.1))
  (fp_line (start 0 11) (end -140 11) (layer Dwgs.User) (width 0.1))
  (fp_line (start -140 11) (end -140 0) (layer Dwgs.User) (width 0.1))
  (fp_line (start -140 11) (end 0 11) (layer Dwgs.User) (width 0.1))
  (fp_line (start 0 11) (end 0 22) (layer Dwgs.User) (width 0.1))
  (fp_line (start 0 22) (end -140 22) (layer Dwgs.User) (width 0.1))
  (fp_line (start -140 22) (end -140 11) (layer Dwgs.User) (width 0.1))
  (fp_line (start -140 22) (end 0 22) (layer Dwgs.User) (width 0.1))
  (fp_line (start 0 22) (end 0 33) (layer Dwgs.User) (width 0.1))
  (fp_line (start 0 33) (end -140 33) (layer Dwgs.User) (width 0.1))
  (fp_line (start -140 33) (end -140 22) (layer Dwgs.User) (width 0.1))
  (fp_line (start 0 11) (end -28 11) (layer Dwgs.User) (width 0.1))
  (fp_line (start -28 11) (end -28 33) (layer Dwgs.User) (width 0.1))
  (fp_line (start -28 33) (end 0 33) (layer Dwgs.User) (width 0.1))
  (fp_line (start 0 33) (end 0 11) (layer Dwgs.User) (width 0.1))
  (fp_line (start -28 11) (end -56 11) (layer Dwgs.User) (width 0.1))
  (fp_line (start -56 11) (end -56 33) (layer Dwgs.User) (width 0.1))
  (fp_line (start -56 33) (end -28 33) (layer Dwgs.User) (width 0.1))
  (fp_line (start -28 33) (end -28 11) (layer Dwgs.User) (width 0.1))
  (fp_line (start -140 11) (end -126 11) (layer Dwgs.User) (width 0.1))
  (fp_line (start -126 11) (end -126 33) (layer Dwgs.User) (width 0.1))
  (fp_line (start -126 33) (end -140 33) (layer Dwgs.User) (width 0.1))
  (fp_line (start -140 33) (end -140 11) (layer Dwgs.User) (width 0.1))
  (fp_text user REVISIONS (at -91 8) (layer Dwgs.User)
    (effects (font (size 1 1) (thickness 0.1)) (justify left))
  )
  (fp_text user REV (at -135 18) (layer Dwgs.User)
    (effects (font (size 1 1) (thickness 0.1)) (justify left))
  )
  (fp_text user DESCRIPTION (at -99 18) (layer Dwgs.User)
    (effects (font (size 1 1) (thickness 0.1)) (justify left))
  )
  (fp_text user DATE (at -44 18) (layer Dwgs.User)
    (effects (font (size 1 1) (thickness 0.1)) (justify left))
  )
  (fp_text user APPROVAL (at -20 18) (layer Dwgs.User)
    (effects (font (size 1 1) (thickness 0.1)) (justify left))
  )
)