(module CO31D1_100001111101 (layer F.Cu) (tedit 0)
  (fp_text reference REF** (at 0 0) (layer F.SilkS)
    (effects (font (size 1 1) (thickness 0.15)))
  )
  (fp_text value CO31D1_100001111101 (at 0 2) (layer F.Fab) hide
    (effects (font (size 1 1) (thickness 0.15)))
  )
  (fp_text user + (at 8.5725 1.73981) (layer F.Fab)
    (effects (font (size 1 1) (thickness 0.254)) (justify left))
  )
  (fp_arc (start 33.02 0) (end 34.163 0) (angle 360) (layer B.CrtYd) (width 0.02))
  (fp_line (start -1.1938 6.59) (end -1.1938 -6.59) (layer Dwgs.User) (width 0.05))
  (fp_line (start -1.1938 -6.59) (end 34.4932 -6.59) (layer Dwgs.User) (width 0.05))
  (fp_line (start 34.4932 -6.59) (end 34.4932 6.59) (layer Dwgs.User) (width 0.05))
  (fp_line (start 34.4932 6.59) (end -1.1938 6.59) (layer Dwgs.User) (width 0.05))
  (fp_line (start 29.21 0) (end 31.75 0) (layer F.SilkS) (width 0.18))
  (fp_line (start 1.27 0) (end 3.81 0) (layer F.SilkS) (width 0.18))
  (fp_line (start 29.21 -6.5) (end 3.81 -6.5) (layer F.SilkS) (width 0.18))
  (fp_line (start 3.81 -6.5) (end 3.81 6.5) (layer F.SilkS) (width 0.18))
  (fp_line (start 3.81 6.5) (end 29.21 6.5) (layer F.SilkS) (width 0.18))
  (fp_line (start 29.21 6.5) (end 29.21 -6.5) (layer F.SilkS) (width 0.18))
  (fp_line (start 7.62 6.35) (end 7.62 -6.35) (layer F.SilkS) (width 0.18))
  (fp_line (start 6.35 6.35) (end 6.35 -6.35) (layer F.SilkS) (width 0.18))
  (fp_line (start -1.1 1.1) (end -1.1 -1.1) (layer F.CrtYd) (width 0.02))
  (fp_line (start -1.1 -1.1) (end 3.8 -1.1) (layer F.CrtYd) (width 0.02))
  (fp_line (start 3.8 -1.1) (end 3.8 -6.5) (layer F.CrtYd) (width 0.02))
  (fp_line (start 3.8 -6.5) (end 29.2 -6.5) (layer F.CrtYd) (width 0.02))
  (fp_line (start 29.2 -6.5) (end 29.2 -1.2) (layer F.CrtYd) (width 0.02))
  (fp_line (start 29.2 -1.2) (end 34.2 -1.2) (layer F.CrtYd) (width 0.02))
  (fp_line (start 34.2 -1.2) (end 34.2 1.2) (layer F.CrtYd) (width 0.02))
  (fp_line (start 34.2 1.2) (end 29.2 1.2) (layer F.CrtYd) (width 0.02))
  (fp_line (start 29.2 1.2) (end 29.2 6.5) (layer F.CrtYd) (width 0.02))
  (fp_line (start 29.2 6.5) (end 3.8 6.5) (layer F.CrtYd) (width 0.02))
  (fp_line (start 3.8 6.5) (end 3.8 1.1) (layer F.CrtYd) (width 0.02))
  (fp_line (start 3.8 1.1) (end -1.1 1.1) (layer F.CrtYd) (width 0.02))
  (fp_line (start 0.9906 -0.9906) (end 0.9906 0.9906) (layer B.CrtYd) (width 0.02))
  (fp_line (start 0.9906 0.9906) (end -0.9906 0.9906) (layer B.CrtYd) (width 0.02))
  (fp_line (start -0.9906 0.9906) (end -0.9906 -0.9906) (layer B.CrtYd) (width 0.02))
  (fp_line (start -0.9906 -0.9906) (end 0.9906 -0.9906) (layer B.CrtYd) (width 0.02))
  (fp_line (start 33.02 0) (end 29.21 0) (layer F.Fab) (width 0.1))
  (fp_line (start 3.81 0) (end 0 0) (layer F.Fab) (width 0.1))
  (fp_line (start 7.62 6.35) (end 7.62 -6.35) (layer F.Fab) (width 0.1))
  (fp_line (start 6.35 6.35) (end 6.35 -6.35) (layer F.Fab) (width 0.1))
  (fp_line (start 29.21 -6.5) (end 3.81 -6.5) (layer F.Fab) (width 0.1))
  (fp_line (start 3.81 -6.5) (end 3.81 6.5) (layer F.Fab) (width 0.1))
  (fp_line (start 3.81 6.5) (end 29.21 6.5) (layer F.Fab) (width 0.1))
  (fp_line (start 29.21 6.5) (end 29.21 -6.5) (layer F.Fab) (width 0.1))
  (pad - thru_hole circle (at 33.02 0) (size 2.286 2.286) (drill 1.3208) (layers *.Mask F.Cu In1.Cu In2.Cu In3.Cu B.Cu)
    (solder_mask_margin 0.1016) (clearance 0.127) (zone_connect 2) (thermal_width 0.381) (thermal_gap 0.3302))
  (pad + thru_hole rect (at 0 0) (size 1.9812 1.9812) (drill 1.3208) (layers F&B.Cu *.Mask)
    (solder_mask_margin 0.1016) (clearance 0.1524) (zone_connect 2) (thermal_width 0.2032) (thermal_gap 0.2032))
  (model ${KIPRJMOD}/../Library/Footprints.3dshapes/CP_Axial_L26.0mm_D13.0mm_P33.02mm_Horizontal.wrl
    (at (xyz 0 0 0))
    (scale (xyz 1 1 1))
    (rotate (xyz 0 0 180))
  )
)
