(module DPAK-GDS (layer F.Cu) (tedit 0)
  (attr smd)
  (fp_text reference REF** (at 0 0) (layer F.SilkS)
    (effects (font (size 1 1) (thickness 0.15)))
  )
  (fp_text value DPAK-GDS (at 0 2) (layer F.Fab) hide
    (effects (font (size 1 1) (thickness 0.15)))
  )
  (fp_line (start -3.79 6.36) (end -3.79 -5.79) (layer Dwgs.User) (width 0.05))
  (fp_line (start -3.79 -5.79) (end 3.79 -5.79) (layer Dwgs.User) (width 0.05))
  (fp_line (start 3.79 -5.79) (end 3.79 6.36) (layer Dwgs.User) (width 0.05))
  (fp_line (start 3.79 6.36) (end -3.79 6.36) (layer Dwgs.User) (width 0.05))
  (fp_line (start -3.7 2.4) (end 3.7 2.4) (layer F.SilkS) (width 0.18))
  (fp_line (start 3.7 2.4) (end 3.7 -5.7) (layer F.SilkS) (width 0.18))
  (fp_line (start 3.7 -5.7) (end -3.7 -5.7) (layer F.SilkS) (width 0.18))
  (fp_line (start -3.7 -5.7) (end -3.7 2.4) (layer F.SilkS) (width 0.18))
  (fp_line (start -0.5 2.4) (end 0.5 2.4) (layer F.SilkS) (width 0.18))
  (fp_line (start 0.5 2.4) (end 0.5 3.6) (layer F.SilkS) (width 0.18))
  (fp_line (start 0.5 3.6) (end -0.5 3.6) (layer F.SilkS) (width 0.18))
  (fp_line (start -0.5 3.6) (end -0.5 2.4) (layer F.SilkS) (width 0.18))
  (fp_line (start -3.2 6.3) (end -3.2 2.4) (layer F.CrtYd) (width 0.02))
  (fp_line (start -3.2 2.4) (end -3.7 2.4) (layer F.CrtYd) (width 0.02))
  (fp_line (start -3.7 2.4) (end -3.7 -5.7) (layer F.CrtYd) (width 0.02))
  (fp_line (start -3.7 -5.7) (end 3.7 -5.7) (layer F.CrtYd) (width 0.02))
  (fp_line (start 3.7 -5.7) (end 3.7 2.4) (layer F.CrtYd) (width 0.02))
  (fp_line (start 3.7 2.4) (end 3.2 2.4) (layer F.CrtYd) (width 0.02))
  (fp_line (start 3.2 2.4) (end 3.2 6.3) (layer F.CrtYd) (width 0.02))
  (fp_line (start 3.2 6.3) (end 1.4 6.3) (layer F.CrtYd) (width 0.02))
  (fp_line (start 1.4 6.3) (end 1.4 4.2) (layer F.CrtYd) (width 0.02))
  (fp_line (start 1.4 4.2) (end -1.4 4.2) (layer F.CrtYd) (width 0.02))
  (fp_line (start -1.4 4.2) (end -1.4 6.3) (layer F.CrtYd) (width 0.02))
  (fp_line (start -1.4 6.3) (end -3.2 6.3) (layer F.CrtYd) (width 0.02))
  (fp_line (start 0.5 2.3495) (end -0.5 2.3495) (layer F.Fab) (width 0.1))
  (fp_line (start -0.5 2.3495) (end -0.5 3.6195) (layer F.Fab) (width 0.1))
  (fp_line (start -0.5 3.6195) (end 0.5 3.6195) (layer F.Fab) (width 0.1))
  (fp_line (start 0.5 3.6195) (end 0.5 2.3495) (layer F.Fab) (width 0.1))
  (fp_line (start -2.8575 -3.683) (end -2.8575 -4.318) (layer F.Fab) (width 0.1))
  (fp_line (start -2.8575 -4.318) (end -2.2225 -4.953) (layer F.Fab) (width 0.1))
  (fp_line (start -2.2225 -4.953) (end -2.2225 -5.2705) (layer F.Fab) (width 0.1))
  (fp_line (start -2.2225 -5.2705) (end 2.2225 -5.2705) (layer F.Fab) (width 0.1))
  (fp_line (start 2.2225 -5.2705) (end 2.2225 -4.953) (layer F.Fab) (width 0.1))
  (fp_line (start 2.2225 -4.953) (end 2.8575 -4.318) (layer F.Fab) (width 0.1))
  (fp_line (start 2.8575 -4.318) (end 2.8575 -3.683) (layer F.Fab) (width 0.1))
  (fp_line (start 2.8 2.3495) (end 1.8 2.3495) (layer F.Fab) (width 0.1))
  (fp_line (start 1.8 2.3495) (end 1.8 5.207) (layer F.Fab) (width 0.1))
  (fp_line (start 1.8 5.207) (end 2.8 5.207) (layer F.Fab) (width 0.1))
  (fp_line (start 2.8 5.207) (end 2.8 2.3495) (layer F.Fab) (width 0.1))
  (fp_line (start -1.8 2.3495) (end -2.8 2.3495) (layer F.Fab) (width 0.1))
  (fp_line (start -2.8 2.3495) (end -2.8 5.334) (layer F.Fab) (width 0.1))
  (fp_line (start -2.8 5.334) (end -1.8 5.334) (layer F.Fab) (width 0.1))
  (fp_line (start -1.8 5.334) (end -1.8 2.3495) (layer F.Fab) (width 0.1))
  (fp_line (start 3.35 -3.683) (end -3.35 -3.683) (layer F.Fab) (width 0.1))
  (fp_line (start -3.35 -3.683) (end -3.35 2.3495) (layer F.Fab) (width 0.1))
  (fp_line (start -3.35 2.3495) (end 3.35 2.3495) (layer F.Fab) (width 0.1))
  (fp_line (start 3.35 2.3495) (end 3.35 -3.683) (layer F.Fab) (width 0.1))
  (pad D smd rect (at 0 -2) (size 6.71 6.9) (layers F.Cu F.Mask F.Paste)
    (solder_mask_margin 0.1)
    (zone_connect 2))
  (pad G smd rect (at -2.3 4.41) (size 1.57 3.7) (layers F.Cu F.Mask F.Paste)
    (solder_mask_margin 0.1)
    (zone_connect 2))
  (pad S smd rect (at 2.3 4.41) (size 1.57 3.7) (layers F.Cu F.Mask F.Paste)
    (solder_mask_margin 0.1)
    (zone_connect 2))
  (model ${KIPRJMOD}/../Library/Footprints.3dshapes/TO228P991X239-3N-R552X520.stp
    (offset (xyz 0 0 0))
    (scale (xyz 1 1 1))
    (rotate (xyz 0 0 -90))
  )
)