(module FABRICATION_1 (layer F.Cu) (tedit 0)
  (attr virtual)
  (fp_text reference REF** (at 0 0) (layer F.SilkS)
    (effects (font (size 1 1) (thickness 0.15)))
  )
  (fp_text value FABRICATION_1 (at 0 2) (layer F.Fab) hide
    (effects (font (size 1 1) (thickness 0.15)))
  )
  (fp_line (start -0.76 52.83) (end -0.76 -5.125) (layer Dwgs.User) (width 0.05))
  (fp_line (start -0.76 -5.125) (end 46.48 -5.125) (layer Dwgs.User) (width 0.05))
  (fp_line (start 46.48 -5.125) (end 46.48 52.83) (layer Dwgs.User) (width 0.05))
  (fp_line (start 46.48 52.83) (end -0.76 52.83) (layer Dwgs.User) (width 0.05))
  (fp_line (start 0 44.45) (end 0 48.26) (layer Dwgs.User) (width 0.25))
  (fp_line (start 0 48.26) (end 45.72 48.26) (layer Dwgs.User) (width 0.25))
  (fp_line (start 45.72 48.26) (end 45.72 44.45) (layer Dwgs.User) (width 0.25))
  (fp_line (start 45.72 44.45) (end 0 44.45) (layer Dwgs.User) (width 0.25))
  (fp_line (start 34.29 25.4) (end 34.29 21.59) (layer Dwgs.User) (width 0.25))
  (fp_line (start 0 36.83) (end 0 40.64) (layer Dwgs.User) (width 0.25))
  (fp_line (start 0 40.64) (end 45.72 40.64) (layer Dwgs.User) (width 0.25))
  (fp_line (start 45.72 40.64) (end 45.72 36.83) (layer Dwgs.User) (width 0.25))
  (fp_line (start 45.72 36.83) (end 0 36.83) (layer Dwgs.User) (width 0.25))
  (fp_line (start 45.72 25.4) (end 0 25.4) (layer Dwgs.User) (width 0.25))
  (fp_line (start 0 25.4) (end 0 31.115) (layer Dwgs.User) (width 0.25))
  (fp_line (start 0 31.115) (end 45.72 31.115) (layer Dwgs.User) (width 0.25))
  (fp_line (start 45.72 31.115) (end 45.72 25.4) (layer Dwgs.User) (width 0.25))
  (fp_line (start 0 21.59) (end 0 25.4) (layer Dwgs.User) (width 0.25))
  (fp_line (start 0 25.4) (end 45.72 25.4) (layer Dwgs.User) (width 0.25))
  (fp_line (start 45.72 25.4) (end 45.72 21.59) (layer Dwgs.User) (width 0.25))
  (fp_line (start 45.72 21.59) (end 0 21.59) (layer Dwgs.User) (width 0.25))
  (fp_line (start 0 17.78) (end 0 21.59) (layer Dwgs.User) (width 0.25))
  (fp_line (start 0 21.59) (end 45.72 21.59) (layer Dwgs.User) (width 0.25))
  (fp_line (start 45.72 21.59) (end 45.72 17.78) (layer Dwgs.User) (width 0.25))
  (fp_line (start 45.72 17.78) (end 0 17.78) (layer Dwgs.User) (width 0.25))
  (fp_line (start 0 13.97) (end 0 17.78) (layer Dwgs.User) (width 0.25))
  (fp_line (start 0 17.78) (end 45.72 17.78) (layer Dwgs.User) (width 0.25))
  (fp_line (start 45.72 17.78) (end 45.72 13.97) (layer Dwgs.User) (width 0.25))
  (fp_line (start 45.72 13.97) (end 0 13.97) (layer Dwgs.User) (width 0.25))
  (fp_line (start 0 10.16) (end 0 13.97) (layer Dwgs.User) (width 0.25))
  (fp_line (start 0 13.97) (end 45.72 13.97) (layer Dwgs.User) (width 0.25))
  (fp_line (start 45.72 13.97) (end 45.72 10.16) (layer Dwgs.User) (width 0.25))
  (fp_line (start 45.72 10.16) (end 0 10.16) (layer Dwgs.User) (width 0.25))
  (fp_line (start 0 -4.1) (end 0 2.4) (layer Dwgs.User) (width 0.25))
  (fp_line (start 0 2.4) (end 45.72 2.4) (layer Dwgs.User) (width 0.25))
  (fp_line (start 45.72 2.4) (end 45.72 -4.1) (layer Dwgs.User) (width 0.25))
  (fp_line (start 45.72 -4.1) (end 0 -4.1) (layer Dwgs.User) (width 0.25))
  (fp_line (start 0 2.4) (end 0 10.16) (layer Dwgs.User) (width 0.25))
  (fp_line (start 0 10.16) (end 45.72 10.16) (layer Dwgs.User) (width 0.25))
  (fp_line (start 45.72 10.16) (end 45.72 2.4) (layer Dwgs.User) (width 0.25))
  (fp_line (start 45.72 2.4) (end 0 2.4) (layer Dwgs.User) (width 0.25))
  (fp_line (start 22.86 2.4) (end 22.86 40.64) (layer Dwgs.User) (width 0.25))
  (fp_line (start 0 40.64) (end 0 44.45) (layer Dwgs.User) (width 0.25))
  (fp_line (start 0 44.45) (end 45.72 44.45) (layer Dwgs.User) (width 0.25))
  (fp_line (start 45.72 44.45) (end 45.72 40.64) (layer Dwgs.User) (width 0.25))
  (fp_line (start 45.72 40.64) (end 0 40.64) (layer Dwgs.User) (width 0.25))
  (fp_line (start 22.86 40.64) (end 22.86 52.07) (layer Dwgs.User) (width 0.25))
  (fp_line (start 34.29 36.83) (end 34.29 25.4) (layer Dwgs.User) (width 0.25))
  (fp_line (start 29.845 36.83) (end 29.845 25.4) (layer Dwgs.User) (width 0.25))
  (fp_line (start 41.275 36.83) (end 41.275 25.4) (layer Dwgs.User) (width 0.25))
  (fp_line (start 46.355 -5) (end -0.635 -5) (layer Dwgs.User) (width 0.25))
  (fp_line (start -0.635 -5) (end -0.635 52.705) (layer Dwgs.User) (width 0.25))
  (fp_line (start -0.635 52.705) (end 46.355 52.705) (layer Dwgs.User) (width 0.25))
  (fp_line (start 46.355 52.705) (end 46.355 -5) (layer Dwgs.User) (width 0.25))
  (fp_line (start 0 1.7) (end 45.72 1.7) (layer Dwgs.User) (width 0.25))
  (fp_line (start 0 48.26) (end 0 52.07) (layer Dwgs.User) (width 0.25))
  (fp_line (start 0 52.07) (end 45.72 52.07) (layer Dwgs.User) (width 0.25))
  (fp_line (start 45.72 52.07) (end 45.72 48.26) (layer Dwgs.User) (width 0.25))
  (fp_line (start 45.72 48.26) (end 0 48.26) (layer Dwgs.User) (width 0.25))
  (fp_line (start 45.72 31.115) (end 0 31.115) (layer Dwgs.User) (width 0.25))
  (fp_line (start 0 31.115) (end 0 36.83) (layer Dwgs.User) (width 0.25))
  (fp_line (start 0 36.83) (end 45.72 36.83) (layer Dwgs.User) (width 0.25))
  (fp_line (start 45.72 36.83) (end 45.72 31.115) (layer Dwgs.User) (width 0.25))
  (fp_line (start 8.1 10.2) (end 8.1 2.4) (layer Dwgs.User) (width 0.25))
  (fp_line (start 8.1 6.3) (end 45.7 6.3) (layer Dwgs.User) (width 0.25))
  (fp_text user "Finition OR" (at 1.27 47.41514) (layer Dwgs.User)
    (effects (font (size 1 1) (thickness 0.1)) (justify left))
  )
  (fp_text user "ext. \nfini" (at 23.622 24.94299) (layer Dwgs.User)
    (effects (font (size 1 1) (thickness 0.1)) (justify left))
  )
  (fp_text user "int.\nfini" (at 34.925 24.94299) (layer Dwgs.User)
    (effects (font (size 1 1) (thickness 0.1)) (justify left))
  )
  (fp_text user "CONNECTEUR A Dgts" (at 1.27 39.79514) (layer Dwgs.User)
    (effects (font (size 1 1) (thickness 0.1)) (justify left))
  )
  (fp_text user "SERIGRAPHIE\nCouleur:" (at 1.27 35.76747) (layer Dwgs.User)
    (effects (font (size 1 1) (thickness 0.1)) (justify left))
  )
  (fp_text user "VERNIS EPARGNE\nCouleur:" (at 1.27 30.05247) (layer Dwgs.User)
    (effects (font (size 1 1) (thickness 0.1)) (justify left))
  )
  (fp_text user "EPAISSEUR CUIVRE" (at 1.27 24.55514) (layer Dwgs.User)
    (effects (font (size 1 1) (thickness 0.1)) (justify left))
  )
  (fp_text user "EPAISSEUR MATIERE" (at 1.27 20.74514) (layer Dwgs.User)
    (effects (font (size 1 1) (thickness 0.1)) (justify left))
  )
  (fp_text user MATIERE (at 1.27 16.93514) (layer Dwgs.User)
    (effects (font (size 1 1) (thickness 0.1)) (justify left))
  )
  (fp_text user TYPE (at 1.27 13.12514) (layer Dwgs.User)
    (effects (font (size 1 1) (thickness 0.1)) (justify left))
  )
  (fp_text user "SnPb Level Air" (at 1.27 43.60514) (layer Dwgs.User)
    (effects (font (size 1 1) (thickness 0.1)) (justify left))
  )
  (fp_text user : (at 27.94 24.26965) (layer Dwgs.User)
    (effects (font (size 1 1) (thickness 0.1)) (justify left))
  )
  (fp_text user : (at 39.243 24.26965) (layer Dwgs.User)
    (effects (font (size 1 1) (thickness 0.1)) (justify left))
  )
  (fp_text user "1\nface" (at 26.67 29.89599) (layer Dwgs.User)
    (effects (font (size 1 1) (thickness 0.1)))
  )
  (fp_text user "Test ELECTRIQUE" (at 1.27 51.22514) (layer Dwgs.User)
    (effects (font (size 1 1) (thickness 0.1)) (justify left))
  )
  (fp_text user "1\nface" (at 26.67 35.61099) (layer Dwgs.User)
    (effects (font (size 1 1) (thickness 0.1)))
  )
  (fp_text user "2\nfaces" (at 38.1 29.89599) (layer Dwgs.User)
    (effects (font (size 1 1) (thickness 0.1)))
  )
  (fp_text user "2\nfaces" (at 38.1 35.61099) (layer Dwgs.User)
    (effects (font (size 1 1) (thickness 0.1)))
  )
  (fp_text user CLASSE (at 1.2 6.6) (layer Dwgs.User)
    (effects (font (size 1 1) (thickness 0.1)) (justify left))
  )
  (fp_text user GRAVURE (at 10.6 5) (layer Dwgs.User)
    (effects (font (size 1 1) (thickness 0.1)) (justify left))
  )
  (fp_text user PERCAGE (at 10.5 8.9) (layer Dwgs.User)
    (effects (font (size 1 1) (thickness 0.1)) (justify left))
  )
  (fp_text user FABRICATION (at 12.8 0.3) (layer Dwgs.User)
    (effects (font (size 1 1) (thickness 0.254)) (justify left))
  )
)