(module FEE_COMP_0.2 (layer F.Cu) (tedit 0)
  (attr virtual)
  (fp_text reference REF** (at 0 0) (layer F.SilkS)
    (effects (font (size 1 1) (thickness 0.15)))
  )
  (fp_text value FEE_COMP_0.2 (at 0 2) (layer F.Fab) hide
    (effects (font (size 1 1) (thickness 0.15)))
  )
  (fp_arc (start 2.221394 -0.656084) (end 2.192564 -0.835784) (angle 182.230765) (layer F.Cu) (width 0.02))
  (fp_arc (start 1.176739 -0.509281) (end 1.213534 -0.3307) (angle 187.286501) (layer F.Cu) (width 0.02))
  (fp_arc (start 1.157111 -0.729649) (end 1.16289 -0.691086) (angle -178.953582) (layer F.Cu) (width 0.02))
  (fp_arc (start 1.116248 -0.960158) (end 1.152038 -0.768312) (angle 185.135802) (layer F.Cu) (width 0.02))
  (fp_arc (start 1.091407 -1.192918) (end 1.097776 -1.154438) (angle -177.202079) (layer F.Cu) (width 0.02))
  (fp_arc (start 1.049028 -1.41009) (end 1.086924 -1.231664) (angle 187.983347) (layer F.Cu) (width 0.02))
  (fp_arc (start 2.22132 -1.57483) (end 2.207534 -1.756644) (angle 172.674124) (layer F.Cu) (width 0.02))
  (fp_arc (start 1.540365 -1.25601) (end 1.537408 -1.29497) (angle -187.317041) (layer F.Cu) (width 0.02))
  (fp_arc (start 2.297029 -1.126091) (end 2.26903 -1.319032) (angle 180.515197) (layer F.Cu) (width 0.02))
  (fp_arc (start 1.605479 -0.792658) (end 1.602522 -0.831618) (angle -187.317041) (layer F.Cu) (width 0.02))
  (fp_line (start -0.228266 -0.08714) (end -0.228266 -2.755568) (layer Dwgs.User) (width 0.05))
  (fp_line (start -0.228266 -2.755568) (end 2.983798 -2.755568) (layer Dwgs.User) (width 0.05))
  (fp_line (start 2.983798 -2.755568) (end 2.983798 -0.08714) (layer Dwgs.User) (width 0.05))
  (fp_line (start 2.983798 -0.08714) (end -0.228266 -0.08714) (layer Dwgs.User) (width 0.05))
  (fp_line (start 2.243208 -0.475398) (end 1.213534 -0.3307) (layer F.Cu) (width 0.02))
  (fp_line (start 1.03628 -1.59205) (end 2.207534 -1.756644) (layer F.Cu) (width 0.02))
  (fp_line (start 2.258178 -1.396258) (end 1.537408 -1.29497) (layer F.Cu) (width 0.02))
  (fp_line (start 1.54826 -1.217744) (end 2.26903 -1.319032) (layer F.Cu) (width 0.02))
  (fp_line (start 2.323292 -0.932906) (end 1.602522 -0.831618) (layer F.Cu) (width 0.02))
  (fp_line (start 1.613374 -0.754392) (end 2.192564 -0.835784) (layer F.Cu) (width 0.02))
  (fp_poly (pts (xy -0.145064 -1.032286) (xy -0.228266 -1.624348) (xy 0.106378 -1.671374) (xy 0.098454 -1.771504)
     (xy 0.102653 -1.871859) (xy 0.118914 -1.970977) (xy 0.147 -2.067413) (xy 0.186503 -2.159762)
     (xy 0.236845 -2.246678) (xy 0.297294 -2.326895) (xy 0.366969 -2.399243) (xy 0.444854 -2.462668)
     (xy 0.529814 -2.516245) (xy 0.620611 -2.559195) (xy 0.715922 -2.59089) (xy 0.814358 -2.61087)
     (xy 1.84403 -2.755568) (xy 1.907582 -2.741305) (xy 1.959599 -2.702107) (xy 1.990826 -2.644948)
     (xy 1.983646 -2.523545) (xy 1.930725 -2.414049) (xy 1.840056 -2.332998) (xy 1.725334 -2.292636)
     (xy 1.117214 -2.207178) (xy 1.058037 -2.178) (xy 1.01833 -2.125307) (xy 1.006592 -2.06038)
     (xy 2.773094 -2.308624) (xy 2.885438 -2.29056) (xy 2.965096 -2.209307) (xy 2.980931 -2.096627)
     (xy 2.926752 -1.996566) (xy 2.823738 -1.948238) (xy 0.944586 -1.684164) (xy 0.855636 -1.627084)
     (xy 0.79212 -1.542611) (xy 0.761982 -1.44131) (xy 0.768993 -1.335854) (xy 0.812276 -1.239434)
     (xy 0.886416 -1.164112) (xy 0.826397 -1.074989) (xy 0.802265 -0.970286) (xy 0.817217 -0.863884)
     (xy 0.869273 -0.769887) (xy 0.95153 -0.700758) (xy 0.882813 -0.606715) (xy 0.864231 -0.491732)
     (xy 0.899829 -0.380831) (xy 0.98186 -0.298144) (xy 0.876435 -0.281981) (xy 0.769863 -0.277728)
     (xy 0.663486 -0.285437) (xy 0.558641 -0.305012) (xy 0.456648 -0.336207) (xy 0.358791 -0.378628)
     (xy 0.2663 -0.431742) (xy 0.18034 -0.49488) (xy 0.101993 -0.567249) (xy 0.032243 -0.647938)
     (xy -0.028031 -0.73593) (xy -0.07807 -0.83012) (xy -0.117245 -0.929321) (xy -0.145064 -1.032286)) (layer F.Cu) (width 0))
  (fp_poly (pts (xy 2.554138 -1.175348) (xy 2.531655 -1.273146) (xy 2.463118 -1.346445) (xy 2.367048 -1.375438)
     (xy 2.414857 -1.416269) (xy 2.448343 -1.469482) (xy 2.46447 -1.53025) (xy 2.604092 -1.54987)
     (xy 2.715433 -1.53088) (xy 2.79412 -1.449852) (xy 2.809838 -1.338002) (xy 2.75653 -1.238425)
     (xy 2.654736 -1.189484) (xy 2.554138 -1.175348)) (layer F.Cu) (width 0))
  (fp_poly (pts (xy 2.465598 -0.690404) (xy 2.445367 -0.760648) (xy 2.4015 -0.819122) (xy 2.339722 -0.858198)
     (xy 2.44643 -0.904065) (xy 2.525932 -0.98874) (xy 2.56499 -1.098124) (xy 2.681626 -1.114514)
     (xy 2.782408 -1.102859) (xy 2.86369 -1.042145) (xy 2.903462 -0.948812) (xy 2.890954 -0.848132)
     (xy 2.829555 -0.767367) (xy 2.735888 -0.728386) (xy 2.465598 -0.690404)) (layer F.Cu) (width 0))
  (fp_poly (pts (xy 1.57326 -0.31563) (xy 2.29403 -0.416918) (xy 2.383057 -0.451805) (xy 2.448155 -0.521842)
     (xy 2.47645 -0.613178) (xy 2.656642 -0.6385) (xy 2.755954 -0.614202) (xy 2.833059 -0.547059)
     (xy 2.870778 -0.45203) (xy 2.86071 -0.350285) (xy 2.805097 -0.264493) (xy 2.716328 -0.213764)
     (xy 1.815366 -0.087152) (xy 1.697709 -0.116628) (xy 1.609495 -0.199876) (xy 1.57326 -0.31563)) (layer F.Cu) (width 0))
)