(module FIX30_100001 (layer F.Cu) (tedit 0)
  (fp_text reference REF** (at 0 0) (layer F.SilkS)
    (effects (font (size 1 1) (thickness 0.15)))
  )
  (fp_text value FIX30_100001 (at 0 2) (layer F.Fab) hide
    (effects (font (size 1 1) (thickness 0.15)))
  )
  (fp_arc (start 0 0) (end 2 0) (angle 360) (layer Dwgs.User) (width 0.02))
  (fp_arc (start 0 0) (end 1.27 0) (angle 360) (layer B.CrtYd) (width 0.02))
  (fp_line (start -2.0066 2.0066) (end -2.0066 -2.0066) (layer Dwgs.User) (width 0.05))
  (fp_line (start -2.0066 -2.0066) (end 2.0066 -2.0066) (layer Dwgs.User) (width 0.05))
  (fp_line (start 2.0066 -2.0066) (end 2.0066 2.0066) (layer Dwgs.User) (width 0.05))
  (fp_line (start 2.0066 2.0066) (end -2.0066 2.0066) (layer Dwgs.User) (width 0.05))
  (fp_line (start 1.27 -1.27) (end 1.27 1.27) (layer F.CrtYd) (width 0.02))
  (fp_line (start 1.27 1.27) (end -1.27 1.27) (layer F.CrtYd) (width 0.02))
  (fp_line (start -1.27 1.27) (end -1.27 -1.27) (layer F.CrtYd) (width 0.02))
  (fp_line (start -1.27 -1.27) (end 1.27 -1.27) (layer F.CrtYd) (width 0.02))
  (pad 1 np_thru_hole circle (at 0 0) (size 2.54 2.54) (drill 2.9972) (layers F&B.Cu *.Mask)
    (solder_mask_margin 0.4826) (clearance 0.7366) (zone_connect 2))
  (model "${KIPRJMOD}/../Library/Footprints.3dshapes/Vis KA22x5 hexalobes.stp"
    (at (xyz 0 0 0))
    (scale (xyz 1 1 1))
    (rotate (xyz 180 0 0))
  )
)
