(module GDC.A1 (layer F.Cu) (tedit 0)
  (fp_text reference REF** (at 0 0) (layer F.SilkS) hide
    (effects (font (size 1 1) (thickness 0.15)))
  )
  (fp_text value Comp_resist (at 0 2) (layer F.Fab) hide
    (effects (font (size 1 1) (thickness 0.15)))
  )
  (fp_line (start -0.7074 1.15824) (end -0.7074 -1.15824) (layer F.CrtYd) (width 0.05))
  (fp_line (start -0.7074 -1.15824) (end 0.77089 -1.15824) (layer F.CrtYd) (width 0.05))
  (fp_line (start 0.77089 -1.15824) (end 0.77089 1.15824) (layer F.CrtYd) (width 0.05))
  (fp_line (start 0.77089 1.15824) (end -0.7074 1.15824) (layer F.CrtYd) (width 0.05))
  (pad ~ smd custom (at 0 0) (size 0.2 0.2) (layers F.Cu F.Mask)
    (options (clearance outline) (anchor circle))
    (primitives
      (gr_poly (pts
         (xy 0.4445 -0.762) (xy 0.4445 0.762) (xy 0.381 0.762) (xy 0.277241 0.754903)
         (xy 0.175415 0.733743) (xy 0.077418 0.698915) (xy -0.014923 0.651068) (xy -0.099889 0.591092)
         (xy -0.175897 0.520105) (xy -0.241531 0.43943) (xy -0.295569 0.35057) (xy -0.337003 0.255178)
         (xy -0.365062 0.155033) (xy -0.379224 0.052001) (xy -0.379224 -0.052001) (xy -0.365062 -0.155033)
         (xy -0.337003 -0.255178) (xy -0.295569 -0.35057) (xy -0.241531 -0.43943) (xy -0.175897 -0.520105)
         (xy -0.099889 -0.591092) (xy -0.014923 -0.651068) (xy 0.077418 -0.698915) (xy 0.175415 -0.733743)
         (xy 0.277241 -0.754903) (xy 0.381 -0.762) (xy 0.4445 -0.762)) (width 0))
    )
    (solder_mask_margin 0.2038)
    (zone_connect 2))
)