(module MEL15 (layer F.Cu) (tedit 0)
  (fp_text reference REF** (at 0 0) (layer F.SilkS) hide
    (effects (font (size 1 1) (thickness 0.15)))
  )
  (fp_text value MEL15 (at 0 2) (layer F.Fab) hide
    (effects (font (size 1 1) (thickness 0.15)))
  )
  (pad ~ np_thru_hole circle (at 0 0) (size 1.27 1.27) (drill 1.5 (offset 0 0 )) (layers *.Cu *.Mask)
    (clearance 0.3175) (solder_mask_margin 0.2794)
    (zone_connect 2))
)