(module MX.A20_COMPOSANT (layer F.Cu) (tedit 0)
  (attr smd)
  (fp_text reference REF** (at 0 0) (layer F.SilkS)
    (effects (font (size 1 1) (thickness 0.15)))
  )
  (fp_text value MX.A20_COMPOSANT (at 0 2) (layer F.Fab) hide
    (effects (font (size 1 1) (thickness 0.15)))
  )
  (fp_arc (start -5.23875 2.69876) (end -5.23875 3.01625) (angle 360) (layer F.SilkS) (width 0.02))
  (fp_arc (start -5.41655 0) (end -5.41655 -0.635) (angle 180) (layer F.Fab) (width 0.1))
  (fp_line (start -6.44 5.945) (end -6.44 -5.945) (layer Dwgs.User) (width 0.05))
  (fp_line (start -6.44 -5.945) (end 6.44 -5.945) (layer Dwgs.User) (width 0.05))
  (fp_line (start 6.44 -5.945) (end 6.44 5.945) (layer Dwgs.User) (width 0.05))
  (fp_line (start 6.44 5.945) (end -6.44 5.945) (layer Dwgs.User) (width 0.05))
  (fp_line (start -6.35 -3.5) (end -6.35 3.5) (layer F.SilkS) (width 0.18))
  (fp_line (start -6.35 3.5) (end 6.35 3.5) (layer F.SilkS) (width 0.18))
  (fp_line (start 6.35 3.5) (end 6.35 -3.5) (layer F.SilkS) (width 0.18))
  (fp_line (start 6.35 -3.5) (end -6.35 -3.5) (layer F.SilkS) (width 0.18))
  (fp_line (start -6.35 5.842) (end -6.35 -5.842) (layer F.CrtYd) (width 0.02))
  (fp_line (start -6.35 -5.842) (end 6.35 -5.842) (layer F.CrtYd) (width 0.02))
  (fp_line (start 6.35 -5.842) (end 6.35 5.842) (layer F.CrtYd) (width 0.02))
  (fp_line (start 6.35 5.842) (end -6.35 5.842) (layer F.CrtYd) (width 0.02))
  (fp_line (start 5.715 4.92125) (end 5.715 3.96875) (layer F.Fab) (width 0.1))
  (fp_line (start 4.445 4.92125) (end 4.445 3.96875) (layer F.Fab) (width 0.1))
  (fp_line (start 3.175 4.92125) (end 3.175 3.96875) (layer F.Fab) (width 0.1))
  (fp_line (start 1.905 4.92125) (end 1.905 3.96875) (layer F.Fab) (width 0.1))
  (fp_line (start 0.635 4.92125) (end 0.635 3.96875) (layer F.Fab) (width 0.1))
  (fp_line (start -0.635 4.92125) (end -0.635 3.96875) (layer F.Fab) (width 0.1))
  (fp_line (start -1.905 4.92125) (end -1.905 3.96875) (layer F.Fab) (width 0.1))
  (fp_line (start -3.175 4.92125) (end -3.175 3.96875) (layer F.Fab) (width 0.1))
  (fp_line (start -4.445 4.92125) (end -4.445 3.96875) (layer F.Fab) (width 0.1))
  (fp_line (start -5.715 4.92125) (end -5.715 3.96875) (layer F.Fab) (width 0.1))
  (fp_line (start 5.715 -3.96875) (end 5.715 -4.92125) (layer F.Fab) (width 0.1))
  (fp_line (start 4.445 -3.96875) (end 4.445 -4.92125) (layer F.Fab) (width 0.1))
  (fp_line (start 3.175 -3.96875) (end 3.175 -4.92125) (layer F.Fab) (width 0.1))
  (fp_line (start 1.905 -3.96875) (end 1.905 -4.92125) (layer F.Fab) (width 0.1))
  (fp_line (start 0.635 -3.96875) (end 0.635 -4.92125) (layer F.Fab) (width 0.1))
  (fp_line (start -0.635 -3.96875) (end -0.635 -4.92125) (layer F.Fab) (width 0.1))
  (fp_line (start -1.905 -3.96875) (end -1.905 -4.92125) (layer F.Fab) (width 0.1))
  (fp_line (start -3.175 -3.96875) (end -3.175 -4.92125) (layer F.Fab) (width 0.1))
  (fp_line (start -4.445 -3.96875) (end -4.445 -4.92125) (layer F.Fab) (width 0.1))
  (fp_line (start -5.715 -3.96875) (end -5.715 -4.92125) (layer F.Fab) (width 0.1))
  (fp_line (start -6.35 -3.96875) (end -6.35 3.96875) (layer F.Fab) (width 0.1))
  (fp_line (start -6.35 3.96875) (end 6.35 3.96875) (layer F.Fab) (width 0.1))
  (fp_line (start 6.35 3.96875) (end 6.35 -3.96875) (layer F.Fab) (width 0.1))
  (fp_line (start 6.35 -3.96875) (end -6.35 -3.96875) (layer F.Fab) (width 0.1))
  (fp_line (start -6.35 -0.635) (end -5.41655 -0.635) (layer F.Fab) (width 0.1))
  (fp_line (start -5.41655 0.635) (end -6.35 0.635) (layer F.Fab) (width 0.1))
  (pad 1 smd rect (at -5.84 4.845) (size 0.86 2) (layers F.Cu F.Mask F.Paste)
    (zone_connect 2))
  (pad 2 smd rect (at -4.445 4.845) (size 0.61 2) (layers F.Cu F.Mask F.Paste)
    (solder_mask_margin 0.1)
    (zone_connect 2))
  (pad 3 smd rect (at -3.175 4.845) (size 0.61 2) (layers F.Cu F.Mask F.Paste)
    (solder_mask_margin 0.1)
    (zone_connect 2))
  (pad 4 smd rect (at -1.905 4.845) (size 0.61 2) (layers F.Cu F.Mask F.Paste)
    (solder_mask_margin 0.1)
    (zone_connect 2))
  (pad 5 smd rect (at -0.635 4.845) (size 0.61 2) (layers F.Cu F.Mask F.Paste)
    (solder_mask_margin 0.1)
    (zone_connect 2))
  (pad 6 smd rect (at 0.635 4.845) (size 0.61 2) (layers F.Cu F.Mask F.Paste)
    (solder_mask_margin 0.1)
    (zone_connect 2))
  (pad 7 smd rect (at 1.905 4.845) (size 0.61 2) (layers F.Cu F.Mask F.Paste)
    (solder_mask_margin 0.1)
    (zone_connect 2))
  (pad 8 smd rect (at 3.175 4.845) (size 0.61 2) (layers F.Cu F.Mask F.Paste)
    (solder_mask_margin 0.1)
    (zone_connect 2))
  (pad 9 smd rect (at 4.445 4.845) (size 0.61 2) (layers F.Cu F.Mask F.Paste)
    (solder_mask_margin 0.1)
    (zone_connect 2))
  (pad 10 smd rect (at 5.84 4.845) (size 0.86 2) (layers F.Cu F.Mask F.Paste)
    (zone_connect 2))
  (pad 11 smd rect (at 5.84 -4.845) (size 0.86 2) (layers F.Cu F.Mask F.Paste)
    (zone_connect 2))
  (pad 12 smd rect (at 4.445 -4.845) (size 0.61 2) (layers F.Cu F.Mask F.Paste)
    (solder_mask_margin 0.1)
    (zone_connect 2))
  (pad 13 smd rect (at 3.175 -4.845) (size 0.61 2) (layers F.Cu F.Mask F.Paste)
    (solder_mask_margin 0.1)
    (zone_connect 2))
  (pad 14 smd rect (at 1.905 -4.845) (size 0.61 2) (layers F.Cu F.Mask F.Paste)
    (solder_mask_margin 0.1)
    (zone_connect 2))
  (pad 15 smd rect (at 0.635 -4.845) (size 0.61 2) (layers F.Cu F.Mask F.Paste)
    (solder_mask_margin 0.1)
    (zone_connect 2))
  (pad 16 smd rect (at -0.635 -4.845) (size 0.61 2) (layers F.Cu F.Mask F.Paste)
    (solder_mask_margin 0.1)
    (zone_connect 2))
  (pad 17 smd rect (at -1.905 -4.845) (size 0.61 2) (layers F.Cu F.Mask F.Paste)
    (solder_mask_margin 0.1)
    (zone_connect 2))
  (pad 18 smd rect (at -3.175 -4.845) (size 0.61 2) (layers F.Cu F.Mask F.Paste)
    (solder_mask_margin 0.1)
    (zone_connect 2))
  (pad 19 smd rect (at -4.445 -4.845) (size 0.61 2) (layers F.Cu F.Mask F.Paste)
    (solder_mask_margin 0.1)
    (zone_connect 2))
  (pad 20 smd rect (at -5.84 -4.845) (size 0.86 2) (layers F.Cu F.Mask F.Paste)
    (zone_connect 2))
  (model ${KISYS3DMOD}/Package_SO.3dshapes/SOIC-20W_7.5x12.8mm_P1.27mm.wrl
    (offset (xyz 0 0 0))
    (scale (xyz 1 1 1))
    (rotate (xyz 0 0 -90))
  )
)