(module MX.A16_SOUDURE (layer F.Cu) (tedit 0)
  (attr smd)
  (fp_text reference REF** (at 0 0) (layer F.SilkS)
    (effects (font (size 1 1) (thickness 0.15)))
  )
  (fp_text value MX.A16_SOUDURE (at 0 2) (layer F.Fab) hide
    (effects (font (size 1 1) (thickness 0.15)))
  )
  (fp_arc (start -3.96875 0.63501) (end -3.96875 0.9525) (angle 360) (layer F.SilkS) (width 0.02))
  (fp_arc (start -3.9878 0.033) (end -3.9878 -0.602) (angle 180) (layer F.Fab) (width 0.1))
  (fp_line (start -5.0938 3.816) (end -5.0938 -3.816) (layer Dwgs.User) (width 0.05))
  (fp_line (start -5.0938 -3.816) (end 5.6642 -3.816) (layer Dwgs.User) (width 0.05))
  (fp_line (start 5.6642 -3.816) (end 5.6642 3.816) (layer Dwgs.User) (width 0.05))
  (fp_line (start 5.6642 3.816) (end -5.0938 3.816) (layer Dwgs.User) (width 0.05))
  (fp_line (start -5.0038 -1.5875) (end -5.0038 1.5875) (layer F.SilkS) (width 0.18))
  (fp_line (start -5.0038 1.5875) (end 5.0038 1.5875) (layer F.SilkS) (width 0.18))
  (fp_line (start 5.0038 1.5875) (end 5.0038 -1.5875) (layer F.SilkS) (width 0.18))
  (fp_line (start 5.0038 -1.5875) (end -5.0038 -1.5875) (layer F.SilkS) (width 0.18))
  (fp_line (start -5.08 3.6) (end -5.08 -3.6) (layer F.CrtYd) (width 0.02))
  (fp_line (start -5.08 -3.6) (end 5.5118 -3.6) (layer F.CrtYd) (width 0.02))
  (fp_line (start 5.5118 -3.6) (end 5.5118 3.6) (layer F.CrtYd) (width 0.02))
  (fp_line (start 5.5118 3.6) (end -5.08 3.6) (layer F.CrtYd) (width 0.02))
  (fp_line (start 4.445 2.8575) (end 4.445 2.06375) (layer F.Fab) (width 0.1))
  (fp_line (start 3.175 2.8575) (end 3.175 2.06375) (layer F.Fab) (width 0.1))
  (fp_line (start 1.905 2.8575) (end 1.905 2.06375) (layer F.Fab) (width 0.1))
  (fp_line (start 0.635 2.8575) (end 0.635 2.06375) (layer F.Fab) (width 0.1))
  (fp_line (start -0.635 2.8575) (end -0.635 2.06375) (layer F.Fab) (width 0.1))
  (fp_line (start -1.905 2.8575) (end -1.905 2.06375) (layer F.Fab) (width 0.1))
  (fp_line (start -3.175 2.8575) (end -3.175 2.06375) (layer F.Fab) (width 0.1))
  (fp_line (start 4.445 -2.8575) (end 4.445 -2.06375) (layer F.Fab) (width 0.1))
  (fp_line (start 3.175 -2.8575) (end 3.175 -2.06375) (layer F.Fab) (width 0.1))
  (fp_line (start 1.905 -2.8575) (end 1.905 -2.06375) (layer F.Fab) (width 0.1))
  (fp_line (start 0.635 -2.8575) (end 0.635 -2.06375) (layer F.Fab) (width 0.1))
  (fp_line (start -0.635 -2.8575) (end -0.635 -2.06375) (layer F.Fab) (width 0.1))
  (fp_line (start -1.905 -2.8575) (end -1.905 -2.06375) (layer F.Fab) (width 0.1))
  (fp_line (start -3.175 -2.8575) (end -3.175 -2.06375) (layer F.Fab) (width 0.1))
  (fp_line (start -4.445 -2.8575) (end -4.445 -2.06375) (layer F.Fab) (width 0.1))
  (fp_line (start -4.445 2.8575) (end -4.445 2.06375) (layer F.Fab) (width 0.1))
  (fp_line (start -5.0038 -0.602) (end -3.9878 -0.602) (layer F.Fab) (width 0.1))
  (fp_line (start -3.9878 0.668) (end -5.0038 0.668) (layer F.Fab) (width 0.1))
  (fp_line (start 5.0038 -2.06375) (end -5.0038 -2.06375) (layer F.Fab) (width 0.1))
  (fp_line (start -5.0038 -2.06375) (end -5.0038 2.06375) (layer F.Fab) (width 0.1))
  (fp_line (start -5.0038 2.06375) (end 5.0038 2.06375) (layer F.Fab) (width 0.1))
  (fp_line (start 5.0038 2.06375) (end 5.0038 -2.06375) (layer F.Fab) (width 0.1))
  (pad 1 smd rect (at -4.445 2.8) (size 0.6096 1.524) (layers F.Cu F.Mask F.Paste)
    (clearance 0.2032) (solder_mask_margin 0.1016)
    (zone_connect 2))
  (pad 2 smd rect (at -3.175 2.8) (size 0.6096 1.524) (layers F.Cu F.Mask F.Paste)
    (clearance 0.2032) (solder_mask_margin 0.1016)
    (zone_connect 2))
  (pad 3 smd rect (at -1.905 2.8) (size 0.6096 1.524) (layers F.Cu F.Mask F.Paste)
    (clearance 0.2032) (solder_mask_margin 0.1016)
    (zone_connect 2))
  (pad 4 smd rect (at -0.635 2.8) (size 0.6096 1.524) (layers F.Cu F.Mask F.Paste)
    (clearance 0.2032) (solder_mask_margin 0.1016)
    (zone_connect 2))
  (pad 5 smd rect (at 0.635 2.8) (size 0.6096 1.524) (layers F.Cu F.Mask F.Paste)
    (clearance 0.2032) (solder_mask_margin 0.1016)
    (zone_connect 2))
  (pad 6 smd rect (at 1.905 2.8) (size 0.6096 1.524) (layers F.Cu F.Mask F.Paste)
    (clearance 0.2032) (solder_mask_margin 0.1016)
    (zone_connect 2))
  (pad 7 smd rect (at 3.175 2.8) (size 0.6096 1.524) (layers F.Cu F.Mask F.Paste)
    (clearance 0.2032) (solder_mask_margin 0.1016)
    (zone_connect 2))
  (pad 8 smd rect (at 4.7752 2.8) (size 1.27 1.524) (layers F.Cu F.Mask F.Paste)
    (clearance 0.2032) (solder_mask_margin 0.1016)
    (zone_connect 2))
  (pad 9 smd rect (at 4.7752 -2.8) (size 1.27 1.524) (layers F.Cu F.Mask F.Paste)
    (clearance 0.2032) (solder_mask_margin 0.1016)
    (zone_connect 2))
  (pad 10 smd rect (at 3.175 -2.8) (size 0.6096 1.524) (layers F.Cu F.Mask F.Paste)
    (clearance 0.2032) (solder_mask_margin 0.1016)
    (zone_connect 2))
  (pad 11 smd rect (at 1.905 -2.8) (size 0.6096 1.524) (layers F.Cu F.Mask F.Paste)
    (clearance 0.2032) (solder_mask_margin 0.1016)
    (zone_connect 2))
  (pad 12 smd rect (at 0.635 -2.8) (size 0.6096 1.524) (layers F.Cu F.Mask F.Paste)
    (clearance 0.2032) (solder_mask_margin 0.1016)
    (zone_connect 2))
  (pad 13 smd rect (at -0.635 -2.8) (size 0.6096 1.524) (layers F.Cu F.Mask F.Paste)
    (clearance 0.2032) (solder_mask_margin 0.1016)
    (zone_connect 2))
  (pad 14 smd rect (at -1.905 -2.8) (size 0.6096 1.524) (layers F.Cu F.Mask F.Paste)
    (clearance 0.2032) (solder_mask_margin 0.1016)
    (zone_connect 2))
  (pad 15 smd rect (at -3.175 -2.8) (size 0.6096 1.524) (layers F.Cu F.Mask F.Paste)
    (clearance 0.2032) (solder_mask_margin 0.1016)
    (zone_connect 2))
  (pad 16 smd rect (at -4.445 -2.8) (size 0.6096 1.524) (layers F.Cu F.Mask F.Paste)
    (clearance 0.2032) (solder_mask_margin 0.1016)
    (zone_connect 2))
)