(module OBLS42L44R44A90 (layer F.Cu) (tedit 0)
  (fp_text reference REF** (at 0 0) (layer F.SilkS) hide
    (effects (font (size 1 1) (thickness 0.15)))
  )
  (fp_text value OBLS42L44R44A90 (at 0 2) (layer F.Fab) hide
    (effects (font (size 1 1) (thickness 0.15)))
  )
  (fp_line (start -0.64008 1.34112) (end -0.64008 -1.34112) (layer F.CrtYd) (width 0.05))
  (fp_line (start -0.64008 -1.34112) (end 0.64008 -1.34112) (layer F.CrtYd) (width 0.05))
  (fp_line (start 0.64008 -1.34112) (end 0.64008 1.34112) (layer F.CrtYd) (width 0.05))
  (fp_line (start 0.64008 1.34112) (end -0.64008 1.34112) (layer F.CrtYd) (width 0.05))
  (pad ~ smd rect (at 0 0) (size 1.0668 2.2352) (layers F.Cu F.Mask F.Paste)
    (zone_connect 2))
)