(module OBLS27L33R33A90 (layer F.Cu) (tedit 0)
  (fp_text reference REF** (at 0 0) (layer F.SilkS) hide
    (effects (font (size 1 1) (thickness 0.15)))
  )
  (fp_text value OBLS27L33R33A90 (at 0 2) (layer F.Fab) hide
    (effects (font (size 1 1) (thickness 0.15)))
  )
  (fp_line (start -0.41148 1.00584) (end -0.41148 -1.00584) (layer F.CrtYd) (width 0.05))
  (fp_line (start -0.41148 -1.00584) (end 0.41148 -1.00584) (layer F.CrtYd) (width 0.05))
  (fp_line (start 0.41148 -1.00584) (end 0.41148 1.00584) (layer F.CrtYd) (width 0.05))
  (fp_line (start 0.41148 1.00584) (end -0.41148 1.00584) (layer F.CrtYd) (width 0.05))
  (pad ~ smd rect (at 0 0) (size 0.6858 1.6764) (layers F.Cu F.Mask F.Paste)
    (zone_connect 2))
)