(module OBLS130L120R120A90 (layer F.Cu) (tedit 0)
  (fp_text reference REF** (at 0 0) (layer F.SilkS) hide
    (effects (font (size 1 1) (thickness 0.15)))
  )
  (fp_text value OBLS130L120R120A90 (at 0 2) (layer F.Fab) hide
    (effects (font (size 1 1) (thickness 0.15)))
  )
  (fp_line (start -1.9812 3.6576) (end -1.9812 -3.6576) (layer F.CrtYd) (width 0.05))
  (fp_line (start -1.9812 -3.6576) (end 1.9812 -3.6576) (layer F.CrtYd) (width 0.05))
  (fp_line (start 1.9812 -3.6576) (end 1.9812 3.6576) (layer F.CrtYd) (width 0.05))
  (fp_line (start 1.9812 3.6576) (end -1.9812 3.6576) (layer F.CrtYd) (width 0.05))
  (pad ~ smd rect (at 0 0) (size 3.302 6.096) (layers F.Cu F.Mask F.Paste)
    (zone_connect 2))
)