(module P.K1 (layer F.Cu) (tedit 0)
  (fp_text reference REF** (at 0 0) (layer F.SilkS) hide
    (effects (font (size 1 1) (thickness 0.15)))
  )
  (fp_text value P.K1 (at 0 2) (layer F.Fab) hide
    (effects (font (size 1 1) (thickness 0.15)))
  )
  (pad ~ thru_hole circle (at 0 0) (size 1.905 1.905) (drill 1.2192 (offset 0 0 )) (layers *.Cu *.Mask)
    (clearance 0.3048) (solder_mask_margin 0.1143)
    (zone_connect 2) (thermal_width 0.381) (thermal_gap 0.3302))
)