(module R0805-SAFT (layer F.Cu) (tedit 0)
  (attr smd)
  (fp_text reference REF** (at 0 0) (layer F.SilkS)
    (effects (font (size 1 1) (thickness 0.15)))
  )
  (fp_text value R0805-SAFT (at 0 2) (layer F.Fab) hide
    (effects (font (size 1 1) (thickness 0.15)))
  )
  (fp_line (start -1.83625 1.0425) (end -1.83625 -1.0425) (layer Dwgs.User) (width 0.05))
  (fp_line (start -1.83625 -1.0425) (end 1.83625 -1.0425) (layer Dwgs.User) (width 0.05))
  (fp_line (start 1.83625 -1.0425) (end 1.83625 1.0425) (layer Dwgs.User) (width 0.05))
  (fp_line (start 1.83625 1.0425) (end -1.83625 1.0425) (layer Dwgs.User) (width 0.05))
  (fp_line (start -1.74625 0.9525) (end 1.74625 0.9525) (layer F.SilkS) (width 0.18))
  (fp_line (start 1.74625 0.9525) (end 1.74625 -0.9525) (layer F.SilkS) (width 0.18))
  (fp_line (start 1.74625 -0.9525) (end -1.74625 -0.9525) (layer F.SilkS) (width 0.18))
  (fp_line (start -1.74625 -0.9525) (end -1.74625 0.9525) (layer F.SilkS) (width 0.18))
  (fp_line (start -1.74625 -0.9525) (end 1.74625 -0.9525) (layer F.CrtYd) (width 0.02))
  (fp_line (start 1.74625 -0.9525) (end 1.74625 0.9525) (layer F.CrtYd) (width 0.02))
  (fp_line (start 1.74625 0.9525) (end -1.74625 0.9525) (layer F.CrtYd) (width 0.02))
  (fp_line (start -1.74625 0.9525) (end -1.74625 -0.9525) (layer F.CrtYd) (width 0.02))
  (fp_line (start 1 -0.625) (end -1 -0.625) (layer F.Fab) (width 0.1))
  (fp_line (start -1 -0.625) (end -1 0.625) (layer F.Fab) (width 0.1))
  (fp_line (start -1 0.625) (end 1 0.625) (layer F.Fab) (width 0.1))
  (fp_line (start 1 0.625) (end 1 -0.625) (layer F.Fab) (width 0.1))
  (pad 1 smd rect (at -0.95 0) (size 0.9 1.5) (layers F.Cu F.Mask F.Paste)
    (solder_mask_margin 0.105)
    (zone_connect 2))
  (pad 2 smd rect (at 0.95 0) (size 0.9 1.5) (layers F.Cu F.Mask F.Paste)
    (solder_mask_margin 0.105)
    (zone_connect 2))
)