(module RECT1.9X2.4 (layer F.Cu) (tedit 0)
  (fp_text reference REF** (at 0 0) (layer F.SilkS) hide
    (effects (font (size 1 1) (thickness 0.15)))
  )
  (fp_text value RECT1.9X2.4 (at 0 2) (layer F.Fab) hide
    (effects (font (size 1 1) (thickness 0.15)))
  )
  (fp_line (start -1.14 1.44) (end -1.14 -1.44) (layer F.CrtYd) (width 0.05))
  (fp_line (start -1.14 -1.44) (end 1.14 -1.44) (layer F.CrtYd) (width 0.05))
  (fp_line (start 1.14 -1.44) (end 1.14 1.44) (layer F.CrtYd) (width 0.05))
  (fp_line (start 1.14 1.44) (end -1.14 1.44) (layer F.CrtYd) (width 0.05))
  (pad ~ smd rect (at 0 0) (size 1.9 2.4) (layers F.Cu F.Mask F.Paste)
    (zone_connect 2))
)