(module RECT0.81X2.2 (layer F.Cu) (tedit 0)
  (fp_text reference REF** (at 0 0) (layer F.SilkS) hide
    (effects (font (size 1 1) (thickness 0.15)))
  )
  (fp_text value RECT0.81X2.2 (at 0 2) (layer F.Fab) hide
    (effects (font (size 1 1) (thickness 0.15)))
  )
  (fp_line (start -0.486 1.32) (end -0.486 -1.32) (layer F.CrtYd) (width 0.05))
  (fp_line (start -0.486 -1.32) (end 0.486 -1.32) (layer F.CrtYd) (width 0.05))
  (fp_line (start 0.486 -1.32) (end 0.486 1.32) (layer F.CrtYd) (width 0.05))
  (fp_line (start 0.486 1.32) (end -0.486 1.32) (layer F.CrtYd) (width 0.05))
  (pad ~ smd rect (at 0 0) (size 0.81 2.2) (layers F.Cu F.Mask F.Paste)
    (zone_connect 2))
)