(module S142.0011 (layer F.Cu) (tedit 0)
  (fp_text reference REF** (at 0 0) (layer F.SilkS)
    (effects (font (size 1 1) (thickness 0.15)))
  )
  (fp_text value S142.0011 (at 0 2) (layer F.Fab) hide
    (effects (font (size 1 1) (thickness 0.15)))
  )
  (fp_arc (start 0 0) (end 1.35 0) (angle 360) (layer F.SilkS) (width 0.18))
  (fp_arc (start 0 -8) (end 1.35 -8) (angle 360) (layer F.SilkS) (width 0.18))
  (fp_arc (start 0 8) (end 1.35 8) (angle 360) (layer F.SilkS) (width 0.18))
  (fp_arc (start -2 -11.2) (end -1.1618 -11.2) (angle 360) (layer B.CrtYd) (width 0.02))
  (fp_arc (start 2 -11.2) (end 2.8382 -11.2) (angle 360) (layer B.CrtYd) (width 0.02))
  (fp_arc (start 0 -14.4) (end 0.762 -14.4) (angle 360) (layer B.CrtYd) (width 0.02))
  (fp_arc (start 0 14.4) (end 0.762 14.4) (angle 360) (layer B.CrtYd) (width 0.02))
  (fp_arc (start 0 0) (end 1.35 0) (angle 360) (layer F.Fab) (width 0.1))
  (fp_arc (start 0 0) (end 0.95 0) (angle 360) (layer F.Fab) (width 0.1))
  (fp_arc (start 0 -8) (end 0.95 -8) (angle 360) (layer F.Fab) (width 0.1))
  (fp_arc (start 0 8) (end 0.95 8) (angle 360) (layer F.Fab) (width 0.1))
  (fp_arc (start 0 -8) (end 1.35 -8) (angle 360) (layer F.Fab) (width 0.1))
  (fp_arc (start 0 8) (end 1.35 8) (angle 360) (layer F.Fab) (width 0.1))
  (fp_line (start -4.09 16.09) (end -4.09 -16.09) (layer Dwgs.User) (width 0.05))
  (fp_line (start -4.09 -16.09) (end 4.09 -16.09) (layer Dwgs.User) (width 0.05))
  (fp_line (start 4.09 -16.09) (end 4.09 16.09) (layer Dwgs.User) (width 0.05))
  (fp_line (start 4.09 16.09) (end -4.09 16.09) (layer Dwgs.User) (width 0.05))
  (fp_line (start -4 16) (end 4 16) (layer F.SilkS) (width 0.18))
  (fp_line (start 4 16) (end 4 -16) (layer F.SilkS) (width 0.18))
  (fp_line (start 4 -16) (end -4 -16) (layer F.SilkS) (width 0.18))
  (fp_line (start -4 -16) (end -4 16) (layer F.SilkS) (width 0.18))
  (fp_line (start -4 -16) (end 4 -16) (layer F.CrtYd) (width 0.02))
  (fp_line (start 4 -16) (end 4 16) (layer F.CrtYd) (width 0.02))
  (fp_line (start 4 16) (end -4 16) (layer F.CrtYd) (width 0.02))
  (fp_line (start -4 16) (end -4 -16) (layer F.CrtYd) (width 0.02))
  (fp_line (start -4 16) (end 4 16) (layer F.Fab) (width 0.1))
  (fp_line (start 4 16) (end 4 -16) (layer F.Fab) (width 0.1))
  (fp_line (start 4 -16) (end -4 -16) (layer F.Fab) (width 0.1))
  (fp_line (start -4 -16) (end -4 16) (layer F.Fab) (width 0.1))
  (fp_line (start -2 13) (end -3.5 11.5) (layer F.Fab) (width 0.1))
  (fp_line (start -3.5 11.5) (end -3.5 -11.5) (layer F.Fab) (width 0.1))
  (fp_line (start -3.5 -11.5) (end -2 -13) (layer F.Fab) (width 0.1))
  (fp_line (start -2 -13) (end 2 -13) (layer F.Fab) (width 0.1))
  (fp_line (start 2 -13) (end 3.5 -11.5) (layer F.Fab) (width 0.1))
  (fp_line (start 3.5 -11.5) (end 3.5 11.5) (layer F.Fab) (width 0.1))
  (fp_line (start 3.5 11.5) (end 2 13) (layer F.Fab) (width 0.1))
  (fp_line (start 2 13) (end -2 13) (layer F.Fab) (width 0.1))
  (fp_line (start -2 11.5) (end 2 11.5) (layer F.Fab) (width 0.1))
  (fp_line (start 2 11.5) (end 2 -11.5) (layer F.Fab) (width 0.1))
  (fp_line (start 2 -11.5) (end -2 -11.5) (layer F.Fab) (width 0.1))
  (fp_line (start -2 -11.5) (end -2 11.5) (layer F.Fab) (width 0.1))
  (fp_line (start -2 -11.5) (end -2.5 -12.5) (layer F.Fab) (width 0.1))
  (fp_line (start -2.5 -12.5) (end 2.5 -12.5) (layer F.Fab) (width 0.1))
  (fp_line (start 2.5 -12.5) (end 2 -11.5) (layer F.Fab) (width 0.1))
  (fp_line (start -2 11.5) (end -2.5 12.5) (layer F.Fab) (width 0.1))
  (fp_line (start -2.5 12.5) (end 2.5 12.5) (layer F.Fab) (width 0.1))
  (fp_line (start 2.5 12.5) (end 2 11.5) (layer F.Fab) (width 0.1))
  (fp_line (start -2 -10.5) (end -3.5 -11.5) (layer F.Fab) (width 0.1))
  (fp_line (start 2 -10.5) (end 3.5 -11.5) (layer F.Fab) (width 0.1))
  (fp_line (start -2 11) (end -3.5 11.5) (layer F.Fab) (width 0.1))
  (fp_line (start 2 11) (end 3.5 11.5) (layer F.Fab) (width 0.1))
  (pad 1 thru_hole circle (at -2 -11.2) (size 1.6764 1.6764) (drill 0.9652 (offset 0 0 )) (layers *.Cu *.Mask)
    (clearance 0.1778) (solder_mask_margin 0.1016)
    (zone_connect 2) (thermal_width 0.381) (thermal_gap 0.3302))
  (pad 2 thru_hole circle (at 2 -11.2) (size 1.6764 1.6764) (drill 0.9652 (offset 0 0 )) (layers *.Cu *.Mask)
    (clearance 0.1778) (solder_mask_margin 0.1016)
    (zone_connect 2) (thermal_width 0.381) (thermal_gap 0.3302))
  (pad 3 np_thru_hole circle (at 0 -14.4) (size 1.524 1.524) (drill 2.0066 (offset 0 0 )) (layers *.Cu *.Mask)
    (clearance 0.5588) (solder_mask_margin 0.4572)
    (zone_connect 2))
  (pad 4 np_thru_hole circle (at 0 14.4) (size 1.524 1.524) (drill 2.0066 (offset 0 0 )) (layers *.Cu *.Mask)
    (clearance 0.5588) (solder_mask_margin 0.4572)
    (zone_connect 2))
  (fp_text user 1 (at -0.2 8.5) (layer F.Fab)
    (effects (font (size 1 1) (thickness 0.1)) (justify left))
  )
  (fp_text user 2 (at -0.4 0.4) (layer F.Fab)
    (effects (font (size 1 1) (thickness 0.1)) (justify left))
  )
  (fp_text user 3 (at -0.4 -7.5) (layer F.Fab)
    (effects (font (size 1 1) (thickness 0.1)) (justify left))
  )
)