(module TOBLO48I22W15L18R18A90 (layer F.Cu) (tedit 0)
  (fp_text reference REF** (at 0 0) (layer F.SilkS) hide
    (effects (font (size 1 1) (thickness 0.15)))
  )
  (fp_text value TOBLO48I22W15L18R18A90 (at 0 2) (layer F.Fab) hide
    (effects (font (size 1 1) (thickness 0.15)))
  )
  (fp_line (start -0.73152 0.94488) (end -0.73152 -0.94488) (layer F.CrtYd) (width 0.05))
  (fp_line (start -0.73152 -0.94488) (end 0.73152 -0.94488) (layer F.CrtYd) (width 0.05))
  (fp_line (start 0.73152 -0.94488) (end 0.73152 0.94488) (layer F.CrtYd) (width 0.05))
  (fp_line (start 0.73152 0.94488) (end -0.73152 0.94488) (layer F.CrtYd) (width 0.05))
)