(module TQFP144 (layer F.Cu) (tedit 0)
  (attr smd)
  (fp_text reference REF** (at 0 0) (layer F.SilkS)
    (effects (font (size 1 1) (thickness 0.15)))
  )
  (fp_text value TQFP144 (at 0 2) (layer F.Fab) hide
    (effects (font (size 1 1) (thickness 0.15)))
  )
  (fp_arc (start -8.99999 -8.75) (end -8.5 -8.75) (angle 360) (layer F.SilkS) (width 0.02))
  (fp_arc (start -8.99999 -8.75) (end -8.5 -8.75) (angle 360) (layer F.Fab) (width 0.02))
  (fp_line (start -11.75 11.75) (end -11.75 -11.75) (layer Dwgs.User) (width 0.05))
  (fp_line (start -11.75 -11.75) (end 11.75 -11.75) (layer Dwgs.User) (width 0.05))
  (fp_line (start 11.75 -11.75) (end 11.75 11.75) (layer Dwgs.User) (width 0.05))
  (fp_line (start 11.75 11.75) (end -11.75 11.75) (layer Dwgs.User) (width 0.05))
  (fp_line (start -9.75 -9.75) (end -9.75 9.75) (layer F.SilkS) (width 0.18))
  (fp_line (start -9.75 9.75) (end 9.75 9.75) (layer F.SilkS) (width 0.18))
  (fp_line (start 9.75 9.75) (end 9.75 -9.75) (layer F.SilkS) (width 0.18))
  (fp_line (start 9.75 -9.75) (end -9.75 -9.75) (layer F.SilkS) (width 0.18))
  (fp_line (start 11.75 -11.75) (end 11.75 9.25) (layer F.CrtYd) (width 0.02))
  (fp_line (start 11.75 9.25) (end 10 9.25) (layer F.CrtYd) (width 0.02))
  (fp_line (start 10 9.25) (end 10 10) (layer F.CrtYd) (width 0.02))
  (fp_line (start 10 10) (end 9.25 10) (layer F.CrtYd) (width 0.02))
  (fp_line (start 9.25 10) (end 9.25 11.75) (layer F.CrtYd) (width 0.02))
  (fp_line (start 9.25 11.75) (end -11.75 11.75) (layer F.CrtYd) (width 0.02))
  (fp_line (start -11.75 11.75) (end -11.75 -9.25) (layer F.CrtYd) (width 0.02))
  (fp_line (start -11.75 -9.25) (end -10 -9.25) (layer F.CrtYd) (width 0.02))
  (fp_line (start -10 -9.25) (end -10 -10) (layer F.CrtYd) (width 0.02))
  (fp_line (start -10 -10) (end -9.25 -10) (layer F.CrtYd) (width 0.02))
  (fp_line (start -9.25 -10) (end -9.25 -11.75) (layer F.CrtYd) (width 0.02))
  (fp_line (start -9.25 -11.75) (end 11.75 -11.75) (layer F.CrtYd) (width 0.02))
  (fp_line (start 10 -8.75) (end 10.75 -8.75) (layer F.Fab) (width 0.1))
  (fp_line (start 10 -8.25) (end 10.75 -8.25) (layer F.Fab) (width 0.1))
  (fp_line (start 10 -7.75) (end 10.75 -7.75) (layer F.Fab) (width 0.1))
  (fp_line (start 10 -7.25) (end 10.75 -7.25) (layer F.Fab) (width 0.1))
  (fp_line (start 10 -6.75) (end 10.75 -6.75) (layer F.Fab) (width 0.1))
  (fp_line (start 10 -6.25) (end 10.75 -6.25) (layer F.Fab) (width 0.1))
  (fp_line (start 10 -5.75) (end 10.75 -5.75) (layer F.Fab) (width 0.1))
  (fp_line (start 10 -5.25) (end 10.75 -5.25) (layer F.Fab) (width 0.1))
  (fp_line (start 10 -4.75) (end 10.75 -4.75) (layer F.Fab) (width 0.1))
  (fp_line (start 10 -4.25) (end 10.75 -4.25) (layer F.Fab) (width 0.1))
  (fp_line (start 10 -3.75) (end 10.75 -3.75) (layer F.Fab) (width 0.1))
  (fp_line (start 10 -3.25) (end 10.75 -3.25) (layer F.Fab) (width 0.1))
  (fp_line (start 10 -2.75) (end 10.75 -2.75) (layer F.Fab) (width 0.1))
  (fp_line (start 10 -2.25) (end 10.75 -2.25) (layer F.Fab) (width 0.1))
  (fp_line (start 10 -1.75) (end 10.75 -1.75) (layer F.Fab) (width 0.1))
  (fp_line (start 10 -1.25) (end 10.75 -1.25) (layer F.Fab) (width 0.1))
  (fp_line (start 10 -0.75) (end 10.75 -0.75) (layer F.Fab) (width 0.1))
  (fp_line (start 10 -0.25) (end 10.75 -0.25) (layer F.Fab) (width 0.1))
  (fp_line (start 10 0.25) (end 10.75 0.25) (layer F.Fab) (width 0.1))
  (fp_line (start 10 0.75) (end 10.75 0.75) (layer F.Fab) (width 0.1))
  (fp_line (start 10 1.25) (end 10.75 1.25) (layer F.Fab) (width 0.1))
  (fp_line (start 10 1.75) (end 10.75 1.75) (layer F.Fab) (width 0.1))
  (fp_line (start 10 2.25) (end 10.75 2.25) (layer F.Fab) (width 0.1))
  (fp_line (start 10 2.75) (end 10.75 2.75) (layer F.Fab) (width 0.1))
  (fp_line (start 10 3.25) (end 10.75 3.25) (layer F.Fab) (width 0.1))
  (fp_line (start 10 3.75) (end 10.75 3.75) (layer F.Fab) (width 0.1))
  (fp_line (start 10 4.25) (end 10.75 4.25) (layer F.Fab) (width 0.1))
  (fp_line (start 10 4.75) (end 10.75 4.75) (layer F.Fab) (width 0.1))
  (fp_line (start 10 5.25) (end 10.75 5.25) (layer F.Fab) (width 0.1))
  (fp_line (start 10 5.75) (end 10.75 5.75) (layer F.Fab) (width 0.1))
  (fp_line (start 10 6.25) (end 10.75 6.25) (layer F.Fab) (width 0.1))
  (fp_line (start 10 6.75) (end 10.75 6.75) (layer F.Fab) (width 0.1))
  (fp_line (start 10 7.25) (end 10.75 7.25) (layer F.Fab) (width 0.1))
  (fp_line (start 10 7.75) (end 10.75 7.75) (layer F.Fab) (width 0.1))
  (fp_line (start 10 8.25) (end 10.75 8.25) (layer F.Fab) (width 0.1))
  (fp_line (start 10 8.75) (end 10.75 8.75) (layer F.Fab) (width 0.1))
  (fp_line (start 8.75 10) (end 8.75 10.75) (layer F.Fab) (width 0.1))
  (fp_line (start 8.25 10) (end 8.25 10.75) (layer F.Fab) (width 0.1))
  (fp_line (start 7.75 10) (end 7.75 10.75) (layer F.Fab) (width 0.1))
  (fp_line (start 7.25 10) (end 7.25 10.75) (layer F.Fab) (width 0.1))
  (fp_line (start 6.75 10) (end 6.75 10.75) (layer F.Fab) (width 0.1))
  (fp_line (start 6.25 10) (end 6.25 10.75) (layer F.Fab) (width 0.1))
  (fp_line (start 5.75 10) (end 5.75 10.75) (layer F.Fab) (width 0.1))
  (fp_line (start 5.25 10) (end 5.25 10.75) (layer F.Fab) (width 0.1))
  (fp_line (start 4.75 10) (end 4.75 10.75) (layer F.Fab) (width 0.1))
  (fp_line (start 4.25 10) (end 4.25 10.75) (layer F.Fab) (width 0.1))
  (fp_line (start 3.75 10) (end 3.75 10.75) (layer F.Fab) (width 0.1))
  (fp_line (start 3.25 10) (end 3.25 10.75) (layer F.Fab) (width 0.1))
  (fp_line (start 2.75 10) (end 2.75 10.75) (layer F.Fab) (width 0.1))
  (fp_line (start 2.25 10) (end 2.25 10.75) (layer F.Fab) (width 0.1))
  (fp_line (start 1.75 10) (end 1.75 10.75) (layer F.Fab) (width 0.1))
  (fp_line (start 1.25 10) (end 1.25 10.75) (layer F.Fab) (width 0.1))
  (fp_line (start 0.75 10) (end 0.75 10.75) (layer F.Fab) (width 0.1))
  (fp_line (start 0.25 10) (end 0.25 10.75) (layer F.Fab) (width 0.1))
  (fp_line (start -0.25 10) (end -0.25 10.75) (layer F.Fab) (width 0.1))
  (fp_line (start -0.75 10) (end -0.75 10.75) (layer F.Fab) (width 0.1))
  (fp_line (start -1.25 10) (end -1.25 10.75) (layer F.Fab) (width 0.1))
  (fp_line (start -1.75 10) (end -1.75 10.75) (layer F.Fab) (width 0.1))
  (fp_line (start -2.25 10) (end -2.25 10.75) (layer F.Fab) (width 0.1))
  (fp_line (start -2.75 10) (end -2.75 10.75) (layer F.Fab) (width 0.1))
  (fp_line (start -3.25 10) (end -3.25 10.75) (layer F.Fab) (width 0.1))
  (fp_line (start -3.75 10) (end -3.75 10.75) (layer F.Fab) (width 0.1))
  (fp_line (start -4.25 10) (end -4.25 10.75) (layer F.Fab) (width 0.1))
  (fp_line (start -4.75 10) (end -4.75 10.75) (layer F.Fab) (width 0.1))
  (fp_line (start -5.25 10) (end -5.25 10.75) (layer F.Fab) (width 0.1))
  (fp_line (start -5.75 10) (end -5.75 10.75) (layer F.Fab) (width 0.1))
  (fp_line (start -6.25 10) (end -6.25 10.75) (layer F.Fab) (width 0.1))
  (fp_line (start -6.75 10) (end -6.75 10.75) (layer F.Fab) (width 0.1))
  (fp_line (start -7.25 10) (end -7.25 10.75) (layer F.Fab) (width 0.1))
  (fp_line (start -7.75 10) (end -7.75 10.75) (layer F.Fab) (width 0.1))
  (fp_line (start -8.25 10) (end -8.25 10.75) (layer F.Fab) (width 0.1))
  (fp_line (start -8.75 10) (end -8.75 10.75) (layer F.Fab) (width 0.1))
  (fp_line (start 8.75 -10.75) (end 8.75 -10) (layer F.Fab) (width 0.1))
  (fp_line (start 8.25 -10.75) (end 8.25 -10) (layer F.Fab) (width 0.1))
  (fp_line (start 7.75 -10.75) (end 7.75 -10) (layer F.Fab) (width 0.1))
  (fp_line (start 7.25 -10.75) (end 7.25 -10) (layer F.Fab) (width 0.1))
  (fp_line (start 6.75 -10.75) (end 6.75 -10) (layer F.Fab) (width 0.1))
  (fp_line (start 6.25 -10.75) (end 6.25 -10) (layer F.Fab) (width 0.1))
  (fp_line (start 5.75 -10.75) (end 5.75 -10) (layer F.Fab) (width 0.1))
  (fp_line (start 5.25 -10.75) (end 5.25 -10) (layer F.Fab) (width 0.1))
  (fp_line (start 4.75 -10.75) (end 4.75 -10) (layer F.Fab) (width 0.1))
  (fp_line (start 4.25 -10.75) (end 4.25 -10) (layer F.Fab) (width 0.1))
  (fp_line (start 3.75 -10.75) (end 3.75 -10) (layer F.Fab) (width 0.1))
  (fp_line (start 3.25 -10.75) (end 3.25 -10) (layer F.Fab) (width 0.1))
  (fp_line (start 2.75 -10.75) (end 2.75 -10) (layer F.Fab) (width 0.1))
  (fp_line (start 2.25 -10.75) (end 2.25 -10) (layer F.Fab) (width 0.1))
  (fp_line (start 1.75 -10.75) (end 1.75 -10) (layer F.Fab) (width 0.1))
  (fp_line (start 1.25 -10.75) (end 1.25 -10) (layer F.Fab) (width 0.1))
  (fp_line (start 0.75 -10.75) (end 0.75 -10) (layer F.Fab) (width 0.1))
  (fp_line (start 0.25 -10.75) (end 0.25 -10) (layer F.Fab) (width 0.1))
  (fp_line (start -0.25 -10.75) (end -0.25 -10) (layer F.Fab) (width 0.1))
  (fp_line (start -0.75 -10.75) (end -0.75 -10) (layer F.Fab) (width 0.1))
  (fp_line (start -1.25 -10.75) (end -1.25 -10) (layer F.Fab) (width 0.1))
  (fp_line (start -1.75 -10.75) (end -1.75 -10) (layer F.Fab) (width 0.1))
  (fp_line (start -2.25 -10.75) (end -2.25 -10) (layer F.Fab) (width 0.1))
  (fp_line (start -2.75 -10.75) (end -2.75 -10) (layer F.Fab) (width 0.1))
  (fp_line (start -3.25 -10.75) (end -3.25 -10) (layer F.Fab) (width 0.1))
  (fp_line (start -3.75 -10.75) (end -3.75 -10) (layer F.Fab) (width 0.1))
  (fp_line (start -4.25 -10.75) (end -4.25 -10) (layer F.Fab) (width 0.1))
  (fp_line (start -4.75 -10.75) (end -4.75 -10) (layer F.Fab) (width 0.1))
  (fp_line (start -5.25 -10.75) (end -5.25 -10) (layer F.Fab) (width 0.1))
  (fp_line (start -5.75 -10.75) (end -5.75 -10) (layer F.Fab) (width 0.1))
  (fp_line (start -6.25 -10.75) (end -6.25 -10) (layer F.Fab) (width 0.1))
  (fp_line (start -6.75 -10.75) (end -6.75 -10) (layer F.Fab) (width 0.1))
  (fp_line (start -7.25 -10.75) (end -7.25 -10) (layer F.Fab) (width 0.1))
  (fp_line (start -7.75 -10.75) (end -7.75 -10) (layer F.Fab) (width 0.1))
  (fp_line (start -8.25 -10.75) (end -8.25 -10) (layer F.Fab) (width 0.1))
  (fp_line (start -8.75 -10.75) (end -8.75 -10) (layer F.Fab) (width 0.1))
  (fp_line (start -10 8.75) (end -10.75 8.75) (layer F.Fab) (width 0.1))
  (fp_line (start -10 8.25) (end -10.75 8.25) (layer F.Fab) (width 0.1))
  (fp_line (start -10 7.75) (end -10.75 7.75) (layer F.Fab) (width 0.1))
  (fp_line (start -10 7.25) (end -10.75 7.25) (layer F.Fab) (width 0.1))
  (fp_line (start -10 6.75) (end -10.75 6.75) (layer F.Fab) (width 0.1))
  (fp_line (start -10 6.25) (end -10.75 6.25) (layer F.Fab) (width 0.1))
  (fp_line (start -10 5.75) (end -10.75 5.75) (layer F.Fab) (width 0.1))
  (fp_line (start -10 5.25) (end -10.75 5.25) (layer F.Fab) (width 0.1))
  (fp_line (start -10 4.75) (end -10.75 4.75) (layer F.Fab) (width 0.1))
  (fp_line (start -10 4.25) (end -10.75 4.25) (layer F.Fab) (width 0.1))
  (fp_line (start -10 3.75) (end -10.75 3.75) (layer F.Fab) (width 0.1))
  (fp_line (start -10 3.25) (end -10.75 3.25) (layer F.Fab) (width 0.1))
  (fp_line (start -10 2.75) (end -10.75 2.75) (layer F.Fab) (width 0.1))
  (fp_line (start -10 2.25) (end -10.75 2.25) (layer F.Fab) (width 0.1))
  (fp_line (start -10 1.75) (end -10.75 1.75) (layer F.Fab) (width 0.1))
  (fp_line (start -10 1.25) (end -10.75 1.25) (layer F.Fab) (width 0.1))
  (fp_line (start -10 0.75) (end -10.75 0.75) (layer F.Fab) (width 0.1))
  (fp_line (start -10 0.25) (end -10.75 0.25) (layer F.Fab) (width 0.1))
  (fp_line (start -10 -0.25) (end -10.75 -0.25) (layer F.Fab) (width 0.1))
  (fp_line (start -10 -0.75) (end -10.75 -0.75) (layer F.Fab) (width 0.1))
  (fp_line (start -10 -1.25) (end -10.75 -1.25) (layer F.Fab) (width 0.1))
  (fp_line (start -10 -1.75) (end -10.75 -1.75) (layer F.Fab) (width 0.1))
  (fp_line (start -10 -2.25) (end -10.75 -2.25) (layer F.Fab) (width 0.1))
  (fp_line (start -10 -2.75) (end -10.75 -2.75) (layer F.Fab) (width 0.1))
  (fp_line (start -10 -3.25) (end -10.75 -3.25) (layer F.Fab) (width 0.1))
  (fp_line (start -10 -3.75) (end -10.75 -3.75) (layer F.Fab) (width 0.1))
  (fp_line (start -10 -4.25) (end -10.75 -4.25) (layer F.Fab) (width 0.1))
  (fp_line (start -10 -4.75) (end -10.75 -4.75) (layer F.Fab) (width 0.1))
  (fp_line (start -10 -5.25) (end -10.75 -5.25) (layer F.Fab) (width 0.1))
  (fp_line (start -10 -5.75) (end -10.75 -5.75) (layer F.Fab) (width 0.1))
  (fp_line (start -10 -6.25) (end -10.75 -6.25) (layer F.Fab) (width 0.1))
  (fp_line (start -10 -6.75) (end -10.75 -6.75) (layer F.Fab) (width 0.1))
  (fp_line (start -10 -7.25) (end -10.75 -7.25) (layer F.Fab) (width 0.1))
  (fp_line (start -10 -7.75) (end -10.75 -7.75) (layer F.Fab) (width 0.1))
  (fp_line (start -10 -8.25) (end -10.75 -8.25) (layer F.Fab) (width 0.1))
  (fp_line (start -10 -8.75) (end -10.75 -8.75) (layer F.Fab) (width 0.1))
  (fp_line (start -10 10) (end 10 10) (layer F.Fab) (width 0.1))
  (fp_line (start 10 10) (end 10 -10) (layer F.Fab) (width 0.1))
  (fp_line (start 10 -10) (end -10 -10) (layer F.Fab) (width 0.1))
  (fp_line (start -10 -10) (end -10 10) (layer F.Fab) (width 0.1))
  (pad 1 smd rect (at -10.7 -8.75) (size 1.524 0.2794) (layers F.Cu F.Mask F.Paste)
    (clearance 0.2032) (solder_mask_margin 0.1143)
    (zone_connect 2))
  (pad 2 smd rect (at -10.7 -8.25) (size 1.524 0.2794) (layers F.Cu F.Mask F.Paste)
    (clearance 0.2032) (solder_mask_margin 0.1143)
    (zone_connect 2))
  (pad 3 smd rect (at -10.7 -7.75) (size 1.524 0.2794) (layers F.Cu F.Mask F.Paste)
    (clearance 0.2032) (solder_mask_margin 0.1143)
    (zone_connect 2))
  (pad 4 smd rect (at -10.7 -7.25) (size 1.524 0.2794) (layers F.Cu F.Mask F.Paste)
    (clearance 0.2032) (solder_mask_margin 0.1143)
    (zone_connect 2))
  (pad 5 smd rect (at -10.7 -6.75) (size 1.524 0.2794) (layers F.Cu F.Mask F.Paste)
    (clearance 0.2032) (solder_mask_margin 0.1143)
    (zone_connect 2))
  (pad 6 smd rect (at -10.7 -6.25) (size 1.524 0.2794) (layers F.Cu F.Mask F.Paste)
    (clearance 0.2032) (solder_mask_margin 0.1143)
    (zone_connect 2))
  (pad 7 smd rect (at -10.7 -5.75) (size 1.524 0.2794) (layers F.Cu F.Mask F.Paste)
    (clearance 0.2032) (solder_mask_margin 0.1143)
    (zone_connect 2))
  (pad 8 smd rect (at -10.7 -5.25) (size 1.524 0.2794) (layers F.Cu F.Mask F.Paste)
    (clearance 0.2032) (solder_mask_margin 0.1143)
    (zone_connect 2))
  (pad 9 smd rect (at -10.7 -4.75) (size 1.524 0.2794) (layers F.Cu F.Mask F.Paste)
    (clearance 0.2032) (solder_mask_margin 0.1143)
    (zone_connect 2))
  (pad 10 smd rect (at -10.7 -4.25) (size 1.524 0.2794) (layers F.Cu F.Mask F.Paste)
    (clearance 0.2032) (solder_mask_margin 0.1143)
    (zone_connect 2))
  (pad 11 smd rect (at -10.7 -3.75) (size 1.524 0.2794) (layers F.Cu F.Mask F.Paste)
    (clearance 0.2032) (solder_mask_margin 0.1143)
    (zone_connect 2))
  (pad 12 smd rect (at -10.7 -3.25) (size 1.524 0.2794) (layers F.Cu F.Mask F.Paste)
    (clearance 0.2032) (solder_mask_margin 0.1143)
    (zone_connect 2))
  (pad 13 smd rect (at -10.7 -2.75) (size 1.524 0.2794) (layers F.Cu F.Mask F.Paste)
    (clearance 0.2032) (solder_mask_margin 0.1143)
    (zone_connect 2))
  (pad 14 smd rect (at -10.7 -2.25) (size 1.524 0.2794) (layers F.Cu F.Mask F.Paste)
    (clearance 0.2032) (solder_mask_margin 0.1143)
    (zone_connect 2))
  (pad 15 smd rect (at -10.7 -1.75) (size 1.524 0.2794) (layers F.Cu F.Mask F.Paste)
    (clearance 0.2032) (solder_mask_margin 0.1143)
    (zone_connect 2))
  (pad 16 smd rect (at -10.7 -1.25) (size 1.524 0.2794) (layers F.Cu F.Mask F.Paste)
    (clearance 0.2032) (solder_mask_margin 0.1143)
    (zone_connect 2))
  (pad 17 smd rect (at -10.7 -0.75) (size 1.524 0.2794) (layers F.Cu F.Mask F.Paste)
    (clearance 0.2032) (solder_mask_margin 0.1143)
    (zone_connect 2))
  (pad 18 smd rect (at -10.7 -0.25) (size 1.524 0.2794) (layers F.Cu F.Mask F.Paste)
    (clearance 0.2032) (solder_mask_margin 0.1143)
    (zone_connect 2))
  (pad 19 smd rect (at -10.7 0.25) (size 1.524 0.2794) (layers F.Cu F.Mask F.Paste)
    (clearance 0.2032) (solder_mask_margin 0.1143)
    (zone_connect 2))
  (pad 20 smd rect (at -10.7 0.75) (size 1.524 0.2794) (layers F.Cu F.Mask F.Paste)
    (clearance 0.2032) (solder_mask_margin 0.1143)
    (zone_connect 2))
  (pad 21 smd rect (at -10.7 1.25) (size 1.524 0.2794) (layers F.Cu F.Mask F.Paste)
    (clearance 0.2032) (solder_mask_margin 0.1143)
    (zone_connect 2))
  (pad 22 smd rect (at -10.7 1.75) (size 1.524 0.2794) (layers F.Cu F.Mask F.Paste)
    (clearance 0.2032) (solder_mask_margin 0.1143)
    (zone_connect 2))
  (pad 23 smd rect (at -10.7 2.25) (size 1.524 0.2794) (layers F.Cu F.Mask F.Paste)
    (clearance 0.2032) (solder_mask_margin 0.1143)
    (zone_connect 2))
  (pad 24 smd rect (at -10.7 2.75) (size 1.524 0.2794) (layers F.Cu F.Mask F.Paste)
    (clearance 0.2032) (solder_mask_margin 0.1143)
    (zone_connect 2))
  (pad 25 smd rect (at -10.7 3.25) (size 1.524 0.2794) (layers F.Cu F.Mask F.Paste)
    (clearance 0.2032) (solder_mask_margin 0.1143)
    (zone_connect 2))
  (pad 26 smd rect (at -10.7 3.75) (size 1.524 0.2794) (layers F.Cu F.Mask F.Paste)
    (clearance 0.2032) (solder_mask_margin 0.1143)
    (zone_connect 2))
  (pad 27 smd rect (at -10.7 4.25) (size 1.524 0.2794) (layers F.Cu F.Mask F.Paste)
    (clearance 0.2032) (solder_mask_margin 0.1143)
    (zone_connect 2))
  (pad 28 smd rect (at -10.7 4.75) (size 1.524 0.2794) (layers F.Cu F.Mask F.Paste)
    (clearance 0.2032) (solder_mask_margin 0.1143)
    (zone_connect 2))
  (pad 29 smd rect (at -10.7 5.25) (size 1.524 0.2794) (layers F.Cu F.Mask F.Paste)
    (clearance 0.2032) (solder_mask_margin 0.1143)
    (zone_connect 2))
  (pad 30 smd rect (at -10.7 5.75) (size 1.524 0.2794) (layers F.Cu F.Mask F.Paste)
    (clearance 0.2032) (solder_mask_margin 0.1143)
    (zone_connect 2))
  (pad 31 smd rect (at -10.7 6.25) (size 1.524 0.2794) (layers F.Cu F.Mask F.Paste)
    (clearance 0.2032) (solder_mask_margin 0.1143)
    (zone_connect 2))
  (pad 32 smd rect (at -10.7 6.75) (size 1.524 0.2794) (layers F.Cu F.Mask F.Paste)
    (clearance 0.2032) (solder_mask_margin 0.1143)
    (zone_connect 2))
  (pad 33 smd rect (at -10.7 7.25) (size 1.524 0.2794) (layers F.Cu F.Mask F.Paste)
    (clearance 0.2032) (solder_mask_margin 0.1143)
    (zone_connect 2))
  (pad 34 smd rect (at -10.7 7.75) (size 1.524 0.2794) (layers F.Cu F.Mask F.Paste)
    (clearance 0.2032) (solder_mask_margin 0.1143)
    (zone_connect 2))
  (pad 35 smd rect (at -10.7 8.25) (size 1.524 0.2794) (layers F.Cu F.Mask F.Paste)
    (clearance 0.2032) (solder_mask_margin 0.1143)
    (zone_connect 2))
  (pad 36 smd rect (at -10.7 8.75) (size 1.524 0.2794) (layers F.Cu F.Mask F.Paste)
    (clearance 0.2032) (solder_mask_margin 0.1143)
    (zone_connect 2))
  (pad 37 smd rect (at -8.75 10.7) (size 0.2794 1.524) (layers F.Cu F.Mask F.Paste)
    (clearance 0.2032) (solder_mask_margin 0.1143)
    (zone_connect 2))
  (pad 38 smd rect (at -8.25 10.7) (size 0.2794 1.524) (layers F.Cu F.Mask F.Paste)
    (clearance 0.2032) (solder_mask_margin 0.1143)
    (zone_connect 2))
  (pad 39 smd rect (at -7.75 10.7) (size 0.2794 1.524) (layers F.Cu F.Mask F.Paste)
    (clearance 0.2032) (solder_mask_margin 0.1143)
    (zone_connect 2))
  (pad 40 smd rect (at -7.25 10.7) (size 0.2794 1.524) (layers F.Cu F.Mask F.Paste)
    (clearance 0.2032) (solder_mask_margin 0.1143)
    (zone_connect 2))
  (pad 41 smd rect (at -6.75 10.7) (size 0.2794 1.524) (layers F.Cu F.Mask F.Paste)
    (clearance 0.2032) (solder_mask_margin 0.1143)
    (zone_connect 2))
  (pad 42 smd rect (at -6.25 10.7) (size 0.2794 1.524) (layers F.Cu F.Mask F.Paste)
    (clearance 0.2032) (solder_mask_margin 0.1143)
    (zone_connect 2))
  (pad 43 smd rect (at -5.75 10.7) (size 0.2794 1.524) (layers F.Cu F.Mask F.Paste)
    (clearance 0.2032) (solder_mask_margin 0.1143)
    (zone_connect 2))
  (pad 44 smd rect (at -5.25 10.7) (size 0.2794 1.524) (layers F.Cu F.Mask F.Paste)
    (clearance 0.2032) (solder_mask_margin 0.1143)
    (zone_connect 2))
  (pad 45 smd rect (at -4.75 10.7) (size 0.2794 1.524) (layers F.Cu F.Mask F.Paste)
    (clearance 0.2032) (solder_mask_margin 0.1143)
    (zone_connect 2))
  (pad 46 smd rect (at -4.25 10.7) (size 0.2794 1.524) (layers F.Cu F.Mask F.Paste)
    (clearance 0.2032) (solder_mask_margin 0.1143)
    (zone_connect 2))
  (pad 47 smd rect (at -3.75 10.7) (size 0.2794 1.524) (layers F.Cu F.Mask F.Paste)
    (clearance 0.2032) (solder_mask_margin 0.1143)
    (zone_connect 2))
  (pad 48 smd rect (at -3.25 10.7) (size 0.2794 1.524) (layers F.Cu F.Mask F.Paste)
    (clearance 0.2032) (solder_mask_margin 0.1143)
    (zone_connect 2))
  (pad 49 smd rect (at -2.75 10.7) (size 0.2794 1.524) (layers F.Cu F.Mask F.Paste)
    (clearance 0.2032) (solder_mask_margin 0.1143)
    (zone_connect 2))
  (pad 50 smd rect (at -2.25 10.7) (size 0.2794 1.524) (layers F.Cu F.Mask F.Paste)
    (clearance 0.2032) (solder_mask_margin 0.1143)
    (zone_connect 2))
  (pad 51 smd rect (at -1.75 10.7) (size 0.2794 1.524) (layers F.Cu F.Mask F.Paste)
    (clearance 0.2032) (solder_mask_margin 0.1143)
    (zone_connect 2))
  (pad 52 smd rect (at -1.25 10.7) (size 0.2794 1.524) (layers F.Cu F.Mask F.Paste)
    (clearance 0.2032) (solder_mask_margin 0.1143)
    (zone_connect 2))
  (pad 53 smd rect (at -0.75 10.7) (size 0.2794 1.524) (layers F.Cu F.Mask F.Paste)
    (clearance 0.2032) (solder_mask_margin 0.1143)
    (zone_connect 2))
  (pad 54 smd rect (at -0.25 10.7) (size 0.2794 1.524) (layers F.Cu F.Mask F.Paste)
    (clearance 0.2032) (solder_mask_margin 0.1143)
    (zone_connect 2))
  (pad 55 smd rect (at 0.25 10.7) (size 0.2794 1.524) (layers F.Cu F.Mask F.Paste)
    (clearance 0.2032) (solder_mask_margin 0.1143)
    (zone_connect 2))
  (pad 56 smd rect (at 0.75 10.7) (size 0.2794 1.524) (layers F.Cu F.Mask F.Paste)
    (clearance 0.2032) (solder_mask_margin 0.1143)
    (zone_connect 2))
  (pad 57 smd rect (at 1.25 10.7) (size 0.2794 1.524) (layers F.Cu F.Mask F.Paste)
    (clearance 0.2032) (solder_mask_margin 0.1143)
    (zone_connect 2))
  (pad 58 smd rect (at 1.75 10.7) (size 0.2794 1.524) (layers F.Cu F.Mask F.Paste)
    (clearance 0.2032) (solder_mask_margin 0.1143)
    (zone_connect 2))
  (pad 59 smd rect (at 2.25 10.7) (size 0.2794 1.524) (layers F.Cu F.Mask F.Paste)
    (clearance 0.2032) (solder_mask_margin 0.1143)
    (zone_connect 2))
  (pad 60 smd rect (at 2.75 10.7) (size 0.2794 1.524) (layers F.Cu F.Mask F.Paste)
    (clearance 0.2032) (solder_mask_margin 0.1143)
    (zone_connect 2))
  (pad 61 smd rect (at 3.25 10.7) (size 0.2794 1.524) (layers F.Cu F.Mask F.Paste)
    (clearance 0.2032) (solder_mask_margin 0.1143)
    (zone_connect 2))
  (pad 62 smd rect (at 3.75 10.7) (size 0.2794 1.524) (layers F.Cu F.Mask F.Paste)
    (clearance 0.2032) (solder_mask_margin 0.1143)
    (zone_connect 2))
  (pad 63 smd rect (at 4.25 10.7) (size 0.2794 1.524) (layers F.Cu F.Mask F.Paste)
    (clearance 0.2032) (solder_mask_margin 0.1143)
    (zone_connect 2))
  (pad 64 smd rect (at 4.75 10.7) (size 0.2794 1.524) (layers F.Cu F.Mask F.Paste)
    (clearance 0.2032) (solder_mask_margin 0.1143)
    (zone_connect 2))
  (pad 65 smd rect (at 5.25 10.7) (size 0.2794 1.524) (layers F.Cu F.Mask F.Paste)
    (clearance 0.2032) (solder_mask_margin 0.1143)
    (zone_connect 2))
  (pad 66 smd rect (at 5.75 10.7) (size 0.2794 1.524) (layers F.Cu F.Mask F.Paste)
    (clearance 0.2032) (solder_mask_margin 0.1143)
    (zone_connect 2))
  (pad 67 smd rect (at 6.25 10.7) (size 0.2794 1.524) (layers F.Cu F.Mask F.Paste)
    (clearance 0.2032) (solder_mask_margin 0.1143)
    (zone_connect 2))
  (pad 68 smd rect (at 6.75 10.7) (size 0.2794 1.524) (layers F.Cu F.Mask F.Paste)
    (clearance 0.2032) (solder_mask_margin 0.1143)
    (zone_connect 2))
  (pad 69 smd rect (at 7.25 10.7) (size 0.2794 1.524) (layers F.Cu F.Mask F.Paste)
    (clearance 0.2032) (solder_mask_margin 0.1143)
    (zone_connect 2))
  (pad 70 smd rect (at 7.75 10.7) (size 0.2794 1.524) (layers F.Cu F.Mask F.Paste)
    (clearance 0.2032) (solder_mask_margin 0.1143)
    (zone_connect 2))
  (pad 71 smd rect (at 8.25 10.7) (size 0.2794 1.524) (layers F.Cu F.Mask F.Paste)
    (clearance 0.2032) (solder_mask_margin 0.1143)
    (zone_connect 2))
  (pad 72 smd rect (at 8.75 10.7) (size 0.2794 1.524) (layers F.Cu F.Mask F.Paste)
    (clearance 0.2032) (solder_mask_margin 0.1143)
    (zone_connect 2))
  (pad 73 smd rect (at 10.7 8.75) (size 1.524 0.2794) (layers F.Cu F.Mask F.Paste)
    (clearance 0.2032) (solder_mask_margin 0.1143)
    (zone_connect 2))
  (pad 74 smd rect (at 10.7 8.25) (size 1.524 0.2794) (layers F.Cu F.Mask F.Paste)
    (clearance 0.2032) (solder_mask_margin 0.1143)
    (zone_connect 2))
  (pad 75 smd rect (at 10.7 7.75) (size 1.524 0.2794) (layers F.Cu F.Mask F.Paste)
    (clearance 0.2032) (solder_mask_margin 0.1143)
    (zone_connect 2))
  (pad 76 smd rect (at 10.7 7.25) (size 1.524 0.2794) (layers F.Cu F.Mask F.Paste)
    (clearance 0.2032) (solder_mask_margin 0.1143)
    (zone_connect 2))
  (pad 77 smd rect (at 10.7 6.75) (size 1.524 0.2794) (layers F.Cu F.Mask F.Paste)
    (clearance 0.2032) (solder_mask_margin 0.1143)
    (zone_connect 2))
  (pad 78 smd rect (at 10.7 6.25) (size 1.524 0.2794) (layers F.Cu F.Mask F.Paste)
    (clearance 0.2032) (solder_mask_margin 0.1143)
    (zone_connect 2))
  (pad 79 smd rect (at 10.7 5.75) (size 1.524 0.2794) (layers F.Cu F.Mask F.Paste)
    (clearance 0.2032) (solder_mask_margin 0.1143)
    (zone_connect 2))
  (pad 80 smd rect (at 10.7 5.25) (size 1.524 0.2794) (layers F.Cu F.Mask F.Paste)
    (clearance 0.2032) (solder_mask_margin 0.1143)
    (zone_connect 2))
  (pad 81 smd rect (at 10.7 4.75) (size 1.524 0.2794) (layers F.Cu F.Mask F.Paste)
    (clearance 0.2032) (solder_mask_margin 0.1143)
    (zone_connect 2))
  (pad 82 smd rect (at 10.7 4.25) (size 1.524 0.2794) (layers F.Cu F.Mask F.Paste)
    (clearance 0.2032) (solder_mask_margin 0.1143)
    (zone_connect 2))
  (pad 83 smd rect (at 10.7 3.75) (size 1.524 0.2794) (layers F.Cu F.Mask F.Paste)
    (clearance 0.2032) (solder_mask_margin 0.1143)
    (zone_connect 2))
  (pad 84 smd rect (at 10.7 3.25) (size 1.524 0.2794) (layers F.Cu F.Mask F.Paste)
    (clearance 0.2032) (solder_mask_margin 0.1143)
    (zone_connect 2))
  (pad 85 smd rect (at 10.7 2.75) (size 1.524 0.2794) (layers F.Cu F.Mask F.Paste)
    (clearance 0.2032) (solder_mask_margin 0.1143)
    (zone_connect 2))
  (pad 86 smd rect (at 10.7 2.25) (size 1.524 0.2794) (layers F.Cu F.Mask F.Paste)
    (clearance 0.2032) (solder_mask_margin 0.1143)
    (zone_connect 2))
  (pad 87 smd rect (at 10.7 1.75) (size 1.524 0.2794) (layers F.Cu F.Mask F.Paste)
    (clearance 0.2032) (solder_mask_margin 0.1143)
    (zone_connect 2))
  (pad 88 smd rect (at 10.7 1.25) (size 1.524 0.2794) (layers F.Cu F.Mask F.Paste)
    (clearance 0.2032) (solder_mask_margin 0.1143)
    (zone_connect 2))
  (pad 89 smd rect (at 10.7 0.75) (size 1.524 0.2794) (layers F.Cu F.Mask F.Paste)
    (clearance 0.2032) (solder_mask_margin 0.1143)
    (zone_connect 2))
  (pad 90 smd rect (at 10.7 0.25) (size 1.524 0.2794) (layers F.Cu F.Mask F.Paste)
    (clearance 0.2032) (solder_mask_margin 0.1143)
    (zone_connect 2))
  (pad 91 smd rect (at 10.7 -0.25) (size 1.524 0.2794) (layers F.Cu F.Mask F.Paste)
    (clearance 0.2032) (solder_mask_margin 0.1143)
    (zone_connect 2))
  (pad 92 smd rect (at 10.7 -0.75) (size 1.524 0.2794) (layers F.Cu F.Mask F.Paste)
    (clearance 0.2032) (solder_mask_margin 0.1143)
    (zone_connect 2))
  (pad 93 smd rect (at 10.7 -1.25) (size 1.524 0.2794) (layers F.Cu F.Mask F.Paste)
    (clearance 0.2032) (solder_mask_margin 0.1143)
    (zone_connect 2))
  (pad 94 smd rect (at 10.7 -1.75) (size 1.524 0.2794) (layers F.Cu F.Mask F.Paste)
    (clearance 0.2032) (solder_mask_margin 0.1143)
    (zone_connect 2))
  (pad 95 smd rect (at 10.7 -2.25) (size 1.524 0.2794) (layers F.Cu F.Mask F.Paste)
    (clearance 0.2032) (solder_mask_margin 0.1143)
    (zone_connect 2))
  (pad 96 smd rect (at 10.7 -2.75) (size 1.524 0.2794) (layers F.Cu F.Mask F.Paste)
    (clearance 0.2032) (solder_mask_margin 0.1143)
    (zone_connect 2))
  (pad 97 smd rect (at 10.7 -3.25) (size 1.524 0.2794) (layers F.Cu F.Mask F.Paste)
    (clearance 0.2032) (solder_mask_margin 0.1143)
    (zone_connect 2))
  (pad 98 smd rect (at 10.7 -3.75) (size 1.524 0.2794) (layers F.Cu F.Mask F.Paste)
    (clearance 0.2032) (solder_mask_margin 0.1143)
    (zone_connect 2))
  (pad 99 smd rect (at 10.7 -4.25) (size 1.524 0.2794) (layers F.Cu F.Mask F.Paste)
    (clearance 0.2032) (solder_mask_margin 0.1143)
    (zone_connect 2))
  (pad 100 smd rect (at 10.7 -4.75) (size 1.524 0.2794) (layers F.Cu F.Mask F.Paste)
    (clearance 0.2032) (solder_mask_margin 0.1143)
    (zone_connect 2))
  (pad 101 smd rect (at 10.7 -5.25) (size 1.524 0.2794) (layers F.Cu F.Mask F.Paste)
    (clearance 0.2032) (solder_mask_margin 0.1143)
    (zone_connect 2))
  (pad 102 smd rect (at 10.7 -5.75) (size 1.524 0.2794) (layers F.Cu F.Mask F.Paste)
    (clearance 0.2032) (solder_mask_margin 0.1143)
    (zone_connect 2))
  (pad 103 smd rect (at 10.7 -6.25) (size 1.524 0.2794) (layers F.Cu F.Mask F.Paste)
    (clearance 0.2032) (solder_mask_margin 0.1143)
    (zone_connect 2))
  (pad 104 smd rect (at 10.7 -6.75) (size 1.524 0.2794) (layers F.Cu F.Mask F.Paste)
    (clearance 0.2032) (solder_mask_margin 0.1143)
    (zone_connect 2))
  (pad 105 smd rect (at 10.7 -7.25) (size 1.524 0.2794) (layers F.Cu F.Mask F.Paste)
    (clearance 0.2032) (solder_mask_margin 0.1143)
    (zone_connect 2))
  (pad 106 smd rect (at 10.7 -7.75) (size 1.524 0.2794) (layers F.Cu F.Mask F.Paste)
    (clearance 0.2032) (solder_mask_margin 0.1143)
    (zone_connect 2))
  (pad 107 smd rect (at 10.7 -8.25) (size 1.524 0.2794) (layers F.Cu F.Mask F.Paste)
    (clearance 0.2032) (solder_mask_margin 0.1143)
    (zone_connect 2))
  (pad 108 smd rect (at 10.7 -8.75) (size 1.524 0.2794) (layers F.Cu F.Mask F.Paste)
    (clearance 0.2032) (solder_mask_margin 0.1143)
    (zone_connect 2))
  (pad 109 smd rect (at 8.75 -10.7) (size 0.2794 1.524) (layers F.Cu F.Mask F.Paste)
    (clearance 0.2032) (solder_mask_margin 0.1143)
    (zone_connect 2))
  (pad 110 smd rect (at 8.25 -10.7) (size 0.2794 1.524) (layers F.Cu F.Mask F.Paste)
    (clearance 0.2032) (solder_mask_margin 0.1143)
    (zone_connect 2))
  (pad 111 smd rect (at 7.75 -10.7) (size 0.2794 1.524) (layers F.Cu F.Mask F.Paste)
    (clearance 0.2032) (solder_mask_margin 0.1143)
    (zone_connect 2))
  (pad 112 smd rect (at 7.25 -10.7) (size 0.2794 1.524) (layers F.Cu F.Mask F.Paste)
    (clearance 0.2032) (solder_mask_margin 0.1143)
    (zone_connect 2))
  (pad 113 smd rect (at 6.75 -10.7) (size 0.2794 1.524) (layers F.Cu F.Mask F.Paste)
    (clearance 0.2032) (solder_mask_margin 0.1143)
    (zone_connect 2))
  (pad 114 smd rect (at 6.25 -10.7) (size 0.2794 1.524) (layers F.Cu F.Mask F.Paste)
    (clearance 0.2032) (solder_mask_margin 0.1143)
    (zone_connect 2))
  (pad 115 smd rect (at 5.75 -10.7) (size 0.2794 1.524) (layers F.Cu F.Mask F.Paste)
    (clearance 0.2032) (solder_mask_margin 0.1143)
    (zone_connect 2))
  (pad 116 smd rect (at 5.25 -10.7) (size 0.2794 1.524) (layers F.Cu F.Mask F.Paste)
    (clearance 0.2032) (solder_mask_margin 0.1143)
    (zone_connect 2))
  (pad 117 smd rect (at 4.75 -10.7) (size 0.2794 1.524) (layers F.Cu F.Mask F.Paste)
    (clearance 0.2032) (solder_mask_margin 0.1143)
    (zone_connect 2))
  (pad 118 smd rect (at 4.25 -10.7) (size 0.2794 1.524) (layers F.Cu F.Mask F.Paste)
    (clearance 0.2032) (solder_mask_margin 0.1143)
    (zone_connect 2))
  (pad 119 smd rect (at 3.75 -10.7) (size 0.2794 1.524) (layers F.Cu F.Mask F.Paste)
    (clearance 0.2032) (solder_mask_margin 0.1143)
    (zone_connect 2))
  (pad 120 smd rect (at 3.25 -10.7) (size 0.2794 1.524) (layers F.Cu F.Mask F.Paste)
    (clearance 0.2032) (solder_mask_margin 0.1143)
    (zone_connect 2))
  (pad 121 smd rect (at 2.75 -10.7) (size 0.2794 1.524) (layers F.Cu F.Mask F.Paste)
    (clearance 0.2032) (solder_mask_margin 0.1143)
    (zone_connect 2))
  (pad 122 smd rect (at 2.25 -10.7) (size 0.2794 1.524) (layers F.Cu F.Mask F.Paste)
    (clearance 0.2032) (solder_mask_margin 0.1143)
    (zone_connect 2))
  (pad 123 smd rect (at 1.75 -10.7) (size 0.2794 1.524) (layers F.Cu F.Mask F.Paste)
    (clearance 0.2032) (solder_mask_margin 0.1143)
    (zone_connect 2))
  (pad 124 smd rect (at 1.25 -10.7) (size 0.2794 1.524) (layers F.Cu F.Mask F.Paste)
    (clearance 0.2032) (solder_mask_margin 0.1143)
    (zone_connect 2))
  (pad 125 smd rect (at 0.75 -10.7) (size 0.2794 1.524) (layers F.Cu F.Mask F.Paste)
    (clearance 0.2032) (solder_mask_margin 0.1143)
    (zone_connect 2))
  (pad 126 smd rect (at 0.25 -10.7) (size 0.2794 1.524) (layers F.Cu F.Mask F.Paste)
    (clearance 0.2032) (solder_mask_margin 0.1143)
    (zone_connect 2))
  (pad 127 smd rect (at -0.25 -10.7) (size 0.2794 1.524) (layers F.Cu F.Mask F.Paste)
    (clearance 0.2032) (solder_mask_margin 0.1143)
    (zone_connect 2))
  (pad 128 smd rect (at -0.75 -10.7) (size 0.2794 1.524) (layers F.Cu F.Mask F.Paste)
    (clearance 0.2032) (solder_mask_margin 0.1143)
    (zone_connect 2))
  (pad 129 smd rect (at -1.25 -10.7) (size 0.2794 1.524) (layers F.Cu F.Mask F.Paste)
    (clearance 0.2032) (solder_mask_margin 0.1143)
    (zone_connect 2))
  (pad 130 smd rect (at -1.75 -10.7) (size 0.2794 1.524) (layers F.Cu F.Mask F.Paste)
    (clearance 0.2032) (solder_mask_margin 0.1143)
    (zone_connect 2))
  (pad 131 smd rect (at -2.25 -10.7) (size 0.2794 1.524) (layers F.Cu F.Mask F.Paste)
    (clearance 0.2032) (solder_mask_margin 0.1143)
    (zone_connect 2))
  (pad 132 smd rect (at -2.75 -10.7) (size 0.2794 1.524) (layers F.Cu F.Mask F.Paste)
    (clearance 0.2032) (solder_mask_margin 0.1143)
    (zone_connect 2))
  (pad 133 smd rect (at -3.25 -10.7) (size 0.2794 1.524) (layers F.Cu F.Mask F.Paste)
    (clearance 0.2032) (solder_mask_margin 0.1143)
    (zone_connect 2))
  (pad 134 smd rect (at -3.75 -10.7) (size 0.2794 1.524) (layers F.Cu F.Mask F.Paste)
    (clearance 0.2032) (solder_mask_margin 0.1143)
    (zone_connect 2))
  (pad 135 smd rect (at -4.25 -10.7) (size 0.2794 1.524) (layers F.Cu F.Mask F.Paste)
    (clearance 0.2032) (solder_mask_margin 0.1143)
    (zone_connect 2))
  (pad 136 smd rect (at -4.75 -10.7) (size 0.2794 1.524) (layers F.Cu F.Mask F.Paste)
    (clearance 0.2032) (solder_mask_margin 0.1143)
    (zone_connect 2))
  (pad 137 smd rect (at -5.25 -10.7) (size 0.2794 1.524) (layers F.Cu F.Mask F.Paste)
    (clearance 0.2032) (solder_mask_margin 0.1143)
    (zone_connect 2))
  (pad 138 smd rect (at -5.75 -10.7) (size 0.2794 1.524) (layers F.Cu F.Mask F.Paste)
    (clearance 0.2032) (solder_mask_margin 0.1143)
    (zone_connect 2))
  (pad 139 smd rect (at -6.25 -10.7) (size 0.2794 1.524) (layers F.Cu F.Mask F.Paste)
    (clearance 0.2032) (solder_mask_margin 0.1143)
    (zone_connect 2))
  (pad 140 smd rect (at -6.75 -10.7) (size 0.2794 1.524) (layers F.Cu F.Mask F.Paste)
    (clearance 0.2032) (solder_mask_margin 0.1143)
    (zone_connect 2))
  (pad 141 smd rect (at -7.25 -10.7) (size 0.2794 1.524) (layers F.Cu F.Mask F.Paste)
    (clearance 0.2032) (solder_mask_margin 0.1143)
    (zone_connect 2))
  (pad 142 smd rect (at -7.75 -10.7) (size 0.2794 1.524) (layers F.Cu F.Mask F.Paste)
    (clearance 0.2032) (solder_mask_margin 0.1143)
    (zone_connect 2))
  (pad 143 smd rect (at -8.25 -10.7) (size 0.2794 1.524) (layers F.Cu F.Mask F.Paste)
    (clearance 0.2032) (solder_mask_margin 0.1143)
    (zone_connect 2))
  (pad 144 smd rect (at -8.75 -10.7) (size 0.2794 1.524) (layers F.Cu F.Mask F.Paste)
    (clearance 0.2032) (solder_mask_margin 0.1143)
    (zone_connect 2))
  (pad 145 smd circle (at -10.7 10.7) (size 1.27 1.27) (layers F.Cu F.Mask)
    (solder_mask_margin 0.0508)
    (zone_connect 2))
  (pad 146 smd circle (at 10.7 -10.7) (size 1.27 1.27) (layers F.Cu F.Mask)
    (solder_mask_margin 0.0508)
    (zone_connect 2))
  (model ${KISYS3DMOD}/Package_QFP.3dshapes/LQFP-144_20x20mm_P0.5mm.wrl
    (offset (xyz 0 0 0))
    (scale (xyz 1 1 1))
    (rotate (xyz 0 0 0))
  )
)