(module TSOP48 (layer F.Cu) (tedit 0)
  (attr smd)
  (fp_text reference REF** (at 0 0) (layer F.SilkS)
    (effects (font (size 1 1) (thickness 0.15)))
  )
  (fp_text value TSOP48 (at 0 2) (layer F.Fab) hide
    (effects (font (size 1 1) (thickness 0.15)))
  )
  (fp_arc (start -6.10001 9.10002) (end -6.10001 9.50001) (angle 360) (layer F.SilkS) (width 0.02))
  (fp_arc (start -4.6 7.55251) (end -4.6 7.9525) (angle 360) (layer F.Fab) (width 0.02))
  (fp_line (start -7.5 10.6) (end -7.5 -10.6) (layer Dwgs.User) (width 0.05))
  (fp_line (start -7.5 -10.6) (end 7.5 -10.6) (layer Dwgs.User) (width 0.05))
  (fp_line (start 7.5 -10.6) (end 7.5 10.6) (layer Dwgs.User) (width 0.05))
  (fp_line (start 7.5 10.6) (end -7.5 10.6) (layer Dwgs.User) (width 0.05))
  (fp_line (start -6 8.75) (end 6 8.75) (layer F.SilkS) (width 0.18))
  (fp_line (start 6 8.75) (end 6 -8.75) (layer F.SilkS) (width 0.18))
  (fp_line (start 6 -8.75) (end -6 -8.75) (layer F.SilkS) (width 0.18))
  (fp_line (start -6 -8.75) (end -6 8.75) (layer F.SilkS) (width 0.18))
  (fp_line (start 7.5 9) (end 7.5 10.6) (layer F.CrtYd) (width 0.02))
  (fp_line (start 7.5 10.6) (end -6.0325 10.6) (layer F.CrtYd) (width 0.02))
  (fp_line (start -6.0325 10.6) (end -6.0325 -9) (layer F.CrtYd) (width 0.02))
  (fp_line (start -6.0325 -9) (end -7.5 -9) (layer F.CrtYd) (width 0.02))
  (fp_line (start -7.5 -9) (end -7.5 -10.6) (layer F.CrtYd) (width 0.02))
  (fp_line (start -7.5 -10.6) (end 6.0325 -10.6) (layer F.CrtYd) (width 0.02))
  (fp_line (start 6.0325 -10.6) (end 6.0325 9) (layer F.CrtYd) (width 0.02))
  (fp_line (start 6.0325 9) (end 7.5 9) (layer F.CrtYd) (width 0.02))
  (fp_line (start -6 9.2075) (end 6 9.2075) (layer F.Fab) (width 0.1))
  (fp_line (start 6 9.2075) (end 6 -9.2075) (layer F.Fab) (width 0.1))
  (fp_line (start 6 -9.2075) (end -6 -9.2075) (layer F.Fab) (width 0.1))
  (fp_line (start -6 -9.2075) (end -6 9.2075) (layer F.Fab) (width 0.1))
  (fp_line (start -5.85 9.25) (end -5.85 10) (layer F.Fab) (width 0.01))
  (fp_line (start -5.85 10) (end -5.65 10) (layer F.Fab) (width 0.01))
  (fp_line (start -5.65 10) (end -5.65 9.25) (layer F.Fab) (width 0.01))
  (fp_line (start -5.35 9.25) (end -5.35 10) (layer F.Fab) (width 0.01))
  (fp_line (start -5.35 10) (end -5.15 10) (layer F.Fab) (width 0.01))
  (fp_line (start -5.15 10) (end -5.15 9.25) (layer F.Fab) (width 0.01))
  (fp_line (start -4.85 9.25) (end -4.85 10) (layer F.Fab) (width 0.01))
  (fp_line (start -4.85 10) (end -4.65 10) (layer F.Fab) (width 0.01))
  (fp_line (start -4.65 10) (end -4.65 9.25) (layer F.Fab) (width 0.01))
  (fp_line (start -4.35 9.25) (end -4.35 10) (layer F.Fab) (width 0.01))
  (fp_line (start -4.35 10) (end -4.15 10) (layer F.Fab) (width 0.01))
  (fp_line (start -4.15 10) (end -4.15 9.25) (layer F.Fab) (width 0.01))
  (fp_line (start -3.85 9.25) (end -3.85 10) (layer F.Fab) (width 0.01))
  (fp_line (start -3.85 10) (end -3.65 10) (layer F.Fab) (width 0.01))
  (fp_line (start -3.65 10) (end -3.65 9.25) (layer F.Fab) (width 0.01))
  (fp_line (start -3.35 9.25) (end -3.35 10) (layer F.Fab) (width 0.01))
  (fp_line (start -3.35 10) (end -3.15 10) (layer F.Fab) (width 0.01))
  (fp_line (start -3.15 10) (end -3.15 9.25) (layer F.Fab) (width 0.01))
  (fp_line (start -2.85 9.25) (end -2.85 10) (layer F.Fab) (width 0.01))
  (fp_line (start -2.85 10) (end -2.65 10) (layer F.Fab) (width 0.01))
  (fp_line (start -2.65 10) (end -2.65 9.25) (layer F.Fab) (width 0.01))
  (fp_line (start -2.35 9.25) (end -2.35 10) (layer F.Fab) (width 0.01))
  (fp_line (start -2.35 10) (end -2.15 10) (layer F.Fab) (width 0.01))
  (fp_line (start -2.15 10) (end -2.15 9.25) (layer F.Fab) (width 0.01))
  (fp_line (start -1.85 9.25) (end -1.85 10) (layer F.Fab) (width 0.01))
  (fp_line (start -1.85 10) (end -1.65 10) (layer F.Fab) (width 0.01))
  (fp_line (start -1.65 10) (end -1.65 9.25) (layer F.Fab) (width 0.01))
  (fp_line (start -1.35 9.25) (end -1.35 10) (layer F.Fab) (width 0.01))
  (fp_line (start -1.35 10) (end -1.15 10) (layer F.Fab) (width 0.01))
  (fp_line (start -1.15 10) (end -1.15 9.25) (layer F.Fab) (width 0.01))
  (fp_line (start -0.85 9.25) (end -0.85 10) (layer F.Fab) (width 0.01))
  (fp_line (start -0.85 10) (end -0.65 10) (layer F.Fab) (width 0.01))
  (fp_line (start -0.65 10) (end -0.65 9.25) (layer F.Fab) (width 0.01))
  (fp_line (start -0.35 9.25) (end -0.35 10) (layer F.Fab) (width 0.01))
  (fp_line (start -0.35 10) (end -0.15 10) (layer F.Fab) (width 0.01))
  (fp_line (start -0.15 10) (end -0.15 9.25) (layer F.Fab) (width 0.01))
  (fp_line (start 0.15 9.25) (end 0.15 10) (layer F.Fab) (width 0.01))
  (fp_line (start 0.15 10) (end 0.35 10) (layer F.Fab) (width 0.01))
  (fp_line (start 0.35 10) (end 0.35 9.25) (layer F.Fab) (width 0.01))
  (fp_line (start 0.65 9.25) (end 0.65 10) (layer F.Fab) (width 0.01))
  (fp_line (start 0.65 10) (end 0.85 10) (layer F.Fab) (width 0.01))
  (fp_line (start 0.85 10) (end 0.85 9.25) (layer F.Fab) (width 0.01))
  (fp_line (start 1.15 9.25) (end 1.15 10) (layer F.Fab) (width 0.01))
  (fp_line (start 1.15 10) (end 1.35 10) (layer F.Fab) (width 0.01))
  (fp_line (start 1.35 10) (end 1.35 9.25) (layer F.Fab) (width 0.01))
  (fp_line (start 1.65 9.25) (end 1.65 10) (layer F.Fab) (width 0.01))
  (fp_line (start 1.65 10) (end 1.85 10) (layer F.Fab) (width 0.01))
  (fp_line (start 1.85 10) (end 1.85 9.25) (layer F.Fab) (width 0.01))
  (fp_line (start 2.15 9.25) (end 2.15 10) (layer F.Fab) (width 0.01))
  (fp_line (start 2.15 10) (end 2.35 10) (layer F.Fab) (width 0.01))
  (fp_line (start 2.35 10) (end 2.35 9.25) (layer F.Fab) (width 0.01))
  (fp_line (start 2.65 9.25) (end 2.65 10) (layer F.Fab) (width 0.01))
  (fp_line (start 2.65 10) (end 2.85 10) (layer F.Fab) (width 0.01))
  (fp_line (start 2.85 10) (end 2.85 9.25) (layer F.Fab) (width 0.01))
  (fp_line (start 3.15 9.25) (end 3.15 10) (layer F.Fab) (width 0.01))
  (fp_line (start 3.15 10) (end 3.35 10) (layer F.Fab) (width 0.01))
  (fp_line (start 3.35 10) (end 3.35 9.25) (layer F.Fab) (width 0.01))
  (fp_line (start 3.65 9.25) (end 3.65 10) (layer F.Fab) (width 0.01))
  (fp_line (start 3.65 10) (end 3.85 10) (layer F.Fab) (width 0.01))
  (fp_line (start 3.85 10) (end 3.85 9.25) (layer F.Fab) (width 0.01))
  (fp_line (start 4.15 9.25) (end 4.15 10) (layer F.Fab) (width 0.01))
  (fp_line (start 4.15 10) (end 4.35 10) (layer F.Fab) (width 0.01))
  (fp_line (start 4.35 10) (end 4.35 9.25) (layer F.Fab) (width 0.01))
  (fp_line (start 4.65 9.25) (end 4.65 10) (layer F.Fab) (width 0.01))
  (fp_line (start 4.65 10) (end 4.85 10) (layer F.Fab) (width 0.01))
  (fp_line (start 4.85 10) (end 4.85 9.25) (layer F.Fab) (width 0.01))
  (fp_line (start 5.15 9.25) (end 5.15 10) (layer F.Fab) (width 0.01))
  (fp_line (start 5.15 10) (end 5.35 10) (layer F.Fab) (width 0.01))
  (fp_line (start 5.35 10) (end 5.35 9.25) (layer F.Fab) (width 0.01))
  (fp_line (start 5.65 9.25) (end 5.65 10) (layer F.Fab) (width 0.01))
  (fp_line (start 5.65 10) (end 5.85 10) (layer F.Fab) (width 0.01))
  (fp_line (start 5.85 10) (end 5.85 9.25) (layer F.Fab) (width 0.01))
  (fp_line (start -5.85 -9.25) (end -5.85 -10) (layer F.Fab) (width 0.01))
  (fp_line (start -5.85 -10) (end -5.65 -10) (layer F.Fab) (width 0.01))
  (fp_line (start -5.65 -10) (end -5.65 -9.25) (layer F.Fab) (width 0.01))
  (fp_line (start -5.35 -9.25) (end -5.35 -10) (layer F.Fab) (width 0.01))
  (fp_line (start -5.35 -10) (end -5.15 -10) (layer F.Fab) (width 0.01))
  (fp_line (start -5.15 -10) (end -5.15 -9.25) (layer F.Fab) (width 0.01))
  (fp_line (start -4.85 -9.25) (end -4.85 -10) (layer F.Fab) (width 0.01))
  (fp_line (start -4.85 -10) (end -4.65 -10) (layer F.Fab) (width 0.01))
  (fp_line (start -4.65 -10) (end -4.65 -9.25) (layer F.Fab) (width 0.01))
  (fp_line (start -4.35 -9.25) (end -4.35 -10) (layer F.Fab) (width 0.01))
  (fp_line (start -4.35 -10) (end -4.15 -10) (layer F.Fab) (width 0.01))
  (fp_line (start -4.15 -10) (end -4.15 -9.25) (layer F.Fab) (width 0.01))
  (fp_line (start -3.35 -9.25) (end -3.35 -10) (layer F.Fab) (width 0.01))
  (fp_line (start -3.35 -10) (end -3.15 -10) (layer F.Fab) (width 0.01))
  (fp_line (start -3.15 -10) (end -3.15 -9.25) (layer F.Fab) (width 0.01))
  (fp_line (start -3.85 -9.25) (end -3.85 -10) (layer F.Fab) (width 0.01))
  (fp_line (start -3.85 -10) (end -3.65 -10) (layer F.Fab) (width 0.01))
  (fp_line (start -3.65 -10) (end -3.65 -9.25) (layer F.Fab) (width 0.01))
  (fp_line (start -2.85 -9.25) (end -2.85 -10) (layer F.Fab) (width 0.01))
  (fp_line (start -2.85 -10) (end -2.65 -10) (layer F.Fab) (width 0.01))
  (fp_line (start -2.65 -10) (end -2.65 -9.25) (layer F.Fab) (width 0.01))
  (fp_line (start -2.35 -9.25) (end -2.35 -10) (layer F.Fab) (width 0.01))
  (fp_line (start -2.35 -10) (end -2.15 -10) (layer F.Fab) (width 0.01))
  (fp_line (start -2.15 -10) (end -2.15 -9.25) (layer F.Fab) (width 0.01))
  (fp_line (start -1.85 -9.25) (end -1.85 -10) (layer F.Fab) (width 0.01))
  (fp_line (start -1.85 -10) (end -1.65 -10) (layer F.Fab) (width 0.01))
  (fp_line (start -1.65 -10) (end -1.65 -9.25) (layer F.Fab) (width 0.01))
  (fp_line (start -1.35 -9.25) (end -1.35 -10) (layer F.Fab) (width 0.01))
  (fp_line (start -1.35 -10) (end -1.15 -10) (layer F.Fab) (width 0.01))
  (fp_line (start -1.15 -10) (end -1.15 -9.25) (layer F.Fab) (width 0.01))
  (fp_line (start -0.35 -9.25) (end -0.35 -10) (layer F.Fab) (width 0.01))
  (fp_line (start -0.35 -10) (end -0.15 -10) (layer F.Fab) (width 0.01))
  (fp_line (start -0.15 -10) (end -0.15 -9.25) (layer F.Fab) (width 0.01))
  (fp_line (start -0.85 -9.25) (end -0.85 -10) (layer F.Fab) (width 0.01))
  (fp_line (start -0.85 -10) (end -0.65 -10) (layer F.Fab) (width 0.01))
  (fp_line (start -0.65 -10) (end -0.65 -9.25) (layer F.Fab) (width 0.01))
  (fp_line (start 0.15 -9.25) (end 0.15 -10) (layer F.Fab) (width 0.01))
  (fp_line (start 0.15 -10) (end 0.35 -10) (layer F.Fab) (width 0.01))
  (fp_line (start 0.35 -10) (end 0.35 -9.25) (layer F.Fab) (width 0.01))
  (fp_line (start 0.65 -9.25) (end 0.65 -10) (layer F.Fab) (width 0.01))
  (fp_line (start 0.65 -10) (end 0.85 -10) (layer F.Fab) (width 0.01))
  (fp_line (start 0.85 -10) (end 0.85 -9.25) (layer F.Fab) (width 0.01))
  (fp_line (start 1.65 -9.25) (end 1.65 -10) (layer F.Fab) (width 0.01))
  (fp_line (start 1.65 -10) (end 1.85 -10) (layer F.Fab) (width 0.01))
  (fp_line (start 1.85 -10) (end 1.85 -9.25) (layer F.Fab) (width 0.01))
  (fp_line (start 1.15 -9.25) (end 1.15 -10) (layer F.Fab) (width 0.01))
  (fp_line (start 1.15 -10) (end 1.35 -10) (layer F.Fab) (width 0.01))
  (fp_line (start 1.35 -10) (end 1.35 -9.25) (layer F.Fab) (width 0.01))
  (fp_line (start 2.15 -9.25) (end 2.15 -10) (layer F.Fab) (width 0.01))
  (fp_line (start 2.15 -10) (end 2.35 -10) (layer F.Fab) (width 0.01))
  (fp_line (start 2.35 -10) (end 2.35 -9.25) (layer F.Fab) (width 0.01))
  (fp_line (start 2.65 -9.25) (end 2.65 -10) (layer F.Fab) (width 0.01))
  (fp_line (start 2.65 -10) (end 2.85 -10) (layer F.Fab) (width 0.01))
  (fp_line (start 2.85 -10) (end 2.85 -9.25) (layer F.Fab) (width 0.01))
  (fp_line (start 3.15 -9.25) (end 3.15 -10) (layer F.Fab) (width 0.01))
  (fp_line (start 3.15 -10) (end 3.35 -10) (layer F.Fab) (width 0.01))
  (fp_line (start 3.35 -10) (end 3.35 -9.25) (layer F.Fab) (width 0.01))
  (fp_line (start 3.65 -9.25) (end 3.65 -10) (layer F.Fab) (width 0.01))
  (fp_line (start 3.65 -10) (end 3.85 -10) (layer F.Fab) (width 0.01))
  (fp_line (start 3.85 -10) (end 3.85 -9.25) (layer F.Fab) (width 0.01))
  (fp_line (start 4.15 -9.25) (end 4.15 -10) (layer F.Fab) (width 0.01))
  (fp_line (start 4.15 -10) (end 4.35 -10) (layer F.Fab) (width 0.01))
  (fp_line (start 4.35 -10) (end 4.35 -9.25) (layer F.Fab) (width 0.01))
  (fp_line (start 4.65 -9.25) (end 4.65 -10) (layer F.Fab) (width 0.01))
  (fp_line (start 4.65 -10) (end 4.85 -10) (layer F.Fab) (width 0.01))
  (fp_line (start 4.85 -10) (end 4.85 -9.25) (layer F.Fab) (width 0.01))
  (fp_line (start 5.15 -9.25) (end 5.15 -10) (layer F.Fab) (width 0.01))
  (fp_line (start 5.15 -10) (end 5.35 -10) (layer F.Fab) (width 0.01))
  (fp_line (start 5.35 -10) (end 5.35 -9.25) (layer F.Fab) (width 0.01))
  (fp_line (start 5.65 -9.25) (end 5.65 -10) (layer F.Fab) (width 0.01))
  (fp_line (start 5.65 -10) (end 5.85 -10) (layer F.Fab) (width 0.01))
  (fp_line (start 5.85 -10) (end 5.85 -9.25) (layer F.Fab) (width 0.01))
  (pad "" smd circle (at -6.75 -9.75) (size 1.27 1.27) (layers F.Cu F.Mask)
    (solder_mask_margin 0.0508)
    (zone_connect 2))
  (pad "" smd circle (at 6.75 9.75) (size 1.27 1.27) (layers F.Cu F.Mask)
    (solder_mask_margin 0.0508)
    (zone_connect 2))
  (pad 1 smd rect (at -5.75 9.75) (size 0.28 1.4) (layers F.Cu F.Mask F.Paste)
    (solder_mask_margin 0.1)
    (zone_connect 2))
  (pad 2 smd rect (at -5.25 9.75) (size 0.28 1.4) (layers F.Cu F.Mask F.Paste)
    (solder_mask_margin 0.1)
    (zone_connect 2))
  (pad 3 smd rect (at -4.75 9.75) (size 0.28 1.4) (layers F.Cu F.Mask F.Paste)
    (solder_mask_margin 0.1)
    (zone_connect 2))
  (pad 4 smd rect (at -4.25 9.75) (size 0.28 1.4) (layers F.Cu F.Mask F.Paste)
    (solder_mask_margin 0.1)
    (zone_connect 2))
  (pad 5 smd rect (at -3.75 9.75) (size 0.28 1.4) (layers F.Cu F.Mask F.Paste)
    (solder_mask_margin 0.1)
    (zone_connect 2))
  (pad 6 smd rect (at -3.25 9.75) (size 0.28 1.4) (layers F.Cu F.Mask F.Paste)
    (solder_mask_margin 0.1)
    (zone_connect 2))
  (pad 7 smd rect (at -2.75 9.75) (size 0.28 1.4) (layers F.Cu F.Mask F.Paste)
    (solder_mask_margin 0.1)
    (zone_connect 2))
  (pad 8 smd rect (at -2.25 9.75) (size 0.28 1.4) (layers F.Cu F.Mask F.Paste)
    (solder_mask_margin 0.1)
    (zone_connect 2))
  (pad 9 smd rect (at -1.75 9.75) (size 0.28 1.4) (layers F.Cu F.Mask F.Paste)
    (solder_mask_margin 0.1)
    (zone_connect 2))
  (pad 10 smd rect (at -1.25 9.75) (size 0.28 1.4) (layers F.Cu F.Mask F.Paste)
    (solder_mask_margin 0.1)
    (zone_connect 2))
  (pad 11 smd rect (at -0.75 9.75) (size 0.28 1.4) (layers F.Cu F.Mask F.Paste)
    (solder_mask_margin 0.1)
    (zone_connect 2))
  (pad 12 smd rect (at -0.25 9.75) (size 0.28 1.4) (layers F.Cu F.Mask F.Paste)
    (solder_mask_margin 0.1)
    (zone_connect 2))
  (pad 13 smd rect (at 0.25 9.75) (size 0.28 1.4) (layers F.Cu F.Mask F.Paste)
    (solder_mask_margin 0.1)
    (zone_connect 2))
  (pad 14 smd rect (at 0.75 9.75) (size 0.28 1.4) (layers F.Cu F.Mask F.Paste)
    (solder_mask_margin 0.1)
    (zone_connect 2))
  (pad 15 smd rect (at 1.25 9.75) (size 0.28 1.4) (layers F.Cu F.Mask F.Paste)
    (solder_mask_margin 0.1)
    (zone_connect 2))
  (pad 16 smd rect (at 1.75 9.75) (size 0.28 1.4) (layers F.Cu F.Mask F.Paste)
    (solder_mask_margin 0.1)
    (zone_connect 2))
  (pad 17 smd rect (at 2.25 9.75) (size 0.28 1.4) (layers F.Cu F.Mask F.Paste)
    (solder_mask_margin 0.1)
    (zone_connect 2))
  (pad 18 smd rect (at 2.75 9.75) (size 0.28 1.4) (layers F.Cu F.Mask F.Paste)
    (solder_mask_margin 0.1)
    (zone_connect 2))
  (pad 19 smd rect (at 3.25 9.75) (size 0.28 1.4) (layers F.Cu F.Mask F.Paste)
    (solder_mask_margin 0.1)
    (zone_connect 2))
  (pad 20 smd rect (at 3.75 9.75) (size 0.28 1.4) (layers F.Cu F.Mask F.Paste)
    (solder_mask_margin 0.1)
    (zone_connect 2))
  (pad 21 smd rect (at 4.25 9.75) (size 0.28 1.4) (layers F.Cu F.Mask F.Paste)
    (solder_mask_margin 0.1)
    (zone_connect 2))
  (pad 22 smd rect (at 4.75 9.75) (size 0.28 1.4) (layers F.Cu F.Mask F.Paste)
    (solder_mask_margin 0.1)
    (zone_connect 2))
  (pad 23 smd rect (at 5.25 9.75) (size 0.28 1.4) (layers F.Cu F.Mask F.Paste)
    (solder_mask_margin 0.1)
    (zone_connect 2))
  (pad 24 smd rect (at 5.75 9.75) (size 0.28 1.4) (layers F.Cu F.Mask F.Paste)
    (solder_mask_margin 0.1)
    (zone_connect 2))
  (pad 25 smd rect (at 5.75 -9.75) (size 0.28 1.4) (layers F.Cu F.Mask F.Paste)
    (solder_mask_margin 0.1)
    (zone_connect 2))
  (pad 26 smd rect (at 5.25 -9.75) (size 0.28 1.4) (layers F.Cu F.Mask F.Paste)
    (solder_mask_margin 0.1)
    (zone_connect 2))
  (pad 27 smd rect (at 4.75 -9.75) (size 0.28 1.4) (layers F.Cu F.Mask F.Paste)
    (solder_mask_margin 0.1)
    (zone_connect 2))
  (pad 28 smd rect (at 4.25 -9.75) (size 0.28 1.4) (layers F.Cu F.Mask F.Paste)
    (solder_mask_margin 0.1)
    (zone_connect 2))
  (pad 29 smd rect (at 3.75 -9.75) (size 0.28 1.4) (layers F.Cu F.Mask F.Paste)
    (solder_mask_margin 0.1)
    (zone_connect 2))
  (pad 30 smd rect (at 3.25 -9.75) (size 0.28 1.4) (layers F.Cu F.Mask F.Paste)
    (solder_mask_margin 0.1)
    (zone_connect 2))
  (pad 31 smd rect (at 2.75 -9.75) (size 0.28 1.4) (layers F.Cu F.Mask F.Paste)
    (solder_mask_margin 0.1)
    (zone_connect 2))
  (pad 32 smd rect (at 2.25 -9.75) (size 0.28 1.4) (layers F.Cu F.Mask F.Paste)
    (solder_mask_margin 0.1)
    (zone_connect 2))
  (pad 33 smd rect (at 1.75 -9.75) (size 0.28 1.4) (layers F.Cu F.Mask F.Paste)
    (solder_mask_margin 0.1)
    (zone_connect 2))
  (pad 34 smd rect (at 1.25 -9.75) (size 0.28 1.4) (layers F.Cu F.Mask F.Paste)
    (solder_mask_margin 0.1)
    (zone_connect 2))
  (pad 35 smd rect (at 0.75 -9.75) (size 0.28 1.4) (layers F.Cu F.Mask F.Paste)
    (solder_mask_margin 0.1)
    (zone_connect 2))
  (pad 36 smd rect (at 0.25 -9.75) (size 0.28 1.4) (layers F.Cu F.Mask F.Paste)
    (solder_mask_margin 0.1)
    (zone_connect 2))
  (pad 37 smd rect (at -0.25 -9.75) (size 0.28 1.4) (layers F.Cu F.Mask F.Paste)
    (solder_mask_margin 0.1)
    (zone_connect 2))
  (pad 38 smd rect (at -0.75 -9.75) (size 0.28 1.4) (layers F.Cu F.Mask F.Paste)
    (solder_mask_margin 0.1)
    (zone_connect 2))
  (pad 39 smd rect (at -1.25 -9.75) (size 0.28 1.4) (layers F.Cu F.Mask F.Paste)
    (solder_mask_margin 0.1)
    (zone_connect 2))
  (pad 40 smd rect (at -1.75 -9.75) (size 0.28 1.4) (layers F.Cu F.Mask F.Paste)
    (solder_mask_margin 0.1)
    (zone_connect 2))
  (pad 41 smd rect (at -2.25 -9.75) (size 0.28 1.4) (layers F.Cu F.Mask F.Paste)
    (solder_mask_margin 0.1)
    (zone_connect 2))
  (pad 42 smd rect (at -2.75 -9.75) (size 0.28 1.4) (layers F.Cu F.Mask F.Paste)
    (solder_mask_margin 0.1)
    (zone_connect 2))
  (pad 43 smd rect (at -3.25 -9.75) (size 0.28 1.4) (layers F.Cu F.Mask F.Paste)
    (solder_mask_margin 0.1)
    (zone_connect 2))
  (pad 44 smd rect (at -3.75 -9.75) (size 0.28 1.4) (layers F.Cu F.Mask F.Paste)
    (solder_mask_margin 0.1)
    (zone_connect 2))
  (pad 45 smd rect (at -4.25 -9.75) (size 0.28 1.4) (layers F.Cu F.Mask F.Paste)
    (solder_mask_margin 0.1)
    (zone_connect 2))
  (pad 46 smd rect (at -4.75 -9.75) (size 0.28 1.4) (layers F.Cu F.Mask F.Paste)
    (solder_mask_margin 0.1)
    (zone_connect 2))
  (pad 47 smd rect (at -5.25 -9.75) (size 0.28 1.4) (layers F.Cu F.Mask F.Paste)
    (solder_mask_margin 0.1)
    (zone_connect 2))
  (pad 48 smd rect (at -5.75 -9.75) (size 0.28 1.4) (layers F.Cu F.Mask F.Paste)
    (solder_mask_margin 0.1)
    (zone_connect 2))
)