(module TSQRO86I60W15A0 (layer F.Cu) (tedit 0)
  (fp_text reference REF** (at 0 0) (layer F.SilkS) hide
    (effects (font (size 1 1) (thickness 0.15)))
  )
  (fp_text value TSQRO86I60W15A0 (at 0 2) (layer F.Fab) hide
    (effects (font (size 1 1) (thickness 0.15)))
  )
  (fp_line (start -1.31064 1.31064) (end -1.31064 -1.31064) (layer F.CrtYd) (width 0.05))
  (fp_line (start -1.31064 -1.31064) (end 1.31064 -1.31064) (layer F.CrtYd) (width 0.05))
  (fp_line (start 1.31064 -1.31064) (end 1.31064 1.31064) (layer F.CrtYd) (width 0.05))
  (fp_line (start 1.31064 1.31064) (end -1.31064 1.31064) (layer F.CrtYd) (width 0.05))
  (pad ~ smd rect (at 0 0) (size 0.762 0.762) (layers F.Cu F.Mask F.Paste)
    (zone_connect 1))
)