(module WE-7427512 (layer F.Cu) (tedit 0)
  (attr smd)
  (fp_text reference REF** (at 0 0) (layer F.SilkS)
    (effects (font (size 1 1) (thickness 0.15)))
  )
  (fp_text value WE-7427512 (at 0 2) (layer F.Fab) hide
    (effects (font (size 1 1) (thickness 0.15)))
  )
  (fp_line (start -5.59 3.1496) (end -5.59 -3.1496) (layer Dwgs.User) (width 0.05))
  (fp_line (start -5.59 -3.1496) (end 5.59 -3.1496) (layer Dwgs.User) (width 0.05))
  (fp_line (start 5.59 -3.1496) (end 5.59 3.1496) (layer Dwgs.User) (width 0.05))
  (fp_line (start 5.59 3.1496) (end -5.59 3.1496) (layer Dwgs.User) (width 0.05))
  (fp_line (start 5.5 -2.6) (end -5.5 -2.6) (layer F.SilkS) (width 0.18))
  (fp_line (start -5.5 -2.6) (end -5.5 2.6) (layer F.SilkS) (width 0.18))
  (fp_line (start -5.5 2.6) (end 5.5 2.6) (layer F.SilkS) (width 0.18))
  (fp_line (start 5.5 2.6) (end 5.5 -2.6) (layer F.SilkS) (width 0.18))
  (fp_line (start 5.5 -3.1) (end 5.5 3.1) (layer F.CrtYd) (width 0.02))
  (fp_line (start 5.5 3.1) (end -5.5 3.1) (layer F.CrtYd) (width 0.02))
  (fp_line (start -5.5 3.1) (end -5.5 -3.1) (layer F.CrtYd) (width 0.02))
  (fp_line (start -5.5 -3.1) (end 5.5 -3.1) (layer F.CrtYd) (width 0.02))
  (fp_line (start 4.5 -2.6) (end -4.5 -2.6) (layer F.Fab) (width 0.1))
  (fp_line (start -4.5 -2.6) (end -4.5 2.6) (layer F.Fab) (width 0.1))
  (fp_line (start -4.5 2.6) (end 4.5 2.6) (layer F.Fab) (width 0.1))
  (fp_line (start 4.5 2.6) (end 4.5 -2.6) (layer F.Fab) (width 0.1))
  (fp_line (start 5.5 -2.6) (end -5.5 -2.6) (layer F.Fab) (width 0.1))
  (fp_line (start -5.5 -2.6) (end -5.5 2.6) (layer F.Fab) (width 0.1))
  (fp_line (start -5.5 2.6) (end 5.5 2.6) (layer F.Fab) (width 0.1))
  (fp_line (start 5.5 2.6) (end 5.5 -2.6) (layer F.Fab) (width 0.1))
  (pad 1 smd rect (at -3.25 0) (size 3.302 6.096) (layers F.Cu F.Mask F.Paste)
    (solder_mask_margin 0.1016)
    (zone_connect 2))
  (pad 2 smd rect (at 3.25 0) (size 3.302 6.096) (layers F.Cu F.Mask F.Paste)
    (solder_mask_margin 0.1016)
    (zone_connect 2))
  (model "${KIPRJMOD}/../Library/Footprints.3dshapes/7427512 (rev1).stp"
    (offset (xyz 0 0 2.5))
    (scale (xyz 1 1 1))
    (rotate (xyz 180 0 0))
  )
)