EESchema Schematic File Version 4
EELAYER 30 0
EELAYER END
$Descr A4 11693 8268
encoding utf-8
Sheet 1 6
Title ""
Date ""
Rev ""
Comp ""
Comment1 ""
Comment2 ""
Comment3 ""
Comment4 ""
$EndDescr
$Sheet
S 4450 4600 2000 900 
U 5ED522A8
F0 "Power_supply" 50
F1 "Power_supply.sch" 50
F2 "LCD_BW_ADJ" I R 6450 4800 50 
F3 "LCD_BW_CTRL" I R 6450 4900 50 
F4 "TFT_LED_K" O R 6450 5000 50 
F5 "TFT_LED_EN" I R 6450 4700 50 
F6 "TFT_LED_A" O R 6450 5100 50 
F7 "LCD_BW_VEE" O R 6450 5200 50 
$EndSheet
$Sheet
S 4450 5800 2000 600 
U 5EFAC80F
F0 "FPGA_POWER_MISC" 50
F1 "FPGA_POWER_MISC.sch" 50
$EndSheet
Wire Wire Line
	4450 1600 3350 1600
Wire Wire Line
	4450 1700 3350 1700
Wire Wire Line
	4450 1800 3350 1800
Wire Wire Line
	4450 1900 3350 1900
Wire Wire Line
	4450 2050 3350 2050
Wire Wire Line
	4450 2150 3350 2150
Wire Wire Line
	4450 2250 3350 2250
Wire Wire Line
	4450 2350 3350 2350
Wire Wire Line
	3350 2650 4450 2650
Wire Wire Line
	3350 2750 4450 2750
Wire Wire Line
	3350 3000 4450 3000
Wire Wire Line
	4450 3100 3350 3100
Wire Wire Line
	3350 3200 4450 3200
Wire Wire Line
	4450 3300 3350 3300
Wire Wire Line
	6450 4800 6750 4800
Wire Wire Line
	6750 4800 6750 3650
Wire Wire Line
	6450 4900 6850 4900
Wire Wire Line
	6850 4900 6850 3550
Wire Wire Line
	6450 5000 6950 5000
Wire Wire Line
	6450 4700 6650 4700
Wire Wire Line
	6650 4700 6650 3750
Wire Wire Line
	7050 5100 6450 5100
Wire Wire Line
	6450 5200 7150 5200
Wire Bus Line
	6450 1600 7550 1600
Wire Bus Line
	7550 1700 6450 1700
Wire Bus Line
	6450 1800 7550 1800
Wire Wire Line
	6950 5000 6950 3600
Wire Wire Line
	7050 5100 7050 3500
Wire Wire Line
	7150 5200 7150 3700
Wire Wire Line
	6450 3750 6650 3750
Wire Wire Line
	6450 3650 6750 3650
Wire Wire Line
	6450 3550 6850 3550
Wire Wire Line
	7550 3700 7150 3700
Wire Wire Line
	7550 3600 6950 3600
Wire Wire Line
	7550 3500 7050 3500
$Sheet
S 7550 1550 1200 2250
U 5ED536BF
F0 "LCD_Connectors" 50
F1 "LCD_Connectors.sch" 50
F2 "TFT_LED_A" I L 7550 3500 50 
F3 "TFT_LED_K" I L 7550 3600 50 
F4 "LCD_BW_VEE" I L 7550 3700 50 
F5 "LCD_B[0..5]" I L 7550 1800 50 
F6 "LCD_G[0..5]" I L 7550 1700 50 
F7 "LCD_R[0..5]" I L 7550 1600 50 
F8 "LCD_VSYNC" I L 7550 1900 50 
F9 "LCD_CLK" I L 7550 2000 50 
F10 "LCD_DE" I L 7550 2100 50 
F11 "LCD_HSYNC" I L 7550 2200 50 
F12 "LCD_ADJ" I L 7550 2300 50 
F13 "LCD_L_R" I L 7550 2400 50 
F14 "LCD_U_D" I L 7550 2500 50 
F15 "LCD_MODE" I L 7550 2600 50 
F16 "~FPGA_LCD_BW_BACKLIGHT~" I L 7550 2700 50 
F17 "~FPGA_DOFF~" I L 7550 2800 50 
F18 "FPGA_LCD_BW_CL2" I L 7550 2900 50 
F19 "FPGA_LCD_BW_CL1" I L 7550 3000 50 
F20 "FPGA_LCD_BW_FLM" I L 7550 3100 50 
F21 "FPGA_LCD_BW_D[0..3]" I L 7550 3200 50 
$EndSheet
Wire Wire Line
	6450 1900 7550 1900
Wire Wire Line
	7550 2000 6450 2000
Wire Wire Line
	6450 2100 7550 2100
Wire Wire Line
	7550 2200 6450 2200
Wire Wire Line
	6450 2300 7550 2300
Wire Wire Line
	7550 2400 6450 2400
Wire Wire Line
	6450 2500 7550 2500
Wire Wire Line
	7550 2600 6450 2600
Wire Wire Line
	6450 2700 7550 2700
Wire Wire Line
	6450 3100 7550 3100
Wire Wire Line
	7550 3000 6450 3000
Wire Wire Line
	6450 2800 7550 2800
Wire Wire Line
	6450 2900 7550 2900
Wire Bus Line
	6450 3200 7550 3200
Wire Wire Line
	3350 2450 4450 2450
Wire Wire Line
	3350 2550 4450 2550
$Sheet
S 4450 1550 2000 2300
U 5EE86286
F0 "FPGA_Banks" 50
F1 "FPGA_Banks.sch" 50
F2 "A0_FPGA" I L 4450 1600 50 
F3 "A1_FPGA" I L 4450 1700 50 
F4 "A2_FPGA" I L 4450 1800 50 
F5 "A3_FPGA" I L 4450 1900 50 
F6 "D0_FPGA" I L 4450 2050 50 
F7 "D1_FPGA" I L 4450 2150 50 
F8 "D2_FPGA" I L 4450 2250 50 
F9 "D3_FPGA" I L 4450 2350 50 
F10 "RD_FPGA" I L 4450 3000 50 
F11 "WR_FPGA" I L 4450 3100 50 
F12 "CS_FPGA" I L 4450 3200 50 
F13 "BUSY-AFF_FPGA" O L 4450 3300 50 
F14 "D4_FPGA" I L 4450 2450 50 
F15 "D5_FPGA" I L 4450 2550 50 
F16 "D6_FPGA" I L 4450 2650 50 
F17 "D7_FPGA" I L 4450 2750 50 
F18 "LCD_BW_ADJ" O R 6450 3650 50 
F19 "LCD_BW_CTRL" O R 6450 3550 50 
F20 "TFT_LED_EN" O R 6450 3750 50 
F21 "LCD_B[0..5]" O R 6450 1800 50 
F22 "LCD_G[0..5]" O R 6450 1700 50 
F23 "LCD_R[0..5]" O R 6450 1600 50 
F24 "LCD_VSYNC" O R 6450 1900 50 
F25 "LCD_CLK" O R 6450 2000 50 
F26 "LCD_DE" O R 6450 2100 50 
F27 "LCD_HSYNC" O R 6450 2200 50 
F28 "LCD_ADJ" O R 6450 2300 50 
F29 "LCD_L_R" O R 6450 2400 50 
F30 "LCD_U_D" O R 6450 2500 50 
F31 "LCD_MODE" O R 6450 2600 50 
F32 "~FPGA_LCD_BW_BACKLIGHT~" O R 6450 2700 50 
F33 "~FPGA_DOFF~" O R 6450 2800 50 
F34 "FPGA_LCD_BW_CL2" O R 6450 2900 50 
F35 "FPGA_LCD_BW_CL1" O R 6450 3000 50 
F36 "FPGA_LCD_BW_FLM" O R 6450 3100 50 
F37 "FPGA_LCD_BW_D[0..3]" O R 6450 3200 50 
F38 "~1OE_FPGA~" O L 4450 3400 50 
F39 "DIR_FPGA" O L 4450 3500 50 
$EndSheet
$Sheet
S 1350 1550 2000 2050
U 5F5CDB34
F0 "Input_buffers" 50
F1 "Input_buffers.sch" 50
F2 "A0_FPGA" O R 3350 1600 50 
F3 "A1_FPGA" O R 3350 1700 50 
F4 "A2_FPGA" O R 3350 1800 50 
F5 "A3_FPGA" O R 3350 1900 50 
F6 "D0_FPGA" O R 3350 2050 50 
F7 "D1_FPGA" O R 3350 2150 50 
F8 "D2_FPGA" O R 3350 2250 50 
F9 "D3_FPGA" O R 3350 2350 50 
F10 "RD_FPGA" O R 3350 3000 50 
F11 "WR_FPGA" O R 3350 3100 50 
F12 "CS_FPGA" O R 3350 3200 50 
F13 "BUSY-AFF_FPGA" I R 3350 3300 50 
F14 "D4_FPGA" O R 3350 2450 50 
F15 "D5_FPGA" O R 3350 2550 50 
F16 "D6_FPGA" O R 3350 2650 50 
F17 "D7_FPGA" O R 3350 2750 50 
F18 "~1OE_FPGA~" O R 3350 3400 50 
F19 "DIR_FPGA" O R 3350 3500 50 
$EndSheet
Wire Wire Line
	3350 3400 4450 3400
Wire Wire Line
	3350 3500 4450 3500
$Comp
L Mechanical:PLATED_HOLE3.5_PAD6.5-Pads B13
U 1 1 5EF99061
P 1550 5650
F 0 "B13" H 1540 5755 50  0000 C CNN
F 1 "PLATED_HOLE3.5_PAD6.5" H 1550 5495 50  0001 L CNN
F 2 "Pads:MTG350_650" H 1550 5420 50  0001 L CNN
F 3 " " H 1550 5345 50  0001 L CNN
F 4 "Plated Hole" H 1550 4520 50  0001 L CNN "Family"
F 5 "PLATED_HOLE3.5_PAD6.5" H 1550 5270 50  0001 L CNN "Part Number"
F 6 "Single Terminal Socket" H 1550 5195 50  0001 L CNN "Library Ref"
F 7 "SchLib\\Pads.SchLib" H 1550 5120 50  0001 L CNN "Library Path"
F 8 " " H 1550 5045 50  0001 L CNN "Comment"
F 9 "Standard (No BOM)" H 1550 4970 50  0001 L CNN "Component Kind"
F 10 "Standard (No BOM)" H 1550 4895 50  0001 L CNN "Component Type"
F 11 "1" H 1550 4820 50  0001 L CNN "Pin Count"
F 12 " " H 1550 4745 50  0001 L CNN "Case"
F 13 "PcbLib\\Pads.PcbLib" H 1550 4670 50  0001 L CNN "Footprint Path"
F 14 "MTG350_650" H 1550 4595 50  0001 L CNN "Footprint Ref"
F 15 "No" H 1550 4445 50  0001 L CNN "Mounted"
F 16 "No" H 1550 4370 50  0001 L CNN "Socket"
F 17 "No" H 1550 4295 50  0001 L CNN "SMD"
F 18 "No" H 1550 4220 50  0001 L CNN "Sense"
F 19 " " H 1550 4145 50  0001 L CNN "Sense Comment"
F 20 "None" H 1550 4070 50  0001 L CNN "Status"
F 21 " " H 1550 3995 50  0001 L CNN "Status Comment"
F 22 " " H 1550 3920 50  0001 L CNN "SCEM"
F 23 "Plated Through Hole: Hole Dia.=3.5mm Pad Dia.=6.5mm" H 1550 3845 50  0001 L CNN "Part Description"
F 24 " " H 1550 3770 50  0001 L CNN "Manufacturer"
F 25 " " H 1550 3695 50  0001 L CNN "Manufacturer Part Number"
F 26 "0mm" H 1550 3620 50  0001 L CNN "ComponentHeight"
F 27 " " H 1550 3545 50  0001 L CNN "Manufacturer1 Example"
F 28 " " H 1550 3470 50  0001 L CNN "Manufacturer1 Part Number"
F 29 " " H 1550 3395 50  0001 L CNN "Manufacturer1 ComponentHeight"
F 30 " " H 1550 3320 50  0001 L CNN "ComponentLink1Description"
F 31 " " H 1550 3245 50  0001 L CNN "ComponentLink2Description"
F 32 "CERN DEM JLC" H 1550 3170 50  0001 L CNN "Author"
F 33 "11/20/08 00:00:00" H 1550 3095 50  0001 L CNN "CreateDate"
F 34 "11/23/11 00:00:00" H 1550 3020 50  0001 L CNN "LatestRevisionDate"
F 35 "Plated Through Hole: Hole Dia.=3.5mm Pad Dia.=6.5mm" H 1550 2945 50  0001 L CNN "PackageDescription"
F 36 "Eletro-mechanical" H 1550 2870 50  0001 L CNN "Database Table Name"
F 37 "Pads" H 1550 2795 50  0001 L CNN "Library Name"
F 38 "Pads" H 1550 2720 50  0001 L CNN "Footprint Library"
F 39 "This work is licensed under the Creative Commons CC-BY-SA 4.0 License. To the extent that circuit schematics that use Licensed Material can be considered to be ‘Adapted Material’, then the copyright holder waives article 3.b of the license with respect to these schematics." H 1550 2645 50  0001 L CNN "License"
	1    1550 5650
	1    0    0    -1  
$EndComp
$Comp
L Mechanical:PLATED_HOLE3.5_PAD6.5-Pads B14
U 1 1 5EF99294
P 1550 5850
F 0 "B14" H 1540 5955 50  0000 C CNN
F 1 "PLATED_HOLE3.5_PAD6.5" H 1550 5695 50  0001 L CNN
F 2 "Pads:MTG350_650" H 1550 5620 50  0001 L CNN
F 3 " " H 1550 5545 50  0001 L CNN
F 4 "Plated Hole" H 1550 4720 50  0001 L CNN "Family"
F 5 "PLATED_HOLE3.5_PAD6.5" H 1550 5470 50  0001 L CNN "Part Number"
F 6 "Single Terminal Socket" H 1550 5395 50  0001 L CNN "Library Ref"
F 7 "SchLib\\Pads.SchLib" H 1550 5320 50  0001 L CNN "Library Path"
F 8 " " H 1550 5245 50  0001 L CNN "Comment"
F 9 "Standard (No BOM)" H 1550 5170 50  0001 L CNN "Component Kind"
F 10 "Standard (No BOM)" H 1550 5095 50  0001 L CNN "Component Type"
F 11 "1" H 1550 5020 50  0001 L CNN "Pin Count"
F 12 " " H 1550 4945 50  0001 L CNN "Case"
F 13 "PcbLib\\Pads.PcbLib" H 1550 4870 50  0001 L CNN "Footprint Path"
F 14 "MTG350_650" H 1550 4795 50  0001 L CNN "Footprint Ref"
F 15 "No" H 1550 4645 50  0001 L CNN "Mounted"
F 16 "No" H 1550 4570 50  0001 L CNN "Socket"
F 17 "No" H 1550 4495 50  0001 L CNN "SMD"
F 18 "No" H 1550 4420 50  0001 L CNN "Sense"
F 19 " " H 1550 4345 50  0001 L CNN "Sense Comment"
F 20 "None" H 1550 4270 50  0001 L CNN "Status"
F 21 " " H 1550 4195 50  0001 L CNN "Status Comment"
F 22 " " H 1550 4120 50  0001 L CNN "SCEM"
F 23 "Plated Through Hole: Hole Dia.=3.5mm Pad Dia.=6.5mm" H 1550 4045 50  0001 L CNN "Part Description"
F 24 " " H 1550 3970 50  0001 L CNN "Manufacturer"
F 25 " " H 1550 3895 50  0001 L CNN "Manufacturer Part Number"
F 26 "0mm" H 1550 3820 50  0001 L CNN "ComponentHeight"
F 27 " " H 1550 3745 50  0001 L CNN "Manufacturer1 Example"
F 28 " " H 1550 3670 50  0001 L CNN "Manufacturer1 Part Number"
F 29 " " H 1550 3595 50  0001 L CNN "Manufacturer1 ComponentHeight"
F 30 " " H 1550 3520 50  0001 L CNN "ComponentLink1Description"
F 31 " " H 1550 3445 50  0001 L CNN "ComponentLink2Description"
F 32 "CERN DEM JLC" H 1550 3370 50  0001 L CNN "Author"
F 33 "11/20/08 00:00:00" H 1550 3295 50  0001 L CNN "CreateDate"
F 34 "11/23/11 00:00:00" H 1550 3220 50  0001 L CNN "LatestRevisionDate"
F 35 "Plated Through Hole: Hole Dia.=3.5mm Pad Dia.=6.5mm" H 1550 3145 50  0001 L CNN "PackageDescription"
F 36 "Eletro-mechanical" H 1550 3070 50  0001 L CNN "Database Table Name"
F 37 "Pads" H 1550 2995 50  0001 L CNN "Library Name"
F 38 "Pads" H 1550 2920 50  0001 L CNN "Footprint Library"
F 39 "This work is licensed under the Creative Commons CC-BY-SA 4.0 License. To the extent that circuit schematics that use Licensed Material can be considered to be ‘Adapted Material’, then the copyright holder waives article 3.b of the license with respect to these schematics." H 1550 2845 50  0001 L CNN "License"
	1    1550 5850
	1    0    0    -1  
$EndComp
$Comp
L Mechanical:PLATED_HOLE3.5_PAD6.5-Pads B15
U 1 1 5EF9974B
P 1550 6050
F 0 "B15" H 1540 6155 50  0000 C CNN
F 1 "PLATED_HOLE3.5_PAD6.5" H 1550 5895 50  0001 L CNN
F 2 "Pads:MTG350_650" H 1550 5820 50  0001 L CNN
F 3 " " H 1550 5745 50  0001 L CNN
F 4 "Plated Hole" H 1550 4920 50  0001 L CNN "Family"
F 5 "PLATED_HOLE3.5_PAD6.5" H 1550 5670 50  0001 L CNN "Part Number"
F 6 "Single Terminal Socket" H 1550 5595 50  0001 L CNN "Library Ref"
F 7 "SchLib\\Pads.SchLib" H 1550 5520 50  0001 L CNN "Library Path"
F 8 " " H 1550 5445 50  0001 L CNN "Comment"
F 9 "Standard (No BOM)" H 1550 5370 50  0001 L CNN "Component Kind"
F 10 "Standard (No BOM)" H 1550 5295 50  0001 L CNN "Component Type"
F 11 "1" H 1550 5220 50  0001 L CNN "Pin Count"
F 12 " " H 1550 5145 50  0001 L CNN "Case"
F 13 "PcbLib\\Pads.PcbLib" H 1550 5070 50  0001 L CNN "Footprint Path"
F 14 "MTG350_650" H 1550 4995 50  0001 L CNN "Footprint Ref"
F 15 "No" H 1550 4845 50  0001 L CNN "Mounted"
F 16 "No" H 1550 4770 50  0001 L CNN "Socket"
F 17 "No" H 1550 4695 50  0001 L CNN "SMD"
F 18 "No" H 1550 4620 50  0001 L CNN "Sense"
F 19 " " H 1550 4545 50  0001 L CNN "Sense Comment"
F 20 "None" H 1550 4470 50  0001 L CNN "Status"
F 21 " " H 1550 4395 50  0001 L CNN "Status Comment"
F 22 " " H 1550 4320 50  0001 L CNN "SCEM"
F 23 "Plated Through Hole: Hole Dia.=3.5mm Pad Dia.=6.5mm" H 1550 4245 50  0001 L CNN "Part Description"
F 24 " " H 1550 4170 50  0001 L CNN "Manufacturer"
F 25 " " H 1550 4095 50  0001 L CNN "Manufacturer Part Number"
F 26 "0mm" H 1550 4020 50  0001 L CNN "ComponentHeight"
F 27 " " H 1550 3945 50  0001 L CNN "Manufacturer1 Example"
F 28 " " H 1550 3870 50  0001 L CNN "Manufacturer1 Part Number"
F 29 " " H 1550 3795 50  0001 L CNN "Manufacturer1 ComponentHeight"
F 30 " " H 1550 3720 50  0001 L CNN "ComponentLink1Description"
F 31 " " H 1550 3645 50  0001 L CNN "ComponentLink2Description"
F 32 "CERN DEM JLC" H 1550 3570 50  0001 L CNN "Author"
F 33 "11/20/08 00:00:00" H 1550 3495 50  0001 L CNN "CreateDate"
F 34 "11/23/11 00:00:00" H 1550 3420 50  0001 L CNN "LatestRevisionDate"
F 35 "Plated Through Hole: Hole Dia.=3.5mm Pad Dia.=6.5mm" H 1550 3345 50  0001 L CNN "PackageDescription"
F 36 "Eletro-mechanical" H 1550 3270 50  0001 L CNN "Database Table Name"
F 37 "Pads" H 1550 3195 50  0001 L CNN "Library Name"
F 38 "Pads" H 1550 3120 50  0001 L CNN "Footprint Library"
F 39 "This work is licensed under the Creative Commons CC-BY-SA 4.0 License. To the extent that circuit schematics that use Licensed Material can be considered to be ‘Adapted Material’, then the copyright holder waives article 3.b of the license with respect to these schematics." H 1550 3045 50  0001 L CNN "License"
	1    1550 6050
	1    0    0    -1  
$EndComp
$Comp
L Mechanical:PLATED_HOLE3.5_PAD6.5-Pads B16
U 1 1 5EF9A075
P 1550 6250
F 0 "B16" H 1540 6355 50  0000 C CNN
F 1 "PLATED_HOLE3.5_PAD6.5" H 1550 6095 50  0001 L CNN
F 2 "Pads:MTG350_650" H 1550 6020 50  0001 L CNN
F 3 " " H 1550 5945 50  0001 L CNN
F 4 "Plated Hole" H 1550 5120 50  0001 L CNN "Family"
F 5 "PLATED_HOLE3.5_PAD6.5" H 1550 5870 50  0001 L CNN "Part Number"
F 6 "Single Terminal Socket" H 1550 5795 50  0001 L CNN "Library Ref"
F 7 "SchLib\\Pads.SchLib" H 1550 5720 50  0001 L CNN "Library Path"
F 8 " " H 1550 5645 50  0001 L CNN "Comment"
F 9 "Standard (No BOM)" H 1550 5570 50  0001 L CNN "Component Kind"
F 10 "Standard (No BOM)" H 1550 5495 50  0001 L CNN "Component Type"
F 11 "1" H 1550 5420 50  0001 L CNN "Pin Count"
F 12 " " H 1550 5345 50  0001 L CNN "Case"
F 13 "PcbLib\\Pads.PcbLib" H 1550 5270 50  0001 L CNN "Footprint Path"
F 14 "MTG350_650" H 1550 5195 50  0001 L CNN "Footprint Ref"
F 15 "No" H 1550 5045 50  0001 L CNN "Mounted"
F 16 "No" H 1550 4970 50  0001 L CNN "Socket"
F 17 "No" H 1550 4895 50  0001 L CNN "SMD"
F 18 "No" H 1550 4820 50  0001 L CNN "Sense"
F 19 " " H 1550 4745 50  0001 L CNN "Sense Comment"
F 20 "None" H 1550 4670 50  0001 L CNN "Status"
F 21 " " H 1550 4595 50  0001 L CNN "Status Comment"
F 22 " " H 1550 4520 50  0001 L CNN "SCEM"
F 23 "Plated Through Hole: Hole Dia.=3.5mm Pad Dia.=6.5mm" H 1550 4445 50  0001 L CNN "Part Description"
F 24 " " H 1550 4370 50  0001 L CNN "Manufacturer"
F 25 " " H 1550 4295 50  0001 L CNN "Manufacturer Part Number"
F 26 "0mm" H 1550 4220 50  0001 L CNN "ComponentHeight"
F 27 " " H 1550 4145 50  0001 L CNN "Manufacturer1 Example"
F 28 " " H 1550 4070 50  0001 L CNN "Manufacturer1 Part Number"
F 29 " " H 1550 3995 50  0001 L CNN "Manufacturer1 ComponentHeight"
F 30 " " H 1550 3920 50  0001 L CNN "ComponentLink1Description"
F 31 " " H 1550 3845 50  0001 L CNN "ComponentLink2Description"
F 32 "CERN DEM JLC" H 1550 3770 50  0001 L CNN "Author"
F 33 "11/20/08 00:00:00" H 1550 3695 50  0001 L CNN "CreateDate"
F 34 "11/23/11 00:00:00" H 1550 3620 50  0001 L CNN "LatestRevisionDate"
F 35 "Plated Through Hole: Hole Dia.=3.5mm Pad Dia.=6.5mm" H 1550 3545 50  0001 L CNN "PackageDescription"
F 36 "Eletro-mechanical" H 1550 3470 50  0001 L CNN "Database Table Name"
F 37 "Pads" H 1550 3395 50  0001 L CNN "Library Name"
F 38 "Pads" H 1550 3320 50  0001 L CNN "Footprint Library"
F 39 "This work is licensed under the Creative Commons CC-BY-SA 4.0 License. To the extent that circuit schematics that use Licensed Material can be considered to be ‘Adapted Material’, then the copyright holder waives article 3.b of the license with respect to these schematics." H 1550 3245 50  0001 L CNN "License"
	1    1550 6250
	1    0    0    -1  
$EndComp
$EndSCHEMATC
