EESchema Schematic File Version 4
EELAYER 30 0
EELAYER END
$Descr A4 11693 8268
encoding utf-8
Sheet 1 1
Title "BMS Board"
Date "2020-05-10"
Rev "1.0"
Comp "KiCad OpenVentilator Group"
Comment1 "G.Kasprowicz"
Comment2 ""
Comment3 ""
Comment4 ""
$EndDescr
$Comp
L V_Transistor:Q_PMOS_GSD_10022157 Q2
U 1 1 5ECDA609
P 3650 2200
F 0 "Q2" V 3975 2300 50  0000 C CNN
F 1 "BSS84LT1G" V 3900 2300 50  0000 C CNN
F 2 "PB560_BMS:SOT95P240X110-3N" H 3650 1830 50  0001 L CNN
F 3 " " H 3650 1755 50  0001 L CNN
F 4 "NXP SEMICONDUCTORS_RMS1" H 3650 930 50  0001 L CNN "Manufacturer"
F 5 "TRANSISTOR, P CHANNEL, 50V, 0.13A, 5 OHM, SOT23" H 0   0   50  0001 C CNN "Description"
F 6 "10022157" H 0   0   50  0001 C CNN "Item Number"
F 7 "ON SEMICONDUCTOR_RMS1" H 0   0   50  0001 C CNN "Manufacturer2"
F 8 "NXP SEMICONDUCTORS_RMS1" H 0   0   50  0001 C CNN "Manufacturer3"
F 9 "BSS84" H 0   0   50  0001 C CNN "Manufacturer_No"
F 10 "BSS84LT1G" H 0   0   50  0001 C CNN "Manufacturer_No2"
F 11 "BSS84,215" H 0   0   50  0001 C CNN "Manufacturer_No3"
	1    3650 2200
	0    -1   -1   0   
$EndComp
$Comp
L V_Diode:BZX384-B18 D3
U 1 1 5ECE21C0
P 3950 2250
F 0 "D3" V 3925 2175 50  0000 R CNN
F 1 "BZX384-B18" V 4000 1675 50  0000 L CNN
F 2 "PB560_BMS:SOD2512X110N" H 3950 1950 50  0001 L CNN
F 3 "" H 3950 1875 50  0001 L CNN
F 4 "Small Outline Diode (SOD-323), 1.70mm W X 1.25mm L X 1.10mm H body,  IPC Medium Density" H 3950 1275 50  0001 L CNN "PackageDescription"
F 5 "NEXPERIA" H 3950 900 50  0001 L CNN "Manufacturer"
F 6 "DIODE SOD323 ZENER 2% 18V 0.2W BZX384-B18" H 0   0   50  0001 C CNN "Description"
F 7 "1050-10025" H 0   0   50  0001 C CNN "Item Number"
F 8 "BZX384-B18" H 0   0   50  0001 C CNN "Manufacturer_No"
	1    3950 2250
	0    -1   -1   0   
$EndComp
$Comp
L V_Resistor:R0603_1M_1% R5
U 1 1 5ECE4F35
P 3800 1450
F 0 "R5" H 3875 1500 50  0000 L CNN
F 1 "R0603_1M_1%_0.1W_100PPM" H 3800 1255 50  0001 L CNN
F 2 "Resistors SMD:RESC1608X55N" H 3800 1180 50  0001 L CNN
F 3 "" H 3800 1105 50  0001 L CNN
F 4 "YAGEO_RMS1" H 3800 -170 50  0001 L CNN "Manufacturer"
F 5 "RESISTOR,1M OHM,0.063W,+/-1%,0603" H 0   0   50  0001 C CNN "Description"
F 6 "10022736" H 0   0   50  0001 C CNN "Item Number"
F 7 "YAGEO_RMS1" H 0   0   50  0001 C CNN "Manufacturer2"
F 8 "VISHAY_RMS1" H 0   0   50  0001 C CNN "Manufacturer3"
F 9 "RC0603FR-071ML" H 0   0   50  0001 C CNN "Manufacturer_No"
F 10 "RC0603FR-071ML" H 0   0   50  0001 C CNN "Manufacturer_No2"
F 11 "CRCW06031M00FKEA" H 0   0   50  0001 C CNN "Manufacturer_No3"
F 12 "RC0603FR-071ML" H 0   0   50  0001 C CNN "Manufacturer_No4"
F 13 "1M" H 3875 1425 50  0000 L CNN "DisplayVal"
	1    3800 1450
	1    0    0    -1  
$EndComp
$Comp
L V_Transistor:Si4425DDY-T1-GE3 Q3
U 1 1 5ECE99A6
P 5600 1350
F 0 "Q3" V 5900 1375 50  0000 C CNN
F 1 "Si4425DDY-T1-GE3" H 5600 505 50  0001 L CNN
F 2 "PB560_BMS:SOIC127P600X175-8N" H 5600 430 50  0001 L CNN
F 3 " " H 5600 355 50  0001 L CNN
F 4 "SOIC 8, Pitch 1.27mm - Body 4x5mm, IPC Medium Density, Height 1.75mm" H 5600 -245 50  0001 L CNN "PackageDescription"
F 5 "VISHAY SILICONIX" H 5600 -470 50  0001 L CNN "Manufacturer"
F 6 "MOSFET SO8 P-CHAN 13A 30V Si4425DDY" H 0   0   50  0001 C CNN "Description"
F 7 "1110-10066" H 0   0   50  0001 C CNN "Item Number"
F 8 "-30V -19.7A P-Channel MOSFET" H 0   0   50  0001 C CNN "Manufacturer_Desc"
F 9 "SI4425DDY-T1-GE3" H 0   0   50  0001 C CNN "Manufacturer_No"
	1    5600 1350
	0    -1   -1   0   
$EndComp
$Comp
L V_Transistor:Si4425DDY-T1-GE3 Q5
U 1 1 5ECED2EA
P 4500 1350
F 0 "Q5" V 4800 1400 50  0000 C CNN
F 1 "Si4425DDY-T1-GE3" H 4500 505 50  0001 L CNN
F 2 "PB560_BMS:SOIC127P600X175-8N" H 4500 430 50  0001 L CNN
F 3 " " H 4500 355 50  0001 L CNN
F 4 "SOIC 8, Pitch 1.27mm - Body 4x5mm, IPC Medium Density, Height 1.75mm" H 4500 -245 50  0001 L CNN "PackageDescription"
F 5 "VISHAY SILICONIX" H 4500 -470 50  0001 L CNN "Manufacturer"
F 6 "MOSFET SO8 P-CHAN 13A 30V Si4425DDY" H 0   0   50  0001 C CNN "Description"
F 7 "1110-10066" H 0   0   50  0001 C CNN "Item Number"
F 8 "-30V -19.7A P-Channel MOSFET" H 0   0   50  0001 C CNN "Manufacturer_Desc"
F 9 "SI4425DDY-T1-GE3" H 0   0   50  0001 C CNN "Manufacturer_No"
	1    4500 1350
	0    1    -1   0   
$EndComp
$Comp
L V_Capacitor:C0603_100nF_50V_10% C8
U 1 1 5ECF4592
P 4550 850
F 0 "C8" V 4825 850 50  0000 C CNN
F 1 "CC0603_100NF_50V_10%_X7R" H 4550 605 50  0001 L CNN
F 2 "Capacitors SMD:CAPC1608X87N" H 4550 530 50  0001 L CNN
F 3 "" H 4550 455 50  0001 L CNN
F 4 "KEMET_RMS1" H 4550 -820 50  0001 L CNN "Manufacturer"
F 5 "CAPACITOR CERAMIC 100NF 50V 10% X7R 0603" H 0   0   50  0001 C CNN "Description"
F 6 "10021386" H 0   0   50  0001 C CNN "Item Number"
F 7 "C0603C104K5RACTU" H 0   0   50  0001 C CNN "Manufacturer_No"
F 8 "100nF" V 4725 850 50  0000 C CNN "DisplayVal"
	1    4550 850 
	0    -1   -1   0   
$EndComp
$Comp
L V_Capacitor:C0603_100nF_50V_10% C4
U 1 1 5ECF5803
P 5550 850
F 0 "C4" V 5825 850 50  0000 C CNN
F 1 "CC0603_100NF_50V_10%_X7R" H 5550 605 50  0001 L CNN
F 2 "Capacitors SMD:CAPC1608X87N" H 5550 530 50  0001 L CNN
F 3 "" H 5550 455 50  0001 L CNN
F 4 "KEMET_RMS1" H 5550 -820 50  0001 L CNN "Manufacturer"
F 5 "CAPACITOR CERAMIC 100NF 50V 10% X7R 0603" H 0   0   50  0001 C CNN "Description"
F 6 "10021386" H 0   0   50  0001 C CNN "Item Number"
F 7 "C0603C104K5RACTU" H 0   0   50  0001 C CNN "Manufacturer_No"
F 8 "100nF" V 5725 850 50  0000 C CNN "DisplayVal"
	1    5550 850 
	0    -1   -1   0   
$EndComp
$Comp
L V_Capacitor:C0603_100nF_50V_10% C22
U 1 1 5ECF6604
P 6900 1500
F 0 "C22" V 7150 1500 50  0000 C CNN
F 1 "CC0603_100NF_50V_10%_X7R" H 6900 1255 50  0001 L CNN
F 2 "Capacitors SMD:CAPC1608X87N" H 6900 1180 50  0001 L CNN
F 3 "" H 6900 1105 50  0001 L CNN
F 4 "KEMET_RMS1" H 6900 -170 50  0001 L CNN "Manufacturer"
F 5 "CAPACITOR CERAMIC 100NF 50V 10% X7R 0603" H 0   0   50  0001 C CNN "Description"
F 6 "10021386" H 0   0   50  0001 C CNN "Item Number"
F 7 "C0603C104K5RACTU" H 0   0   50  0001 C CNN "Manufacturer_No"
F 8 "100nF" V 7050 1500 50  0000 C CNN "DisplayVal"
	1    6900 1500
	0    -1   -1   0   
$EndComp
$Comp
L V_Capacitor:C0603_100nF_50V_10% C7
U 1 1 5ECF7791
P 5550 2800
F 0 "C7" H 5675 2850 50  0000 L CNN
F 1 "CC0603_100NF_50V_10%_X7R" H 5550 2555 50  0001 L CNN
F 2 "Capacitors SMD:CAPC1608X87N" H 5550 2480 50  0001 L CNN
F 3 "" H 5550 2405 50  0001 L CNN
F 4 "KEMET_RMS1" H 5550 1130 50  0001 L CNN "Manufacturer"
F 5 "CAPACITOR CERAMIC 100NF 50V 10% X7R 0603" H 0   0   50  0001 C CNN "Description"
F 6 "10021386" H 0   0   50  0001 C CNN "Item Number"
F 7 "C0603C104K5RACTU" H 0   0   50  0001 C CNN "Manufacturer_No"
F 8 "100nF" H 5675 2750 50  0000 L CNN "DisplayVal"
	1    5550 2800
	1    0    0    -1  
$EndComp
$Comp
L V_Resistor:R0603_5k6_1% R14
U 1 1 5ECF978D
P 4600 2650
F 0 "R14" H 4675 2700 50  0000 L CNN
F 1 "R0603_5K6_1%_0.1W_100PPM" H 4600 2455 50  0001 L CNN
F 2 "Resistors SMD:RESC1608X55N" H 4600 2380 50  0001 L CNN
F 3 "" H 4600 2305 50  0001 L CNN
F 4 "YAGEO_RMS1" H 4600 1030 50  0001 L CNN "Manufacturer"
F 5 "RESISTOR,5.6K OHM,0.063W,+/-1%,0603" H 4600 2650 50  0001 C CNN "Description"
F 6 "10022714" H 4600 2650 50  0001 C CNN "Item Number"
F 7 "YAGEO_RMS1" H 4600 2650 50  0001 C CNN "Manufacturer2"
F 8 "VISHAY_RMS1" H 4600 2650 50  0001 C CNN "Manufacturer3"
F 9 "RC0603FR-075K6L" H 4600 2650 50  0001 C CNN "Manufacturer_No"
F 10 "RC0603FR-075K6L" H 4600 2650 50  0001 C CNN "Manufacturer_No2"
F 11 "CRCW06035K60FKEA" H 4600 2650 50  0001 C CNN "Manufacturer_No3"
F 12 "5k6" H 4675 2625 50  0000 L CNN "DisplayVal"
	1    4600 2650
	1    0    0    -1  
$EndComp
$Comp
L V_Capacitor:C1206_1uF_50V_10% C20
U 1 1 5ECFB291
P 4200 2800
F 0 "C20" H 4300 2875 50  0000 L CNN
F 1 "CC1206_1UF_50V_10%_X7R" H 4200 2555 50  0001 L CNN
F 2 "PB560_BMS:CAPC3216X180N" H 4200 2480 50  0001 L CNN
F 3 "" H 4200 2405 50  0001 L CNN
F 4 "1206, Height=1.8mm" H 4200 1655 50  0001 L CNN "PackageDescription"
F 5 "Murata" H 4200 1130 50  0001 L CNN "Manufacturer"
F 6 "CAPACITOR, 1UF, +/-10%, 50V, X7R, 1206, MLCC" H 4200 2800 50  0001 C CNN "Description"
F 7 "1uF" H 4325 2775 50  0000 L CNN "DisplayVal"
F 8 "1030-10044" H 4200 2800 50  0001 C CNN "Item Number"
F 9 "GRM31CR71H105KA61L" H 0   0   50  0001 C CNN "Manufacturer_No"
	1    4200 2800
	1    0    0    -1  
$EndComp
$Comp
L V_Resistor:R0603_5k6_1% R3
U 1 1 5ECFFC60
P 5800 2200
F 0 "R3" V 5775 1925 50  0000 C CNN
F 1 "R0603_5K6_1%_0.1W_100PPM" H 5800 2005 50  0001 L CNN
F 2 "Resistors SMD:RESC1608X55N" H 5800 1930 50  0001 L CNN
F 3 "" H 5800 1855 50  0001 L CNN
F 4 "YAGEO_RMS1" H 5800 580 50  0001 L CNN "Manufacturer"
F 5 "RESISTOR,5.6K OHM,0.063W,+/-1%,0603" H 0   0   50  0001 C CNN "Description"
F 6 "10022714" H 0   0   50  0001 C CNN "Item Number"
F 7 "YAGEO_RMS1" H 0   0   50  0001 C CNN "Manufacturer2"
F 8 "VISHAY_RMS1" H 0   0   50  0001 C CNN "Manufacturer3"
F 9 "RC0603FR-075K6L" H 0   0   50  0001 C CNN "Manufacturer_No"
F 10 "RC0603FR-075K6L" H 0   0   50  0001 C CNN "Manufacturer_No2"
F 11 "CRCW06035K60FKEA" H 0   0   50  0001 C CNN "Manufacturer_No3"
F 12 "5k6" V 5850 2000 50  0000 C CNN "DisplayVal"
	1    5800 2200
	0    1    1    0   
$EndComp
$Comp
L V_Capacitor:C0402_47nF_25V_10% C19
U 1 1 5ED020FC
P 7850 1900
F 0 "C19" H 7950 1975 50  0000 L CNN
F 1 "CC0402_47NF_25V_10%_X7R" H 7850 1655 50  0001 L CNN
F 2 "PB560_BMS:CAPC1005X55N" H 7850 1580 50  0001 L CNN
F 3 "" H 7850 1505 50  0001 L CNN
F 4 "0402, Height=0.55mm" H 7850 755 50  0001 L CNN "PackageDescription"
F 5 "Murata" H 7850 230 50  0001 L CNN "Manufacturer"
F 6 "47nF" H 7950 1825 50  0000 L CNN "DisplayVal"
F 7 "1030-10048" H 0   0   50  0001 C CNN "Item Number"
F 8 "GRM155R71E473KA88D" H 0   0   50  0001 C CNN "Manufacturer_No"
	1    7850 1900
	1    0    0    -1  
$EndComp
$Comp
L V_Capacitor:C0402_47nF_25V_10% C18
U 1 1 5ED04C38
P 8300 1900
F 0 "C18" H 8375 1975 50  0000 L CNN
F 1 "CC0402_47NF_25V_10%_X7R" H 8300 1655 50  0001 L CNN
F 2 "PB560_BMS:CAPC1005X55N" H 8300 1580 50  0001 L CNN
F 3 "" H 8300 1505 50  0001 L CNN
F 4 "0402, Height=0.55mm" H 8300 755 50  0001 L CNN "PackageDescription"
F 5 "Murata" H 8300 230 50  0001 L CNN "Manufacturer"
F 6 "47nF" H 8375 1825 50  0000 L CNN "DisplayVal"
F 7 "1030-10048" H 0   0   50  0001 C CNN "Item Number"
F 8 "GRM155R71E473KA88D" H 0   0   50  0001 C CNN "Manufacturer_No"
	1    8300 1900
	1    0    0    -1  
$EndComp
$Comp
L V_Resistor:R0603_2k2_1% R24
U 1 1 5ED07511
P 9350 2100
F 0 "R24" V 9525 2100 50  0000 C CNN
F 1 "R0603_2K2_1%_0.1W_100PPM" H 9350 1905 50  0001 L CNN
F 2 "PB560_BMS:RESC1608X55N" H 9350 1830 50  0001 L CNN
F 3 "" H 9350 1755 50  0001 L CNN
F 4 "Yageo Corporation" H 9350 480 50  0001 L CNN "Manufacturer"
F 5 "2k2" V 9450 2100 50  0000 C CNN "DisplayVal"
F 6 "1010-10041" H 0   0   50  0001 C CNN "Item Number"
F 7 "RC0603FR-072K2L" H 0   0   50  0001 C CNN "Manufacturer_No"
	1    9350 2100
	0    -1   -1   0   
$EndComp
$Comp
L V_Resistor:R0603_2k2_1% R23
U 1 1 5ED09456
P 9550 2200
F 0 "R23" V 9600 2000 50  0000 C CNN
F 1 "R0603_2K2_1%_0.1W_100PPM" H 9550 2005 50  0001 L CNN
F 2 "PB560_BMS:RESC1608X55N" H 9550 1930 50  0001 L CNN
F 3 "" H 9550 1855 50  0001 L CNN
F 4 "Yageo Corporation" H 9550 580 50  0001 L CNN "Manufacturer"
F 5 "2k2" V 9500 2000 50  0000 C CNN "DisplayVal"
F 6 "1010-10041" H 0   0   50  0001 C CNN "Item Number"
F 7 "RC0603FR-072K2L" H 0   0   50  0001 C CNN "Manufacturer_No"
	1    9550 2200
	0    -1   -1   0   
$EndComp
$Comp
L V_Resistor:R0603_2k2_1% R22
U 1 1 5ED0A1DB
P 9350 2300
F 0 "R22" V 9250 2300 50  0000 C CNN
F 1 "R0603_2K2_1%_0.1W_100PPM" H 9350 2105 50  0001 L CNN
F 2 "PB560_BMS:RESC1608X55N" H 9350 2030 50  0001 L CNN
F 3 "" H 9350 1955 50  0001 L CNN
F 4 "Yageo Corporation" H 9350 680 50  0001 L CNN "Manufacturer"
F 5 "2k2" V 9175 2300 50  0000 C CNN "DisplayVal"
F 6 "1010-10041" H 0   0   50  0001 C CNN "Item Number"
F 7 "RC0603FR-072K2L" H 0   0   50  0001 C CNN "Manufacturer_No"
	1    9350 2300
	0    -1   -1   0   
$EndComp
$Comp
L V_Inductor:L0402_MURATA_BLM15AG601SN1 L1
U 1 1 5ED0ED0D
P 9350 1750
F 0 "L1" H 9350 2000 50  0000 C CNN
F 1 "IND0402_MURATA_BLM15AG601SN1" H 9350 1555 50  0001 L CNN
F 2 "PB560_BMS:INDC1005X55N" H 9350 1480 50  0001 L CNN
F 3 "" H 9350 1405 50  0001 L CNN
F 4 "MURATA" H 9350 205 50  0001 L CNN "Manufacturer"
F 5 "SMD EMIFIL Suppression Chip Ferrite Bead" H 0   0   50  0001 C CNN "Description"
F 6 "600R@100MHz" H 9350 1900 50  0000 C CNN "DisplayVal"
F 7 "1130-10008" H 0   0   50  0001 C CNN "Item Number"
F 8 "BLM15AG601SN1" H 0   0   50  0001 C CNN "Manufacturer_No"
	1    9350 1750
	1    0    0    -1  
$EndComp
$Comp
L V_Connector:Net_Tie LK3
U 1 1 5ED22C97
P 9650 3250
F 0 "LK3" V 9650 3100 50  0000 L CNN
F 1 "Net_Tie" H 9650 3095 50  0001 L CNN
F 2 "PB560_BMS:Net_Tie" H 9650 3020 50  0001 L CNN
F 3 " " H 9650 2945 50  0001 L CNN
F 4 "(CHECK THIS) 2 Plated Through Hole For Coaxial Cable Link: Hole Dia.=1.4mm Pad Dia.=2.5mm" H 9650 545 50  0001 L CNN "PackageDescription"
	1    9650 3250
	0    1    1    0   
$EndComp
$Comp
L V_Connector:Net_Tie LK1
U 1 1 5ED246CE
P 9350 3250
F 0 "LK1" V 9350 3100 50  0000 L CNN
F 1 "Net_Tie" H 9350 3095 50  0001 L CNN
F 2 "PB560_BMS:Net_Tie" H 9350 3020 50  0001 L CNN
F 3 " " H 9350 2945 50  0001 L CNN
F 4 "(CHECK THIS) 2 Plated Through Hole For Coaxial Cable Link: Hole Dia.=1.4mm Pad Dia.=2.5mm" H 9350 545 50  0001 L CNN "PackageDescription"
	1    9350 3250
	0    1    1    0   
$EndComp
Wire Wire Line
	5000 1500 5100 1500
Wire Wire Line
	4000 850  4000 1300
Wire Wire Line
	4000 1300 4100 1300
Connection ~ 4000 1300
Wire Wire Line
	3800 1600 3800 2000
Wire Wire Line
	3800 2000 4500 2000
Wire Wire Line
	4500 1800 4500 2000
Connection ~ 4500 2000
Wire Wire Line
	4500 2000 6200 2000
Wire Wire Line
	6200 2200 5950 2200
Wire Wire Line
	5650 2200 5600 2200
Wire Wire Line
	5600 2200 5600 1800
Wire Wire Line
	6200 2100 6150 2100
Wire Wire Line
	3450 2100 3150 2100
Wire Wire Line
	3150 2100 3150 1600
Wire Wire Line
	3650 2400 3950 2400
Wire Wire Line
	6200 2600 6100 2600
Wire Wire Line
	6100 2600 6100 2950
Wire Wire Line
	3650 2950 3650 2400
Connection ~ 3650 2400
Wire Wire Line
	6200 2300 4600 2300
Wire Wire Line
	4200 2300 4200 2650
Connection ~ 4600 2300
Wire Wire Line
	4600 2300 4200 2300
Wire Wire Line
	6200 2400 5150 2400
Wire Wire Line
	6200 2500 5550 2500
Wire Wire Line
	5550 2500 5550 2650
Wire Wire Line
	4600 2800 4600 3150
Wire Wire Line
	4600 3150 7900 3150
Connection ~ 6100 2950
$Comp
L V_Inductor:L0402_MURATA_BLM15AG601SN1 L3
U 1 1 5ED5CC98
P 8050 3150
F 0 "L3" H 8050 3250 50  0000 C CNN
F 1 "IND0402_MURATA_BLM15AG601SN1" H 8050 2955 50  0001 L CNN
F 2 "PB560_BMS:INDC1005X55N" H 8050 2880 50  0001 L CNN
F 3 "" H 8050 2805 50  0001 L CNN
F 4 "MURATA" H 8050 1605 50  0001 L CNN "Manufacturer"
F 5 "SMD EMIFIL Suppression Chip Ferrite Bead" H 0   0   50  0001 C CNN "Description"
F 6 "600R@100MHz" H 8050 3075 50  0000 C CNN "DisplayVal"
F 7 "1130-10008" H 0   0   50  0001 C CNN "Item Number"
F 8 "BLM15AG601SN1" H 0   0   50  0001 C CNN "Manufacturer_No"
	1    8050 3150
	1    0    0    -1  
$EndComp
$Comp
L V_Resistor:R0603_47R_1% R17
U 1 1 5ED5F87E
P 9100 2950
F 0 "R17" V 8925 2950 50  0000 C CNN
F 1 "R0603_47R_1%_0.1W_100PPM" H 9100 2755 50  0001 L CNN
F 2 "PB560_BMS:RESC1608X55N" H 9100 2680 50  0001 L CNN
F 3 "" H 9100 2605 50  0001 L CNN
F 4 "0603, Height=0.55mm" H 9100 2080 50  0001 L CNN "PackageDescription"
F 5 "Yageo Corporation" H 9100 1330 50  0001 L CNN "Manufacturer"
F 6 "RESISTOR, 47 OHM, 0.100W, 100PPM, 1%, 0603" H 0   0   50  0001 C CNN "Description"
F 7 "47R" V 9000 2950 50  0000 C CNN "DisplayVal"
F 8 "1010-10021" H 0   0   50  0001 C CNN "Item Number"
F 9 "RC0603FR-0747RL" H 0   0   50  0001 C CNN "Manufacturer_No"
	1    9100 2950
	0    1    1    0   
$EndComp
Wire Wire Line
	6100 2950 8350 2950
Wire Wire Line
	8200 3150 9350 3150
Wire Wire Line
	9650 2950 9650 3150
$Comp
L V_Resistor:R0603_5k6_1% R10
U 1 1 5ED6994A
P 7950 2600
F 0 "R10" V 8025 2600 50  0000 C CNN
F 1 "R0603_5K6_1%_0.1W_100PPM" H 7950 2405 50  0001 L CNN
F 2 "Resistors SMD:RESC1608X55N" H 7950 2330 50  0001 L CNN
F 3 "" H 7950 2255 50  0001 L CNN
F 4 "YAGEO_RMS1" H 7950 980 50  0001 L CNN "Manufacturer"
F 5 "RESISTOR,5.6K OHM,0.063W,+/-1%,0603" H 0   0   50  0001 C CNN "Description"
F 6 "10022714" H 0   0   50  0001 C CNN "Item Number"
F 7 "YAGEO_RMS1" H 0   0   50  0001 C CNN "Manufacturer2"
F 8 "VISHAY_RMS1" H 0   0   50  0001 C CNN "Manufacturer3"
F 9 "RC0603FR-075K6L" H 0   0   50  0001 C CNN "Manufacturer_No"
F 10 "RC0603FR-075K6L" H 0   0   50  0001 C CNN "Manufacturer_No2"
F 11 "CRCW06035K60FKEA" H 0   0   50  0001 C CNN "Manufacturer_No3"
F 12 "5k6" V 8100 2600 50  0000 C CNN "DisplayVal"
	1    7950 2600
	0    1    1    0   
$EndComp
Wire Wire Line
	8350 2600 8350 2950
Connection ~ 8350 2950
Wire Wire Line
	8350 2950 8600 2950
Wire Wire Line
	7600 2600 7800 2600
$Comp
L V_Resistor:R0603_5k6_1% R9
U 1 1 5ED6E575
P 8450 2500
F 0 "R9" V 8525 2500 50  0000 C CNN
F 1 "R0603_5K6_1%_0.1W_100PPM" H 8450 2305 50  0001 L CNN
F 2 "Resistors SMD:RESC1608X55N" H 8450 2230 50  0001 L CNN
F 3 "" H 8450 2155 50  0001 L CNN
F 4 "YAGEO_RMS1" H 8450 880 50  0001 L CNN "Manufacturer"
F 5 "RESISTOR,5.6K OHM,0.063W,+/-1%,0603" H 0   0   50  0001 C CNN "Description"
F 6 "10022714" H 0   0   50  0001 C CNN "Item Number"
F 7 "YAGEO_RMS1" H 0   0   50  0001 C CNN "Manufacturer2"
F 8 "VISHAY_RMS1" H 0   0   50  0001 C CNN "Manufacturer3"
F 9 "RC0603FR-075K6L" H 0   0   50  0001 C CNN "Manufacturer_No"
F 10 "RC0603FR-075K6L" H 0   0   50  0001 C CNN "Manufacturer_No2"
F 11 "CRCW06035K60FKEA" H 0   0   50  0001 C CNN "Manufacturer_No3"
F 12 "5k6" V 8600 2500 50  0000 C CNN "DisplayVal"
	1    8450 2500
	0    1    1    0   
$EndComp
Connection ~ 8600 2950
$Comp
L V_Resistor:R0603_2k2_1% R7
U 1 1 5ED72114
P 8100 2400
F 0 "R7" V 8150 2600 50  0000 C CNN
F 1 "R0603_2K2_1%_0.1W_100PPM" H 8100 2205 50  0001 L CNN
F 2 "PB560_BMS:RESC1608X55N" H 8100 2130 50  0001 L CNN
F 3 "" H 8100 2055 50  0001 L CNN
F 4 "Yageo Corporation" H 8100 780 50  0001 L CNN "Manufacturer"
F 5 "2k2" V 8050 2600 50  0000 C CNN "DisplayVal"
F 6 "1010-10041" H 0   0   50  0001 C CNN "Item Number"
F 7 "RC0603FR-072K2L" H 0   0   50  0001 C CNN "Manufacturer_No"
	1    8100 2400
	0    -1   -1   0   
$EndComp
Wire Wire Line
	7600 2400 7950 2400
Wire Wire Line
	7600 2000 7600 1750
Wire Wire Line
	7600 1500 7050 1500
Wire Wire Line
	8250 2400 8600 2400
Wire Wire Line
	7600 2300 8700 2300
Wire Wire Line
	7600 2200 8300 2200
Wire Wire Line
	7600 2100 7850 2100
Connection ~ 7600 1750
Wire Wire Line
	7600 1750 7600 1500
Connection ~ 7850 1750
Wire Wire Line
	7850 1750 7600 1750
Wire Wire Line
	7850 2050 7850 2100
Wire Wire Line
	9200 2100 7850 2100
Connection ~ 7850 2100
Wire Wire Line
	8300 2050 8300 2200
Connection ~ 8300 2200
Wire Wire Line
	8300 2200 9400 2200
Wire Wire Line
	8700 2050 8700 2300
Connection ~ 8700 2300
Wire Wire Line
	8700 2300 9200 2300
Wire Wire Line
	9500 2100 9750 2100
Wire Wire Line
	9500 1750 9750 1750
Wire Wire Line
	5700 850  6000 850 
Wire Wire Line
	6000 850  6000 1300
Connection ~ 6000 1300
Wire Wire Line
	6750 1500 6150 1500
Wire Wire Line
	6150 1500 6150 2100
Connection ~ 6150 2100
Wire Wire Line
	9750 1750 9750 1300
Wire Wire Line
	9750 1300 6000 1300
Connection ~ 9750 1750
Wire Wire Line
	9750 1750 9750 2100
Connection ~ 9750 2100
$Comp
L V_Connector:MOLEX_43650-1012 P1
U 1 1 5EDAF49B
P 10750 4000
F 0 "P1" H 10792 3377 50  0000 C CNN
F 1 "MOLEX_43650-1012" H 10350 4650 50  0000 L CNN
F 2 "PB560_BMS:MOLEX_43650-1012" H 10750 3300 50  0001 L CNN
F 3 " " H 10750 3275 50  0001 L CNN
F 4 "3.00mm (.118\") Pitch Micro-Fit 3.0™ Header, Single Row, Right Angled, with PCB Polarizing Peg, Height=5.57mm" H 10750 2750 50  0001 L CNN "PackageDescription"
F 5 "MOLEX" H 10750 1475 50  0001 L CNN "Manufacturer"
F 6 "CONNECTOR HEADER SMT 3MM 10WAY MOLEX" H 0   0   50  0001 C CNN "Description"
F 7 "1090-10005" H 0   0   50  0001 C CNN "Item Number"
F 8 "43650-1012" H 0   0   50  0001 C CNN "Manufacturer_No"
	1    10750 4000
	1    0    0    1   
$EndComp
Wire Wire Line
	9950 3550 9950 2100
Wire Wire Line
	9750 2100 9950 2100
Wire Wire Line
	9850 2200 9850 3650
Wire Wire Line
	9700 2200 9850 2200
Wire Wire Line
	9750 2300 9750 3750
Wire Wire Line
	9500 2300 9750 2300
Text Label 6400 2950 0    50   ~ 0
VSSA
Text Label 3400 1300 0    50   ~ 0
PACKP2
Wire Wire Line
	9950 3550 10550 3550
Wire Wire Line
	9850 3650 10550 3650
Wire Wire Line
	9750 3750 10550 3750
Wire Wire Line
	9650 3850 10550 3850
Text Label 9950 3550 0    50   ~ 0
BAT7P
Text Label 9950 3650 0    50   ~ 0
BAT6P
Text Label 9950 3750 0    50   ~ 0
BAT5P
Text Label 9950 3850 0    50   ~ 0
BAT5N
Wire Wire Line
	7600 2500 8300 2500
$Comp
L V_Transistor:Q_PMOS_GSD_10022157 Q1
U 1 1 5EE3D1CB
P 3600 4850
F 0 "Q1" V 3900 4875 50  0000 C CNN
F 1 "BSS84LT1G" V 3825 4950 50  0000 C CNN
F 2 "PB560_BMS:SOT95P240X110-3N" H 3600 4480 50  0001 L CNN
F 3 " " H 3600 4405 50  0001 L CNN
F 4 "NXP SEMICONDUCTORS_RMS1" H 3600 3580 50  0001 L CNN "Manufacturer"
F 5 "TRANSISTOR, P CHANNEL, 50V, 0.13A, 5 OHM, SOT23" H 0   0   50  0001 C CNN "Description"
F 6 "10022157" H 0   0   50  0001 C CNN "Item Number"
F 7 "ON SEMICONDUCTOR_RMS1" H 0   0   50  0001 C CNN "Manufacturer2"
F 8 "NXP SEMICONDUCTORS_RMS1" H 0   0   50  0001 C CNN "Manufacturer3"
F 9 "BSS84" H 0   0   50  0001 C CNN "Manufacturer_No"
F 10 "BSS84LT1G" H 0   0   50  0001 C CNN "Manufacturer_No2"
F 11 "BSS84,215" H 0   0   50  0001 C CNN "Manufacturer_No3"
	1    3600 4850
	0    -1   -1   0   
$EndComp
$Comp
L V_Resistor:R0603_5k6_1% R1
U 1 1 5EE3D1F7
P 3250 4100
F 0 "R1" H 3325 4150 50  0000 L CNN
F 1 "R0603_5K6_1%_0.1W_100PPM" H 3250 3905 50  0001 L CNN
F 2 "Resistors SMD:RESC1608X55N" H 3250 3830 50  0001 L CNN
F 3 "" H 3250 3755 50  0001 L CNN
F 4 "YAGEO_RMS1" H 3250 2480 50  0001 L CNN "Manufacturer"
F 5 "RESISTOR,5.6K OHM,0.063W,+/-1%,0603" H 0   0   50  0001 C CNN "Description"
F 6 "10022714" H 0   0   50  0001 C CNN "Item Number"
F 7 "YAGEO_RMS1" H 0   0   50  0001 C CNN "Manufacturer2"
F 8 "VISHAY_RMS1" H 0   0   50  0001 C CNN "Manufacturer3"
F 9 "RC0603FR-075K6L" H 0   0   50  0001 C CNN "Manufacturer_No"
F 10 "RC0603FR-075K6L" H 0   0   50  0001 C CNN "Manufacturer_No2"
F 11 "CRCW06035K60FKEA" H 0   0   50  0001 C CNN "Manufacturer_No3"
F 12 "5k6" H 3325 4050 50  0000 L CNN "DisplayVal"
	1    3250 4100
	1    0    0    -1  
$EndComp
$Comp
L V_Diode:BZX384-B18 D4
U 1 1 5EE3D221
P 3900 4900
F 0 "D4" V 3925 4800 50  0000 R CNN
F 1 "BZX384-B18" V 4000 4300 50  0000 L CNN
F 2 "PB560_BMS:SOD2512X110N" H 3900 4600 50  0001 L CNN
F 3 "" H 3900 4525 50  0001 L CNN
F 4 "Small Outline Diode (SOD-323), 1.70mm W X 1.25mm L X 1.10mm H body,  IPC Medium Density" H 3900 3925 50  0001 L CNN "PackageDescription"
F 5 "NEXPERIA" H 3900 3550 50  0001 L CNN "Manufacturer"
F 6 "DIODE SOD323 ZENER 2% 18V 0.2W BZX384-B18" H 0   0   50  0001 C CNN "Description"
F 7 "1050-10025" H 0   0   50  0001 C CNN "Item Number"
F 8 "BZX384-B18" H 0   0   50  0001 C CNN "Manufacturer_No"
	1    3900 4900
	0    -1   -1   0   
$EndComp
$Comp
L V_Resistor:R0603_1M_1% R8
U 1 1 5EE3D24D
P 3750 4100
F 0 "R8" H 3825 4150 50  0000 L CNN
F 1 "R0603_1M_1%_0.1W_100PPM" H 3750 3905 50  0001 L CNN
F 2 "Resistors SMD:RESC1608X55N" H 3750 3830 50  0001 L CNN
F 3 "" H 3750 3755 50  0001 L CNN
F 4 "YAGEO_RMS1" H 3750 2480 50  0001 L CNN "Manufacturer"
F 5 "RESISTOR,1M OHM,0.063W,+/-1%,0603" H 0   0   50  0001 C CNN "Description"
F 6 "10022736" H 0   0   50  0001 C CNN "Item Number"
F 7 "YAGEO_RMS1" H 0   0   50  0001 C CNN "Manufacturer2"
F 8 "VISHAY_RMS1" H 0   0   50  0001 C CNN "Manufacturer3"
F 9 "RC0603FR-071ML" H 0   0   50  0001 C CNN "Manufacturer_No"
F 10 "RC0603FR-071ML" H 0   0   50  0001 C CNN "Manufacturer_No2"
F 11 "CRCW06031M00FKEA" H 0   0   50  0001 C CNN "Manufacturer_No3"
F 12 "RC0603FR-071ML" H 0   0   50  0001 C CNN "Manufacturer_No4"
F 13 "1M" H 3825 4050 50  0000 L CNN "DisplayVal"
	1    3750 4100
	1    0    0    -1  
$EndComp
$Comp
L V_Capacitor:C0603_100nF_50V_10% C10
U 1 1 5EE3D2F3
P 4500 3500
F 0 "C10" V 4700 3500 50  0000 C CNN
F 1 "CC0603_100NF_50V_10%_X7R" H 4500 3255 50  0001 L CNN
F 2 "Capacitors SMD:CAPC1608X87N" H 4500 3180 50  0001 L CNN
F 3 "" H 4500 3105 50  0001 L CNN
F 4 "KEMET_RMS1" H 4500 1830 50  0001 L CNN "Manufacturer"
F 5 "CAPACITOR CERAMIC 100NF 50V 10% X7R 0603" H 0   0   50  0001 C CNN "Description"
F 6 "10021386" H 0   0   50  0001 C CNN "Item Number"
F 7 "C0603C104K5RACTU" H 0   0   50  0001 C CNN "Manufacturer_No"
F 8 "100nF" V 4625 3500 50  0000 C CNN "DisplayVal"
	1    4500 3500
	0    -1   -1   0   
$EndComp
$Comp
L V_Capacitor:C0603_100nF_50V_10% C5
U 1 1 5EE3D31E
P 5500 3500
F 0 "C5" V 5700 3500 50  0000 C CNN
F 1 "CC0603_100NF_50V_10%_X7R" H 5500 3255 50  0001 L CNN
F 2 "Capacitors SMD:CAPC1608X87N" H 5500 3180 50  0001 L CNN
F 3 "" H 5500 3105 50  0001 L CNN
F 4 "KEMET_RMS1" H 5500 1830 50  0001 L CNN "Manufacturer"
F 5 "CAPACITOR CERAMIC 100NF 50V 10% X7R 0603" H 0   0   50  0001 C CNN "Description"
F 6 "10021386" H 0   0   50  0001 C CNN "Item Number"
F 7 "C0603C104K5RACTU" H 0   0   50  0001 C CNN "Manufacturer_No"
F 8 "100nF" V 5625 3500 50  0000 C CNN "DisplayVal"
	1    5500 3500
	0    -1   -1   0   
$EndComp
$Comp
L V_Capacitor:C0603_100nF_50V_10% C23
U 1 1 5EE3D349
P 6850 4150
F 0 "C23" V 7150 4150 50  0000 C CNN
F 1 "CC0603_100NF_50V_10%_X7R" H 6850 3905 50  0001 L CNN
F 2 "Capacitors SMD:CAPC1608X87N" H 6850 3830 50  0001 L CNN
F 3 "" H 6850 3755 50  0001 L CNN
F 4 "KEMET_RMS1" H 6850 2480 50  0001 L CNN "Manufacturer"
F 5 "CAPACITOR CERAMIC 100NF 50V 10% X7R 0603" H 0   0   50  0001 C CNN "Description"
F 6 "10021386" H 0   0   50  0001 C CNN "Item Number"
F 7 "C0603C104K5RACTU" H 0   0   50  0001 C CNN "Manufacturer_No"
F 8 "100nF" V 7050 4150 50  0000 C CNN "DisplayVal"
	1    6850 4150
	0    -1   -1   0   
$EndComp
$Comp
L V_Capacitor:C0603_100nF_50V_10% C1
U 1 1 5EE3D39F
P 5100 5450
F 0 "C1" H 5275 5525 50  0000 R CNN
F 1 "CC0603_100NF_50V_10%_X7R" H 5100 5205 50  0001 L CNN
F 2 "Capacitors SMD:CAPC1608X87N" H 5100 5130 50  0001 L CNN
F 3 "" H 5100 5055 50  0001 L CNN
F 4 "KEMET_RMS1" H 5100 3780 50  0001 L CNN "Manufacturer"
F 5 "CAPACITOR CERAMIC 100NF 50V 10% X7R 0603" H 0   0   50  0001 C CNN "Description"
F 6 "10021386" H 0   0   50  0001 C CNN "Item Number"
F 7 "C0603C104K5RACTU" H 0   0   50  0001 C CNN "Manufacturer_No"
F 8 "100nF" H 5400 5375 50  0000 R CNN "DisplayVal"
	1    5100 5450
	1    0    0    -1  
$EndComp
$Comp
L V_Resistor:R0603_5k6_1% R4
U 1 1 5EE3D3CB
P 4550 5300
F 0 "R4" H 4625 5350 50  0000 L CNN
F 1 "R0603_5K6_1%_0.1W_100PPM" H 4550 5105 50  0001 L CNN
F 2 "Resistors SMD:RESC1608X55N" H 4550 5030 50  0001 L CNN
F 3 "" H 4550 4955 50  0001 L CNN
F 4 "YAGEO_RMS1" H 4550 3680 50  0001 L CNN "Manufacturer"
F 5 "RESISTOR,5.6K OHM,0.063W,+/-1%,0603" H 0   0   50  0001 C CNN "Description"
F 6 "10022714" H 0   0   50  0001 C CNN "Item Number"
F 7 "YAGEO_RMS1" H 0   0   50  0001 C CNN "Manufacturer2"
F 8 "VISHAY_RMS1" H 0   0   50  0001 C CNN "Manufacturer3"
F 9 "RC0603FR-075K6L" H 0   0   50  0001 C CNN "Manufacturer_No"
F 10 "RC0603FR-075K6L" H 0   0   50  0001 C CNN "Manufacturer_No2"
F 11 "CRCW06035K60FKEA" H 0   0   50  0001 C CNN "Manufacturer_No3"
F 12 "5k6" H 4625 5250 50  0000 L CNN "DisplayVal"
	1    4550 5300
	1    0    0    -1  
$EndComp
$Comp
L V_Capacitor:C1206_1uF_50V_10% C21
U 1 1 5EE3D3F6
P 4150 5450
F 0 "C21" H 4275 5550 50  0000 L CNN
F 1 "CC1206_1UF_50V_10%_X7R" H 4150 5205 50  0001 L CNN
F 2 "PB560_BMS:CAPC3216X180N" H 4150 5130 50  0001 L CNN
F 3 "" H 4150 5055 50  0001 L CNN
F 4 "1206, Height=1.8mm" H 4150 4305 50  0001 L CNN "PackageDescription"
F 5 "Murata" H 4150 3780 50  0001 L CNN "Manufacturer"
F 6 "CAPACITOR, 1UF, +/-10%, 50V, X7R, 1206, MLCC" H 0   0   50  0001 C CNN "Description"
F 7 "1uF" H 4275 5450 50  0000 L CNN "DisplayVal"
F 8 "1030-10044" H 0   0   50  0001 C CNN "Item Number"
F 9 "GRM31CR71H105KA61L" H 0   0   50  0001 C CNN "Manufacturer_No"
	1    4150 5450
	1    0    0    -1  
$EndComp
$Comp
L V_Resistor:R0603_5k6_1% R6
U 1 1 5EE3D422
P 5750 4850
F 0 "R6" V 5700 5000 50  0000 C CNN
F 1 "R0603_5K6_1%_0.1W_100PPM" H 5750 4655 50  0001 L CNN
F 2 "Resistors SMD:RESC1608X55N" H 5750 4580 50  0001 L CNN
F 3 "" H 5750 4505 50  0001 L CNN
F 4 "YAGEO_RMS1" H 5750 3230 50  0001 L CNN "Manufacturer"
F 5 "RESISTOR,5.6K OHM,0.063W,+/-1%,0603" H 0   0   50  0001 C CNN "Description"
F 6 "10022714" H 0   0   50  0001 C CNN "Item Number"
F 7 "YAGEO_RMS1" H 0   0   50  0001 C CNN "Manufacturer2"
F 8 "VISHAY_RMS1" H 0   0   50  0001 C CNN "Manufacturer3"
F 9 "RC0603FR-075K6L" H 0   0   50  0001 C CNN "Manufacturer_No"
F 10 "RC0603FR-075K6L" H 0   0   50  0001 C CNN "Manufacturer_No2"
F 11 "CRCW06035K60FKEA" H 0   0   50  0001 C CNN "Manufacturer_No3"
F 12 "5k6" V 5800 5025 50  0000 C CNN "DisplayVal"
	1    5750 4850
	0    1    1    0   
$EndComp
$Comp
L V_Capacitor:C0402_47nF_25V_10% C16
U 1 1 5EE3D44D
P 7800 4550
F 0 "C16" H 7875 4625 50  0000 L CNN
F 1 "CC0402_47NF_25V_10%_X7R" H 7800 4305 50  0001 L CNN
F 2 "PB560_BMS:CAPC1005X55N" H 7800 4230 50  0001 L CNN
F 3 "" H 7800 4155 50  0001 L CNN
F 4 "0402, Height=0.55mm" H 7800 3405 50  0001 L CNN "PackageDescription"
F 5 "Murata" H 7800 2880 50  0001 L CNN "Manufacturer"
F 6 "47nF" H 7875 4450 50  0000 L CNN "DisplayVal"
F 7 "1030-10048" H 0   0   50  0001 C CNN "Item Number"
F 8 "GRM155R71E473KA88D" H 0   0   50  0001 C CNN "Manufacturer_No"
	1    7800 4550
	1    0    0    -1  
$EndComp
$Comp
L V_Capacitor:C0402_47nF_25V_10% C15
U 1 1 5EE3D478
P 8200 4550
F 0 "C15" H 8250 4625 50  0000 L CNN
F 1 "CC0402_47NF_25V_10%_X7R" H 8200 4305 50  0001 L CNN
F 2 "PB560_BMS:CAPC1005X55N" H 8200 4230 50  0001 L CNN
F 3 "" H 8200 4155 50  0001 L CNN
F 4 "0402, Height=0.55mm" H 8200 3405 50  0001 L CNN "PackageDescription"
F 5 "Murata" H 8200 2880 50  0001 L CNN "Manufacturer"
F 6 "47nF" H 8250 4450 50  0000 L CNN "DisplayVal"
F 7 "1030-10048" H 0   0   50  0001 C CNN "Item Number"
F 8 "GRM155R71E473KA88D" H 0   0   50  0001 C CNN "Manufacturer_No"
	1    8200 4550
	1    0    0    -1  
$EndComp
$Comp
L V_Capacitor:C0402_47nF_25V_10% C14
U 1 1 5EE3D4A3
P 8600 4550
F 0 "C14" H 8625 4625 50  0000 L CNN
F 1 "CC0402_47NF_25V_10%_X7R" H 8600 4305 50  0001 L CNN
F 2 "PB560_BMS:CAPC1005X55N" H 8600 4230 50  0001 L CNN
F 3 "" H 8600 4155 50  0001 L CNN
F 4 "0402, Height=0.55mm" H 8600 3405 50  0001 L CNN "PackageDescription"
F 5 "Murata" H 8600 2880 50  0001 L CNN "Manufacturer"
F 6 "47nF" H 8650 4450 50  0000 L CNN "DisplayVal"
F 7 "1030-10048" H 0   0   50  0001 C CNN "Item Number"
F 8 "GRM155R71E473KA88D" H 0   0   50  0001 C CNN "Manufacturer_No"
	1    8600 4550
	1    0    0    -1  
$EndComp
$Comp
L V_Resistor:R0603_2k2_1% R21
U 1 1 5EE3D4CF
P 9300 4750
F 0 "R21" V 9450 4675 50  0000 C CNN
F 1 "R0603_2K2_1%_0.1W_100PPM" H 9300 4555 50  0001 L CNN
F 2 "PB560_BMS:RESC1608X55N" H 9300 4480 50  0001 L CNN
F 3 "" H 9300 4405 50  0001 L CNN
F 4 "Yageo Corporation" H 9300 3130 50  0001 L CNN "Manufacturer"
F 5 "2k2" V 9375 4675 50  0000 C CNN "DisplayVal"
F 6 "1010-10041" H 0   0   50  0001 C CNN "Item Number"
F 7 "RC0603FR-072K2L" H 0   0   50  0001 C CNN "Manufacturer_No"
	1    9300 4750
	0    -1   -1   0   
$EndComp
$Comp
L V_Resistor:R0603_2k2_1% R20
U 1 1 5EE3D4FB
P 9550 4850
F 0 "R20" V 9600 4650 50  0000 C CNN
F 1 "R0603_2K2_1%_0.1W_100PPM" H 9550 4655 50  0001 L CNN
F 2 "PB560_BMS:RESC1608X55N" H 9550 4580 50  0001 L CNN
F 3 "" H 9550 4505 50  0001 L CNN
F 4 "Yageo Corporation" H 9550 3230 50  0001 L CNN "Manufacturer"
F 5 "2k2" V 9500 4650 50  0000 C CNN "DisplayVal"
F 6 "1010-10041" H 0   0   50  0001 C CNN "Item Number"
F 7 "RC0603FR-072K2L" H 0   0   50  0001 C CNN "Manufacturer_No"
	1    9550 4850
	0    -1   -1   0   
$EndComp
$Comp
L V_Resistor:R0603_2k2_1% R19
U 1 1 5EE3D527
P 9300 4950
F 0 "R19" V 9350 5125 50  0000 C CNN
F 1 "R0603_2K2_1%_0.1W_100PPM" H 9300 4755 50  0001 L CNN
F 2 "PB560_BMS:RESC1608X55N" H 9300 4680 50  0001 L CNN
F 3 "" H 9300 4605 50  0001 L CNN
F 4 "Yageo Corporation" H 9300 3330 50  0001 L CNN "Manufacturer"
F 5 "2k2" V 9250 5125 50  0000 C CNN "DisplayVal"
F 6 "1010-10041" H 0   0   50  0001 C CNN "Item Number"
F 7 "RC0603FR-072K2L" H 0   0   50  0001 C CNN "Manufacturer_No"
	1    9300 4950
	0    -1   -1   0   
$EndComp
$Comp
L V_Inductor:L0402_MURATA_BLM15AG601SN1 L4
U 1 1 5EE3D54E
P 9300 4400
F 0 "L4" H 9300 4600 50  0000 C CNN
F 1 "IND0402_MURATA_BLM15AG601SN1" H 9300 4205 50  0001 L CNN
F 2 "PB560_BMS:INDC1005X55N" H 9300 4130 50  0001 L CNN
F 3 "" H 9300 4055 50  0001 L CNN
F 4 "MURATA" H 9300 2855 50  0001 L CNN "Manufacturer"
F 5 "SMD EMIFIL Suppression Chip Ferrite Bead" H 0   0   50  0001 C CNN "Description"
F 6 "600R@100MHz" H 9300 4500 50  0000 C CNN "DisplayVal"
F 7 "1130-10008" H 0   0   50  0001 C CNN "Item Number"
F 8 "BLM15AG601SN1" H 0   0   50  0001 C CNN "Manufacturer_No"
	1    9300 4400
	1    0    0    -1  
$EndComp
$Comp
L V_Inductor:L0402_MURATA_BLM15AG601SN1 L5
U 1 1 5EE3D575
P 9300 5600
F 0 "L5" H 9300 5825 50  0000 C CNN
F 1 "IND0402_MURATA_BLM15AG601SN1" H 9300 5405 50  0001 L CNN
F 2 "PB560_BMS:INDC1005X55N" H 9300 5330 50  0001 L CNN
F 3 "" H 9300 5255 50  0001 L CNN
F 4 "MURATA" H 9300 4055 50  0001 L CNN "Manufacturer"
F 5 "SMD EMIFIL Suppression Chip Ferrite Bead" H 0   0   50  0001 C CNN "Description"
F 6 "600R@100MHz" H 9300 5750 50  0000 C CNN "DisplayVal"
F 7 "1130-10008" H 0   0   50  0001 C CNN "Item Number"
F 8 "BLM15AG601SN1" H 0   0   50  0001 C CNN "Manufacturer_No"
	1    9300 5600
	1    0    0    -1  
$EndComp
$Comp
L V_Connector:Net_Tie LK4
U 1 1 5EE3D59F
P 9600 5900
F 0 "LK4" V 9575 5900 50  0000 L CNN
F 1 "Net_Tie" H 9600 5745 50  0001 L CNN
F 2 "PB560_BMS:Net_Tie" H 9600 5670 50  0001 L CNN
F 3 " " H 9600 5595 50  0001 L CNN
F 4 "(CHECK THIS) 2 Plated Through Hole For Coaxial Cable Link: Hole Dia.=1.4mm Pad Dia.=2.5mm" H 9600 3195 50  0001 L CNN "PackageDescription"
	1    9600 5900
	0    1    1    0   
$EndComp
$Comp
L V_Connector:Net_Tie LK2
U 1 1 5EE3D5C9
P 9300 5900
F 0 "LK2" V 9275 5900 50  0000 L CNN
F 1 "Net_Tie" H 9300 5745 50  0001 L CNN
F 2 "PB560_BMS:Net_Tie" H 9300 5670 50  0001 L CNN
F 3 " " H 9300 5595 50  0001 L CNN
F 4 "(CHECK THIS) 2 Plated Through Hole For Coaxial Cable Link: Hole Dia.=1.4mm Pad Dia.=2.5mm" H 9300 3195 50  0001 L CNN "PackageDescription"
	1    9300 5900
	0    1    1    0   
$EndComp
$Comp
L V_Resistor:R2512_0R027_1% R16
U 1 1 5EE3D5F5
P 9450 6150
F 0 "R16" V 9550 6150 50  0000 C CNN
F 1 "R2512_0R027_1%_2W_50PPM" H 9450 5955 50  0001 L CNN
F 2 "PB560_BMS:RESC6331X70N" H 9450 5880 50  0001 L CNN
F 3 "" H 9450 5805 50  0001 L CNN
F 4 "2512, Height=0.7mm" H 9450 5280 50  0001 L CNN "PackageDescription"
F 5 "KOA" H 9450 4530 50  0001 L CNN "Manufacturer"
F 6 "RESISTOR, 0.027 OHM, 2W, 1%, 2512" H 0   0   50  0001 C CNN "Description"
F 7 "0R027" V 9350 6150 50  0000 C CNN "DisplayVal"
F 8 "1011-10018" H 0   0   50  0001 C CNN "Item Number"
F 9 "TLRH3AWTTE27L0F" H 0   0   50  0001 C CNN "Manufacturer_No"
	1    9450 6150
	0    -1   -1   0   
$EndComp
Wire Wire Line
	4950 4150 5050 4150
Wire Wire Line
	4350 3500 3950 3500
Wire Wire Line
	3950 3500 3950 3950
Wire Wire Line
	3950 3950 4050 3950
Connection ~ 3950 3950
Wire Wire Line
	3750 4250 3750 4650
Wire Wire Line
	3750 4650 4450 4650
Connection ~ 4450 4650
Wire Wire Line
	4450 4650 6150 4650
Wire Wire Line
	6150 4850 5900 4850
Wire Wire Line
	5600 4850 5550 4850
Wire Wire Line
	5550 4850 5550 4450
Wire Wire Line
	6150 4750 6100 4750
Wire Wire Line
	3400 4750 3250 4750
Wire Wire Line
	3250 4750 3250 4250
Wire Wire Line
	3600 5050 3900 5050
Wire Wire Line
	6150 5250 6050 5250
Wire Wire Line
	6050 5250 6050 5600
Wire Wire Line
	3600 5600 3600 5050
Connection ~ 3600 5050
Wire Wire Line
	6150 4950 4550 4950
Wire Wire Line
	4150 4950 4150 5300
Wire Wire Line
	4550 4950 4550 5150
Connection ~ 4550 4950
Wire Wire Line
	4550 4950 4150 4950
Wire Wire Line
	6150 5050 5100 5050
Wire Wire Line
	5100 5050 5100 5300
Wire Wire Line
	6150 5150 5500 5150
Wire Wire Line
	5500 5150 5500 5300
Wire Wire Line
	4550 5450 4550 5800
Wire Wire Line
	4550 5800 7850 5800
Connection ~ 6050 5600
$Comp
L V_Inductor:L0402_MURATA_BLM15AG601SN1 L6
U 1 1 5EE3D65B
P 8000 5800
F 0 "L6" H 8000 5900 50  0000 C CNN
F 1 "IND0402_MURATA_BLM15AG601SN1" H 8000 5605 50  0001 L CNN
F 2 "PB560_BMS:INDC1005X55N" H 8000 5530 50  0001 L CNN
F 3 "" H 8000 5455 50  0001 L CNN
F 4 "MURATA" H 8000 4255 50  0001 L CNN "Manufacturer"
F 5 "SMD EMIFIL Suppression Chip Ferrite Bead" H 0   0   50  0001 C CNN "Description"
F 6 "600R@100MHz" H 8000 5725 50  0000 C CNN "DisplayVal"
F 7 "1130-10008" H 0   0   50  0001 C CNN "Item Number"
F 8 "BLM15AG601SN1" H 0   0   50  0001 C CNN "Manufacturer_No"
	1    8000 5800
	1    0    0    -1  
$EndComp
$Comp
L V_Resistor:R0603_47R_1% R13
U 1 1 5EE3D687
P 8950 5600
F 0 "R13" V 8875 5600 50  0000 C CNN
F 1 "R0603_47R_1%_0.1W_100PPM" H 8950 5405 50  0001 L CNN
F 2 "PB560_BMS:RESC1608X55N" H 8950 5330 50  0001 L CNN
F 3 "" H 8950 5255 50  0001 L CNN
F 4 "0603, Height=0.55mm" H 8950 4730 50  0001 L CNN "PackageDescription"
F 5 "Yageo Corporation" H 8950 3980 50  0001 L CNN "Manufacturer"
F 6 "RESISTOR, 47 OHM, 0.100W, 100PPM, 1%, 0603" H 0   0   50  0001 C CNN "Description"
F 7 "47R" V 9050 5600 50  0000 C CNN "DisplayVal"
F 8 "1010-10021" H 0   0   50  0001 C CNN "Item Number"
F 9 "RC0603FR-0747RL" H 0   0   50  0001 C CNN "Manufacturer_No"
	1    8950 5600
	0    1    1    0   
$EndComp
Wire Wire Line
	9100 5600 9150 5600
Wire Wire Line
	9450 5600 9600 5600
Wire Wire Line
	8150 5800 9300 5800
Wire Wire Line
	9600 5600 9600 5800
Wire Wire Line
	9300 6000 9300 6150
Wire Wire Line
	9600 6000 9600 6150
$Comp
L V_Resistor:R0603_5k6_1% R12
U 1 1 5EE3D6BA
P 7900 5250
F 0 "R12" V 7850 5050 50  0000 C CNN
F 1 "R0603_5K6_1%_0.1W_100PPM" H 7900 5055 50  0001 L CNN
F 2 "Resistors SMD:RESC1608X55N" H 7900 4980 50  0001 L CNN
F 3 "" H 7900 4905 50  0001 L CNN
F 4 "YAGEO_RMS1" H 7900 3630 50  0001 L CNN "Manufacturer"
F 5 "RESISTOR,5.6K OHM,0.063W,+/-1%,0603" H 0   0   50  0001 C CNN "Description"
F 6 "10022714" H 0   0   50  0001 C CNN "Item Number"
F 7 "YAGEO_RMS1" H 0   0   50  0001 C CNN "Manufacturer2"
F 8 "VISHAY_RMS1" H 0   0   50  0001 C CNN "Manufacturer3"
F 9 "RC0603FR-075K6L" H 0   0   50  0001 C CNN "Manufacturer_No"
F 10 "RC0603FR-075K6L" H 0   0   50  0001 C CNN "Manufacturer_No2"
F 11 "CRCW06035K60FKEA" H 0   0   50  0001 C CNN "Manufacturer_No3"
F 12 "5k6" V 7950 5050 50  0000 C CNN "DisplayVal"
	1    7900 5250
	0    1    1    0   
$EndComp
Wire Wire Line
	7550 5250 7750 5250
$Comp
L V_Resistor:R0603_5k6_1% R11
U 1 1 5EE3D6EC
P 8400 5150
F 0 "R11" V 8350 4975 50  0000 C CNN
F 1 "R0603_5K6_1%_0.1W_100PPM" H 8400 4955 50  0001 L CNN
F 2 "Resistors SMD:RESC1608X55N" H 8400 4880 50  0001 L CNN
F 3 "" H 8400 4805 50  0001 L CNN
F 4 "YAGEO_RMS1" H 8400 3530 50  0001 L CNN "Manufacturer"
F 5 "RESISTOR,5.6K OHM,0.063W,+/-1%,0603" H 0   0   50  0001 C CNN "Description"
F 6 "10022714" H 0   0   50  0001 C CNN "Item Number"
F 7 "YAGEO_RMS1" H 0   0   50  0001 C CNN "Manufacturer2"
F 8 "VISHAY_RMS1" H 0   0   50  0001 C CNN "Manufacturer3"
F 9 "RC0603FR-075K6L" H 0   0   50  0001 C CNN "Manufacturer_No"
F 10 "RC0603FR-075K6L" H 0   0   50  0001 C CNN "Manufacturer_No2"
F 11 "CRCW06035K60FKEA" H 0   0   50  0001 C CNN "Manufacturer_No3"
F 12 "5k6" V 8500 5150 50  0000 C CNN "DisplayVal"
	1    8400 5150
	0    1    1    0   
$EndComp
Connection ~ 8550 5600
Wire Wire Line
	8550 5600 8800 5600
$Comp
L V_Resistor:R0603_2k2_1% R18
U 1 1 5EE3D71B
P 9550 5050
F 0 "R18" V 9575 4850 50  0000 C CNN
F 1 "R0603_2K2_1%_0.1W_100PPM" H 9550 4855 50  0001 L CNN
F 2 "PB560_BMS:RESC1608X55N" H 9550 4780 50  0001 L CNN
F 3 "" H 9550 4705 50  0001 L CNN
F 4 "Yageo Corporation" H 9550 3430 50  0001 L CNN "Manufacturer"
F 5 "2k2" V 9500 4850 50  0000 C CNN "DisplayVal"
F 6 "1010-10041" H 0   0   50  0001 C CNN "Item Number"
F 7 "RC0603FR-072K2L" H 0   0   50  0001 C CNN "Manufacturer_No"
	1    9550 5050
	0    -1   -1   0   
$EndComp
Wire Wire Line
	7550 5050 9000 5050
Wire Wire Line
	7550 4650 7550 4400
Wire Wire Line
	7550 4150 7000 4150
Wire Wire Line
	7550 4950 8600 4950
Wire Wire Line
	7550 4850 8200 4850
Wire Wire Line
	7550 4750 7800 4750
Connection ~ 7550 4400
Wire Wire Line
	7550 4400 7550 4150
Wire Wire Line
	7800 4700 7800 4750
Wire Wire Line
	9150 4750 7800 4750
Connection ~ 7800 4750
Wire Wire Line
	8200 4700 8200 4850
Connection ~ 8200 4850
Wire Wire Line
	8200 4850 9400 4850
Wire Wire Line
	8600 4700 8600 4950
Connection ~ 8600 4950
Wire Wire Line
	8600 4950 9150 4950
Wire Wire Line
	9450 4750 9700 4750
Wire Wire Line
	9450 4400 9700 4400
Wire Wire Line
	5650 3500 5950 3500
Wire Wire Line
	5950 3500 5950 3950
Connection ~ 5950 3950
Wire Wire Line
	6700 4150 6100 4150
Wire Wire Line
	6100 4150 6100 4750
Connection ~ 6100 4750
Wire Wire Line
	9700 4400 9700 3950
Wire Wire Line
	9700 3950 5950 3950
Connection ~ 9700 4400
Wire Wire Line
	9700 4400 9700 4750
Text Label 6350 5600 0    50   ~ 0
VSSB
Wire Wire Line
	7550 5150 8250 5150
Wire Wire Line
	2800 3250 2800 3950
Text Label 3400 3250 0    50   ~ 0
PACKMID
Text Label 5350 2000 0    50   ~ 0
COPA
Text Label 5350 2100 0    50   ~ 0
VMPA
Text Label 6000 2200 0    50   ~ 0
DOPA
Text Label 6000 2300 0    50   ~ 0
VINIA
Text Label 6000 2400 0    50   ~ 0
CDTA
Text Label 6000 2500 0    50   ~ 0
CCTA
Text Label 7600 2200 0    50   ~ 0
VCA2
Text Label 7600 2100 0    50   ~ 0
VCA1
Text Label 7600 2300 0    50   ~ 0
VCA3
Wire Wire Line
	10550 3950 9700 3950
Connection ~ 9700 3950
Wire Wire Line
	10550 4050 9850 4050
Wire Wire Line
	9850 4050 9850 4850
Wire Wire Line
	9700 4850 9850 4850
Wire Wire Line
	10550 4150 9950 4150
Wire Wire Line
	9950 4150 9950 4950
Wire Wire Line
	9450 4950 9950 4950
Wire Wire Line
	10550 4250 10050 4250
$Comp
L V_Capacitor:C0402_47nF_25V_10% C13
U 1 1 5EEADADF
P 9000 4550
F 0 "C13" H 9100 4625 50  0000 L CNN
F 1 "CC0402_47NF_25V_10%_X7R" H 9000 4305 50  0001 L CNN
F 2 "PB560_BMS:CAPC1005X55N" H 9000 4230 50  0001 L CNN
F 3 "" H 9000 4155 50  0001 L CNN
F 4 "0402, Height=0.55mm" H 9000 3405 50  0001 L CNN "PackageDescription"
F 5 "Murata" H 9000 2880 50  0001 L CNN "Manufacturer"
F 6 "47nF" H 9100 4550 50  0000 L CNN "DisplayVal"
F 7 "1030-10048" H 0   0   50  0001 C CNN "Item Number"
F 8 "GRM155R71E473KA88D" H 0   0   50  0001 C CNN "Manufacturer_No"
	1    9000 4550
	1    0    0    -1  
$EndComp
Wire Wire Line
	9000 4700 9000 5050
Connection ~ 9000 5050
Wire Wire Line
	9000 5050 9400 5050
Wire Wire Line
	9700 5050 10050 5050
Wire Wire Line
	10050 5050 10050 4250
Wire Wire Line
	10550 4350 10150 4350
Wire Wire Line
	10550 4450 10250 4450
Text Label 10250 4450 0    50   ~ 0
NTC
Text Label 10250 4350 0    50   ~ 0
BAT1N
Text Label 10250 4250 0    50   ~ 0
BAT1P
Text Label 10250 4150 0    50   ~ 0
BAT2P
Text Label 10250 4050 0    50   ~ 0
BAT3P
Text Label 10250 3950 0    50   ~ 0
BAT4P
$Comp
L V_Diode:SMBJ30A D1
U 1 1 5EFDE06C
P 2150 3850
F 0 "D1" V 2200 3750 50  0000 R CNN
F 1 "SMBJ30A" V 2100 3450 50  0000 L CNN
F 2 "PB560_BMS:DIOM5336X265N" H 2150 3550 50  0001 L CNN
F 3 "" H 2150 3475 50  0001 L CNN
F 4 "DO-214-AA/SMB Diode, Molded Body; 5.34mm L X 3.625mm W X 2.65mm H, IPC Medium Density" H 2150 2875 50  0001 L CNN "PackageDescription"
F 5 "FAIRCHILD SEMICONDUCTOR" H 2150 2500 50  0001 L CNN "Manufacturer"
F 6 "DIODE SMB TRANSIL 30V 600W SMBJ30A" H 0   0   50  0001 C CNN "Description"
F 7 "1050-10026" H 0   0   50  0001 C CNN "Item Number"
F 8 "TVS UNI-DIRECTIONAL DIODE, 30V, 600W" H 0   0   50  0001 C CNN "Manufacturer_Desc"
F 9 "SMBJ30A" H 0   0   50  0001 C CNN "Manufacturer_No"
	1    2150 3850
	0    -1   -1   0   
$EndComp
$Comp
L V_Diode:BZX384-C4V7 D2
U 1 1 5EFE1A52
P 2000 4750
F 0 "D2" V 1875 4875 50  0000 R CNN
F 1 "BZX384-C4V7" V 1725 4450 50  0000 L CNN
F 2 "PB560_BMS:SOD2512X110N" H 2000 4450 50  0001 L CNN
F 3 "" H 2000 4375 50  0001 L CNN
F 4 "Small Outline Diode (SOD-323), 1.70mm W X 1.25mm L X 1.10mm H body,  IPC Medium Density" H 2000 3775 50  0001 L CNN "PackageDescription"
F 5 "NEXPERIA" H 2000 3400 50  0001 L CNN "Manufacturer"
F 6 "DIODE SOT23 ZENER 5% 4V7 225mW BZX84C4V7" H 0   0   50  0001 C CNN "Description"
F 7 "1050-10014" H 0   0   50  0001 C CNN "Item Number"
F 8 "BZX384-C4V7" H 0   0   50  0001 C CNN "Manufacturer_No"
	1    2000 4750
	0    -1   -1   0   
$EndComp
$Comp
L V_Capacitor:C0603_100nF_50V_10% C2
U 1 1 5EFE525D
P 1800 3950
F 0 "C2" H 1650 4000 50  0000 R CNN
F 1 "CC0603_100NF_50V_10%_X7R" H 1800 3705 50  0001 L CNN
F 2 "Capacitors SMD:CAPC1608X87N" H 1800 3630 50  0001 L CNN
F 3 "" H 1800 3555 50  0001 L CNN
F 4 "KEMET_RMS1" H 1800 2280 50  0001 L CNN "Manufacturer"
F 5 "CAPACITOR CERAMIC 100NF 50V 10% X7R 0603" H 0   0   50  0001 C CNN "Description"
F 6 "10021386" H 0   0   50  0001 C CNN "Item Number"
F 7 "C0603C104K5RACTU" H 0   0   50  0001 C CNN "Manufacturer_No"
F 8 "100nF" H 1650 3950 50  0000 R CNN "DisplayVal"
	1    1800 3950
	1    0    0    -1  
$EndComp
$Comp
L V_Capacitor:C0603_100nF_50V_10% C3
U 1 1 5F018038
P 1800 3400
F 0 "C3" H 1650 3450 50  0000 R CNN
F 1 "CC0603_100NF_50V_10%_X7R" H 1800 3155 50  0001 L CNN
F 2 "Capacitors SMD:CAPC1608X87N" H 1800 3080 50  0001 L CNN
F 3 "" H 1800 3005 50  0001 L CNN
F 4 "KEMET_RMS1" H 1800 1730 50  0001 L CNN "Manufacturer"
F 5 "CAPACITOR CERAMIC 100NF 50V 10% X7R 0603" H 0   0   50  0001 C CNN "Description"
F 6 "10021386" H 0   0   50  0001 C CNN "Item Number"
F 7 "C0603C104K5RACTU" H 0   0   50  0001 C CNN "Manufacturer_No"
F 8 "100nF" H 1650 3400 50  0000 R CNN "DisplayVal"
	1    1800 3400
	1    0    0    -1  
$EndComp
Wire Wire Line
	6150 3250 2800 3250
Wire Wire Line
	6150 3500 6150 3250
Wire Wire Line
	9350 3350 9350 3500
$Comp
L V_Resistor:R2512_0R027_1% R15
U 1 1 5ED2559E
P 9500 3500
F 0 "R15" V 9600 3500 50  0000 C CNN
F 1 "R2512_0R027_1%_2W_50PPM" H 9500 3305 50  0001 L CNN
F 2 "PB560_BMS:RESC6331X70N" H 9500 3230 50  0001 L CNN
F 3 "" H 9500 3155 50  0001 L CNN
F 4 "2512, Height=0.7mm" H 9500 2630 50  0001 L CNN "PackageDescription"
F 5 "KOA" H 9500 1880 50  0001 L CNN "Manufacturer"
F 6 "RESISTOR, 0.027 OHM, 2W, 1%, 2512" H 0   0   50  0001 C CNN "Description"
F 7 "0R027" V 9400 3500 50  0000 C CNN "DisplayVal"
F 8 "1011-10018" H 0   0   50  0001 C CNN "Item Number"
F 9 "TLRH3AWTTE27L0F" H 0   0   50  0001 C CNN "Manufacturer_No"
	1    9500 3500
	0    -1   -1   0   
$EndComp
Wire Wire Line
	9350 3500 6150 3500
Text Label 5650 4650 0    50   ~ 0
COPB
Text Label 5650 4750 0    50   ~ 0
VMPB
Text Label 5950 4850 0    50   ~ 0
DOPB
Text Label 5400 4950 0    50   ~ 0
VINIB
Text Label 5400 5050 0    50   ~ 0
CDTB
Text Label 5550 5150 0    50   ~ 0
CCTB
Text Label 7700 4400 0    50   ~ 0
VDDB
Text Label 7950 1750 0    50   ~ 0
VDDA
Text Label 7600 4750 0    50   ~ 0
VCB1
Text Label 7600 4850 0    50   ~ 0
VCB2
Text Label 7600 4950 0    50   ~ 0
VCB3
Text Label 7600 5050 0    50   ~ 0
VCB4
Wire Wire Line
	2150 4550 2000 4550
Wire Wire Line
	2000 4550 2000 4600
Wire Wire Line
	2000 4950 2000 4900
Wire Wire Line
	2000 6150 2000 4950
Connection ~ 2000 4950
Wire Wire Line
	2150 4000 2150 4200
Wire Wire Line
	2150 4200 1800 4200
Wire Wire Line
	1800 4200 1800 4100
Wire Wire Line
	2000 4950 1800 4950
Wire Wire Line
	1800 4950 1800 4200
Connection ~ 1800 4200
Wire Wire Line
	1800 3800 1800 3550
Wire Wire Line
	2150 3250 1800 3250
Connection ~ 1800 3250
Wire Wire Line
	1800 1300 2200 1300
Wire Wire Line
	550  4950 550  5200
Wire Wire Line
	550  5200 1250 5200
Wire Wire Line
	1250 5200 1250 4950
Wire Wire Line
	1250 4850 1500 4850
Wire Wire Line
	550  4650 550  4400
Wire Wire Line
	550  4400 1250 4400
Wire Wire Line
	1250 4400 1250 3250
Wire Wire Line
	1250 3250 1800 3250
Wire Wire Line
	1800 3250 1800 1300
Wire Wire Line
	2000 6150 9300 6150
Text Label 1500 4850 2    50   ~ 0
NTC
Text Label 2000 4550 0    50   ~ 0
MEM
$Comp
L V_Fuse:Thermodisc_G5A101128C F1
U 1 1 5F1EAB21
P 2350 1300
F 0 "F1" H 2350 1475 50  0000 C CNN
F 1 "Thermodisc_G5A101128C" H 2350 1095 50  0001 L CNN
F 2 "PB560_BMS:FUSE_G5A" H 2350 1020 50  0001 L CNN
F 3 "" H 2350 945 50  0001 L CNN
F 4 "Thermodisc" H 2350 -780 50  0001 L CNN "Manufacturer"
F 5 "Thermal Fuse, 128 degC" H 0   0   50  0001 C CNN "Description"
F 6 "128degC" H 2350 1400 50  0000 C CNN "DisplayVal"
F 7 "1150-10011" H 0   0   50  0001 C CNN "Item Number"
F 8 "G5A101128C" H 0   0   50  0001 C CNN "Manufacturer_No"
	1    2350 1300
	1    0    0    -1  
$EndComp
$Comp
L V_Capacitor:C0402_47nF_25V_10% C17
U 1 1 5ED058A5
P 8700 1900
F 0 "C17" H 8875 1975 50  0000 R CNN
F 1 "CC0402_47NF_25V_10%_X7R" H 8700 1655 50  0001 L CNN
F 2 "PB560_BMS:CAPC1005X55N" H 8700 1580 50  0001 L CNN
F 3 "" H 8700 1505 50  0001 L CNN
F 4 "0402, Height=0.55mm" H 8700 755 50  0001 L CNN "PackageDescription"
F 5 "Murata" H 8700 230 50  0001 L CNN "Manufacturer"
F 6 "47nF" H 8900 1825 50  0000 R CNN "DisplayVal"
F 7 "1030-10048" H 0   0   50  0001 C CNN "Item Number"
F 8 "GRM155R71E473KA88D" H 0   0   50  0001 C CNN "Manufacturer_No"
	1    8700 1900
	1    0    0    -1  
$EndComp
Wire Wire Line
	8600 2950 8900 2950
$Comp
L V_Capacitor:C1206_2u2F_50V_10% C11
U 1 1 5F31172D
P 8800 5250
F 0 "C11" H 8925 5300 50  0000 L CNN
F 1 "CC1206_2.2UF_50V_10%_X7R" H 8800 5005 50  0001 L CNN
F 2 "PB560_BMS:CAPC3216X180N" H 8800 4930 50  0001 L CNN
F 3 " " H 8800 4855 50  0001 L CNN
F 4 "1206, Height=1.8mm" H 8800 4105 50  0001 L CNN "PackageDescription"
F 5 "KEMET" H 8800 3580 50  0001 L CNN "Manufacturer"
F 6 "CAPACITOR, 2.2UF, +/-10%, 50V, X7R, MLCC" H 0   0   50  0001 C CNN "Description"
F 7 "2.2uF" H 8925 5200 50  0000 L CNN "DisplayVal"
F 8 "1030-10030" H 0   0   50  0001 C CNN "Item Number"
F 9 "C1206C225K5RACTU" H 0   0   50  0001 C CNN "Manufacturer_No"
	1    8800 5250
	1    0    0    -1  
$EndComp
Wire Wire Line
	8800 5100 8800 4400
Connection ~ 8800 4400
Wire Wire Line
	8800 5400 8800 5600
$Comp
L V_Capacitor:C1206_2u2F_50V_10% C12
U 1 1 5F393A86
P 8900 2550
F 0 "C12" H 9025 2625 50  0000 L CNN
F 1 "CC1206_2.2UF_50V_10%_X7R" H 8900 2305 50  0001 L CNN
F 2 "PB560_BMS:CAPC3216X180N" H 8900 2230 50  0001 L CNN
F 3 " " H 8900 2155 50  0001 L CNN
F 4 "1206, Height=1.8mm" H 8900 1405 50  0001 L CNN "PackageDescription"
F 5 "KEMET" H 8900 880 50  0001 L CNN "Manufacturer"
F 6 "CAPACITOR, 2.2UF, +/-10%, 50V, X7R, MLCC" H 0   0   50  0001 C CNN "Description"
F 7 "2.2uF" H 9025 2525 50  0000 L CNN "DisplayVal"
F 8 "1030-10030" H 0   0   50  0001 C CNN "Item Number"
F 9 "C1206C225K5RACTU" H 0   0   50  0001 C CNN "Manufacturer_No"
	1    8900 2550
	1    0    0    -1  
$EndComp
Wire Wire Line
	8900 2700 8900 2950
Connection ~ 8900 2950
Wire Wire Line
	8900 2950 8950 2950
Wire Wire Line
	8900 2400 8900 1750
Connection ~ 8900 1750
Wire Wire Line
	8900 1750 9200 1750
$Comp
L V_Transistor:Si4425DDY-T1-GE3 Q4
U 1 1 5EE3D29F
P 5550 4000
F 0 "Q4" V 5850 4025 50  0000 C CNN
F 1 "Si4425DDY-T1-GE3" H 5550 3155 50  0001 L CNN
F 2 "PB560_BMS:SOIC127P600X175-8N" H 5550 3080 50  0001 L CNN
F 3 " " H 5550 3005 50  0001 L CNN
F 4 "SOIC 8, Pitch 1.27mm - Body 4x5mm, IPC Medium Density, Height 1.75mm" H 5550 2405 50  0001 L CNN "PackageDescription"
F 5 "VISHAY SILICONIX" H 5550 2180 50  0001 L CNN "Manufacturer"
F 6 "MOSFET SO8 P-CHAN 13A 30V Si4425DDY" H 0   0   50  0001 C CNN "Description"
F 7 "1110-10066" H 0   0   50  0001 C CNN "Item Number"
F 8 "-30V -19.7A P-Channel MOSFET" H 0   0   50  0001 C CNN "Manufacturer_Desc"
F 9 "SI4425DDY-T1-GE3" H 0   0   50  0001 C CNN "Manufacturer_No"
	1    5550 4000
	0    -1   -1   0   
$EndComp
$Comp
L V_Capacitor:C0603_100nF_50V_10% C6
U 1 1 5EE3D374
P 5500 5450
F 0 "C6" H 5600 5525 50  0000 L CNN
F 1 "CC0603_100NF_50V_10%_X7R" H 5500 5205 50  0001 L CNN
F 2 "Capacitors SMD:CAPC1608X87N" H 5500 5130 50  0001 L CNN
F 3 "" H 5500 5055 50  0001 L CNN
F 4 "KEMET_RMS1" H 5500 3780 50  0001 L CNN "Manufacturer"
F 5 "CAPACITOR CERAMIC 100NF 50V 10% X7R 0603" H 0   0   50  0001 C CNN "Description"
F 6 "10021386" H 0   0   50  0001 C CNN "Item Number"
F 7 "C0603C104K5RACTU" H 0   0   50  0001 C CNN "Manufacturer_No"
F 8 "100nF" H 5600 5375 50  0000 L CNN "DisplayVal"
	1    5500 5450
	1    0    0    -1  
$EndComp
Text Label 2400 6150 0    50   ~ 0
PACKN
$Comp
L V_IC:DS2431P-A1+ U1
U 1 1 5EFDC2D7
P 2650 4750
F 0 "U1" H 2650 5100 50  0000 C CNN
F 1 "DS2431P-A1+" H 2650 3975 50  0001 L CNN
F 2 "ICs And Semiconductors SMD:MAXIM_TSOC-6" H 2650 3900 50  0001 L CNN
F 3 "" H 2650 3825 50  0001 L CNN
F 4 "MAXIM TSOC Case, 6 Pins, Pitch 1.27mm, 4mm W X 4.45mm L X 1.5mm H" H 2650 3225 50  0001 L CNN "PackageDescription"
F 5 "Maxim/Dallas" H 2650 3000 50  0001 L CNN "Manufacturer"
F 6 "1024-Bit 1-Wire EEPROM DS2431P-A1+" H 0   0   50  0001 C CNN "Description"
F 7 "1070-10159" H 0   0   50  0001 C CNN "Item Number"
F 8 "DS2431P-A1+" H 0   0   50  0001 C CNN "Manufacturer_No"
	1    2650 4750
	1    0    0    -1  
$EndComp
Wire Wire Line
	6050 5600 8550 5600
Connection ~ 8050 4400
Text Label 1800 1300 0    50   ~ 0
PACKP
$Comp
L V_IC:S-8254AAEFT-TB-G U2
U 1 1 5F56919E
P 6900 2350
F 0 "U2" H 6900 2900 50  0000 C CNN
F 1 "S-8254AAEFT-TB-G" H 5250 1225 50  0001 L CNN
F 2 "PB560_BMS:SOP65P640X120-16N" H 6900 500 50  0001 L CNN
F 3 "" H 6900 425 50  0001 L CNN
F 4 "TSSOP16, SOP, 0.65mm Pitch; 16 Pin, 4.40mm W X 5.00mm L X 1.20mm H body, IPC Medium Density" H 6900 -175 50  0001 L CNN "PackageDescription"
F 5 "Seiko Instruments" H 6900 -400 50  0001 L CNN "Manufacturer"
F 6 "1070-10023" H 0   0   50  0001 C CNN "Item Number"
F 7 "IC TSSOP16 LI-ION 3S/4S PROTECTION S- 8254AAEFT-TB-G" H 0   0   50  0001 C CNN "Manufacturer_Desc"
F 8 "S-8254AAEFT-TB-G" H 0   0   50  0001 C CNN "Manufacturer_No"
	1    6900 2350
	1    0    0    -1  
$EndComp
$Comp
L V_IC:S-8254AAEFT-TB-G U3
U 1 1 5F56BC6F
P 6850 5000
F 0 "U3" H 6850 5575 50  0000 C CNN
F 1 "S-8254AAEFT-TB-G" H 5200 3875 50  0001 L CNN
F 2 "PB560_BMS:SOP65P640X120-16N" H 6850 3150 50  0001 L CNN
F 3 "" H 6850 3075 50  0001 L CNN
F 4 "TSSOP16, SOP, 0.65mm Pitch; 16 Pin, 4.40mm W X 5.00mm L X 1.20mm H body, IPC Medium Density" H 6850 2475 50  0001 L CNN "PackageDescription"
F 5 "Seiko Instruments" H 6850 2250 50  0001 L CNN "Manufacturer"
F 6 "1070-10023" H 0   0   50  0001 C CNN "Item Number"
F 7 "IC TSSOP16 LI-ION 3S/4S PROTECTION S- 8254AAEFT-TB-G" H 0   0   50  0001 C CNN "Manufacturer_Desc"
F 8 "S-8254AAEFT-TB-G" H 0   0   50  0001 C CNN "Manufacturer_No"
	1    6850 5000
	1    0    0    -1  
$EndComp
Wire Wire Line
	10150 6150 9600 6150
Wire Wire Line
	10150 4350 10150 6150
NoConn ~ 3150 4950
NoConn ~ 3150 4750
NoConn ~ 3150 4550
NoConn ~ 2150 4750
NoConn ~ 7600 2700
NoConn ~ 6200 2700
NoConn ~ 7550 5350
NoConn ~ 6150 5350
NoConn ~ 550  4750
NoConn ~ 550  4850
NoConn ~ -300 1700
$Comp
L power:PWR_FLAG #FLG0101
U 1 1 5EDB920A
P 6100 2950
F 0 "#FLG0101" H 6100 3025 50  0001 C CNN
F 1 "PWR_FLAG" H 6100 3123 50  0000 C CNN
F 2 "" H 6100 2950 50  0001 C CNN
F 3 "~" H 6100 2950 50  0001 C CNN
	1    6100 2950
	-1   0    0    1   
$EndComp
$Comp
L power:PWR_FLAG #FLG0102
U 1 1 5EDC5ED6
P 6050 5600
F 0 "#FLG0102" H 6050 5675 50  0001 C CNN
F 1 "PWR_FLAG" H 6050 5773 50  0000 C CNN
F 2 "" H 6050 5600 50  0001 C CNN
F 3 "~" H 6050 5600 50  0001 C CNN
	1    6050 5600
	-1   0    0    1   
$EndComp
$Comp
L power:PWR_FLAG #FLG0103
U 1 1 5EDCC24F
P 1500 4950
F 0 "#FLG0103" H 1500 5025 50  0001 C CNN
F 1 "PWR_FLAG" H 1500 5123 50  0000 C CNN
F 2 "" H 1500 4950 50  0001 C CNN
F 3 "~" H 1500 4950 50  0001 C CNN
	1    1500 4950
	-1   0    0    1   
$EndComp
$Comp
L power:PWR_FLAG #FLG0104
U 1 1 5EDEBFE7
P 8050 4400
F 0 "#FLG0104" H 8050 4475 50  0001 C CNN
F 1 "PWR_FLAG" H 8050 4573 50  0000 C CNN
F 2 "" H 8050 4400 50  0001 C CNN
F 3 "~" H 8050 4400 50  0001 C CNN
	1    8050 4400
	1    0    0    -1  
$EndComp
$Comp
L power:PWR_FLAG #FLG0105
U 1 1 5EDED6C4
P 7850 1750
F 0 "#FLG0105" H 7850 1825 50  0001 C CNN
F 1 "PWR_FLAG" H 7850 1923 50  0000 C CNN
F 2 "" H 7850 1750 50  0001 C CNN
F 3 "~" H 7850 1750 50  0001 C CNN
	1    7850 1750
	1    0    0    -1  
$EndComp
$Comp
L V_Connector:BOURNS_70ADJ-4-FL0 P2
U 1 1 5EC7C84E
P 750 4550
F 0 "P2" H 900 4600 50  0000 C CNN
F 1 "70ADJ-4-FL0" H 900 4000 50  0000 C CNN
F 2 "PB560_BMS:BOURNS_70ADJ-4-FL0" H 750 3900 50  0001 L CNN
F 3 "" H 750 3825 50  0001 L CNN
F 4 "Bourns" H 750 2025 50  0001 L CNN "Manufacturer"
F 5 "CONNECTOR CONTACT (STD) SMT 4MM 4WAY" H 0   0   50  0001 C CNN "Description"
F 6 "1090-10050" H 0   0   50  0001 C CNN "Item Number"
F 7 "70ADJ-4-FL0" H 0   0   50  0001 C CNN "Manufacturer_No"
	1    750  4550
	1    0    0    -1  
$EndComp
Wire Wire Line
	1800 4950 1500 4950
Connection ~ 1800 4950
Connection ~ 1250 4950
Wire Wire Line
	1250 4650 1250 4400
Connection ~ 1250 4400
Wire Wire Line
	1250 4750 1500 4750
Wire Wire Line
	1500 4750 1500 4550
Wire Wire Line
	1500 4550 2000 4550
Connection ~ 2000 4550
Wire Wire Line
	3850 2100 3950 2100
Wire Wire Line
	3800 4750 3900 4750
Wire Wire Line
	8600 2400 8600 2500
Wire Wire Line
	5000 1200 5000 1300
Wire Wire Line
	5100 1200 5100 1300
Wire Wire Line
	4100 1300 4100 1400
Wire Wire Line
	6000 1300 6000 1400
Wire Wire Line
	5050 3850 5050 3950
Wire Wire Line
	5950 3950 5950 4050
Connection ~ 3950 2100
Wire Wire Line
	3950 2100 6150 2100
Wire Wire Line
	4600 2300 4600 2500
Connection ~ 3800 1300
Wire Wire Line
	3800 1300 4000 1300
Wire Wire Line
	2500 1300 3150 1300
Connection ~ 3150 1300
Wire Wire Line
	3150 1300 3800 1300
Connection ~ 5150 2950
Wire Wire Line
	5150 2950 5550 2950
Connection ~ 5550 2950
Wire Wire Line
	5550 2950 6100 2950
Wire Wire Line
	5150 2400 5150 2650
Connection ~ 4100 1300
Wire Wire Line
	4000 850  4400 850 
Wire Wire Line
	4700 850  5400 850 
Connection ~ 8600 2500
Wire Wire Line
	8600 2500 8600 2950
Wire Wire Line
	8100 2600 8350 2600
Wire Wire Line
	9600 2950 9650 2950
Wire Wire Line
	9250 2950 9300 2950
$Comp
L V_Inductor:L0402_MURATA_BLM15AG601SN1 L2
U 1 1 5ED11290
P 9450 2950
F 0 "L2" H 9450 3050 50  0000 C CNN
F 1 "IND0402_MURATA_BLM15AG601SN1" H 9450 2755 50  0001 L CNN
F 2 "PB560_BMS:INDC1005X55N" H 9450 2680 50  0001 L CNN
F 3 "" H 9450 2605 50  0001 L CNN
F 4 "MURATA" H 9450 1405 50  0001 L CNN "Manufacturer"
F 5 "SMD EMIFIL Suppression Chip Ferrite Bead" H 0   0   50  0001 C CNN "Description"
F 6 "600R@100MHz" H 9475 2850 50  0000 C CNN "DisplayVal"
F 7 "1130-10008" H 0   0   50  0001 C CNN "Item Number"
F 8 "BLM15AG601SN1" H 0   0   50  0001 C CNN "Manufacturer_No"
	1    9450 2950
	1    0    0    -1  
$EndComp
Wire Wire Line
	4950 3850 4950 3950
Wire Wire Line
	4450 4450 4450 4650
Wire Wire Line
	4050 3950 4050 4050
$Comp
L V_Transistor:Si4425DDY-T1-GE3 Q6
U 1 1 5EE3D2C8
P 4450 4000
F 0 "Q6" V 4750 4050 50  0000 C CNN
F 1 "Si4425DDY-T1-GE3" H 4450 3155 50  0001 L CNN
F 2 "PB560_BMS:SOIC127P600X175-8N" H 4450 3080 50  0001 L CNN
F 3 " " H 4450 3005 50  0001 L CNN
F 4 "SOIC 8, Pitch 1.27mm - Body 4x5mm, IPC Medium Density, Height 1.75mm" H 4450 2405 50  0001 L CNN "PackageDescription"
F 5 "VISHAY SILICONIX" H 4450 2180 50  0001 L CNN "Manufacturer"
F 6 "MOSFET SO8 P-CHAN 13A 30V Si4425DDY" H 0   0   50  0001 C CNN "Description"
F 7 "1110-10066" H 0   0   50  0001 C CNN "Item Number"
F 8 "-30V -19.7A P-Channel MOSFET" H 0   0   50  0001 C CNN "Manufacturer_Desc"
F 9 "SI4425DDY-T1-GE3" H 0   0   50  0001 C CNN "Manufacturer_No"
	1    4450 4000
	0    1    -1   0   
$EndComp
Connection ~ 4050 3950
Wire Wire Line
	4950 3950 4950 4050
Connection ~ 4950 3950
Wire Wire Line
	4950 4050 4950 4150
Connection ~ 4950 4050
Connection ~ 4950 4150
Wire Wire Line
	5050 3950 5050 4050
Connection ~ 5050 3950
Wire Wire Line
	5050 4050 5050 4150
Connection ~ 5050 4050
Connection ~ 5050 4150
Wire Wire Line
	2150 3250 2150 3700
Wire Wire Line
	2800 3950 3250 3950
Connection ~ 3250 3950
Wire Wire Line
	3250 3950 3750 3950
Wire Wire Line
	3750 3950 3950 3950
Connection ~ 3750 3950
Connection ~ 3900 4750
Wire Wire Line
	3900 4750 6100 4750
Connection ~ 5100 5600
Wire Wire Line
	5100 5600 5500 5600
Connection ~ 5500 5600
Wire Wire Line
	5500 5600 6050 5600
Wire Wire Line
	8550 5150 8550 5600
Wire Wire Line
	5000 1300 5000 1400
Connection ~ 5000 1300
Wire Wire Line
	5000 1400 5000 1500
Connection ~ 5000 1400
Connection ~ 5000 1500
Wire Wire Line
	5100 1500 5100 1400
Connection ~ 5100 1500
Wire Wire Line
	5100 1400 5100 1300
Connection ~ 5100 1400
Connection ~ 5100 1300
Wire Wire Line
	6000 1500 6000 1400
Connection ~ 6000 1400
Wire Wire Line
	4100 1500 4100 1400
Connection ~ 4100 1400
Wire Wire Line
	4050 4150 4050 4050
Connection ~ 4050 4050
Wire Wire Line
	5950 4150 5950 4050
Connection ~ 5950 4050
Wire Wire Line
	4650 3500 5350 3500
Connection ~ 1500 4950
Wire Wire Line
	1500 4950 1250 4950
Wire Wire Line
	2000 4950 2150 4950
$Comp
L V_Resistor:R0603_5k6_1% R2
U 1 1 5ECDEEC3
P 3150 1450
F 0 "R2" H 3225 1500 50  0000 L CNN
F 1 "R0603_5K6_1%_0.1W_100PPM" H 3150 1255 50  0001 L CNN
F 2 "Resistors SMD:RESC1608X55N" H 3150 1180 50  0001 L CNN
F 3 "" H 3150 1105 50  0001 L CNN
F 4 "YAGEO_RMS1" H 3150 -170 50  0001 L CNN "Manufacturer"
F 5 "RESISTOR,5.6K OHM,0.063W,+/-1%,0603" H 0   0   50  0001 C CNN "Description"
F 6 "10022714" H 0   0   50  0001 C CNN "Item Number"
F 7 "YAGEO_RMS1" H 0   0   50  0001 C CNN "Manufacturer2"
F 8 "VISHAY_RMS1" H 0   0   50  0001 C CNN "Manufacturer3"
F 9 "RC0603FR-075K6L" H 0   0   50  0001 C CNN "Manufacturer_No"
F 10 "RC0603FR-075K6L" H 0   0   50  0001 C CNN "Manufacturer_No2"
F 11 "CRCW06035K60FKEA" H 0   0   50  0001 C CNN "Manufacturer_No3"
F 12 "5k6" H 3225 1425 50  0000 L CNN "DisplayVal"
	1    3150 1450
	1    0    0    -1  
$EndComp
Connection ~ 8700 1750
Wire Wire Line
	8700 1750 8900 1750
Wire Wire Line
	7850 1750 8300 1750
Connection ~ 8300 1750
Wire Wire Line
	8300 1750 8700 1750
Wire Wire Line
	9650 3350 9650 3500
Connection ~ 9350 3500
Connection ~ 9650 3500
Wire Wire Line
	9650 3500 9650 3850
Wire Wire Line
	7550 4400 7800 4400
Connection ~ 7800 4400
Wire Wire Line
	7800 4400 8050 4400
Wire Wire Line
	8050 4400 8200 4400
Connection ~ 8200 4400
Wire Wire Line
	8050 4400 8050 5250
Wire Wire Line
	8200 4400 8600 4400
Connection ~ 8600 4400
Wire Wire Line
	8600 4400 8800 4400
Wire Wire Line
	8800 4400 9000 4400
Connection ~ 9000 4400
Wire Wire Line
	9000 4400 9150 4400
Connection ~ 9300 6150
Connection ~ 9600 6150
Wire Wire Line
	3600 5600 4150 5600
Connection ~ 4150 5600
Wire Wire Line
	4150 5600 5100 5600
Wire Wire Line
	3650 2950 4200 2950
Connection ~ 4200 2950
Wire Wire Line
	4200 2950 5150 2950
Connection ~ 8800 5600
$Comp
L V_Capacitor:C0603_100nF_50V_10% C9
U 1 1 5ECF8D2B
P 5150 2800
F 0 "C9" H 5025 2850 50  0000 R CNN
F 1 "CC0603_100NF_50V_10%_X7R" H 5150 2555 50  0001 L CNN
F 2 "Capacitors SMD:CAPC1608X87N" H 5150 2480 50  0001 L CNN
F 3 "" H 5150 2405 50  0001 L CNN
F 4 "KEMET_RMS1" H 5150 1130 50  0001 L CNN "Manufacturer"
F 5 "CAPACITOR CERAMIC 100NF 50V 10% X7R 0603" H 5150 2800 50  0001 C CNN "Description"
F 6 "10021386" H 5150 2800 50  0001 C CNN "Item Number"
F 7 "C0603C104K5RACTU" H 5150 2800 50  0001 C CNN "Manufacturer_No"
F 8 "100nF" H 5025 2750 50  0000 R CNN "DisplayVal"
	1    5150 2800
	1    0    0    -1  
$EndComp
$EndSCHEMATC
