.HEADER
BOARD_FILE 3.0 "CR-5000 Board Designer V14.010" 2014/03/20.15:10:58 1
GR106771-A MM
.END_HEADER
.BOARD_OUTLINE ECAD
1.60000000
0 76.00000000 0.00000000 0.00000
0 76.00000000 58.00000000 0.00000
0 0.00000000 58.00000000 0.00000
0 0.00000000 0.00000000 0.00000
0 76.00000000 0.00000000 0.00000
.END_BOARD_OUTLINE
.OTHER_OUTLINE ECAD
GR106771-A 1.60000000 TOP
0 76.00000000 0.00000000 0.00000
0 76.00000000 58.00000000 0.00000
0 0.00000000 58.00000000 0.00000
0 0.00000000 0.00000000 0.00000
0 76.00000000 0.00000000 0.00000
1 5.55000000 16.50000000 0.00000
1 4.45000000 16.50000000 -180.00000000
1 4.45000000 19.20000000 0.00000
1 5.55000000 19.20000000 -180.00000000
1 5.55000000 16.50000000 0.00000
2 35.89869000 19.76913000 0.00000
2 36.85131000 19.21913000 -180.00000000
2 35.50131000 16.88087000 0.00000
2 34.54869000 17.43087000 -180.00000000
2 35.89869000 19.76913000 0.00000
3 22.35000000 44.40000000 0.00000
3 22.35000000 43.30000000 -180.00000000
3 19.65000000 43.30000000 0.00000
3 19.65000000 44.40000000 -180.00000000
3 22.35000000 44.40000000 0.00000
4 44.65000000 42.30000000 0.00000
4 44.65000000 43.40000000 -180.00000000
4 47.35000000 43.40000000 0.00000
4 47.35000000 42.30000000 -180.00000000
4 44.65000000 42.30000000 0.00000
5 47.91913000 11.95131000 0.00000
5 47.36913000 10.99869000 -180.00000000
5 45.03087000 12.34869000 0.00000
5 45.58087000 13.30131000 -180.00000000
5 47.91913000 11.95131000 0.00000
6 72.55000000 25.50000000 0.00000
6 71.45000000 25.50000000 -180.00000000
6 71.45000000 28.20000000 0.00000
6 72.55000000 28.20000000 -180.00000000
6 72.55000000 25.50000000 0.00000
7 20.08000000 8.77000000 0.00000
7 20.48640000 8.77000000 360.00000
8 22.62000000 8.77000000 0.00000
8 23.02640000 8.77000000 360.00000
9 17.54000000 8.77000000 0.00000
9 17.94640000 8.77000000 360.00000
10 22.00000000 39.45000000 0.00000
10 22.66040000 39.45000000 360.00000
11 17.00000000 14.65000000 0.00000
11 17.66040000 14.65000000 360.00000
12 12.00000000 39.45000000 0.00000
12 12.66040000 39.45000000 360.00000
13 59.00000000 6.42000000 0.00000
13 59.66040000 6.42000000 360.00000
14 59.00000000 47.06000000 0.00000
14 59.66040000 47.06000000 360.00000
15 11.50000000 1.65100000 0.00000
15 11.65240000 1.65100000 360.00000
16 16.50000000 1.65100000 0.00000
16 16.65240000 1.65100000 360.00000
17 21.50000000 1.65100000 0.00000
17 21.65240000 1.65100000 360.00000
18 26.50000000 1.65100000 0.00000
18 26.65240000 1.65100000 360.00000
19 31.50000000 1.65100000 0.00000
19 31.65240000 1.65100000 360.00000
20 36.50000000 1.65100000 0.00000
20 36.65240000 1.65100000 360.00000
21 41.50000000 1.65100000 0.00000
21 41.65240000 1.65100000 360.00000
22 46.50000000 1.65100000 0.00000
22 46.65240000 1.65100000 360.00000
23 51.50000000 1.65100000 0.00000
23 51.65240000 1.65100000 360.00000
24 56.50000000 1.65100000 0.00000
24 56.65240000 1.65100000 360.00000
25 61.50000000 1.65100000 0.00000
25 61.65240000 1.65100000 360.00000
26 65.40500000 3.00000000 0.00000
26 65.55740000 3.00000000 360.00000
27 10.66800000 5.50000000 0.00000
27 10.82040000 5.50000000 360.00000
28 65.40500000 8.00000000 0.00000
28 65.55740000 8.00000000 360.00000
29 52.57800000 8.89000000 0.00000
29 52.73040000 8.89000000 360.00000
30 54.86400000 8.89000000 0.00000
30 55.01640000 8.89000000 360.00000
31 41.50000000 10.50000000 0.00000
31 41.65240000 10.50000000 360.00000
32 5.50000000 10.66800000 0.00000
32 5.65240000 10.66800000 360.00000
33 10.66800000 10.66800000 0.00000
33 10.82040000 10.66800000 360.00000
34 65.40500000 10.66800000 0.00000
34 65.55740000 10.66800000 360.00000
35 68.00000000 10.66800000 0.00000
35 68.15240000 10.66800000 360.00000
36 73.00000000 10.66800000 0.00000
36 73.15240000 10.66800000 360.00000
37 1.65100000 11.50000000 0.00000
37 1.80340000 11.50000000 360.00000
38 51.50000000 14.00000000 0.00000
38 51.65240000 14.00000000 360.00000
39 74.42200000 14.00000000 0.00000
39 74.57440000 14.00000000 360.00000
40 1.65100000 16.50000000 0.00000
40 1.80340000 16.50000000 360.00000
41 65.27800000 17.88160000 0.00000
41 65.43040000 17.88160000 360.00000
42 74.42200000 19.00000000 0.00000
42 74.57440000 19.00000000 360.00000
43 11.04900000 19.68500000 0.00000
43 11.20140000 19.68500000 360.00000
44 17.90700000 19.62150000 0.00000
44 18.05940000 19.62150000 360.00000
45 52.32400000 20.32000000 0.00000
45 52.47640000 20.32000000 360.00000
46 57.02300000 20.57400000 0.00000
46 57.17540000 20.57400000 360.00000
47 1.65100000 21.50000000 0.00000
47 1.80340000 21.50000000 360.00000
48 6.00000000 21.50000000 0.00000
48 6.15240000 21.50000000 360.00000
49 59.09700000 21.46300000 0.00000
49 59.24940000 21.46300000 360.00000
50 68.45300000 21.97100000 0.00000
50 68.60540000 21.97100000 360.00000
51 53.55200000 22.73300000 0.00000
51 53.70440000 22.73300000 360.00000
52 58.16600000 23.62200000 0.00000
52 58.31840000 23.62200000 360.00000
53 61.72200000 23.62200000 0.00000
53 61.87440000 23.62200000 360.00000
54 68.07200000 23.49500000 0.00000
54 68.22440000 23.49500000 360.00000
55 74.42200000 24.00000000 0.00000
55 74.57440000 24.00000000 360.00000
56 26.54300000 26.03500000 0.00000
56 26.69540000 26.03500000 360.00000
57 33.52800000 26.03500000 0.00000
57 33.68040000 26.03500000 360.00000
58 1.65100000 26.50000000 0.00000
58 1.80340000 26.50000000 360.00000
59 6.00000000 26.50000000 0.00000
59 6.15240000 26.50000000 360.00000
60 52.57800000 27.05100000 0.00000
60 52.73040000 27.05100000 360.00000
61 11.04900000 29.08300000 0.00000
61 11.20140000 29.08300000 360.00000
62 74.42200000 29.00000000 0.00000
62 74.57440000 29.00000000 360.00000
63 33.52800000 29.72711000 0.00000
63 33.68040000 29.72711000 360.00000
64 58.29300000 29.97200000 0.00000
64 58.44540000 29.97200000 360.00000
65 61.72200000 29.97200000 0.00000
65 61.87440000 29.97200000 360.00000
66 66.86550000 29.90850000 0.00000
66 67.01790000 29.90850000 360.00000
67 26.54300000 30.53778000 0.00000
67 26.69540000 30.53778000 360.00000
68 29.71800000 30.35300000 0.00000
68 29.87040000 30.35300000 360.00000
69 37.59200000 30.73400000 0.00000
69 37.74440000 30.73400000 360.00000
70 1.65100000 31.50000000 0.00000
70 1.80340000 31.50000000 360.00000
71 6.00000000 31.50000000 0.00000
71 6.15240000 31.50000000 360.00000
72 31.79200000 31.24200000 0.00000
72 31.94440000 31.24200000 360.00000
73 39.37000000 31.49600000 0.00000
73 39.52240000 31.49600000 360.00000
74 66.16700000 32.00400000 0.00000
74 66.31940000 32.00400000 360.00000
75 67.88150000 32.00400000 0.00000
75 68.03390000 32.00400000 360.00000
76 10.16000000 33.27400000 0.00000
76 10.31240000 33.27400000 360.00000
77 15.11300000 33.27400000 0.00000
77 15.26540000 33.27400000 360.00000
78 66.99250000 33.14700000 0.00000
78 67.14490000 33.14700000 360.00000
79 34.00000000 34.00000000 0.00000
79 34.15240000 34.00000000 360.00000
80 36.32200000 33.90900000 0.00000
80 36.47440000 33.90900000 360.00000
81 41.52900000 33.90900000 0.00000
81 41.68140000 33.90900000 360.00000
82 74.42200000 34.00000000 0.00000
82 74.57440000 34.00000000 360.00000
83 13.08100000 34.54400000 0.00000
83 13.23340000 34.54400000 360.00000
84 29.46400000 34.03600000 0.00000
84 29.61640000 34.03600000 360.00000
85 16.12900000 34.67100000 0.00000
85 16.28140000 34.67100000 360.00000
86 56.64200000 35.11550000 0.00000
86 56.79440000 35.11550000 360.00000
87 49.14900000 35.30600000 0.00000
87 49.30140000 35.30600000 360.00000
88 1.65100000 36.50000000 0.00000
88 1.80340000 36.50000000 360.00000
89 6.00000000 36.50000000 0.00000
89 6.15240000 36.50000000 360.00000
90 9.52500000 36.19500000 0.00000
90 9.67740000 36.19500000 360.00000
91 44.25950000 36.19500000 0.00000
91 44.41190000 36.19500000 360.00000
92 51.18100000 36.24050000 0.00000
92 51.33340000 36.24050000 360.00000
93 58.29300000 36.83000000 0.00000
93 58.44540000 36.83000000 360.00000
94 25.40000000 37.84600000 0.00000
94 25.55240000 37.84600000 360.00000
95 30.22600000 37.84600000 0.00000
95 30.37840000 37.84600000 360.00000
96 74.42200000 39.00000000 0.00000
96 74.57440000 39.00000000 360.00000
97 34.39160000 39.24300000 0.00000
97 34.54400000 39.24300000 360.00000
98 1.65100000 41.50000000 0.00000
98 1.80340000 41.50000000 360.00000
99 24.00000000 42.00000000 0.00000
99 24.15240000 42.00000000 360.00000
100 33.27400000 41.76750000 0.00000
100 33.42640000 41.76750000 360.00000
101 30.41650000 42.73550000 0.00000
101 30.56890000 42.73550000 360.00000
102 31.24200000 42.73550000 0.00000
102 31.39440000 42.73550000 360.00000
103 32.06750000 42.73550000 0.00000
103 32.21990000 42.73550000 360.00000
104 59.52100000 42.79900000 0.00000
104 59.67340000 42.79900000 360.00000
105 29.08300000 43.30700000 0.00000
105 29.23540000 43.30700000 360.00000
106 30.41650000 43.62450000 0.00000
106 30.56890000 43.62450000 360.00000
107 31.24200000 43.62450000 0.00000
107 31.39440000 43.62450000 360.00000
108 32.06750000 43.62450000 0.00000
108 32.21990000 43.62450000 360.00000
109 74.42200000 44.00000000 0.00000
109 74.57440000 44.00000000 360.00000
110 49.40300000 44.19600000 0.00000
110 49.55540000 44.19600000 360.00000
111 7.23900000 45.33900000 0.00000
111 7.39140000 45.33900000 360.00000
112 10.66800000 45.21200000 0.00000
112 10.82040000 45.21200000 360.00000
113 55.62600000 45.21200000 0.00000
113 55.77840000 45.21200000 360.00000
114 64.71920000 44.83100000 0.00000
114 64.87160000 44.83100000 360.00000
115 1.65100000 46.50000000 0.00000
115 1.80340000 46.50000000 360.00000
116 22.60600000 47.37100000 0.00000
116 22.75840000 47.37100000 360.00000
117 48.76800000 48.26000000 0.00000
117 48.92040000 48.26000000 360.00000
118 55.11800000 48.13300000 0.00000
118 55.27040000 48.13300000 360.00000
119 22.60600000 49.14900000 0.00000
119 22.75840000 49.14900000 360.00000
120 41.40200000 48.79340000 0.00000
120 41.55440000 48.79340000 360.00000
121 74.42200000 49.00000000 0.00000
121 74.57440000 49.00000000 360.00000
122 15.87500000 49.78400000 0.00000
122 16.02740000 49.78400000 360.00000
123 67.43700000 49.53000000 0.00000
123 67.58940000 49.53000000 360.00000
124 22.60600000 50.41900000 0.00000
124 22.75840000 50.41900000 360.00000
125 1.65100000 51.50000000 0.00000
125 1.80340000 51.50000000 360.00000
126 48.76800000 51.68900000 0.00000
126 48.92040000 51.68900000 360.00000
127 55.11800000 51.68900000 0.00000
127 55.27040000 51.68900000 360.00000
128 57.53100000 51.39300000 0.00000
128 57.68340000 51.39300000 360.00000
129 22.60600000 52.19700000 0.00000
129 22.75840000 52.19700000 360.00000
130 6.50000000 52.50000000 0.00000
130 6.65240000 52.50000000 360.00000
131 13.33500000 52.45100000 0.00000
131 13.48740000 52.45100000 360.00000
132 17.48050000 52.97700000 0.00000
132 17.63290000 52.97700000 360.00000
133 64.89700000 52.98440000 0.00000
133 65.04940000 52.98440000 360.00000
134 22.60600000 53.46700000 0.00000
134 22.75840000 53.46700000 360.00000
135 41.40200000 53.61940000 0.00000
135 41.55440000 53.61940000 360.00000
136 71.88200000 53.84800000 0.00000
136 72.03440000 53.84800000 360.00000
137 22.60600000 55.24500000 0.00000
137 22.75840000 55.24500000 360.00000
138 1.65100000 56.38800000 0.00000
138 1.80340000 56.38800000 360.00000
139 14.00000000 56.38800000 0.00000
139 14.15240000 56.38800000 360.00000
140 19.00000000 56.38800000 0.00000
140 19.15240000 56.38800000 360.00000
141 24.00000000 56.38800000 0.00000
141 24.15240000 56.38800000 360.00000
142 29.00000000 56.38800000 0.00000
142 29.15240000 56.38800000 360.00000
143 34.00000000 56.38800000 0.00000
143 34.15240000 56.38800000 360.00000
144 39.00000000 56.38800000 0.00000
144 39.15240000 56.38800000 360.00000
145 44.00000000 56.38800000 0.00000
145 44.15240000 56.38800000 360.00000
146 49.00000000 56.38800000 0.00000
146 49.15240000 56.38800000 360.00000
147 54.00000000 56.38800000 0.00000
147 54.15240000 56.38800000 360.00000
148 64.00000000 56.38800000 0.00000
148 64.15240000 56.38800000 360.00000
149 69.00000000 56.38800000 0.00000
149 69.15240000 56.38800000 360.00000
150 74.42200000 56.38800000 0.00000
150 74.57440000 56.38800000 360.00000
151 74.42200000 53.46700000 0.00000
151 74.57440000 53.46700000 360.00000
152 61.34100000 34.03600000 0.00000
152 61.49340000 34.03600000 360.00000
153 12.19200000 18.79600000 0.00000
153 12.34440000 18.79600000 360.00000
154 19.05000000 19.68500000 0.00000
154 19.20240000 19.68500000 360.00000
155 46.10100000 38.86200000 0.00000
155 46.25340000 38.86200000 360.00000
156 68.32600000 40.25900000 0.00000
156 68.47840000 40.25900000 360.00000
157 63.20400000 43.81500000 0.00000
157 63.35640000 43.81500000 360.00000
158 51.94300000 30.73400000 0.00000
158 52.09540000 30.73400000 360.00000
159 33.02000000 49.21250000 0.00000
159 33.17240000 49.21250000 360.00000
160 13.27150000 16.25600000 0.00000
160 13.42390000 16.25600000 360.00000
161 24.00300000 36.44900000 0.00000
161 24.15540000 36.44900000 360.00000
162 13.33500000 48.26000000 0.00000
162 13.48740000 48.26000000 360.00000
163 36.97848000 51.43500000 0.00000
163 37.13088000 51.43500000 360.00000
164 31.24200000 51.30800000 0.00000
164 31.39440000 51.30800000 360.00000
165 25.87914000 51.43500000 0.00000
165 26.03154000 51.43500000 360.00000
166 29.52750000 49.21250000 0.00000
166 29.67990000 49.21250000 360.00000
167 29.52750000 48.26000000 0.00000
167 29.67990000 48.26000000 360.00000
168 33.02000000 48.26000000 0.00000
168 33.17240000 48.26000000 360.00000
169 30.48000000 46.67250000 0.00000
169 30.63240000 46.67250000 360.00000
170 32.06750000 46.67250000 0.00000
170 32.21990000 46.67250000 360.00000
171 42.54500000 25.52700000 0.00000
171 42.69740000 25.52700000 360.00000
172 48.26000000 25.40000000 0.00000
172 48.41240000 25.40000000 360.00000
173 49.27600000 23.26250000 0.00000
173 49.42840000 23.26250000 360.00000
174 45.72000000 29.33700000 0.00000
174 45.87240000 29.33700000 360.00000
175 40.32250000 29.33700000 0.00000
175 40.47490000 29.33700000 360.00000
176 16.63700000 40.64000000 0.00000
176 16.78940000 40.64000000 360.00000
177 3.68300000 50.16500000 0.00000
177 4.03300000 50.16500000 360.00000
178 5.08000000 47.62500000 0.00000
178 5.43000000 47.62500000 360.00000
179 6.47700000 50.16500000 0.00000
179 6.82700000 50.16500000 360.00000
180 7.87400000 47.62500000 0.00000
180 8.22400000 47.62500000 360.00000
181 9.27100000 50.16500000 0.00000
181 9.62100000 50.16500000 360.00000
182 10.66800000 47.62500000 0.00000
182 11.01800000 47.62500000 360.00000
183 12.06500000 50.16500000 0.00000
183 12.41500000 50.16500000 360.00000
184 24.00300000 20.19300000 0.00000
184 24.15540000 20.19300000 360.00000
185 24.13000000 21.84400000 0.00000
185 24.28240000 21.84400000 360.00000
186 24.63800000 16.00200000 0.00000
186 24.79040000 16.00200000 360.00000
187 29.08300000 17.78000000 0.00000
187 29.23540000 17.78000000 360.00000
188 28.18130000 23.74900000 0.00000
188 28.33370000 23.74900000 360.00000
189 29.08300000 9.39800000 0.00000
189 29.23540000 9.39800000 360.00000
190 52.32400000 16.00200000 0.00000
190 52.47640000 16.00200000 360.00000
191 52.32400000 17.52600000 0.00000
191 52.47640000 17.52600000 360.00000
192 51.43500000 18.92300000 0.00000
192 51.58740000 18.92300000 360.00000
193 20.44700000 16.19250000 0.00000
193 20.59940000 16.19250000 360.00000
194 22.79650000 36.25850000 0.00000
194 22.94890000 36.25850000 360.00000
.END_OTHER_OUTLINE
.ROUTE_OUTLINE ECAD
ALL
0 75.00000000 1.00000000 0.00000
0 75.00000000 57.00000000 0.00000
0 1.00000000 57.00000000 0.00000
0 1.00000000 1.00000000 0.00000
0 75.00000000 1.00000000 0.00000
.END_ROUTE_OUTLINE
.PLACE_OUTLINE ECAD
BOTH 1.60000000
0 75.00000000 1.00000000 0.00000
0 75.00000000 57.00000000 0.00000
0 1.00000000 57.00000000 0.00000
0 1.00000000 1.00000000 0.00000
0 75.00000000 1.00000000 0.00000
.END_PLACE_OUTLINE
.ROUTE_KEEPOUT ECAD
BOTTOM
0 19.55800000 4.53433000 0.00000
0 20.57400000 4.53433000 0.00000
0 20.57400000 3.36768000 0.00000
0 19.55800000 3.36768000 0.00000
0 19.55800000 4.53433000 0.00000
.END_ROUTE_KEEPOUT
.ROUTE_KEEPOUT ECAD
ALL
0 10.00000000 0.00000000 0.00000
0 10.00000000 10.00000000 0.00000
0 0.00000000 10.00000000 0.00000
0 0.00000000 0.00000000 0.00000
0 10.00000000 0.00000000 0.00000
.END_ROUTE_KEEPOUT
.ROUTE_KEEPOUT ECAD
ALL
0 76.00000000 0.00000000 0.00000
0 76.00000000 10.00000000 0.00000
0 66.00000000 10.00000000 0.00000
0 66.00000000 0.00000000 0.00000
0 76.00000000 0.00000000 0.00000
.END_ROUTE_KEEPOUT
.PLACE_KEEPOUT ECAD
TOP 0.00000000
0 76.00000000 0.00000000 0.00000
0 76.00000000 10.00000000 0.00000
0 66.00000000 10.00000000 0.00000
0 66.00000000 0.00000000 0.00000
0 76.00000000 0.00000000 0.00000
.END_PLACE_KEEPOUT
.PLACE_KEEPOUT ECAD
TOP 0.00000000
0 10.00000000 0.00000000 0.00000
0 10.00000000 10.00000000 0.00000
0 0.00000000 10.00000000 0.00000
0 0.00000000 0.00000000 0.00000
0 10.00000000 0.00000000 0.00000
.END_PLACE_KEEPOUT
.PLACE_KEEPOUT ECAD
TOP 0.00000000
0 22.00000000 39.45000000 0.00000
0 25.00000000 39.45000000 360.00000
.END_PLACE_KEEPOUT
.PLACE_KEEPOUT ECAD
TOP 0.00000000
0 12.00000000 39.45000000 0.00000
0 15.00000000 39.45000000 360.00000
.END_PLACE_KEEPOUT
.PLACE_KEEPOUT ECAD
TOP 0.00000000
0 17.00000000 14.65000000 0.00000
0 20.00000000 14.65000000 360.00000
.END_PLACE_KEEPOUT
.PLACE_KEEPOUT ECAD
TOP 0.00000000
0 59.00000000 47.06000000 0.00000
0 62.00000000 47.06000000 360.00000
.END_PLACE_KEEPOUT
.PLACE_KEEPOUT ECAD
TOP 0.00000000
0 59.00000000 6.42000000 0.00000
0 62.00000000 6.42000000 360.00000
.END_PLACE_KEEPOUT
.PLACE_KEEPOUT ECAD
TOP 0.00000000
0 19.55800000 43.87850000 0.00000
0 22.55800000 43.87850000 360.00000
.END_PLACE_KEEPOUT
.PLACE_KEEPOUT ECAD
TOP 0.00000000
0 22.41550000 43.87850000 0.00000
0 25.41550000 43.87850000 360.00000
.END_PLACE_KEEPOUT
.PLACE_KEEPOUT ECAD
TOP 0.00000000
0 5.01650000 19.17700000 0.00000
0 8.01650000 19.17700000 360.00000
.END_PLACE_KEEPOUT
.PLACE_KEEPOUT ECAD
TOP 0.00000000
0 5.01650000 16.44650000 0.00000
0 8.01650000 16.44650000 360.00000
.END_PLACE_KEEPOUT
.PLACE_KEEPOUT ECAD
TOP 0.00000000
0 35.05200000 17.20850000 0.00000
0 38.05200000 17.20850000 360.00000
.END_PLACE_KEEPOUT
.PLACE_KEEPOUT ECAD
TOP 0.00000000
0 36.38550000 19.49450000 0.00000
0 39.38550000 19.49450000 360.00000
.END_PLACE_KEEPOUT
.PLACE_KEEPOUT ECAD
TOP 0.00000000
0 45.21200000 12.82700000 0.00000
0 48.21200000 12.82700000 360.00000
.END_PLACE_KEEPOUT
.PLACE_KEEPOUT ECAD
TOP 0.00000000
0 47.62500000 11.49350000 0.00000
0 50.62500000 11.49350000 360.00000
.END_PLACE_KEEPOUT
.PLACE_KEEPOUT ECAD
TOP 0.00000000
0 72.00900000 25.46350000 0.00000
0 75.00900000 25.46350000 360.00000
.END_PLACE_KEEPOUT
.PLACE_KEEPOUT ECAD
TOP 0.00000000
0 72.00900000 28.19400000 0.00000
0 75.00900000 28.19400000 360.00000
.END_PLACE_KEEPOUT
.PLACE_KEEPOUT ECAD
TOP 0.00000000
0 47.37100000 42.86250000 0.00000
0 50.37100000 42.86250000 360.00000
.END_PLACE_KEEPOUT
.PLACE_KEEPOUT ECAD
TOP 0.00000000
0 44.64050000 42.79900000 0.00000
0 47.64050000 42.79900000 360.00000
.END_PLACE_KEEPOUT
.PLACE_KEEPOUT ECAD
BOTTOM 0.00000000
0 76.00000000 0.00000000 0.00000
0 76.00000000 10.00000000 0.00000
0 66.00000000 10.00000000 0.00000
0 66.00000000 0.00000000 0.00000
0 76.00000000 0.00000000 0.00000
.END_PLACE_KEEPOUT
.PLACE_KEEPOUT ECAD
BOTTOM 0.00000000
0 10.00000000 0.00000000 0.00000
0 10.00000000 10.00000000 0.00000
0 0.00000000 10.00000000 0.00000
0 0.00000000 0.00000000 0.00000
0 10.00000000 0.00000000 0.00000
.END_PLACE_KEEPOUT
.PLACE_KEEPOUT ECAD
BOTTOM 0.10000000
0 47.00000000 0.00000000 0.00000
0 47.00000000 58.00000000 0.00000
0 33.00000000 58.00000000 0.00000
0 33.00000000 0.00000000 0.00000
0 47.00000000 0.00000000 0.00000
.END_PLACE_KEEPOUT
.PLACE_KEEPOUT ECAD
BOTTOM 0.00000000
0 25.05000000 45.95000000 0.00000
0 25.05000000 58.00000000 0.00000
0 0.00000000 58.00000000 0.00000
0 0.00000000 45.95000000 0.00000
0 25.05000000 45.95000000 0.00000
.END_PLACE_KEEPOUT
.DRILLED_HOLES
0.81280000 20.08000000 8.77000000 NPTH SW1 PIN ECAD
0.81280000 22.62000000 8.77000000 NPTH SW1 PIN ECAD
0.81280000 17.54000000 8.77000000 NPTH SW1 PIN ECAD
1.32080000 22.00000000 39.45000000 NPTH BAT1 PIN ECAD
1.32080000 17.00000000 14.65000000 NPTH BAT1 PIN ECAD
1.32080000 12.00000000 39.45000000 NPTH BAT1 PIN ECAD
1.32080000 59.00000000 6.42000000 NPTH C12 PIN ECAD
1.32080000 59.00000000 47.06000000 NPTH C12 PIN ECAD
0.30480000 11.50000000 1.65100000 NPTH BOARD VIA ECAD
0.30480000 16.50000000 1.65100000 NPTH BOARD VIA ECAD
0.30480000 21.50000000 1.65100000 NPTH BOARD VIA ECAD
0.30480000 26.50000000 1.65100000 NPTH BOARD VIA ECAD
0.30480000 31.50000000 1.65100000 NPTH BOARD VIA ECAD
0.30480000 36.50000000 1.65100000 NPTH BOARD VIA ECAD
0.30480000 41.50000000 1.65100000 NPTH BOARD VIA ECAD
0.30480000 46.50000000 1.65100000 NPTH BOARD VIA ECAD
0.30480000 51.50000000 1.65100000 NPTH BOARD VIA ECAD
0.30480000 56.50000000 1.65100000 NPTH BOARD VIA ECAD
0.30480000 61.50000000 1.65100000 NPTH BOARD VIA ECAD
0.30480000 65.40500000 3.00000000 NPTH BOARD VIA ECAD
0.30480000 10.66800000 5.50000000 NPTH BOARD VIA ECAD
0.30480000 65.40500000 8.00000000 NPTH BOARD VIA ECAD
0.30480000 52.57800000 8.89000000 NPTH BOARD VIA ECAD
0.30480000 54.86400000 8.89000000 NPTH BOARD VIA ECAD
0.30480000 41.50000000 10.50000000 NPTH BOARD VIA ECAD
0.30480000 5.50000000 10.66800000 NPTH BOARD VIA ECAD
0.30480000 10.66800000 10.66800000 NPTH BOARD VIA ECAD
0.30480000 65.40500000 10.66800000 NPTH BOARD VIA ECAD
0.30480000 68.00000000 10.66800000 NPTH BOARD VIA ECAD
0.30480000 73.00000000 10.66800000 NPTH BOARD VIA ECAD
0.30480000 1.65100000 11.50000000 NPTH BOARD VIA ECAD
0.30480000 51.50000000 14.00000000 NPTH BOARD VIA ECAD
0.30480000 74.42200000 14.00000000 NPTH BOARD VIA ECAD
0.30480000 1.65100000 16.50000000 NPTH BOARD VIA ECAD
0.30480000 65.27800000 17.88160000 NPTH BOARD VIA ECAD
0.30480000 74.42200000 19.00000000 NPTH BOARD VIA ECAD
0.30480000 11.04900000 19.68500000 NPTH BOARD VIA ECAD
0.30480000 17.90700000 19.62150000 NPTH BOARD VIA ECAD
0.30480000 52.32400000 20.32000000 NPTH BOARD VIA ECAD
0.30480000 57.02300000 20.57400000 NPTH BOARD VIA ECAD
0.30480000 1.65100000 21.50000000 NPTH BOARD VIA ECAD
0.30480000 6.00000000 21.50000000 NPTH BOARD VIA ECAD
0.30480000 59.09700000 21.46300000 NPTH BOARD VIA ECAD
0.30480000 68.45300000 21.97100000 NPTH BOARD VIA ECAD
0.30480000 53.55200000 22.73300000 NPTH BOARD VIA ECAD
0.30480000 58.16600000 23.62200000 NPTH BOARD VIA ECAD
0.30480000 61.72200000 23.62200000 NPTH BOARD VIA ECAD
0.30480000 68.07200000 23.49500000 NPTH BOARD VIA ECAD
0.30480000 74.42200000 24.00000000 NPTH BOARD VIA ECAD
0.30480000 26.54300000 26.03500000 NPTH BOARD VIA ECAD
0.30480000 33.52800000 26.03500000 NPTH BOARD VIA ECAD
0.30480000 1.65100000 26.50000000 NPTH BOARD VIA ECAD
0.30480000 6.00000000 26.50000000 NPTH BOARD VIA ECAD
0.30480000 52.57800000 27.05100000 NPTH BOARD VIA ECAD
0.30480000 11.04900000 29.08300000 NPTH BOARD VIA ECAD
0.30480000 74.42200000 29.00000000 NPTH BOARD VIA ECAD
0.30480000 33.52800000 29.72711000 NPTH BOARD VIA ECAD
0.30480000 58.29300000 29.97200000 NPTH BOARD VIA ECAD
0.30480000 61.72200000 29.97200000 NPTH BOARD VIA ECAD
0.30480000 66.86550000 29.90850000 NPTH BOARD VIA ECAD
0.30480000 26.54300000 30.53778000 NPTH BOARD VIA ECAD
0.30480000 29.71800000 30.35300000 NPTH BOARD VIA ECAD
0.30480000 37.59200000 30.73400000 NPTH BOARD VIA ECAD
0.30480000 1.65100000 31.50000000 NPTH BOARD VIA ECAD
0.30480000 6.00000000 31.50000000 NPTH BOARD VIA ECAD
0.30480000 31.79200000 31.24200000 NPTH BOARD VIA ECAD
0.30480000 39.37000000 31.49600000 NPTH BOARD VIA ECAD
0.30480000 66.16700000 32.00400000 NPTH BOARD VIA ECAD
0.30480000 67.88150000 32.00400000 NPTH BOARD VIA ECAD
0.30480000 10.16000000 33.27400000 NPTH BOARD VIA ECAD
0.30480000 15.11300000 33.27400000 NPTH BOARD VIA ECAD
0.30480000 66.99250000 33.14700000 NPTH BOARD VIA ECAD
0.30480000 34.00000000 34.00000000 NPTH BOARD VIA ECAD
0.30480000 36.32200000 33.90900000 NPTH BOARD VIA ECAD
0.30480000 41.52900000 33.90900000 NPTH BOARD VIA ECAD
0.30480000 74.42200000 34.00000000 NPTH BOARD VIA ECAD
0.30480000 13.08100000 34.54400000 NPTH BOARD VIA ECAD
0.30480000 29.46400000 34.03600000 NPTH BOARD VIA ECAD
0.30480000 16.12900000 34.67100000 NPTH BOARD VIA ECAD
0.30480000 56.64200000 35.11550000 NPTH BOARD VIA ECAD
0.30480000 49.14900000 35.30600000 NPTH BOARD VIA ECAD
0.30480000 1.65100000 36.50000000 NPTH BOARD VIA ECAD
0.30480000 6.00000000 36.50000000 NPTH BOARD VIA ECAD
0.30480000 9.52500000 36.19500000 NPTH BOARD VIA ECAD
0.30480000 44.25950000 36.19500000 NPTH BOARD VIA ECAD
0.30480000 51.18100000 36.24050000 NPTH BOARD VIA ECAD
0.30480000 58.29300000 36.83000000 NPTH BOARD VIA ECAD
0.30480000 25.40000000 37.84600000 NPTH BOARD VIA ECAD
0.30480000 30.22600000 37.84600000 NPTH BOARD VIA ECAD
0.30480000 74.42200000 39.00000000 NPTH BOARD VIA ECAD
0.30480000 34.39160000 39.24300000 NPTH BOARD VIA ECAD
0.30480000 1.65100000 41.50000000 NPTH BOARD VIA ECAD
0.30480000 24.00000000 42.00000000 NPTH BOARD VIA ECAD
0.30480000 33.27400000 41.76750000 NPTH BOARD VIA ECAD
0.30480000 30.41650000 42.73550000 NPTH BOARD VIA ECAD
0.30480000 31.24200000 42.73550000 NPTH BOARD VIA ECAD
0.30480000 32.06750000 42.73550000 NPTH BOARD VIA ECAD
0.30480000 59.52100000 42.79900000 NPTH BOARD VIA ECAD
0.30480000 29.08300000 43.30700000 NPTH BOARD VIA ECAD
0.30480000 30.41650000 43.62450000 NPTH BOARD VIA ECAD
0.30480000 31.24200000 43.62450000 NPTH BOARD VIA ECAD
0.30480000 32.06750000 43.62450000 NPTH BOARD VIA ECAD
0.30480000 74.42200000 44.00000000 NPTH BOARD VIA ECAD
0.30480000 49.40300000 44.19600000 NPTH BOARD VIA ECAD
0.30480000 7.23900000 45.33900000 NPTH BOARD VIA ECAD
0.30480000 10.66800000 45.21200000 NPTH BOARD VIA ECAD
0.30480000 55.62600000 45.21200000 NPTH BOARD VIA ECAD
0.30480000 64.71920000 44.83100000 NPTH BOARD VIA ECAD
0.30480000 1.65100000 46.50000000 NPTH BOARD VIA ECAD
0.30480000 22.60600000 47.37100000 NPTH BOARD VIA ECAD
0.30480000 48.76800000 48.26000000 NPTH BOARD VIA ECAD
0.30480000 55.11800000 48.13300000 NPTH BOARD VIA ECAD
0.30480000 22.60600000 49.14900000 NPTH BOARD VIA ECAD
0.30480000 41.40200000 48.79340000 NPTH BOARD VIA ECAD
0.30480000 74.42200000 49.00000000 NPTH BOARD VIA ECAD
0.30480000 15.87500000 49.78400000 NPTH BOARD VIA ECAD
0.30480000 67.43700000 49.53000000 NPTH BOARD VIA ECAD
0.30480000 22.60600000 50.41900000 NPTH BOARD VIA ECAD
0.30480000 1.65100000 51.50000000 NPTH BOARD VIA ECAD
0.30480000 48.76800000 51.68900000 NPTH BOARD VIA ECAD
0.30480000 55.11800000 51.68900000 NPTH BOARD VIA ECAD
0.30480000 57.53100000 51.39300000 NPTH BOARD VIA ECAD
0.30480000 22.60600000 52.19700000 NPTH BOARD VIA ECAD
0.30480000 6.50000000 52.50000000 NPTH BOARD VIA ECAD
0.30480000 13.33500000 52.45100000 NPTH BOARD VIA ECAD
0.30480000 17.48050000 52.97700000 NPTH BOARD VIA ECAD
0.30480000 64.89700000 52.98440000 NPTH BOARD VIA ECAD
0.30480000 22.60600000 53.46700000 NPTH BOARD VIA ECAD
0.30480000 41.40200000 53.61940000 NPTH BOARD VIA ECAD
0.30480000 71.88200000 53.84800000 NPTH BOARD VIA ECAD
0.30480000 22.60600000 55.24500000 NPTH BOARD VIA ECAD
0.30480000 1.65100000 56.38800000 NPTH BOARD VIA ECAD
0.30480000 14.00000000 56.38800000 NPTH BOARD VIA ECAD
0.30480000 19.00000000 56.38800000 NPTH BOARD VIA ECAD
0.30480000 24.00000000 56.38800000 NPTH BOARD VIA ECAD
0.30480000 29.00000000 56.38800000 NPTH BOARD VIA ECAD
0.30480000 34.00000000 56.38800000 NPTH BOARD VIA ECAD
0.30480000 39.00000000 56.38800000 NPTH BOARD VIA ECAD
0.30480000 44.00000000 56.38800000 NPTH BOARD VIA ECAD
0.30480000 49.00000000 56.38800000 NPTH BOARD VIA ECAD
0.30480000 54.00000000 56.38800000 NPTH BOARD VIA ECAD
0.30480000 64.00000000 56.38800000 NPTH BOARD VIA ECAD
0.30480000 69.00000000 56.38800000 NPTH BOARD VIA ECAD
0.30480000 74.42200000 56.38800000 NPTH BOARD VIA ECAD
0.30480000 74.42200000 53.46700000 NPTH BOARD VIA ECAD
0.30480000 61.34100000 34.03600000 NPTH BOARD VIA ECAD
0.30480000 12.19200000 18.79600000 NPTH BOARD VIA ECAD
0.30480000 19.05000000 19.68500000 NPTH BOARD VIA ECAD
0.30480000 46.10100000 38.86200000 NPTH BOARD VIA ECAD
0.30480000 68.32600000 40.25900000 NPTH BOARD VIA ECAD
0.30480000 63.20400000 43.81500000 NPTH BOARD VIA ECAD
0.30480000 51.94300000 30.73400000 NPTH BOARD VIA ECAD
0.30480000 33.02000000 49.21250000 NPTH BOARD VIA ECAD
0.30480000 13.27150000 16.25600000 NPTH BOARD VIA ECAD
0.30480000 24.00300000 36.44900000 NPTH BOARD VIA ECAD
0.30480000 13.33500000 48.26000000 NPTH BOARD VIA ECAD
0.30480000 36.97848000 51.43500000 NPTH BOARD VIA ECAD
0.30480000 31.24200000 51.30800000 NPTH BOARD VIA ECAD
0.30480000 25.87914000 51.43500000 NPTH BOARD VIA ECAD
0.30480000 29.52750000 49.21250000 NPTH BOARD VIA ECAD
0.30480000 29.52750000 48.26000000 NPTH BOARD VIA ECAD
0.30480000 33.02000000 48.26000000 NPTH BOARD VIA ECAD
0.30480000 30.48000000 46.67250000 NPTH BOARD VIA ECAD
0.30480000 32.06750000 46.67250000 NPTH BOARD VIA ECAD
0.30480000 42.54500000 25.52700000 NPTH BOARD VIA ECAD
0.30480000 48.26000000 25.40000000 NPTH BOARD VIA ECAD
0.30480000 49.27600000 23.26250000 NPTH BOARD VIA ECAD
0.30480000 45.72000000 29.33700000 NPTH BOARD VIA ECAD
0.30480000 40.32250000 29.33700000 NPTH BOARD VIA ECAD
0.30480000 16.63700000 40.64000000 NPTH BOARD VIA ECAD
0.70000000 3.68300000 50.16500000 NPTH J1 PIN ECAD
0.70000000 5.08000000 47.62500000 NPTH J1 PIN ECAD
0.70000000 6.47700000 50.16500000 NPTH J1 PIN ECAD
0.70000000 7.87400000 47.62500000 NPTH J1 PIN ECAD
0.70000000 9.27100000 50.16500000 NPTH J1 PIN ECAD
0.70000000 10.66800000 47.62500000 NPTH J1 PIN ECAD
0.70000000 12.06500000 50.16500000 NPTH J1 PIN ECAD
0.30480000 24.00300000 20.19300000 NPTH BOARD VIA ECAD
0.30480000 24.13000000 21.84400000 NPTH BOARD VIA ECAD
0.30480000 24.63800000 16.00200000 NPTH BOARD VIA ECAD
0.30480000 29.08300000 17.78000000 NPTH BOARD VIA ECAD
0.30480000 28.18130000 23.74900000 NPTH BOARD VIA ECAD
0.30480000 29.08300000 9.39800000 NPTH BOARD VIA ECAD
0.30480000 52.32400000 16.00200000 NPTH BOARD VIA ECAD
0.30480000 52.32400000 17.52600000 NPTH BOARD VIA ECAD
0.30480000 51.43500000 18.92300000 NPTH BOARD VIA ECAD
0.30480000 20.44700000 16.19250000 NPTH BOARD VIA ECAD
0.30480000 22.79650000 36.25850000 NPTH BOARD VIA ECAD
.END_DRILLED_HOLES
.PLACEMENT
C0603_100000 C0603_100000 C20
63.75400000 34.41700000 0.00000000 0.00000000 TOP PLACED
C1210_190000 C1210_190000 C21
26.67000000 53.97500000 0.00000000 0.00000000 TOP PLACED
RC1206_152400 RC1206_152400 C22
31.24200000 54.10200000 0.00000000 90.00000000 TOP PLACED
C1210_190000 C1210_190000 C23
36.19500000 53.97500000 0.00000000 180.00000000 TOP PLACED
C0805_130000 C0805_130000 C24
38.48100000 43.94200000 0.00000000 180.00000000 TOP PLACED
C0402_60000 C0402_60000 C25
31.24200000 39.49700000 0.00000000 90.00000000 TOP PLACED
RC1206_152400 RC1206_152400 C26
35.81400000 36.95700000 0.00000000 0.00000000 TOP PLACED
C0402_60000 C0402_60000 C27
32.25800000 36.70300000 0.00000000 90.00000000 TOP PLACED
C0402_60000 C0402_60000 C28
27.55900000 38.86200000 0.00000000 180.00000000 TOP PLACED
RC1206_152400 RC1206_152400 C29
28.06700000 36.06800000 0.00000000 180.00000000 TOP PLACED
C0402_60000 C0402_60000 C30
58.54700000 20.57400000 0.00000000 180.00000000 TOP PLACED
C0402_60000 C0402_60000 C31
27.55900000 34.16300000 0.00000000 180.00000000 TOP PLACED
C0402_60000 C0402_60000 C32
35.81400000 35.05200000 0.00000000 180.00000000 TOP PLACED
C0402_60000 C0402_60000 C33
48.26000000 23.81250000 0.00000000 90.00000000 TOP PLACED
C0402_60000 C0402_60000 C34
43.49750000 23.81250000 0.00000000 270.00000000 TOP PLACED
C0402_60000 C0402_60000 C35
63.75400000 42.92600000 0.00000000 0.00000000 TOP PLACED
PKM33EPH-1201C_1050000 PKM33EPH-1201C_1050000 BUZ1
21.00000000 26.85000000 0.00000000 0.00000000 TOP FIXED
PKM33EPH-1201C_1050000 PKM33EPH-1201C_1050000 BUZ2
55.00000000 26.85000000 0.00000000 270.00000000 TOP FIXED
D0603_100000 D0603_100000 LD1
38.98900000 13.58900000 0.00000000 180.00000000 TOP PLACED
FABRICATION_10000 FABRICATION_10000 cam12
-106.77129000 72.58752000 0.00000000 0.00000000 TOP PLACED
PERCAGE_TABLEAU_10000 PERCAGE_TABLEAU_10000 cam13
-106.68000000 -48.51400000 0.00000000 0.00000000 TOP PLACED
A3_PER_COVIDIEN_10000 A3_PER_COVIDIEN_10000 cam14
-10.47750000 -10.92200000 0.00000000 0.00000000 TOP PLACED
C0612-4_127000 C0612-4_127000 C1
7.23900000 43.18000000 0.00000000 180.00000000 TOP PLACED
C0402_60000 C0402_60000 C2
14.85900000 52.45100000 0.00000000 0.00000000 TOP PLACED
NR4012_120000 NR4012_120000 L3-2
36.19500000 48.26000000 0.00000000 0.00000000 TOP PLACED
C0805_130000 C0805_130000 C3
54.10200000 30.73400000 0.00000000 0.00000000 TOP PLACED
C0402_60000 C0402_60000 C4
54.10200000 27.05100000 0.00000000 180.00000000 TOP PLACED
C0402_60000 C0402_60000 C5
50.67300000 35.30600000 0.00000000 180.00000000 TOP PLACED
C0402_60000 C0402_60000 C6
54.10200000 29.21000000 0.00000000 180.00000000 TOP PLACED
C0402_60000 C0402_60000 C7
60.07100000 29.97200000 0.00000000 180.00000000 TOP PLACED
C0402_60000 C0402_60000 C8
60.07100000 23.62200000 0.00000000 0.00000000 TOP PLACED
A3_EQFC_COVIDIEN_10000 A3_EQFC_COVIDIEN_10000 cam1
28.51150000 14.35100000 0.00000000 0.00000000 TOP PLACED
C0402_60000 C0402_60000 C9
53.46700000 43.56100000 0.00000000 270.00000000 TOP PLACED
PER-COVIDIEN_TEXTE_10000 PER-COVIDIEN_TEXTE_10000 cam2
5.84200000 -19.55800000 0.00000000 0.00000000 TOP PLACED
A3_EQFS_COVIDIEN_10000 A3_EQFS_COVIDIEN_10000 cam3
61.40450000 14.85900000 0.00000000 0.00000000 BOTTOM PLACED
FILM13_HORIZONTAL_10000 FILM13_HORIZONTAL_10000 cam5
34.61000000 26.25900000 0.00000000 0.00000000 TOP PLACED
COIN_EXTERNE_10000 COIN_EXTERNE_10000 cam6
0.00000000 58.00000000 0.00000000 0.00000000 TOP PLACED
COIN_EXTERNE_10000 COIN_EXTERNE_10000 cam7
0.00000000 0.00000000 0.00000000 90.00000000 TOP PLACED
COIN_EXTERNE_10000 COIN_EXTERNE_10000 cam8
76.00000000 0.00000000 0.00000000 180.00000000 TOP PLACED
WE-FA_127000 WE-FA_127000 FI1
7.23900000 40.00500000 0.00000000 0.00000000 TOP PLACED
DO216AA_120000 DO216AA_120000 D1
46.86300000 34.79800000 0.00000000 90.00000000 TOP PLACED
COIN_EXTERNE_10000 COIN_EXTERNE_10000 cam9
76.00000000 58.00000000 0.00000000 270.00000000 TOP PLACED
SOT23-1G_121920 SOT23-1G_121920 D2
54.10200000 40.51300000 0.00000000 0.00000000 TOP PLACED
SOT23-1G_121920 SOT23-1G_121920 D3
67.43700000 47.24400000 0.00000000 0.00000000 TOP PLACED
SOT23-1G_121920 SOT23-1G_121920 D4
67.43700000 51.94300000 0.00000000 0.00000000 TOP PLACED
SOT23-1G_121920 SOT23-1G_121920 D5
66.54800000 18.92300000 0.00000000 180.00000000 TOP PLACED
SOT23-1G_121920 SOT23-1G_121920 D6
15.62100000 21.33600000 0.00000000 0.00000000 TOP PLACED
SOT23-1G_121920 SOT23-1G_121920 D7
26.35250000 21.27250000 0.00000000 0.00000000 TOP PLACED
DO216AA_120000 DO216AA_120000 D8
18.54200000 33.90900000 0.00000000 270.00000000 TOP PLACED
SOT23-1G_121920 SOT23-1G_121920 D9
60.07100000 34.29000000 0.00000000 180.00000000 TOP PLACED
NK236_1_750000 NK236_1_750000 SW1
20.08000000 8.77000000 0.00000000 180.00000000 BOTTOM PLACED
BAR7-3-2-COVIDIEN_0 BAR7-3-2-COVIDIEN_0 J1
3.68300000 50.16500000 0.00000000 0.00000000 TOP PLACED
MIRECMS-SAFT_0 MIRECMS-SAFT_0 J2
71.88200000 49.65700000 0.00000000 0.00000000 TOP PLACED
MIRECMS-SAFT_0 MIRECMS-SAFT_0 J3
12.57300000 3.81000000 0.00000000 0.00000000 TOP PLACED
DO216AA_120000 DO216AA_120000 D10
18.92300000 54.35600000 0.00000000 180.00000000 TOP PLACED
DO216AA_120000 DO216AA_120000 D11
18.92300000 48.26000000 0.00000000 180.00000000 TOP PLACED
DO216AA_120000 DO216AA_120000 D12
39.37000000 35.30600000 0.00000000 90.00000000 TOP PLACED
DO216AA_120000 DO216AA_120000 D13
27.55900000 42.54500000 0.00000000 90.00000000 TOP PLACED
DO216AA_120000 DO216AA_120000 D14
18.92300000 51.30800000 0.00000000 180.00000000 TOP PLACED
SOT23-1G_121920 SOT23-1G_121920 D15
14.28750000 44.45000000 0.00000000 180.00000000 TOP PLACED
SOT23-1G_121920 SOT23-1G_121920 D16
30.16250000 20.00250000 0.00000000 270.00000000 TOP PLACED
SOT23-1G_121920 SOT23-1G_121920 D17
26.35250000 17.14500000 0.00000000 180.00000000 TOP PLACED
RC1206_152400 RC1206_152400 L1
13.58900000 54.35600000 0.00000000 0.00000000 TOP PLACED
WETPC-S_180340 WETPC-S_180340 L2
26.35250000 48.26000000 0.00000000 180.00000000 TOP PLACED
WETPC-S_180340 WETPC-S_180340 L3
36.19500000 48.26000000 0.00000000 0.00000000 TOP PLACED
WETPC-S_180340 WETPC-S_180340 L4
37.71900000 40.51300000 0.00000000 180.00000000 TOP PLACED
TB-CMS-AIROX_0 TB-CMS-AIROX_0 JP1
71.88200000 53.84800000 0.00000000 0.00000000 TOP PLACED
SOT23-5_150000 SOT23-5_150000 IC1
54.10200000 34.29000000 0.00000000 90.00000000 TOP PLACED
MX.A8_COMPOSANT_180000 MX.A8_COMPOSANT_180000 IC2
60.07100000 26.79700000 0.00000000 270.00000000 TOP PLACED
MX.A8_COMPOSANT_180000 MX.A8_COMPOSANT_180000 IC3
51.94300000 49.91100000 0.00000000 0.00000000 TOP PLACED
SOT23-5_150000 SOT23-5_150000 IC4
58.54700000 18.28800000 0.00000000 90.00000000 TOP PLACED
MX.A8_COMPOSANT_180000 MX.A8_COMPOSANT_180000 IC5
23.36800000 27.55900000 0.00000000 180.00000000 TOP PLACED
MX.A8_COMPOSANT_180000 MX.A8_COMPOSANT_180000 IC6
14.09700000 27.55900000 0.00000000 180.00000000 TOP PLACED
SOT23-6_135000 SOT23-6_135000 IC7
35.56000000 27.55900000 0.00000000 180.00000000 TOP PLACED
DFN10_80000 DFN10_80000 IC8
31.24200000 43.18000000 0.00000000 0.00000000 TOP PLACED
SOT23-6_135000 SOT23-6_135000 IC9
45.72000000 23.81250000 0.00000000 0.00000000 TOP PLACED
R0402_60000 R0402_60000 R10
54.10200000 45.21200000 0.00000000 180.00000000 TOP PLACED
R0402_60000 R0402_60000 R11
50.92700000 45.21200000 0.00000000 180.00000000 TOP PLACED
R0402_60000 R0402_60000 R12
47.11700000 47.62500000 0.00000000 270.00000000 TOP PLACED
R0402_60000 R0402_60000 R13
46.10100000 47.62500000 0.00000000 90.00000000 TOP PLACED
R0402_60000 R0402_60000 R14
45.08500000 47.62500000 0.00000000 270.00000000 TOP PLACED
F6126_279400 F6126_279400 FU1
6.35000000 53.84800000 0.00000000 0.00000000 TOP PLACED
R0402_60000 R0402_60000 R15
67.43700000 44.70400000 0.00000000 0.00000000 TOP PLACED
R0402_60000 R0402_60000 R16
66.54800000 26.16200000 0.00000000 180.00000000 TOP PLACED
R0402_60000 R0402_60000 R17
66.54800000 24.63800000 0.00000000 180.00000000 TOP PLACED
R0402_60000 R0402_60000 R18
66.54800000 23.49500000 0.00000000 180.00000000 TOP PLACED
R0402_60000 R0402_60000 R19
60.96000000 51.94300000 0.00000000 270.00000000 TOP PLACED
SOT23-GSD_120000 SOT23-GSD_120000 T10
43.18000000 27.62250000 0.00000000 90.00000000 TOP PLACED
SOT23-GSD_120000 SOT23-GSD_120000 T11
22.54250000 13.33500000 0.00000000 180.00000000 TOP PLACED
SOT23-GSD_120000 SOT23-GSD_120000 T12
26.35250000 13.33500000 0.00000000 180.00000000 TOP PLACED
SOT23-GSD_120000 SOT23-GSD_120000 T13
30.16250000 16.19250000 0.00000000 90.00000000 TOP PLACED
R0402_60000 R0402_60000 R20
58.42000000 51.94300000 0.00000000 90.00000000 TOP PLACED
R0402_60000 R0402_60000 R21
64.38900000 26.79700000 0.00000000 90.00000000 TOP PLACED
R0402_60000 R0402_60000 R22
59.69000000 51.94300000 0.00000000 270.00000000 TOP PLACED
R0402_60000 R0402_60000 R23
66.54800000 28.82900000 0.00000000 0.00000000 TOP PLACED
R0402_60000 R0402_60000 R24
54.10200000 20.32000000 0.00000000 180.00000000 TOP PLACED
R0402_60000 R0402_60000 R25
54.10200000 21.71700000 0.00000000 180.00000000 TOP PLACED
R0402_60000 R0402_60000 R26
51.81600000 54.35600000 0.00000000 0.00000000 TOP PLACED
R0402_60000 R0402_60000 R27
54.10200000 16.00200000 0.00000000 180.00000000 TOP PLACED
R0402_60000 R0402_60000 R28
54.10200000 54.35600000 0.00000000 0.00000000 TOP PLACED
R0402_60000 R0402_60000 R29
58.54700000 16.00200000 0.00000000 180.00000000 TOP PLACED
R0402_60000 R0402_60000 R30
13.33500000 21.33600000 0.00000000 90.00000000 TOP PLACED
R0402_60000 R0402_60000 R31
17.90700000 21.33600000 0.00000000 90.00000000 TOP PLACED
R0402_60000 R0402_60000 R32
18.92300000 21.33600000 0.00000000 90.00000000 TOP PLACED
R0402_60000 R0402_60000 R33
27.55900000 27.55900000 0.00000000 90.00000000 TOP PLACED
R0402_60000 R0402_60000 R34
12.19200000 21.33600000 0.00000000 270.00000000 TOP PLACED
R0402_60000 R0402_60000 R35
11.04900000 21.33600000 0.00000000 90.00000000 TOP PLACED
R0402_60000 R0402_60000 R1
54.10200000 26.03500000 0.00000000 0.00000000 TOP PLACED
R0805_130000 R0805_130000 R36
23.17750000 33.65500000 0.00000000 270.00000000 TOP PLACED
R0402_60000 R0402_60000 R2
51.18100000 33.65500000 0.00000000 90.00000000 TOP PLACED
R0402_60000 R0402_60000 R37
21.33600000 32.89300000 0.00000000 270.00000000 TOP PLACED
R0402_60000 R0402_60000 R3
50.16500000 33.65500000 0.00000000 270.00000000 TOP PLACED
R0402_60000 R0402_60000 R38
17.27200000 27.55900000 0.00000000 270.00000000 TOP PLACED
R0402_60000 R0402_60000 R4
54.10200000 24.89200000 0.00000000 0.00000000 TOP PLACED
R0402_60000 R0402_60000 R39
16.12900000 32.89300000 0.00000000 270.00000000 TOP PLACED
R0402_60000 R0402_60000 R5
54.10200000 28.06700000 0.00000000 180.00000000 TOP PLACED
R0402_60000 R0402_60000 R6
50.67300000 32.00400000 0.00000000 0.00000000 TOP PLACED
NR4018_180000 NR4018_180000 L2-2
26.35250000 48.26000000 0.00000000 180.00000000 TOP PLACED
R0402_60000 R0402_60000 R7
54.10200000 32.25800000 0.00000000 180.00000000 TOP PLACED
R0402_60000 R0402_60000 R8
54.73700000 43.56100000 0.00000000 90.00000000 TOP PLACED
BT-4-V150H-4.8V_1700000 BT-4-V150H-4.8V_1700000 BAT1
17.00000000 27.05000000 0.00000000 0.00000000 BOTTOM FIXED
R0402_60000 R0402_60000 R9
50.92700000 44.19600000 0.00000000 0.00000000 TOP PLACED
R0402_60000 R0402_60000 R40
38.98900000 14.98600000 0.00000000 0.00000000 TOP PLACED
R0402_60000 R0402_60000 R41
14.09700000 32.89300000 0.00000000 270.00000000 TOP PLACED
R0402_60000 R0402_60000 R42
13.08100000 32.89300000 0.00000000 90.00000000 TOP PLACED
R0402_60000 R0402_60000 R43
35.56000000 30.35300000 0.00000000 180.00000000 TOP PLACED
R0402_60000 R0402_60000 R44
35.56000000 31.36900000 0.00000000 0.00000000 TOP PLACED
R0402_60000 R0402_60000 R45
37.59200000 25.90800000 0.00000000 90.00000000 TOP PLACED
R0402_60000 R0402_60000 R46
35.56000000 24.76500000 0.00000000 180.00000000 TOP PLACED
NR4012_120000 NR4012_120000 L4-2
37.71900000 40.51300000 0.00000000 180.00000000 TOP PLACED
R0402_60000 R0402_60000 R47
31.24200000 24.76500000 0.00000000 0.00000000 TOP PLACED
R0402_60000 R0402_60000 R48
63.75400000 35.68700000 0.00000000 180.00000000 TOP PLACED
R0402_60000 R0402_60000 R49
63.75400000 41.91000000 0.00000000 0.00000000 TOP PLACED
R0402_60000 R0402_60000 R50
31.24200000 30.35300000 0.00000000 180.00000000 TOP PLACED
R0402_60000 R0402_60000 R51
60.07100000 41.78300000 0.00000000 180.00000000 TOP PLACED
R0402_60000 R0402_60000 R52
59.94400000 36.83000000 0.00000000 180.00000000 TOP PLACED
R0402_60000 R0402_60000 R53
35.56000000 51.43500000 0.00000000 180.00000000 TOP PLACED
R0402_60000 R0402_60000 R54
27.30500000 51.43500000 0.00000000 0.00000000 TOP PLACED
R0402_60000 R0402_60000 R55
32.25800000 39.49700000 0.00000000 270.00000000 TOP PLACED
SOT23-BEC_121920 SOT23-BEC_121920 T1
42.79900000 52.57800000 0.00000000 0.00000000 TOP PLACED
R0402_60000 R0402_60000 R56
31.24200000 36.70300000 0.00000000 270.00000000 TOP PLACED
SOT23-BEC_121920 SOT23-BEC_121920 T2
42.79900000 47.75200000 0.00000000 0.00000000 TOP PLACED
R0402_60000 R0402_60000 R57
27.55900000 37.84600000 0.00000000 0.00000000 TOP PLACED
SOT23-BEC_121920 SOT23-BEC_121920 T3
63.75400000 51.94300000 0.00000000 0.00000000 TOP PLACED
R0402_60000 R0402_60000 R58
30.22600000 39.49700000 0.00000000 270.00000000 TOP PLACED
SOT23-BEC_121920 SOT23-BEC_121920 T4
63.75400000 47.24400000 0.00000000 0.00000000 TOP PLACED
R0402_60000 R0402_60000 R59
54.10200000 17.52600000 0.00000000 0.00000000 TOP PLACED
SOT23-GSD_120000 SOT23-GSD_120000 T5
21.59000000 21.27250000 0.00000000 0.00000000 TOP PLACED
SOT23-GSD_120000 SOT23-GSD_120000 T6
31.24200000 27.55900000 0.00000000 0.00000000 TOP PLACED
SOT23-GSD_120000 SOT23-GSD_120000 T7
63.75400000 39.24300000 0.00000000 180.00000000 TOP PLACED
SOT23-GSD_120000 SOT23-GSD_120000 T8
60.07100000 39.24300000 0.00000000 180.00000000 TOP PLACED
SOT23-GSD_120000 SOT23-GSD_120000 T9
48.57750000 27.62250000 0.00000000 90.00000000 TOP PLACED
R0402_60000 R0402_60000 R60
63.75400000 33.14700000 0.00000000 180.00000000 TOP PLACED
R0402_60000 R0402_60000 R61
40.32250000 23.81250000 0.00000000 270.00000000 TOP PLACED
R0402_60000 R0402_60000 R62
41.91000000 23.81250000 0.00000000 270.00000000 TOP PLACED
R0402_60000 R0402_60000 R63
40.32250000 27.62250000 0.00000000 90.00000000 TOP PLACED
R0402_60000 R0402_60000 R64
45.72000000 27.62250000 0.00000000 90.00000000 TOP PLACED
R0402_60000 R0402_60000 R65
14.92250000 48.26000000 0.00000000 0.00000000 TOP PLACED
R0402_60000 R0402_60000 R66
25.40000000 32.89300000 0.00000000 270.00000000 TOP PLACED
R0402_60000 R0402_60000 R67
22.54250000 16.19250000 0.00000000 180.00000000 TOP PLACED
R0402_60000 R0402_60000 R68
29.21000000 13.33500000 0.00000000 270.00000000 TOP PLACED
R0402_60000 R0402_60000 R69
54.10200000 18.92300000 0.00000000 0.00000000 TOP PLACED
R0402_60000 R0402_60000 R70
31.11500000 13.33500000 0.00000000 90.00000000 TOP PLACED
R0805_130000 R0805_130000 R71
22.54250000 18.09750000 0.00000000 180.00000000 TOP PLACED
TB-CMS-AIROX-2_0 TB-CMS-AIROX-2_0 SJ1
20.06600000 5.08000000 0.00000000 90.00000000 BOTTOM PLACED
C0402_60000 C0402_60000 C10
48.76800000 49.91100000 0.00000000 90.00000000 TOP PLACED
C0402_60000 C0402_60000 C11
55.11800000 49.91100000 0.00000000 270.00000000 TOP PLACED
AX10X30_1800000 AX10X30_1800000 C12
59.00000000 6.42000000 0.00000000 90.00000000 BOTTOM FIXED
C0603_100000 C0603_100000 C13
66.54800000 21.97100000 0.00000000 0.00000000 TOP PLACED
C0603_100000 C0603_100000 C14
66.54800000 27.55900000 0.00000000 180.00000000 TOP PLACED
C0402_60000 C0402_60000 C15
26.54300000 27.55900000 0.00000000 90.00000000 TOP PLACED
C0402_60000 C0402_60000 C16
11.04900000 27.55900000 0.00000000 90.00000000 TOP PLACED
C0402_60000 C0402_60000 C17
12.06500000 32.89300000 0.00000000 270.00000000 TOP PLACED
C0402_60000 C0402_60000 C18
37.59200000 29.21000000 0.00000000 90.00000000 TOP PLACED
C0402_60000 C0402_60000 C19
33.52800000 27.55900000 0.00000000 270.00000000 TOP PLACED
.END_PLACEMENT
