.HEADER
BOARD_FILE 3.0 "CR-5000 Board Designer V13.000" 2012/08/01.12:57:58 1
ctrb0505-A MM
.END_HEADER
.BOARD_OUTLINE ECAD
1.60000000
0 92.50000000 0.00000000 0.00000
0 92.50000000 72.00000000 0.00000
0 0.00000000 72.00000000 0.00000
0 0.00000000 0.00000000 0.00000
0 92.50000000 0.00000000 0.00000
.END_BOARD_OUTLINE
.OTHER_OUTLINE ECAD
ctrb0505-A 1.60000000 TOP
0 92.50000000 0.00000000 0.00000
0 92.50000000 72.00000000 0.00000
0 0.00000000 72.00000000 0.00000
0 0.00000000 0.00000000 0.00000
0 92.50000000 0.00000000 0.00000
1 64.45250000 39.37000000 0.00000
1 64.93510000 39.37000000 360.00000
2 64.45250000 44.45000000 0.00000
2 64.93510000 44.45000000 360.00000
3 26.50000000 52.50000000 0.00000
3 26.90640000 52.50000000 360.00000
4 56.98000000 52.50000000 0.00000
4 57.38640000 52.50000000 360.00000
5 26.50000000 65.50000000 0.00000
5 26.90640000 65.50000000 360.00000
6 56.98000000 65.50000000 0.00000
6 57.38640000 65.50000000 360.00000
7 64.45250000 50.16500000 0.00000
7 64.93510000 50.16500000 360.00000
8 64.45250000 55.24500000 0.00000
8 64.93510000 55.24500000 360.00000
9 10.12000000 48.53750000 0.00000
9 10.72960000 48.53750000 360.00000
10 10.12000000 43.53750000 0.00000
10 10.72960000 43.53750000 360.00000
11 5.12000000 43.53750000 0.00000
11 5.72960000 43.53750000 360.00000
12 7.62000000 46.03750000 0.00000
12 8.22960000 46.03750000 360.00000
13 12.62000000 46.03750000 0.00000
13 13.22960000 46.03750000 360.00000
14 5.12000000 48.53750000 0.00000
14 5.72960000 48.53750000 360.00000
15 73.50000000 67.94500000 0.00000
15 73.95720000 67.94500000 360.00000
16 73.50000000 65.40500000 0.00000
16 73.95720000 65.40500000 360.00000
17 70.96000000 67.94500000 0.00000
17 71.41720000 67.94500000 360.00000
18 70.96000000 65.40500000 0.00000
18 71.41720000 65.40500000 360.00000
19 68.42000000 67.94500000 0.00000
19 68.87720000 67.94500000 360.00000
20 68.42000000 65.40500000 0.00000
20 68.87720000 65.40500000 360.00000
21 65.88000000 67.94500000 0.00000
21 66.33720000 67.94500000 360.00000
22 65.88000000 65.40500000 0.00000
22 66.33720000 65.40500000 360.00000
23 63.34000000 67.94500000 0.00000
23 63.79720000 67.94500000 360.00000
24 63.34000000 65.40500000 0.00000
24 63.79720000 65.40500000 360.00000
25 20.00250000 15.55750000 0.00000
25 20.61210000 15.55750000 360.00000
26 20.00250000 18.09750000 0.00000
26 20.61210000 18.09750000 360.00000
27 20.00250000 20.63750000 0.00000
27 20.61210000 20.63750000 360.00000
28 20.00250000 23.17750000 0.00000
28 20.61210000 23.17750000 360.00000
29 20.00250000 25.71750000 0.00000
29 20.61210000 25.71750000 360.00000
30 20.00250000 28.25750000 0.00000
30 20.61210000 28.25750000 360.00000
31 20.00250000 30.79750000 0.00000
31 20.61210000 30.79750000 360.00000
32 20.00250000 33.33750000 0.00000
32 20.61210000 33.33750000 360.00000
33 20.00250000 35.87750000 0.00000
33 20.61210000 35.87750000 360.00000
34 20.00250000 38.41750000 0.00000
34 20.61210000 38.41750000 360.00000
35 2.54000000 55.24500000 0.00000
35 3.25120000 55.24500000 360.00000
36 8.04000000 55.24500000 0.00000
36 8.75120000 55.24500000 360.00000
37 72.50000000 57.78500000 0.00000
37 73.10960000 57.78500000 360.00000
38 72.50000000 55.24500000 0.00000
38 73.10960000 55.24500000 360.00000
39 72.50000000 52.70500000 0.00000
39 73.10960000 52.70500000 360.00000
40 72.50000000 50.16500000 0.00000
40 73.10960000 50.16500000 360.00000
41 72.50000000 47.62500000 0.00000
41 73.10960000 47.62500000 360.00000
42 72.50000000 45.08500000 0.00000
42 73.10960000 45.08500000 360.00000
43 72.50000000 42.54500000 0.00000
43 73.10960000 42.54500000 360.00000
44 72.50000000 40.00500000 0.00000
44 73.10960000 40.00500000 360.00000
45 72.50000000 37.46500000 0.00000
45 73.10960000 37.46500000 360.00000
46 9.00000000 9.00000000 0.00000
46 10.75260000 9.00000000 360.00000
47 83.60000000 9.00000000 0.00000
47 85.35260000 9.00000000 360.00000
48 83.60000000 63.20000000 0.00000
48 85.35260000 63.20000000 360.00000
49 9.00000000 63.20000000 0.00000
49 10.75260000 63.20000000 360.00000
50 29.21000000 22.22500000 0.00000
50 29.81960000 22.22500000 360.00000
51 31.75000000 22.22500000 0.00000
51 32.35960000 22.22500000 360.00000
52 26.67000000 22.22500000 0.00000
52 27.27960000 22.22500000 360.00000
53 29.21000000 31.11500000 0.00000
53 29.81960000 31.11500000 360.00000
54 26.67000000 31.11500000 0.00000
54 27.27960000 31.11500000 360.00000
55 31.75000000 31.11500000 0.00000
55 32.35960000 31.11500000 360.00000
56 41.27500000 22.22500000 0.00000
56 41.88460000 22.22500000 360.00000
57 43.81500000 22.22500000 0.00000
57 44.42460000 22.22500000 360.00000
58 38.73500000 22.22500000 0.00000
58 39.34460000 22.22500000 360.00000
59 41.27500000 31.11500000 0.00000
59 41.88460000 31.11500000 360.00000
60 38.73500000 31.11500000 0.00000
60 39.34460000 31.11500000 360.00000
61 43.81500000 31.11500000 0.00000
61 44.42460000 31.11500000 360.00000
62 53.34000000 22.22500000 0.00000
62 53.94960000 22.22500000 360.00000
63 55.88000000 22.22500000 0.00000
63 56.48960000 22.22500000 360.00000
64 50.80000000 22.22500000 0.00000
64 51.40960000 22.22500000 360.00000
65 53.34000000 31.11500000 0.00000
65 53.94960000 31.11500000 360.00000
66 50.80000000 31.11500000 0.00000
66 51.40960000 31.11500000 360.00000
67 55.88000000 31.11500000 0.00000
67 56.48960000 31.11500000 360.00000
68 36.19500000 50.10150000 0.00000
68 36.34740000 50.10150000 360.00000
69 25.40000000 50.10150000 0.00000
69 25.55240000 50.10150000 360.00000
70 24.76500000 54.73700000 0.00000
70 24.91740000 54.73700000 360.00000
71 25.27300000 35.43300000 0.00000
71 25.42540000 35.43300000 360.00000
72 37.33800000 35.43300000 0.00000
72 37.49040000 35.43300000 360.00000
73 49.14900000 35.43300000 0.00000
73 49.30140000 35.43300000 360.00000
74 23.81250000 17.14500000 0.00000
74 23.96490000 17.14500000 360.00000
75 35.30600000 16.89100000 0.00000
75 35.45840000 16.89100000 360.00000
76 45.59300000 16.51000000 0.00000
76 45.74540000 16.51000000 360.00000
77 47.49800000 16.76400000 0.00000
77 47.65040000 16.76400000 360.00000
78 34.92500000 3.04800000 0.00000
78 35.07740000 3.04800000 360.00000
79 46.67500000 6.15950000 0.00000
79 46.82740000 6.15950000 360.00000
80 58.76290000 6.98500000 0.00000
80 58.91530000 6.98500000 360.00000
81 75.66250000 9.39800000 0.00000
81 75.81490000 9.39800000 360.00000
82 34.02330000 10.27430000 0.00000
82 34.17570000 10.27430000 360.00000
83 65.72250000 10.27430000 0.00000
83 65.87490000 10.27430000 360.00000
84 66.42100000 12.44600000 0.00000
84 66.57340000 12.44600000 360.00000
85 66.42100000 14.22400000 0.00000
85 66.57340000 14.22400000 360.00000
86 78.93050000 15.04950000 0.00000
86 79.08290000 15.04950000 360.00000
87 67.56400000 15.62100000 0.00000
87 67.71640000 15.62100000 360.00000
88 57.53100000 16.51000000 0.00000
88 57.68340000 16.51000000 360.00000
89 79.47025000 17.36725000 0.00000
89 79.62265000 17.36725000 360.00000
90 79.43850000 18.73250000 0.00000
90 79.59090000 18.73250000 360.00000
91 87.82050000 19.27860000 0.00000
91 87.97290000 19.27860000 360.00000
92 74.42200000 20.00250000 0.00000
92 74.57440000 20.00250000 360.00000
93 76.77150000 20.00250000 0.00000
93 76.92390000 20.00250000 360.00000
94 78.74000000 21.27250000 0.00000
94 78.89240000 21.27250000 360.00000
95 79.56550000 22.54250000 0.00000
95 79.71790000 22.54250000 360.00000
96 74.35850000 24.63800000 0.00000
96 74.51090000 24.63800000 360.00000
97 87.82050000 25.40000000 0.00000
97 87.97290000 25.40000000 360.00000
98 75.50150000 25.90800000 0.00000
98 75.65390000 25.90800000 360.00000
99 60.19800000 26.73350000 0.00000
99 60.35040000 26.73350000 360.00000
100 67.56400000 26.35250000 0.00000
100 67.71640000 26.35250000 360.00000
101 73.27900000 27.62250000 0.00000
101 73.43140000 27.62250000 360.00000
102 77.56750000 27.62250000 0.00000
102 77.71990000 27.62250000 360.00000
103 64.77000000 29.08300000 0.00000
103 64.92240000 29.08300000 360.00000
104 87.82050000 29.52750000 0.00000
104 87.97290000 29.52750000 360.00000
105 65.27800000 31.94050000 0.00000
105 65.43040000 31.94050000 360.00000
106 77.56750000 32.63900000 0.00000
106 77.71990000 32.63900000 360.00000
107 90.23350000 33.97250000 0.00000
107 90.38590000 33.97250000 360.00000
108 68.83400000 36.44900000 0.00000
108 68.98640000 36.44900000 360.00000
109 67.88150000 37.46500000 0.00000
109 68.03390000 37.46500000 360.00000
110 67.24650000 38.41750000 0.00000
110 67.39890000 38.41750000 360.00000
111 50.29200000 52.07000000 0.00000
111 50.44440000 52.07000000 360.00000
112 53.73500000 52.57800000 0.00000
112 53.88740000 52.57800000 360.00000
113 67.14500000 58.03900000 0.00000
113 67.29740000 58.03900000 360.00000
114 75.88250000 58.61050000 0.00000
114 76.03490000 58.61050000 360.00000
115 55.88000000 59.92500000 0.00000
115 56.03240000 59.92500000 360.00000
116 46.67250000 60.32500000 0.00000
116 46.82490000 60.32500000 360.00000
117 69.97700000 61.40450000 0.00000
117 70.12940000 61.40450000 360.00000
118 46.67250000 61.91250000 0.00000
118 46.82490000 61.91250000 360.00000
119 61.59500000 62.54750000 0.00000
119 61.74740000 62.54750000 360.00000
120 67.94500000 62.67450000 0.00000
120 68.09740000 62.67450000 360.00000
121 46.67250000 63.50000000 0.00000
121 46.82490000 63.50000000 360.00000
122 46.67250000 65.08750000 0.00000
122 46.82490000 65.08750000 360.00000
123 46.67250000 66.67500000 0.00000
123 46.82490000 66.67500000 360.00000
124 46.67250000 68.26250000 0.00000
124 46.82490000 68.26250000 360.00000
125 48.26000000 68.26250000 0.00000
125 48.41240000 68.26250000 360.00000
126 49.84750000 68.26250000 0.00000
126 49.99990000 68.26250000 360.00000
127 51.43500000 68.26250000 0.00000
127 51.58740000 68.26250000 360.00000
128 53.02250000 68.26250000 0.00000
128 53.17490000 68.26250000 360.00000
129 54.61000000 68.26250000 0.00000
129 54.76240000 68.26250000 360.00000
130 90.50000000 70.00000000 0.00000
130 90.65240000 70.00000000 360.00000
131 65.40500000 58.42000000 0.00000
131 65.55740000 58.42000000 360.00000
132 17.14500000 54.48300000 0.00000
132 17.29740000 54.48300000 360.00000
133 73.97750000 62.54750000 0.00000
133 74.12990000 62.54750000 360.00000
134 75.88250000 62.54750000 0.00000
134 76.03490000 62.54750000 360.00000
135 77.78750000 62.54750000 0.00000
135 77.93990000 62.54750000 360.00000
136 68.74500000 58.03900000 0.00000
136 68.89740000 58.03900000 360.00000
137 63.56350000 62.61100000 0.00000
137 63.71590000 62.61100000 360.00000
138 65.72250000 24.76500000 0.00000
138 65.87490000 24.76500000 360.00000
139 65.72250000 22.16150000 0.00000
139 65.87490000 22.16150000 360.00000
140 65.72250000 19.77390000 0.00000
140 65.87490000 19.77390000 360.00000
141 33.46450000 16.51000000 0.00000
141 33.61690000 16.51000000 360.00000
142 46.03750000 10.27430000 0.00000
142 46.18990000 10.27430000 360.00000
143 58.10250000 10.27430000 0.00000
143 58.25490000 10.27430000 360.00000
144 69.22770000 21.14550000 0.00000
144 69.38010000 21.14550000 360.00000
145 73.27900000 23.81250000 0.00000
145 73.43140000 23.81250000 360.00000
146 73.27900000 22.54250000 0.00000
146 73.43140000 22.54250000 360.00000
147 73.27900000 21.27250000 0.00000
147 73.43140000 21.27250000 360.00000
148 83.18500000 26.35250000 0.00000
148 83.33740000 26.35250000 360.00000
149 83.18500000 20.19300000 0.00000
149 83.33740000 20.19300000 360.00000
150 88.01100000 31.75000000 0.00000
150 88.16340000 31.75000000 360.00000
151 69.97700000 59.92500000 0.00000
151 70.12940000 59.92500000 360.00000
152 27.55900000 20.63750000 0.00000
152 27.71140000 20.63750000 360.00000
153 39.62400000 20.63750000 0.00000
153 39.77640000 20.63750000 360.00000
154 51.68900000 20.63750000 0.00000
154 51.84140000 20.63750000 360.00000
.END_OTHER_OUTLINE
.ROUTE_OUTLINE ECAD
ALL
0 92.00000000 0.50000000 0.00000
0 92.00000000 71.50000000 0.00000
0 0.50000000 71.50000000 0.00000
0 0.50000000 0.50000000 0.00000
0 92.00000000 0.50000000 0.00000
.END_ROUTE_OUTLINE
.PLACE_OUTLINE ECAD
BOTH 1.60000000
0 92.00000000 0.50000000 0.00000
0 92.00000000 71.50000000 0.00000
0 0.50000000 71.50000000 0.00000
0 0.50000000 0.50000000 0.00000
0 92.00000000 0.50000000 0.00000
.END_PLACE_OUTLINE
.PLACE_KEEPOUT ECAD
TOP 18.00000000
0 57.00000000 46.00000000 0.00000
0 57.00000000 72.00000000 0.00000
0 27.00000000 72.00000000 0.00000
0 27.00000000 46.00000000 0.00000
0 57.00000000 46.00000000 0.00000
.END_PLACE_KEEPOUT
.DRILLED_HOLES
0.96520000 64.45250000 39.37000000 NPTH C27 PIN ECAD
0.96520000 64.45250000 44.45000000 NPTH C27 PIN ECAD
0.81280000 26.50000000 52.50000000 NPTH C28 PIN ECAD
0.81280000 56.98000000 52.50000000 NPTH C28 PIN ECAD
0.81280000 26.50000000 65.50000000 NPTH C29 PIN ECAD
0.81280000 56.98000000 65.50000000 NPTH C29 PIN ECAD
0.96520000 64.45250000 50.16500000 NPTH C2 PIN ECAD
0.96520000 64.45250000 55.24500000 NPTH C2 PIN ECAD
1.21920000 10.12000000 48.53750000 NPTH FI1 PIN ECAD
1.21920000 10.12000000 43.53750000 NPTH FI1 PIN ECAD
1.21920000 5.12000000 43.53750000 NPTH FI1 PIN ECAD
1.21920000 7.62000000 46.03750000 NPTH FI1 PIN ECAD
1.21920000 12.62000000 46.03750000 NPTH FI1 PIN ECAD
1.21920000 5.12000000 48.53750000 NPTH FI1 PIN ECAD
0.91440000 73.50000000 67.94500000 NPTH J2 PIN ECAD
0.91440000 73.50000000 65.40500000 NPTH J2 PIN ECAD
0.91440000 70.96000000 67.94500000 NPTH J2 PIN ECAD
0.91440000 70.96000000 65.40500000 NPTH J2 PIN ECAD
0.91440000 68.42000000 67.94500000 NPTH J2 PIN ECAD
0.91440000 68.42000000 65.40500000 NPTH J2 PIN ECAD
0.91440000 65.88000000 67.94500000 NPTH J2 PIN ECAD
0.91440000 65.88000000 65.40500000 NPTH J2 PIN ECAD
0.91440000 63.34000000 67.94500000 NPTH J2 PIN ECAD
0.91440000 63.34000000 65.40500000 NPTH J2 PIN ECAD
1.21920000 20.00250000 15.55750000 NPTH J3 PIN ECAD
1.21920000 20.00250000 18.09750000 NPTH J3 PIN ECAD
1.21920000 20.00250000 20.63750000 NPTH J6 PIN ECAD
1.21920000 20.00250000 23.17750000 NPTH J6 PIN ECAD
1.21920000 20.00250000 25.71750000 NPTH J6 PIN ECAD
1.21920000 20.00250000 28.25750000 NPTH J6 PIN ECAD
1.21920000 20.00250000 30.79750000 NPTH J6 PIN ECAD
1.21920000 20.00250000 33.33750000 NPTH J6 PIN ECAD
1.21920000 20.00250000 35.87750000 NPTH J6 PIN ECAD
1.21920000 20.00250000 38.41750000 NPTH J6 PIN ECAD
1.42240000 2.54000000 55.24500000 NPTH J11 PIN ECAD
1.42240000 8.04000000 55.24500000 NPTH J11 PIN ECAD
1.21920000 72.50000000 57.78500000 NPTH J22 PIN ECAD
1.21920000 72.50000000 55.24500000 NPTH J22 PIN ECAD
1.21920000 72.50000000 52.70500000 NPTH J22 PIN ECAD
1.21920000 72.50000000 50.16500000 NPTH J22 PIN ECAD
1.21920000 72.50000000 47.62500000 NPTH J22 PIN ECAD
1.21920000 72.50000000 45.08500000 NPTH J22 PIN ECAD
1.21920000 72.50000000 42.54500000 NPTH J22 PIN ECAD
1.21920000 72.50000000 40.00500000 NPTH J22 PIN ECAD
1.21920000 72.50000000 37.46500000 NPTH J22 PIN ECAD
3.50520000 9.00000000 9.00000000 NPTH ZM1 PIN ECAD
3.50520000 83.60000000 9.00000000 NPTH ZM2 PIN ECAD
3.50520000 83.60000000 63.20000000 NPTH ZM3 PIN ECAD
3.50520000 9.00000000 63.20000000 NPTH ZM4 PIN ECAD
1.21920000 29.21000000 22.22500000 NPTH ZT2 PIN ECAD
1.21920000 31.75000000 22.22500000 NPTH ZT2 PIN ECAD
1.21920000 26.67000000 22.22500000 NPTH ZT2 PIN ECAD
1.21920000 29.21000000 31.11500000 NPTH ZT3 PIN ECAD
1.21920000 26.67000000 31.11500000 NPTH ZT3 PIN ECAD
1.21920000 31.75000000 31.11500000 NPTH ZT3 PIN ECAD
1.21920000 41.27500000 22.22500000 NPTH ZT4 PIN ECAD
1.21920000 43.81500000 22.22500000 NPTH ZT4 PIN ECAD
1.21920000 38.73500000 22.22500000 NPTH ZT4 PIN ECAD
1.21920000 41.27500000 31.11500000 NPTH ZT5 PIN ECAD
1.21920000 38.73500000 31.11500000 NPTH ZT5 PIN ECAD
1.21920000 43.81500000 31.11500000 NPTH ZT5 PIN ECAD
1.21920000 53.34000000 22.22500000 NPTH ZT6 PIN ECAD
1.21920000 55.88000000 22.22500000 NPTH ZT6 PIN ECAD
1.21920000 50.80000000 22.22500000 NPTH ZT6 PIN ECAD
1.21920000 53.34000000 31.11500000 NPTH ZT7 PIN ECAD
1.21920000 50.80000000 31.11500000 NPTH ZT7 PIN ECAD
1.21920000 55.88000000 31.11500000 NPTH ZT7 PIN ECAD
0.30480000 36.19500000 50.10150000 NPTH BOARD VIA ECAD
0.30480000 25.40000000 50.10150000 NPTH BOARD VIA ECAD
0.30480000 24.76500000 54.73700000 NPTH BOARD VIA ECAD
0.30480000 25.27300000 35.43300000 NPTH BOARD VIA ECAD
0.30480000 37.33800000 35.43300000 NPTH BOARD VIA ECAD
0.30480000 49.14900000 35.43300000 NPTH BOARD VIA ECAD
0.30480000 23.81250000 17.14500000 NPTH BOARD VIA ECAD
0.30480000 35.30600000 16.89100000 NPTH BOARD VIA ECAD
0.30480000 45.59300000 16.51000000 NPTH BOARD VIA ECAD
0.30480000 47.49800000 16.76400000 NPTH BOARD VIA ECAD
0.30480000 34.92500000 3.04800000 NPTH BOARD VIA ECAD
0.30480000 46.67500000 6.15950000 NPTH BOARD VIA ECAD
0.30480000 58.76290000 6.98500000 NPTH BOARD VIA ECAD
0.30480000 75.66250000 9.39800000 NPTH BOARD VIA ECAD
0.30480000 34.02330000 10.27430000 NPTH BOARD VIA ECAD
0.30480000 65.72250000 10.27430000 NPTH BOARD VIA ECAD
0.30480000 66.42100000 12.44600000 NPTH BOARD VIA ECAD
0.30480000 66.42100000 14.22400000 NPTH BOARD VIA ECAD
0.30480000 78.93050000 15.04950000 NPTH BOARD VIA ECAD
0.30480000 67.56400000 15.62100000 NPTH BOARD VIA ECAD
0.30480000 57.53100000 16.51000000 NPTH BOARD VIA ECAD
0.30480000 79.47025000 17.36725000 NPTH BOARD VIA ECAD
0.30480000 79.43850000 18.73250000 NPTH BOARD VIA ECAD
0.30480000 87.82050000 19.27860000 NPTH BOARD VIA ECAD
0.30480000 74.42200000 20.00250000 NPTH BOARD VIA ECAD
0.30480000 76.77150000 20.00250000 NPTH BOARD VIA ECAD
0.30480000 78.74000000 21.27250000 NPTH BOARD VIA ECAD
0.30480000 79.56550000 22.54250000 NPTH BOARD VIA ECAD
0.30480000 74.35850000 24.63800000 NPTH BOARD VIA ECAD
0.30480000 87.82050000 25.40000000 NPTH BOARD VIA ECAD
0.30480000 75.50150000 25.90800000 NPTH BOARD VIA ECAD
0.30480000 60.19800000 26.73350000 NPTH BOARD VIA ECAD
0.30480000 67.56400000 26.35250000 NPTH BOARD VIA ECAD
0.30480000 73.27900000 27.62250000 NPTH BOARD VIA ECAD
0.30480000 77.56750000 27.62250000 NPTH BOARD VIA ECAD
0.30480000 64.77000000 29.08300000 NPTH BOARD VIA ECAD
0.30480000 87.82050000 29.52750000 NPTH BOARD VIA ECAD
0.30480000 65.27800000 31.94050000 NPTH BOARD VIA ECAD
0.30480000 77.56750000 32.63900000 NPTH BOARD VIA ECAD
0.30480000 90.23350000 33.97250000 NPTH BOARD VIA ECAD
0.30480000 68.83400000 36.44900000 NPTH BOARD VIA ECAD
0.30480000 67.88150000 37.46500000 NPTH BOARD VIA ECAD
0.30480000 67.24650000 38.41750000 NPTH BOARD VIA ECAD
0.30480000 50.29200000 52.07000000 NPTH BOARD VIA ECAD
0.30480000 53.73500000 52.57800000 NPTH BOARD VIA ECAD
0.30480000 67.14500000 58.03900000 NPTH BOARD VIA ECAD
0.30480000 75.88250000 58.61050000 NPTH BOARD VIA ECAD
0.30480000 55.88000000 59.92500000 NPTH BOARD VIA ECAD
0.30480000 46.67250000 60.32500000 NPTH BOARD VIA ECAD
0.30480000 69.97700000 61.40450000 NPTH BOARD VIA ECAD
0.30480000 46.67250000 61.91250000 NPTH BOARD VIA ECAD
0.30480000 61.59500000 62.54750000 NPTH BOARD VIA ECAD
0.30480000 67.94500000 62.67450000 NPTH BOARD VIA ECAD
0.30480000 46.67250000 63.50000000 NPTH BOARD VIA ECAD
0.30480000 46.67250000 65.08750000 NPTH BOARD VIA ECAD
0.30480000 46.67250000 66.67500000 NPTH BOARD VIA ECAD
0.30480000 46.67250000 68.26250000 NPTH BOARD VIA ECAD
0.30480000 48.26000000 68.26250000 NPTH BOARD VIA ECAD
0.30480000 49.84750000 68.26250000 NPTH BOARD VIA ECAD
0.30480000 51.43500000 68.26250000 NPTH BOARD VIA ECAD
0.30480000 53.02250000 68.26250000 NPTH BOARD VIA ECAD
0.30480000 54.61000000 68.26250000 NPTH BOARD VIA ECAD
0.30480000 90.50000000 70.00000000 NPTH BOARD VIA ECAD
0.30480000 65.40500000 58.42000000 NPTH BOARD VIA ECAD
0.30480000 17.14500000 54.48300000 NPTH BOARD VIA ECAD
0.30480000 73.97750000 62.54750000 NPTH BOARD VIA ECAD
0.30480000 75.88250000 62.54750000 NPTH BOARD VIA ECAD
0.30480000 77.78750000 62.54750000 NPTH BOARD VIA ECAD
0.30480000 68.74500000 58.03900000 NPTH BOARD VIA ECAD
0.30480000 63.56350000 62.61100000 NPTH BOARD VIA ECAD
0.30480000 65.72250000 24.76500000 NPTH BOARD VIA ECAD
0.30480000 65.72250000 22.16150000 NPTH BOARD VIA ECAD
0.30480000 65.72250000 19.77390000 NPTH BOARD VIA ECAD
0.30480000 33.46450000 16.51000000 NPTH BOARD VIA ECAD
0.30480000 46.03750000 10.27430000 NPTH BOARD VIA ECAD
0.30480000 58.10250000 10.27430000 NPTH BOARD VIA ECAD
0.30480000 69.22770000 21.14550000 NPTH BOARD VIA ECAD
0.30480000 73.27900000 23.81250000 NPTH BOARD VIA ECAD
0.30480000 73.27900000 22.54250000 NPTH BOARD VIA ECAD
0.30480000 73.27900000 21.27250000 NPTH BOARD VIA ECAD
0.30480000 83.18500000 26.35250000 NPTH BOARD VIA ECAD
0.30480000 83.18500000 20.19300000 NPTH BOARD VIA ECAD
0.30480000 88.01100000 31.75000000 NPTH BOARD VIA ECAD
0.30480000 69.97700000 59.92500000 NPTH BOARD VIA ECAD
0.30480000 27.55900000 20.63750000 NPTH BOARD VIA ECAD
0.30480000 39.62400000 20.63750000 NPTH BOARD VIA ECAD
0.30480000 51.68900000 20.63750000 NPTH BOARD VIA ECAD
.END_DRILLED_HOLES
.PLACEMENT
C0603_101600 C0603_101600 C20
85.40750000 29.52750000 0.00000000 180.00000000 TOP PLACED
C0805_132080 C0805_132080 C21
76.51750000 34.29000000 0.00000000 0.00000000 TOP PLACED
C0612-4_127000 C0612-4_127000 C22
58.10250000 60.32500000 0.00000000 90.00000000 TOP PLACED
C0612-4_127000 C0612-4_127000 C23
67.94500000 60.32500000 0.00000000 270.00000000 TOP PLACED
C0805_132080 C0805_132080 C24
32.70250000 26.67000000 0.00000000 0.00000000 TOP PLACED
C0805_132080 C0805_132080 C25
44.76750000 26.67000000 0.00000000 0.00000000 TOP PLACED
C0805_132080 C0805_132080 C26
56.83250000 26.67000000 0.00000000 0.00000000 TOP PLACED
03515_0 03515_0 C27
64.45250000 41.91000000 0.00000000 0.00000000 TOP PLACED
HT-13X27_0 HT-13X27_0 C28
26.50000000 52.50000000 0.00000000 0.00000000 TOP PLACED
HT-13X27_0 HT-13X27_0 C29
26.50000000 65.50000000 0.00000000 0.00000000 TOP PLACED
FABRICATION-FEE_10000 FABRICATION-FEE_10000 cam12
-102.40000000 106.60000000 0.00000000 0.00000000 TOP PLACED
PERCAGE_TABLEAU_10000 PERCAGE_TABLEAU_10000 cam13
-111.20000000 23.90000000 0.00000000 0.00000000 TOP PLACED
FEE_COMP_10000 FEE_COMP_10000 cam14
5.71500000 0.95250000 0.00000000 0.00000000 BOTTOM PLACED
FEE_COMP_10000 FEE_COMP_10000 cam15
73.66000000 0.95250000 0.00000000 0.00000000 TOP PLACED
C0805_132080 C0805_132080 C1
17.14500000 48.26000000 0.00000000 0.00000000 TOP PLACED
03515_0 03515_0 C2
64.45250000 52.70500000 0.00000000 0.00000000 TOP PLACED
C0805_132080 C0805_132080 C3
57.78500000 47.94250000 0.00000000 90.00000000 TOP PLACED
C7343_309880 C7343_309880 C4
30.48000000 43.18000000 0.00000000 0.00000000 TOP PLACED
C0805_132080 C0805_132080 C5
55.88000000 43.18000000 0.00000000 270.00000000 TOP PLACED
C0805_132080 C0805_132080 C6
74.61250000 7.30250000 0.00000000 180.00000000 TOP PLACED
C0603_101600 C0603_101600 C7
68.26250000 12.38250000 0.00000000 0.00000000 TOP PLACED
C0603_101600 C0603_101600 C8
68.26250000 14.28750000 0.00000000 0.00000000 TOP PLACED
COIN_EXTERNE_10000 COIN_EXTERNE_10000 cam1
0.00000000 72.00000000 0.00000000 0.00000000 TOP FIXED
C0805_132080 C0805_132080 C9
34.92500000 14.28750000 0.00000000 180.00000000 TOP PLACED
COIN_EXTERNE_10000 COIN_EXTERNE_10000 cam2
0.00000000 0.00000000 0.00000000 90.00000000 TOP FIXED
COIN_EXTERNE_10000 COIN_EXTERNE_10000 cam3
92.50000000 0.00000000 0.00000000 180.00000000 TOP FIXED
COIN_EXTERNE_10000 COIN_EXTERNE_10000 cam4
92.50000000 72.00000000 0.00000000 270.00000000 TOP FIXED
FILM18_HORIZONTAL_10000 FILM18_HORIZONTAL_10000 cam5
47.00000000 30.00000000 0.00000000 0.00000000 TOP FIXED
A3_PER_COVIDIEN_10000 A3_PER_COVIDIEN_10000 cam6
-35.30600000 10.54100000 0.00000000 0.00000000 TOP PLACED
A3_EQFC_COVIDIEN_10000 A3_EQFC_COVIDIEN_10000 cam7
45.50000000 17.00000000 0.00000000 0.00000000 TOP PLACED
PER-COVIDIEN_TEXTE_10000 PER-COVIDIEN_TEXTE_10000 cam8
9.50000000 -31.00000000 0.00000000 0.00000000 TOP PLACED
A3_EQFS_COVIDIEN_10000 A3_EQFS_COVIDIEN_10000 cam9
46.00000000 34.00000000 0.00000000 0.00000000 BOTTOM PLACED
BNX002_1300480 BNX002_1300480 FI1
7.62000000 46.03750000 0.00000000 0.00000000 TOP PLACED
SMB_0 SMB_0 D1
50.16500000 43.81500000 0.00000000 180.00000000 TOP PLACED
SOD323_0 SOD323_0 D2
29.52750000 11.74750000 0.00000000 0.00000000 TOP PLACED
C0603_101600 C0603_101600 FI3
61.59500000 60.64250000 0.00000000 270.00000000 TOP PLACED
SOD323_0 SOD323_0 D3
41.59250000 11.74750000 0.00000000 0.00000000 TOP PLACED
C0603_101600 C0603_101600 FI4
63.50000000 60.64250000 0.00000000 270.00000000 TOP PLACED
SOD323_0 SOD323_0 D4
53.65750000 11.74750000 0.00000000 0.00000000 TOP PLACED
C0603_101600 C0603_101600 FI5
65.40500000 60.64250000 0.00000000 270.00000000 TOP PLACED
SOD323_0 SOD323_0 D5
31.75000000 38.41750000 0.00000000 0.00000000 TOP PLACED
C0603_101600 C0603_101600 FI6
77.78750000 60.64250000 0.00000000 270.00000000 TOP PLACED
SOD323_0 SOD323_0 D6
43.49750000 38.41750000 0.00000000 0.00000000 TOP PLACED
C0603_101600 C0603_101600 FI7
75.88250000 60.64250000 0.00000000 270.00000000 TOP PLACED
SOD323_0 SOD323_0 D7
55.56250000 38.41750000 0.00000000 0.00000000 TOP PLACED
C0603_101600 C0603_101600 FI8
73.97750000 60.64250000 0.00000000 270.00000000 TOP PLACED
SMA_0 SMA_0 D8
23.81250000 20.95500000 0.00000000 270.00000000 TOP PLACED
C0603_101600 C0603_101600 FI9
72.07250000 60.64250000 0.00000000 270.00000000 TOP PLACED
SMA_0 SMA_0 D9
35.24250000 20.95500000 0.00000000 270.00000000 TOP PLACED
C-SC10_0 C-SC10_0 ZC27
64.45250000 41.91000000 0.00000000 90.00000000 TOP PLACED
C-SC8_0 C-SC8_0 ZC2
64.13500000 52.70500000 0.00000000 90.00000000 TOP PLACED
FU154000_0 FU154000_0 F1
19.68500000 43.18000000 0.00000000 0.00000000 TOP PLACED
MOL43650-02C_560000 MOL43650-02C_560000 J1
20.00000000 52.29000000 0.00000000 180.00000000 TOP PLACED
BP2X5D_0 BP2X5D_0 J2
73.50000000 67.94500000 0.00000000 180.00000000 TOP PLACED
MOL7395-2_0 MOL7395-2_0 J3
20.00250000 15.55750000 0.00000000 90.00000000 TOP PLACED
MOL7395-8_0 MOL7395-8_0 J6
20.00250000 20.63750000 0.00000000 90.00000000 TOP PLACED
SMA_0 SMA_0 D10
47.30750000 20.63750000 0.00000000 270.00000000 TOP PLACED
SOD80_162560 SOD80_162560 D11
30.48000000 5.71500000 0.00000000 0.00000000 TOP PLACED
SOD80_162560 SOD80_162560 D12
42.54500000 5.71500000 0.00000000 0.00000000 TOP PLACED
SOD80_162560 SOD80_162560 D13
54.29250000 5.71500000 0.00000000 0.00000000 TOP PLACED
SOT23-1G_121920 SOT23-1G_121920 D14
25.71750000 8.57250000 0.00000000 90.00000000 TOP PLACED
SOT23-1G_121920 SOT23-1G_121920 D15
37.78250000 8.57250000 0.00000000 90.00000000 TOP PLACED
SOT23-1G_121920 SOT23-1G_121920 D16
49.53000000 8.57250000 0.00000000 90.00000000 TOP PLACED
DPAK-2ANODES_0 DPAK-2ANODES_0 D17
33.02000000 60.64250000 0.00000000 180.00000000 BOTTOM PLACED
SMB_0 SMB_0 D18
26.98750000 26.67000000 0.00000000 180.00000000 TOP PLACED
SMB_0 SMB_0 D19
29.52750000 34.92500000 0.00000000 0.00000000 TOP PLACED
SMB_0 SMB_0 D20
39.05250000 26.67000000 0.00000000 180.00000000 TOP PLACED
SMB_0 SMB_0 D21
41.59250000 34.92500000 0.00000000 0.00000000 TOP PLACED
SMB_0 SMB_0 D22
51.11750000 26.67000000 0.00000000 180.00000000 TOP PLACED
SMB_0 SMB_0 D23
53.65750000 34.92500000 0.00000000 0.00000000 TOP PLACED
SOT23-1G_121920 SOT23-1G_121920 D24
44.45000000 43.49750000 0.00000000 0.00000000 TOP PLACED
MOL5566-2_0 MOL5566-2_0 J11
2.54000000 55.24500000 0.00000000 270.00000000 TOP PLACED
MOL7395-9_0 MOL7395-9_0 J22
72.50000000 57.78500000 0.00000000 270.00000000 TOP PLACED
MX.A24_COMPOSANT_254000 MX.A24_COMPOSANT_254000 IC1
76.51750000 24.44750000 0.00000000 90.00000000 TOP PLACED
MX.A8_COMPOSANT_180340 MX.A8_COMPOSANT_180340 IC2
74.61250000 11.43000000 0.00000000 90.00000000 TOP PLACED
MX.A8_COMPOSANT_180340 MX.A8_COMPOSANT_180340 IC3
29.21000000 15.87500000 0.00000000 90.00000000 TOP PLACED
MX.A8_COMPOSANT_180340 MX.A8_COMPOSANT_180340 IC4
41.27500000 15.87500000 0.00000000 90.00000000 TOP PLACED
MX.A8_COMPOSANT_180340 MX.A8_COMPOSANT_180340 IC5
53.34000000 15.87500000 0.00000000 90.00000000 TOP PLACED
DPAK_0 DPAK_0 IC6
51.43500000 61.91250000 0.00000000 0.00000000 BOTTOM PLACED
FIX35M_0 FIX35M_0 ZM1
9.00000000 9.00000000 0.00000000 0.00000000 TOP FIXED
FIX35M_0 FIX35M_0 ZM2
83.60000000 9.00000000 0.00000000 0.00000000 TOP FIXED
FIX35M_0 FIX35M_0 ZM3
83.60000000 63.20000000 0.00000000 0.00000000 TOP FIXED
FIX35M_0 FIX35M_0 ZM4
9.00000000 63.20000000 0.00000000 0.00000000 TOP FIXED
R0603_101600 R0603_101600 R10
54.29250000 2.85750000 0.00000000 0.00000000 TOP PLACED
R0603_101600 R0603_101600 R11
26.03500000 11.74750000 0.00000000 180.00000000 TOP PLACED
R0603_101600 R0603_101600 R12
38.10000000 11.74750000 0.00000000 180.00000000 TOP PLACED
R0603_101600 R0603_101600 R13
50.16500000 11.74750000 0.00000000 180.00000000 TOP PLACED
SOT23-GSD_121920 SOT23-GSD_121920 T10
40.64000000 43.49750000 0.00000000 0.00000000 TOP PLACED
R0603_101600 R0603_101600 R20
53.65750000 19.68500000 0.00000000 0.00000000 TOP PLACED
R0603_101600 R0603_101600 R30
51.75250000 38.41750000 0.00000000 180.00000000 TOP PLACED
R0603_101600 R0603_101600 R31
27.94000000 38.41750000 0.00000000 180.00000000 TOP PLACED
R0603_101600 R0603_101600 R32
41.59250000 19.68500000 0.00000000 0.00000000 TOP PLACED
R0603_101600 R0603_101600 R33
39.68750000 38.41750000 0.00000000 180.00000000 TOP PLACED
R0603_101600 R0603_101600 R35
29.52750000 19.68500000 0.00000000 0.00000000 TOP PLACED
R2512_101600 R2512_101600 R1
64.13500000 29.84500000 0.00000000 0.00000000 TOP PLACED
R0603_101600 R0603_101600 R2
68.26250000 22.54250000 0.00000000 0.00000000 TOP PLACED
R0603_101600 R0603_101600 R37
68.26250000 10.47750000 0.00000000 0.00000000 TOP PLACED
R0603_101600 R0603_101600 R3
36.83000000 44.45000000 0.00000000 180.00000000 TOP PLACED
R0603_101600 R0603_101600 R38
64.13500000 26.67000000 0.00000000 180.00000000 TOP PLACED
R0603_101600 R0603_101600 R4
24.76500000 48.26000000 0.00000000 180.00000000 TOP PLACED
R0603_101600 R0603_101600 R39
70.48500000 34.29000000 0.00000000 180.00000000 TOP PLACED
R0603_101600 R0603_101600 R5
85.40750000 25.40000000 0.00000000 180.00000000 TOP PLACED
R0603_101600 R0603_101600 R6
30.48000000 2.85750000 0.00000000 0.00000000 TOP PLACED
R0603_101600 R0603_101600 R7
88.26500000 33.97250000 0.00000000 180.00000000 TOP PLACED
R0603_101600 R0603_101600 R8
85.40750000 23.49500000 0.00000000 0.00000000 TOP PLACED
R0603_101600 R0603_101600 R9
42.54500000 2.85750000 0.00000000 0.00000000 TOP PLACED
R2512_101600 R2512_101600 R40
64.13500000 33.97250000 0.00000000 180.00000000 TOP PLACED
R0603_101600 R0603_101600 R41
85.40750000 27.30500000 0.00000000 0.00000000 TOP PLACED
C12000_132080 C12000_132080 PT1
87.63000000 69.85000000 0.00000000 180.00000000 TOP PLACED
R0603_101600 R0603_101600 R42
85.40750000 33.97250000 0.00000000 180.00000000 TOP PLACED
R0603_101600 R0603_101600 R50
68.26250000 8.57250000 0.00000000 180.00000000 TOP PLACED
SOT23-GSD_121920 SOT23-GSD_121920 T1
68.26250000 18.73250000 0.00000000 180.00000000 TOP PLACED
DPAK-GDS_0 DPAK-GDS_0 T2
29.21000000 13.33500000 0.00000000 180.00000000 BOTTOM PLACED
DPAK-GDS_0 DPAK-GDS_0 T3
29.21000000 40.32250000 0.00000000 0.00000000 BOTTOM PLACED
RC1206_152400 RC1206_152400 R58
33.97250000 11.74750000 0.00000000 180.00000000 TOP PLACED
DPAK-GDS_0 DPAK-GDS_0 T4
41.27500000 13.33500000 0.00000000 180.00000000 BOTTOM PLACED
RC1206_152400 RC1206_152400 R59
46.03750000 11.74750000 0.00000000 180.00000000 TOP PLACED
DPAK-GDS_0 DPAK-GDS_0 T5
41.27500000 40.32250000 0.00000000 0.00000000 BOTTOM PLACED
DPAK-GDS_0 DPAK-GDS_0 T6
53.34000000 13.33500000 0.00000000 180.00000000 BOTTOM PLACED
DPAK-GDS_0 DPAK-GDS_0 T7
53.34000000 40.32250000 0.00000000 0.00000000 BOTTOM PLACED
SOT23-GSD_121920 SOT23-GSD_121920 T8
85.40750000 20.32000000 0.00000000 0.00000000 TOP PLACED
DPAK-GDS_0 DPAK-GDS_0 T9
19.68500000 62.23000000 0.00000000 0.00000000 BOTTOM PLACED
RC1206_152400 RC1206_152400 R60
58.10250000 11.74750000 0.00000000 180.00000000 TOP PLACED
TO220ABGDS-INV_COUCHE_0 TO220ABGDS-INV_COUCHE_0 ZT2
29.21000000 4.44500000 0.00000000 180.00000000 BOTTOM PLACED
TO220ABGDS-INV_COUCHE_0 TO220ABGDS-INV_COUCHE_0 ZT3
29.21000000 48.89500000 0.00000000 0.00000000 BOTTOM PLACED
TO220ABGDS-INV_COUCHE_0 TO220ABGDS-INV_COUCHE_0 ZT4
41.27500000 4.44500000 0.00000000 180.00000000 BOTTOM PLACED
TO220ABGDS-INV_COUCHE_0 TO220ABGDS-INV_COUCHE_0 ZT5
41.27500000 48.89500000 0.00000000 0.00000000 BOTTOM PLACED
TO220ABGDS-INV_COUCHE_0 TO220ABGDS-INV_COUCHE_0 ZT6
53.34000000 4.44500000 0.00000000 180.00000000 BOTTOM PLACED
TO220ABGDS-INV_COUCHE_0 TO220ABGDS-INV_COUCHE_0 ZT7
53.34000000 48.89500000 0.00000000 0.00000000 BOTTOM PLACED
MIRECMS-SAFT_0 MIRECMS-SAFT_0 MIR1
2.54000000 69.53250000 0.00000000 0.00000000 TOP PLACED
MIRECMS-SAFT_0 MIRECMS-SAFT_0 MIR2
89.21750000 2.85750000 0.00000000 0.00000000 TOP PLACED
MIRECMS-SAFT_0 MIRECMS-SAFT_0 MIR3
90.17000000 66.67500000 0.00000000 0.00000000 BOTTOM PLACED
MIRECMS-SAFT_0 MIRECMS-SAFT_0 MIR4
8.57250000 2.22250000 0.00000000 0.00000000 BOTTOM PLACED
RC1206_152400 RC1206_152400 C10
30.48000000 8.57250000 0.00000000 0.00000000 TOP PLACED
C0603_101600 C0603_101600 C11
25.71750000 5.71500000 0.00000000 180.00000000 TOP PLACED
C0805_132080 C0805_132080 C12
46.99000000 14.28750000 0.00000000 180.00000000 TOP PLACED
RC1206_152400 RC1206_152400 C13
42.54500000 8.57250000 0.00000000 0.00000000 TOP PLACED
C0603_101600 C0603_101600 C14
37.78250000 5.71500000 0.00000000 180.00000000 TOP PLACED
C0805_132080 C0805_132080 C15
59.05500000 14.28750000 0.00000000 180.00000000 TOP PLACED
RC1206_152400 RC1206_152400 C16
54.29250000 8.57250000 0.00000000 0.00000000 TOP PLACED
C0603_101600 C0603_101600 C17
49.53000000 5.71500000 0.00000000 180.00000000 TOP PLACED
C0805_132080 C0805_132080 C18
85.40750000 31.75000000 0.00000000 0.00000000 TOP PLACED
C0805_132080 C0805_132080 C19
68.26250000 24.76500000 0.00000000 180.00000000 TOP PLACED
.END_PLACEMENT
