EESchema Schematic File Version 4
EELAYER 30 0
EELAYER END
$Descr A4 11693 8268
encoding utf-8
Sheet 3 3
Title "Buzzer Board"
Date "2020-04-06"
Rev "1"
Comp "KiCad OpenVentilator Group"
Comment1 "based on Medtronic open design files"
Comment2 ""
Comment3 ""
Comment4 ""
$EndDescr
$Comp
L V_Connector:Via VI21
U 1 1 5EBAAA76
P 9300 1500
F 0 "VI21" H 9349 1535 50  0000 L CNN
F 1 "GND" H 9349 1455 35  0000 L CNN
F 2 "AllModules:VIA-08X03-VE" H 9300 1500 50  0001 C CNN
F 3 "~" H 9300 1500 50  0001 C CNN
	1    9300 1500
	1    0    0    -1  
$EndComp
$Comp
L V_Connector:Via VI27
U 1 1 5EBAE03E
P 3300 3700
F 0 "VI27" H 3349 3735 50  0000 L CNN
F 1 "BUZ-ACT" H 3349 3655 35  0000 L CNN
F 2 "AllModules:VIA-08X03-VE_1011" H 3300 3700 50  0001 C CNN
F 3 "~" H 3300 3700 50  0001 C CNN
	1    3300 3700
	1    0    0    -1  
$EndComp
$Comp
L V_Connector:Via VI30
U 1 1 5EBAE05C
P 3300 2300
F 0 "VI30" H 3349 2335 50  0000 L CNN
F 1 "SUPPLY-BUZ" H 3349 2255 35  0000 L CNN
F 2 "AllModules:VIA-08X03-VE_1011" H 3300 2300 50  0001 C CNN
F 3 "~" H 3300 2300 50  0001 C CNN
	1    3300 2300
	1    0    0    -1  
$EndComp
$Comp
L V_Connector:Via VI15
U 1 1 5EBB1762
P 2100 4500
F 0 "VI15" H 2149 4535 50  0000 L CNN
F 1 "INHIB-STOP-INV" H 2149 4455 35  0000 L CNN
F 2 "AllModules:VIA-08X03-VE_1011" H 2100 4500 50  0001 C CNN
F 3 "~" H 2100 4500 50  0001 C CNN
	1    2100 4500
	1    0    0    -1  
$EndComp
$Comp
L V_Connector:Via VI31
U 1 1 5EBB176C
P 3900 3700
F 0 "VI31" H 3949 3735 50  0000 L CNN
F 1 "BUZ-ACT" H 3949 3655 35  0000 L CNN
F 2 "AllModules:VIA-08X03-VE_1011" H 3900 3700 50  0001 C CNN
F 3 "~" H 3900 3700 50  0001 C CNN
	1    3900 3700
	1    0    0    -1  
$EndComp
$Comp
L V_Connector:Via VI35
U 1 1 5EBB1794
P 4500 1700
F 0 "VI35" H 4549 1735 50  0000 L CNN
F 1 "+5V" H 4549 1655 35  0000 L CNN
F 2 "AllModules:VIA-08X03-VE_1011" H 4500 1700 50  0001 C CNN
F 3 "~" H 4500 1700 50  0001 C CNN
	1    4500 1700
	1    0    0    -1  
$EndComp
$Comp
L V_Connector:Via VI16
U 1 1 5EBB179E
P 1500 4500
F 0 "VI16" H 1549 4535 50  0000 L CNN
F 1 "STOP-INV" H 1549 4455 35  0000 L CNN
F 2 "AllModules:VIA-08X03-VE_1011" H 1500 4500 50  0001 C CNN
F 3 "~" H 1500 4500 50  0001 C CNN
	1    1500 4500
	1    0    0    -1  
$EndComp
$Comp
L V_Connector:Via VI37
U 1 1 5EBB17DA
P 4500 2700
F 0 "VI37" H 4549 2735 50  0000 L CNN
F 1 "VBAT" H 4549 2655 35  0000 L CNN
F 2 "AllModules:VIA-08X03-VE_1011" H 4500 2700 50  0001 C CNN
F 3 "~" H 4500 2700 50  0001 C CNN
	1    4500 2700
	1    0    0    -1  
$EndComp
$Comp
L V_Connector:Via VI38
U 1 1 5EBB17E4
P 5700 4900
F 0 "VI38" H 5749 4935 50  0000 L CNN
F 1 "-12V" H 5749 4855 35  0000 L CNN
F 2 "AllModules:VIA-08X03-VE_1011" H 5700 4900 50  0001 C CNN
F 3 "~" H 5700 4900 50  0001 C CNN
	1    5700 4900
	1    0    0    -1  
$EndComp
$Comp
L V_Connector:Via VI44
U 1 1 5EBB77EE
P 9300 4900
F 0 "VI44" H 9349 4935 50  0000 L CNN
F 1 "GND" H 9349 4855 35  0000 L CNN
F 2 "AllModules:VIA-08X03-VE" H 9300 4900 50  0001 C CNN
F 3 "~" H 9300 4900 50  0001 C CNN
	1    9300 4900
	1    0    0    -1  
$EndComp
$Comp
L V_Connector:Via VI45
U 1 1 5EBB77F8
P 8700 1700
F 0 "VI45" H 8749 1735 50  0000 L CNN
F 1 "GND" H 8749 1655 35  0000 L CNN
F 2 "AllModules:VIA-08X03-VE" H 8700 1700 50  0001 C CNN
F 3 "~" H 8700 1700 50  0001 C CNN
	1    8700 1700
	1    0    0    -1  
$EndComp
$Comp
L V_Connector:Via VI61
U 1 1 5EBB7802
P 2100 4300
F 0 "VI61" H 2149 4335 50  0000 L CNN
F 1 "INHIB-STOP-INV" H 2149 4255 35  0000 L CNN
F 2 "AllModules:VIA-08X03-VE_1011" H 2100 4300 50  0001 C CNN
F 3 "~" H 2100 4300 50  0001 C CNN
	1    2100 4300
	1    0    0    -1  
$EndComp
$Comp
L V_Connector:Via VI62
U 1 1 5EBB780C
P 3300 4900
F 0 "VI62" H 3349 4935 50  0000 L CNN
F 1 "N$78" H 3349 4855 35  0000 L CNN
F 2 "AllModules:VIA-08X03-VE_1011" H 3300 4900 50  0001 C CNN
F 3 "~" H 3300 4900 50  0001 C CNN
	1    3300 4900
	1    0    0    -1  
$EndComp
$Comp
L V_Connector:Via VI63
U 1 1 5EBB7816
P 3900 4900
F 0 "VI63" H 3949 4935 50  0000 L CNN
F 1 "N$78" H 3949 4855 35  0000 L CNN
F 2 "AllModules:VIA-08X03-VE_1011" H 3900 4900 50  0001 C CNN
F 3 "~" H 3900 4900 50  0001 C CNN
	1    3900 4900
	1    0    0    -1  
$EndComp
$Comp
L V_Connector:Via VI64
U 1 1 5EBB7820
P 1500 4300
F 0 "VI64" H 1549 4335 50  0000 L CNN
F 1 "STOP-INV" H 1549 4255 35  0000 L CNN
F 2 "AllModules:VIA-08X03-VE_1011" H 1500 4300 50  0001 C CNN
F 3 "~" H 1500 4300 50  0001 C CNN
	1    1500 4300
	1    0    0    -1  
$EndComp
$Comp
L V_Connector:Via VI65
U 1 1 5EBB782A
P 8700 3500
F 0 "VI65" H 8749 3535 50  0000 L CNN
F 1 "GND" H 8749 3455 35  0000 L CNN
F 2 "AllModules:VIA-08X03-VE" H 8700 3500 50  0001 C CNN
F 3 "~" H 8700 3500 50  0001 C CNN
	1    8700 3500
	1    0    0    -1  
$EndComp
$Comp
L V_Connector:Via VI46
U 1 1 5EBB7834
P 8700 1900
F 0 "VI46" H 8749 1935 50  0000 L CNN
F 1 "GND" H 8749 1855 35  0000 L CNN
F 2 "AllModules:VIA-08X03-VE" H 8700 1900 50  0001 C CNN
F 3 "~" H 8700 1900 50  0001 C CNN
	1    8700 1900
	1    0    0    -1  
$EndComp
$Comp
L V_Connector:Via VI47
U 1 1 5EBB783E
P 8700 2100
F 0 "VI47" H 8749 2135 50  0000 L CNN
F 1 "GND" H 8749 2055 35  0000 L CNN
F 2 "AllModules:VIA-08X03-VE" H 8700 2100 50  0001 C CNN
F 3 "~" H 8700 2100 50  0001 C CNN
	1    8700 2100
	1    0    0    -1  
$EndComp
$Comp
L V_Connector:Via VI48
U 1 1 5EBB7848
P 8700 2300
F 0 "VI48" H 8749 2335 50  0000 L CNN
F 1 "GND" H 8749 2255 35  0000 L CNN
F 2 "AllModules:VIA-08X03-VE" H 8700 2300 50  0001 C CNN
F 3 "~" H 8700 2300 50  0001 C CNN
	1    8700 2300
	1    0    0    -1  
$EndComp
$Comp
L V_Connector:Via VI49
U 1 1 5EBB7852
P 5700 2900
F 0 "VI49" H 5749 2935 50  0000 L CNN
F 1 "VCHARG" H 5749 2855 35  0000 L CNN
F 2 "AllModules:VIA-08X03-VE_1001" H 5700 2900 50  0001 C CNN
F 3 "~" H 5700 2900 50  0001 C CNN
	1    5700 2900
	1    0    0    -1  
$EndComp
$Comp
L V_Connector:Via VI50
U 1 1 5EBB785C
P 8700 2500
F 0 "VI50" H 8749 2535 50  0000 L CNN
F 1 "GND" H 8749 2455 35  0000 L CNN
F 2 "AllModules:VIA-08X03-VE" H 8700 2500 50  0001 C CNN
F 3 "~" H 8700 2500 50  0001 C CNN
	1    8700 2500
	1    0    0    -1  
$EndComp
$Comp
L V_Connector:Via VI66
U 1 1 5EBB7866
P 8700 3700
F 0 "VI66" H 8749 3735 50  0000 L CNN
F 1 "GND" H 8749 3655 35  0000 L CNN
F 2 "AllModules:VIA-08X03-VE" H 8700 3700 50  0001 C CNN
F 3 "~" H 8700 3700 50  0001 C CNN
	1    8700 3700
	1    0    0    -1  
$EndComp
$Comp
L V_Connector:Via VI67
U 1 1 5EBB7870
P 8700 3900
F 0 "VI67" H 8749 3935 50  0000 L CNN
F 1 "GND" H 8749 3855 35  0000 L CNN
F 2 "AllModules:VIA-08X03-VE" H 8700 3900 50  0001 C CNN
F 3 "~" H 8700 3900 50  0001 C CNN
	1    8700 3900
	1    0    0    -1  
$EndComp
$Comp
L V_Connector:Via VI68
U 1 1 5EBB787A
P 8700 4100
F 0 "VI68" H 8749 4135 50  0000 L CNN
F 1 "GND" H 8749 4055 35  0000 L CNN
F 2 "AllModules:VIA-08X03-VE" H 8700 4100 50  0001 C CNN
F 3 "~" H 8700 4100 50  0001 C CNN
	1    8700 4100
	1    0    0    -1  
$EndComp
$Comp
L V_Connector:Via VI69
U 1 1 5EBB7884
P 8700 4300
F 0 "VI69" H 8749 4335 50  0000 L CNN
F 1 "GND" H 8749 4255 35  0000 L CNN
F 2 "AllModules:VIA-08X03-VE" H 8700 4300 50  0001 C CNN
F 3 "~" H 8700 4300 50  0001 C CNN
	1    8700 4300
	1    0    0    -1  
$EndComp
$Comp
L V_Connector:Via VI70
U 1 1 5EBB788E
P 8700 4500
F 0 "VI70" H 8749 4535 50  0000 L CNN
F 1 "GND" H 8749 4455 35  0000 L CNN
F 2 "AllModules:VIA-08X03-VE" H 8700 4500 50  0001 C CNN
F 3 "~" H 8700 4500 50  0001 C CNN
	1    8700 4500
	1    0    0    -1  
$EndComp
$Comp
L V_Connector:Via VI51
U 1 1 5EBB7898
P 5700 2300
F 0 "VI51" H 5749 2335 50  0000 L CNN
F 1 "+12V" H 5749 2255 35  0000 L CNN
F 2 "AllModules:VIA-08X03-VE_1011" H 5700 2300 50  0001 C CNN
F 3 "~" H 5700 2300 50  0001 C CNN
	1    5700 2300
	1    0    0    -1  
$EndComp
$Comp
L V_Connector:Via VI52
U 1 1 5EBB78A2
P 5100 3700
F 0 "VI52" H 5149 3735 50  0000 L CNN
F 1 "BUZ-ACT" H 5149 3655 35  0000 L CNN
F 2 "AllModules:VIA-08X03-VE_1011" H 5100 3700 50  0001 C CNN
F 3 "~" H 5100 3700 50  0001 C CNN
	1    5100 3700
	1    0    0    -1  
$EndComp
$Comp
L V_Connector:Via VI53
U 1 1 5EBB78AC
P 5700 1500
F 0 "VI53" H 5749 1535 50  0000 L CNN
F 1 "+12V" H 5749 1455 35  0000 L CNN
F 2 "AllModules:VIA-08X03-VE_1011" H 5700 1500 50  0001 C CNN
F 3 "~" H 5700 1500 50  0001 C CNN
	1    5700 1500
	1    0    0    -1  
$EndComp
$Comp
L V_Connector:Via VI54
U 1 1 5EBB78B6
P 4500 1900
F 0 "VI54" H 4549 1935 50  0000 L CNN
F 1 "+5V" H 4549 1855 35  0000 L CNN
F 2 "AllModules:VIA-08X03-VE_1011" H 4500 1900 50  0001 C CNN
F 3 "~" H 4500 1900 50  0001 C CNN
	1    4500 1900
	1    0    0    -1  
$EndComp
$Comp
L V_Connector:Via VI55
U 1 1 5EBB78C0
P 8700 2700
F 0 "VI55" H 8749 2735 50  0000 L CNN
F 1 "GND" H 8749 2655 35  0000 L CNN
F 2 "AllModules:VIA-08X03-VE" H 8700 2700 50  0001 C CNN
F 3 "~" H 8700 2700 50  0001 C CNN
	1    8700 2700
	1    0    0    -1  
$EndComp
$Comp
L V_Connector:Via VI71
U 1 1 5EBB78CA
P 8700 4700
F 0 "VI71" H 8749 4735 50  0000 L CNN
F 1 "GND" H 8749 4655 35  0000 L CNN
F 2 "AllModules:VIA-08X03-VE" H 8700 4700 50  0001 C CNN
F 3 "~" H 8700 4700 50  0001 C CNN
	1    8700 4700
	1    0    0    -1  
$EndComp
$Comp
L V_Connector:Via VI72
U 1 1 5EBB78D4
P 8700 4900
F 0 "VI72" H 8749 4935 50  0000 L CNN
F 1 "GND" H 8749 4855 35  0000 L CNN
F 2 "AllModules:VIA-08X03-VE" H 8700 4900 50  0001 C CNN
F 3 "~" H 8700 4900 50  0001 C CNN
	1    8700 4900
	1    0    0    -1  
$EndComp
$Comp
L V_Connector:Via VI73
U 1 1 5EBB78DE
P 8100 1500
F 0 "VI73" H 8149 1535 50  0000 L CNN
F 1 "GND" H 8149 1455 35  0000 L CNN
F 2 "AllModules:VIA-08X03-VE" H 8100 1500 50  0001 C CNN
F 3 "~" H 8100 1500 50  0001 C CNN
	1    8100 1500
	1    0    0    -1  
$EndComp
$Comp
L V_Connector:Via VI74
U 1 1 5EBB78E8
P 8100 1700
F 0 "VI74" H 8149 1735 50  0000 L CNN
F 1 "GND" H 8149 1655 35  0000 L CNN
F 2 "AllModules:VIA-08X03-VE" H 8100 1700 50  0001 C CNN
F 3 "~" H 8100 1700 50  0001 C CNN
	1    8100 1700
	1    0    0    -1  
$EndComp
$Comp
L V_Connector:Via VI75
U 1 1 5EBB78F2
P 8100 1900
F 0 "VI75" H 8149 1935 50  0000 L CNN
F 1 "GND" H 8149 1855 35  0000 L CNN
F 2 "AllModules:VIA-08X03-VE" H 8100 1900 50  0001 C CNN
F 3 "~" H 8100 1900 50  0001 C CNN
	1    8100 1900
	1    0    0    -1  
$EndComp
$Comp
L V_Connector:Via VI56
U 1 1 5EBB78FC
P 8700 2900
F 0 "VI56" H 8749 2935 50  0000 L CNN
F 1 "GND" H 8749 2855 35  0000 L CNN
F 2 "AllModules:VIA-08X03-VE" H 8700 2900 50  0001 C CNN
F 3 "~" H 8700 2900 50  0001 C CNN
	1    8700 2900
	1    0    0    -1  
$EndComp
$Comp
L V_Connector:Via VI57
U 1 1 5EBB7906
P 8700 3100
F 0 "VI57" H 8749 3135 50  0000 L CNN
F 1 "GND" H 8749 3055 35  0000 L CNN
F 2 "AllModules:VIA-08X03-VE" H 8700 3100 50  0001 C CNN
F 3 "~" H 8700 3100 50  0001 C CNN
	1    8700 3100
	1    0    0    -1  
$EndComp
$Comp
L V_Connector:Via VI58
U 1 1 5EBB7910
P 4500 2900
F 0 "VI58" H 4549 2935 50  0000 L CNN
F 1 "VBAT" H 4549 2855 35  0000 L CNN
F 2 "AllModules:VIA-08X03-VE_1011" H 4500 2900 50  0001 C CNN
F 3 "~" H 4500 2900 50  0001 C CNN
	1    4500 2900
	1    0    0    -1  
$EndComp
$Comp
L V_Connector:Via VI59
U 1 1 5EBB791A
P 8700 3300
F 0 "VI59" H 8749 3335 50  0000 L CNN
F 1 "GND" H 8749 3255 35  0000 L CNN
F 2 "AllModules:VIA-08X03-VE" H 8700 3300 50  0001 C CNN
F 3 "~" H 8700 3300 50  0001 C CNN
	1    8700 3300
	1    0    0    -1  
$EndComp
$Comp
L V_Connector:Via VI60
U 1 1 5EBB7924
P 4500 1500
F 0 "VI60" H 4549 1535 50  0000 L CNN
F 1 "+5V" H 4549 1455 35  0000 L CNN
F 2 "AllModules:VIA-08X03-VE_1011" H 4500 1500 50  0001 C CNN
F 3 "~" H 4500 1500 50  0001 C CNN
	1    4500 1500
	1    0    0    -1  
$EndComp
$Comp
L V_Connector:Via VI76
U 1 1 5EBB792E
P 3300 2700
F 0 "VI76" H 3349 2735 50  0000 L CNN
F 1 "SUPPLY-BUZ-CPU" H 3349 2655 35  0000 L CNN
F 2 "AllModules:VIA-08X03-VE_1011" H 3300 2700 50  0001 C CNN
F 3 "~" H 3300 2700 50  0001 C CNN
	1    3300 2700
	1    0    0    -1  
$EndComp
$Comp
L V_Connector:Via VI77
U 1 1 5EBB7938
P 3300 1500
F 0 "VI77" H 3349 1535 50  0000 L CNN
F 1 "SUPPLY-BUZ" H 3349 1455 35  0000 L CNN
F 2 "AllModules:VIA-08X03-VE_1011" H 3300 1500 50  0001 C CNN
F 3 "~" H 3300 1500 50  0001 C CNN
	1    3300 1500
	1    0    0    -1  
$EndComp
$Comp
L V_Connector:Via VI78
U 1 1 5EBB7942
P 3300 1700
F 0 "VI78" H 3349 1735 50  0000 L CNN
F 1 "SUPPLY-BUZ" H 3349 1655 35  0000 L CNN
F 2 "AllModules:VIA-08X03-VE_1011" H 3300 1700 50  0001 C CNN
F 3 "~" H 3300 1700 50  0001 C CNN
	1    3300 1700
	1    0    0    -1  
$EndComp
$Comp
L V_Connector:Via VI79
U 1 1 5EBB794C
P 3300 1900
F 0 "VI79" H 3349 1935 50  0000 L CNN
F 1 "SUPPLY-BUZ" H 3349 1855 35  0000 L CNN
F 2 "AllModules:VIA-08X03-VE_1011" H 3300 1900 50  0001 C CNN
F 3 "~" H 3300 1900 50  0001 C CNN
	1    3300 1900
	1    0    0    -1  
$EndComp
$Comp
L V_Connector:Via VI80
U 1 1 5EBB7956
P 5700 2100
F 0 "VI80" H 5749 2135 50  0000 L CNN
F 1 "+12V" H 5749 2055 35  0000 L CNN
F 2 "AllModules:VIA-08X03-VE_1011" H 5700 2100 50  0001 C CNN
F 3 "~" H 5700 2100 50  0001 C CNN
	1    5700 2100
	1    0    0    -1  
$EndComp
$Comp
L V_Connector:Via VI81
U 1 1 5EBC005A
P 8100 2100
F 0 "VI81" H 8149 2135 50  0000 L CNN
F 1 "GND" H 8149 2055 35  0000 L CNN
F 2 "AllModules:VIA-08X03-VE" H 8100 2100 50  0001 C CNN
F 3 "~" H 8100 2100 50  0001 C CNN
	1    8100 2100
	1    0    0    -1  
$EndComp
$Comp
L V_Connector:Via VI82
U 1 1 5EBC0064
P 8100 2300
F 0 "VI82" H 8149 2335 50  0000 L CNN
F 1 "GND" H 8149 2255 35  0000 L CNN
F 2 "AllModules:VIA-08X03-VE" H 8100 2300 50  0001 C CNN
F 3 "~" H 8100 2300 50  0001 C CNN
	1    8100 2300
	1    0    0    -1  
$EndComp
$Comp
L V_Connector:Via VI83
U 1 1 5EBC006E
P 5700 4300
F 0 "VI83" H 5749 4335 50  0000 L CNN
F 1 "-12V" H 5749 4255 35  0000 L CNN
F 2 "AllModules:VIA-08X03-VE_1011" H 5700 4300 50  0001 C CNN
F 3 "~" H 5700 4300 50  0001 C CNN
	1    5700 4300
	1    0    0    -1  
$EndComp
$Comp
L V_Connector:Via VI84
U 1 1 5EBC0078
P 8100 2500
F 0 "VI84" H 8149 2535 50  0000 L CNN
F 1 "GND" H 8149 2455 35  0000 L CNN
F 2 "AllModules:VIA-08X03-VE" H 8100 2500 50  0001 C CNN
F 3 "~" H 8100 2500 50  0001 C CNN
	1    8100 2500
	1    0    0    -1  
$EndComp
$Comp
L V_Connector:Via VI85
U 1 1 5EBC0082
P 8100 2700
F 0 "VI85" H 8149 2735 50  0000 L CNN
F 1 "GND" H 8149 2655 35  0000 L CNN
F 2 "AllModules:VIA-08X03-VE" H 8100 2700 50  0001 C CNN
F 3 "~" H 8100 2700 50  0001 C CNN
	1    8100 2700
	1    0    0    -1  
$EndComp
$Comp
L V_Connector:Via VI101
U 1 1 5EBC008C
P 6900 4100
F 0 "VI101" H 6949 4135 50  0000 L CNN
F 1 "GND" H 6949 4055 35  0000 L CNN
F 2 "AllModules:VIA-08X03-VE" H 6900 4100 50  0001 C CNN
F 3 "~" H 6900 4100 50  0001 C CNN
	1    6900 4100
	1    0    0    -1  
$EndComp
$Comp
L V_Connector:Via VI103
U 1 1 5EBC00A0
P 6900 3900
F 0 "VI103" H 6949 3935 50  0000 L CNN
F 1 "GND" H 6949 3855 35  0000 L CNN
F 2 "AllModules:VIA-08X03-VE" H 6900 3900 50  0001 C CNN
F 3 "~" H 6900 3900 50  0001 C CNN
	1    6900 3900
	1    0    0    -1  
$EndComp
$Comp
L V_Connector:Via VI104
U 1 1 5EBC00AA
P 5700 4500
F 0 "VI104" H 5749 4535 50  0000 L CNN
F 1 "-12V" H 5749 4455 35  0000 L CNN
F 2 "AllModules:VIA-08X03-VE_1011" H 5700 4500 50  0001 C CNN
F 3 "~" H 5700 4500 50  0001 C CNN
	1    5700 4500
	1    0    0    -1  
$EndComp
$Comp
L V_Connector:Via VI86
U 1 1 5EBC00BE
P 8100 2900
F 0 "VI86" H 8149 2935 50  0000 L CNN
F 1 "GND" H 8149 2855 35  0000 L CNN
F 2 "AllModules:VIA-08X03-VE" H 8100 2900 50  0001 C CNN
F 3 "~" H 8100 2900 50  0001 C CNN
	1    8100 2900
	1    0    0    -1  
$EndComp
$Comp
L V_Connector:Via VI87
U 1 1 5EBC00C8
P 8100 3100
F 0 "VI87" H 8149 3135 50  0000 L CNN
F 1 "GND" H 8149 3055 35  0000 L CNN
F 2 "AllModules:VIA-08X03-VE" H 8100 3100 50  0001 C CNN
F 3 "~" H 8100 3100 50  0001 C CNN
	1    8100 3100
	1    0    0    -1  
$EndComp
$Comp
L V_Connector:Via VI88
U 1 1 5EBC00D2
P 8100 3300
F 0 "VI88" H 8149 3335 50  0000 L CNN
F 1 "GND" H 8149 3255 35  0000 L CNN
F 2 "AllModules:VIA-08X03-VE" H 8100 3300 50  0001 C CNN
F 3 "~" H 8100 3300 50  0001 C CNN
	1    8100 3300
	1    0    0    -1  
$EndComp
$Comp
L V_Connector:Via VI89
U 1 1 5EBC00DC
P 8100 3500
F 0 "VI89" H 8149 3535 50  0000 L CNN
F 1 "GND" H 8149 3455 35  0000 L CNN
F 2 "AllModules:VIA-08X03-VE" H 8100 3500 50  0001 C CNN
F 3 "~" H 8100 3500 50  0001 C CNN
	1    8100 3500
	1    0    0    -1  
$EndComp
$Comp
L V_Connector:Via VI90
U 1 1 5EBC00E6
P 4500 3100
F 0 "VI90" H 4549 3135 50  0000 L CNN
F 1 "VBAT" H 4549 3055 35  0000 L CNN
F 2 "AllModules:VIA-08X03-VE_1011" H 4500 3100 50  0001 C CNN
F 3 "~" H 4500 3100 50  0001 C CNN
	1    4500 3100
	1    0    0    -1  
$EndComp
$Comp
L V_Connector:Via VI106
U 1 1 5EBC00F0
P 5700 4700
F 0 "VI106" H 5749 4735 50  0000 L CNN
F 1 "-12V" H 5749 4655 35  0000 L CNN
F 2 "AllModules:VIA-08X03-VE_1011" H 5700 4700 50  0001 C CNN
F 3 "~" H 5700 4700 50  0001 C CNN
	1    5700 4700
	1    0    0    -1  
$EndComp
$Comp
L V_Connector:Via VI107
U 1 1 5EBC00FA
P 6900 3700
F 0 "VI107" H 6949 3735 50  0000 L CNN
F 1 "GND" H 6949 3655 35  0000 L CNN
F 2 "AllModules:VIA-08X03-VE" H 6900 3700 50  0001 C CNN
F 3 "~" H 6900 3700 50  0001 C CNN
	1    6900 3700
	1    0    0    -1  
$EndComp
$Comp
L V_Connector:Via VI108
U 1 1 5EBC0104
P 3300 2100
F 0 "VI108" H 3349 2135 50  0000 L CNN
F 1 "SUPPLY-BUZ" H 3349 2055 35  0000 L CNN
F 2 "AllModules:VIA-08X03-VE_1011" H 3300 2100 50  0001 C CNN
F 3 "~" H 3300 2100 50  0001 C CNN
	1    3300 2100
	1    0    0    -1  
$EndComp
$Comp
L V_Connector:Via VI109
U 1 1 5EBC010E
P 5000 4100
F 0 "VI109" H 5049 4135 50  0000 L CNN
F 1 "N$31" H 5049 4055 35  0000 L CNN
F 2 "AllModules:VIA-08X03-VE_1011" H 5000 4100 50  0001 C CNN
F 3 "~" H 5000 4100 50  0001 C CNN
	1    5000 4100
	1    0    0    -1  
$EndComp
$Comp
L V_Connector:Via VI91
U 1 1 5EBC0122
P 8100 3700
F 0 "VI91" H 8149 3735 50  0000 L CNN
F 1 "GND" H 8149 3655 35  0000 L CNN
F 2 "AllModules:VIA-08X03-VE" H 8100 3700 50  0001 C CNN
F 3 "~" H 8100 3700 50  0001 C CNN
	1    8100 3700
	1    0    0    -1  
$EndComp
$Comp
L V_Connector:Via VI92
U 1 1 5EBC012C
P 8100 3900
F 0 "VI92" H 8149 3935 50  0000 L CNN
F 1 "GND" H 8149 3855 35  0000 L CNN
F 2 "AllModules:VIA-08X03-VE" H 8100 3900 50  0001 C CNN
F 3 "~" H 8100 3900 50  0001 C CNN
	1    8100 3900
	1    0    0    -1  
$EndComp
$Comp
L V_Connector:Via VI93
U 1 1 5EBC0136
P 8100 4100
F 0 "VI93" H 8149 4135 50  0000 L CNN
F 1 "GND" H 8149 4055 35  0000 L CNN
F 2 "AllModules:VIA-08X03-VE" H 8100 4100 50  0001 C CNN
F 3 "~" H 8100 4100 50  0001 C CNN
	1    8100 4100
	1    0    0    -1  
$EndComp
$Comp
L V_Connector:Via VI94
U 1 1 5EBC0140
P 8100 4300
F 0 "VI94" H 8149 4335 50  0000 L CNN
F 1 "GND" H 8149 4255 35  0000 L CNN
F 2 "AllModules:VIA-08X03-VE" H 8100 4300 50  0001 C CNN
F 3 "~" H 8100 4300 50  0001 C CNN
	1    8100 4300
	1    0    0    -1  
$EndComp
$Comp
L V_Connector:Via VI95
U 1 1 5EBC014A
P 8100 4500
F 0 "VI95" H 8149 4535 50  0000 L CNN
F 1 "GND" H 8149 4455 35  0000 L CNN
F 2 "AllModules:VIA-08X03-VE" H 8100 4500 50  0001 C CNN
F 3 "~" H 8100 4500 50  0001 C CNN
	1    8100 4500
	1    0    0    -1  
$EndComp
$Comp
L V_Connector:Via VI111
U 1 1 5EBC0154
P 6900 3500
F 0 "VI111" H 6949 3535 50  0000 L CNN
F 1 "GND" H 6949 3455 35  0000 L CNN
F 2 "AllModules:VIA-08X03-VE" H 6900 3500 50  0001 C CNN
F 3 "~" H 6900 3500 50  0001 C CNN
	1    6900 3500
	1    0    0    -1  
$EndComp
$Comp
L V_Connector:Via VI112
U 1 1 5EBC015E
P 5700 2500
F 0 "VI112" H 5749 2535 50  0000 L CNN
F 1 "+12V" H 5749 2455 35  0000 L CNN
F 2 "AllModules:VIA-08X03-VE_1011" H 5700 2500 50  0001 C CNN
F 3 "~" H 5700 2500 50  0001 C CNN
	1    5700 2500
	1    0    0    -1  
$EndComp
$Comp
L V_Connector:Via VI113
U 1 1 5EBC0168
P 6900 3300
F 0 "VI113" H 6949 3335 50  0000 L CNN
F 1 "GND" H 6949 3255 35  0000 L CNN
F 2 "AllModules:VIA-08X03-VE" H 6900 3300 50  0001 C CNN
F 3 "~" H 6900 3300 50  0001 C CNN
	1    6900 3300
	1    0    0    -1  
$EndComp
$Comp
L V_Connector:Via VI114
U 1 1 5EBC0172
P 3950 4100
F 0 "VI114" H 3999 4135 50  0000 L CNN
F 1 "N$18" H 3999 4055 35  0000 L CNN
F 2 "AllModules:VIA-08X03-VE_1011" H 3950 4100 50  0001 C CNN
F 3 "~" H 3950 4100 50  0001 C CNN
	1    3950 4100
	1    0    0    -1  
$EndComp
$Comp
L V_Connector:Via VI96
U 1 1 5EBC0186
P 8100 4700
F 0 "VI96" H 8149 4735 50  0000 L CNN
F 1 "GND" H 8149 4655 35  0000 L CNN
F 2 "AllModules:VIA-08X03-VE" H 8100 4700 50  0001 C CNN
F 3 "~" H 8100 4700 50  0001 C CNN
	1    8100 4700
	1    0    0    -1  
$EndComp
$Comp
L V_Connector:Via VI97
U 1 1 5EBC0190
P 8100 4900
F 0 "VI97" H 8149 4935 50  0000 L CNN
F 1 "GND" H 8149 4855 35  0000 L CNN
F 2 "AllModules:VIA-08X03-VE" H 8100 4900 50  0001 C CNN
F 3 "~" H 8100 4900 50  0001 C CNN
	1    8100 4900
	1    0    0    -1  
$EndComp
$Comp
L V_Connector:Via VI98
U 1 1 5EBC019A
P 3300 2900
F 0 "VI98" H 3349 2935 50  0000 L CNN
F 1 "SUPPLY-BUZ-CPU" H 3349 2855 35  0000 L CNN
F 2 "AllModules:VIA-08X03-VE_1011" H 3300 2900 50  0001 C CNN
F 3 "~" H 3300 2900 50  0001 C CNN
	1    3300 2900
	1    0    0    -1  
$EndComp
$Comp
L V_Connector:Via VI99
U 1 1 5EBC01A4
P 7500 1500
F 0 "VI99" H 7549 1535 50  0000 L CNN
F 1 "GND" H 7549 1455 35  0000 L CNN
F 2 "AllModules:VIA-08X03-VE" H 7500 1500 50  0001 C CNN
F 3 "~" H 7500 1500 50  0001 C CNN
	1    7500 1500
	1    0    0    -1  
$EndComp
$Comp
L V_Connector:Via VI100
U 1 1 5EBC01AE
P 3300 4100
F 0 "VI100" H 3349 4135 50  0000 L CNN
F 1 "N$18" H 3349 4055 35  0000 L CNN
F 2 "AllModules:VIA-08X03-VE_1011" H 3300 4100 50  0001 C CNN
F 3 "~" H 3300 4100 50  0001 C CNN
	1    3300 4100
	1    0    0    -1  
$EndComp
$Comp
L V_Connector:Via VI116
U 1 1 5EBC01B8
P 6900 2900
F 0 "VI116" H 6949 2935 50  0000 L CNN
F 1 "GND" H 6949 2855 35  0000 L CNN
F 2 "AllModules:VIA-08X03-VE" H 6900 2900 50  0001 C CNN
F 3 "~" H 6900 2900 50  0001 C CNN
	1    6900 2900
	1    0    0    -1  
$EndComp
$Comp
L V_Connector:Via VI117
U 1 1 5EBC01C2
P 6900 3100
F 0 "VI117" H 6949 3135 50  0000 L CNN
F 1 "GND" H 6949 3055 35  0000 L CNN
F 2 "AllModules:VIA-08X03-VE" H 6900 3100 50  0001 C CNN
F 3 "~" H 6900 3100 50  0001 C CNN
	1    6900 3100
	1    0    0    -1  
$EndComp
$Comp
L V_Connector:Via VI118
U 1 1 5EBC01CC
P 4500 2100
F 0 "VI118" H 4549 2135 50  0000 L CNN
F 1 "+5V" H 4549 2055 35  0000 L CNN
F 2 "AllModules:VIA-08X03-VE_1011" H 4500 2100 50  0001 C CNN
F 3 "~" H 4500 2100 50  0001 C CNN
	1    4500 2100
	1    0    0    -1  
$EndComp
$Comp
L V_Connector:Via VI119
U 1 1 5EBC01D6
P 5700 1700
F 0 "VI119" H 5749 1735 50  0000 L CNN
F 1 "+12V" H 5749 1655 35  0000 L CNN
F 2 "AllModules:VIA-08X03-VE_1011" H 5700 1700 50  0001 C CNN
F 3 "~" H 5700 1700 50  0001 C CNN
	1    5700 1700
	1    0    0    -1  
$EndComp
$Comp
L V_Connector:Via VI121
U 1 1 5EBC01EA
P 5700 1900
F 0 "VI121" H 5749 1935 50  0000 L CNN
F 1 "+12V" H 5749 1855 35  0000 L CNN
F 2 "AllModules:VIA-08X03-VE_1011" H 5700 1900 50  0001 C CNN
F 3 "~" H 5700 1900 50  0001 C CNN
	1    5700 1900
	1    0    0    -1  
$EndComp
$Comp
L V_Connector:Via VI122
U 1 1 5EBC01F4
P 3300 3300
F 0 "VI122" H 3349 3335 50  0000 L CNN
F 1 "GT1" H 3349 3255 35  0000 L CNN
F 2 "AllModules:VIA-08X03-VE_1011" H 3300 3300 50  0001 C CNN
F 3 "~" H 3300 3300 50  0001 C CNN
	1    3300 3300
	1    0    0    -1  
$EndComp
$Comp
L V_Connector:Via VI124
U 1 1 5EBC0208
P 7500 1700
F 0 "VI124" H 7549 1735 50  0000 L CNN
F 1 "GND" H 7549 1655 35  0000 L CNN
F 2 "AllModules:VIA-08X03-VE" H 7500 1700 50  0001 C CNN
F 3 "~" H 7500 1700 50  0001 C CNN
	1    7500 1700
	1    0    0    -1  
$EndComp
$Comp
L V_Connector:Via VI125
U 1 1 5EBC0212
P 7500 1900
F 0 "VI125" H 7549 1935 50  0000 L CNN
F 1 "GND" H 7549 1855 35  0000 L CNN
F 2 "AllModules:VIA-08X03-VE" H 7500 1900 50  0001 C CNN
F 3 "~" H 7500 1900 50  0001 C CNN
	1    7500 1900
	1    0    0    -1  
$EndComp
$Comp
L V_Connector:Via VI141
U 1 1 5EBC021C
P 5000 4500
F 0 "VI141" H 5049 4535 50  0000 L CNN
F 1 "N$19" H 5049 4455 35  0000 L CNN
F 2 "AllModules:VIA-08X03-VE_1011" H 5000 4500 50  0001 C CNN
F 3 "~" H 5000 4500 50  0001 C CNN
	1    5000 4500
	1    0    0    -1  
$EndComp
$Comp
L V_Connector:Via VI142
U 1 1 5EBC0226
P 3900 3300
F 0 "VI142" H 3949 3335 50  0000 L CNN
F 1 "GT1" H 3949 3255 35  0000 L CNN
F 2 "AllModules:VIA-08X03-VE_1011" H 3900 3300 50  0001 C CNN
F 3 "~" H 3900 3300 50  0001 C CNN
	1    3900 3300
	1    0    0    -1  
$EndComp
$Comp
L V_Connector:Via VI143
U 1 1 5EBC0230
P 6900 2100
F 0 "VI143" H 6949 2135 50  0000 L CNN
F 1 "GND" H 6949 2055 35  0000 L CNN
F 2 "AllModules:VIA-08X03-VE" H 6900 2100 50  0001 C CNN
F 3 "~" H 6900 2100 50  0001 C CNN
	1    6900 2100
	1    0    0    -1  
$EndComp
$Comp
L V_Connector:Via VI144
U 1 1 5EBC023A
P 6900 2300
F 0 "VI144" H 6949 2335 50  0000 L CNN
F 1 "GND" H 6949 2255 35  0000 L CNN
F 2 "AllModules:VIA-08X03-VE" H 6900 2300 50  0001 C CNN
F 3 "~" H 6900 2300 50  0001 C CNN
	1    6900 2300
	1    0    0    -1  
$EndComp
$Comp
L V_Connector:Via VI145
U 1 1 5EBC0244
P 2100 1500
F 0 "VI145" H 2149 1535 50  0000 L CNN
F 1 "N$10" H 2149 1455 35  0000 L CNN
F 2 "AllModules:VIA-08X03-VE_1011" H 2100 1500 50  0001 C CNN
F 3 "~" H 2100 1500 50  0001 C CNN
	1    2100 1500
	1    0    0    -1  
$EndComp
$Comp
L V_Connector:Via VI126
U 1 1 5EBC024E
P 7500 2100
F 0 "VI126" H 7549 2135 50  0000 L CNN
F 1 "GND" H 7549 2055 35  0000 L CNN
F 2 "AllModules:VIA-08X03-VE" H 7500 2100 50  0001 C CNN
F 3 "~" H 7500 2100 50  0001 C CNN
	1    7500 2100
	1    0    0    -1  
$EndComp
$Comp
L V_Connector:Via VI127
U 1 1 5EBC0258
P 7500 2300
F 0 "VI127" H 7549 2335 50  0000 L CNN
F 1 "GND" H 7549 2255 35  0000 L CNN
F 2 "AllModules:VIA-08X03-VE" H 7500 2300 50  0001 C CNN
F 3 "~" H 7500 2300 50  0001 C CNN
	1    7500 2300
	1    0    0    -1  
$EndComp
$Comp
L V_Connector:Via VI128
U 1 1 5EBC0262
P 7500 2500
F 0 "VI128" H 7549 2535 50  0000 L CNN
F 1 "GND" H 7549 2455 35  0000 L CNN
F 2 "AllModules:VIA-08X03-VE" H 7500 2500 50  0001 C CNN
F 3 "~" H 7500 2500 50  0001 C CNN
	1    7500 2500
	1    0    0    -1  
$EndComp
$Comp
L V_Connector:Via VI129
U 1 1 5EBC026C
P 7500 2700
F 0 "VI129" H 7549 2735 50  0000 L CNN
F 1 "GND" H 7549 2655 35  0000 L CNN
F 2 "AllModules:VIA-08X03-VE" H 7500 2700 50  0001 C CNN
F 3 "~" H 7500 2700 50  0001 C CNN
	1    7500 2700
	1    0    0    -1  
$EndComp
$Comp
L V_Connector:Via VI130
U 1 1 5EBC0276
P 7500 2900
F 0 "VI130" H 7549 2935 50  0000 L CNN
F 1 "GND" H 7549 2855 35  0000 L CNN
F 2 "AllModules:VIA-08X03-VE" H 7500 2900 50  0001 C CNN
F 3 "~" H 7500 2900 50  0001 C CNN
	1    7500 2900
	1    0    0    -1  
$EndComp
$Comp
L V_Connector:Via VI146
U 1 1 5EBC0280
P 4500 3700
F 0 "VI146" H 4549 3735 50  0000 L CNN
F 1 "BUZ-ACT" H 4549 3655 35  0000 L CNN
F 2 "AllModules:VIA-08X03-VE_1011" H 4500 3700 50  0001 C CNN
F 3 "~" H 4500 3700 50  0001 C CNN
	1    4500 3700
	1    0    0    -1  
$EndComp
$Comp
L V_Connector:Via VI147
U 1 1 5EBC028A
P 6900 2500
F 0 "VI147" H 6949 2535 50  0000 L CNN
F 1 "GND" H 6949 2455 35  0000 L CNN
F 2 "AllModules:VIA-08X03-VE" H 6900 2500 50  0001 C CNN
F 3 "~" H 6900 2500 50  0001 C CNN
	1    6900 2500
	1    0    0    -1  
$EndComp
$Comp
L V_Connector:Via VI148
U 1 1 5EBC0294
P 6900 2700
F 0 "VI148" H 6949 2735 50  0000 L CNN
F 1 "GND" H 6949 2655 35  0000 L CNN
F 2 "AllModules:VIA-08X03-VE" H 6900 2700 50  0001 C CNN
F 3 "~" H 6900 2700 50  0001 C CNN
	1    6900 2700
	1    0    0    -1  
$EndComp
$Comp
L V_Connector:Via VI149
U 1 1 5EBC029E
P 1500 2700
F 0 "VI149" H 1549 2735 50  0000 L CNN
F 1 "N$10" H 1549 2655 35  0000 L CNN
F 2 "AllModules:VIA-08X03-VE_1011" H 1500 2700 50  0001 C CNN
F 3 "~" H 1500 2700 50  0001 C CNN
	1    1500 2700
	1    0    0    -1  
$EndComp
$Comp
L V_Connector:Via VI150
U 1 1 5EBC02A8
P 1500 2500
F 0 "VI150" H 1549 2535 50  0000 L CNN
F 1 "N$10" H 1549 2455 35  0000 L CNN
F 2 "AllModules:VIA-08X03-VE_1011" H 1500 2500 50  0001 C CNN
F 3 "~" H 1500 2500 50  0001 C CNN
	1    1500 2500
	1    0    0    -1  
$EndComp
$Comp
L V_Connector:Via VI131
U 1 1 5EBC02B2
P 7500 3100
F 0 "VI131" H 7549 3135 50  0000 L CNN
F 1 "GND" H 7549 3055 35  0000 L CNN
F 2 "AllModules:VIA-08X03-VE" H 7500 3100 50  0001 C CNN
F 3 "~" H 7500 3100 50  0001 C CNN
	1    7500 3100
	1    0    0    -1  
$EndComp
$Comp
L V_Connector:Via VI132
U 1 1 5EBC02BC
P 7500 3300
F 0 "VI132" H 7549 3335 50  0000 L CNN
F 1 "GND" H 7549 3255 35  0000 L CNN
F 2 "AllModules:VIA-08X03-VE" H 7500 3300 50  0001 C CNN
F 3 "~" H 7500 3300 50  0001 C CNN
	1    7500 3300
	1    0    0    -1  
$EndComp
$Comp
L V_Connector:Via VI133
U 1 1 5EBC02C6
P 7500 3500
F 0 "VI133" H 7549 3535 50  0000 L CNN
F 1 "GND" H 7549 3455 35  0000 L CNN
F 2 "AllModules:VIA-08X03-VE" H 7500 3500 50  0001 C CNN
F 3 "~" H 7500 3500 50  0001 C CNN
	1    7500 3500
	1    0    0    -1  
$EndComp
$Comp
L V_Connector:Via VI134
U 1 1 5EBC02D0
P 7500 3700
F 0 "VI134" H 7549 3735 50  0000 L CNN
F 1 "GND" H 7549 3655 35  0000 L CNN
F 2 "AllModules:VIA-08X03-VE" H 7500 3700 50  0001 C CNN
F 3 "~" H 7500 3700 50  0001 C CNN
	1    7500 3700
	1    0    0    -1  
$EndComp
$Comp
L V_Connector:Via VI135
U 1 1 5EBC02DA
P 7500 3900
F 0 "VI135" H 7549 3935 50  0000 L CNN
F 1 "GND" H 7549 3855 35  0000 L CNN
F 2 "AllModules:VIA-08X03-VE" H 7500 3900 50  0001 C CNN
F 3 "~" H 7500 3900 50  0001 C CNN
	1    7500 3900
	1    0    0    -1  
$EndComp
$Comp
L V_Connector:Via VI151
U 1 1 5EBC02E4
P 1500 2300
F 0 "VI151" H 1549 2335 50  0000 L CNN
F 1 "N$10" H 1549 2255 35  0000 L CNN
F 2 "AllModules:VIA-08X03-VE_1011" H 1500 2300 50  0001 C CNN
F 3 "~" H 1500 2300 50  0001 C CNN
	1    1500 2300
	1    0    0    -1  
$EndComp
$Comp
L V_Connector:Via VI152
U 1 1 5EBC02EE
P 1500 2100
F 0 "VI152" H 1549 2135 50  0000 L CNN
F 1 "N$10" H 1549 2055 35  0000 L CNN
F 2 "AllModules:VIA-08X03-VE_1011" H 1500 2100 50  0001 C CNN
F 3 "~" H 1500 2100 50  0001 C CNN
	1    1500 2100
	1    0    0    -1  
$EndComp
$Comp
L V_Connector:Via VI153
U 1 1 5EBC02F8
P 1500 1900
F 0 "VI153" H 1549 1935 50  0000 L CNN
F 1 "N$10" H 1549 1855 35  0000 L CNN
F 2 "AllModules:VIA-08X03-VE_1011" H 1500 1900 50  0001 C CNN
F 3 "~" H 1500 1900 50  0001 C CNN
	1    1500 1900
	1    0    0    -1  
$EndComp
$Comp
L V_Connector:Via VI154
U 1 1 5EBC0302
P 1500 1700
F 0 "VI154" H 1549 1735 50  0000 L CNN
F 1 "N$10" H 1549 1655 35  0000 L CNN
F 2 "AllModules:VIA-08X03-VE_1011" H 1500 1700 50  0001 C CNN
F 3 "~" H 1500 1700 50  0001 C CNN
	1    1500 1700
	1    0    0    -1  
$EndComp
$Comp
L V_Connector:Via VI155
U 1 1 5EBC030C
P 1500 3100
F 0 "VI155" H 1549 3135 50  0000 L CNN
F 1 "SHDN1" H 1549 3055 35  0000 L CNN
F 2 "AllModules:VIA-08X03-VE_1001" H 1500 3100 50  0001 C CNN
F 3 "~" H 1500 3100 50  0001 C CNN
	1    1500 3100
	1    0    0    -1  
$EndComp
$Comp
L V_Connector:Via VI136
U 1 1 5EBC0316
P 7500 4100
F 0 "VI136" H 7549 4135 50  0000 L CNN
F 1 "GND" H 7549 4055 35  0000 L CNN
F 2 "AllModules:VIA-08X03-VE" H 7500 4100 50  0001 C CNN
F 3 "~" H 7500 4100 50  0001 C CNN
	1    7500 4100
	1    0    0    -1  
$EndComp
$Comp
L V_Connector:Via VI137
U 1 1 5EBC0320
P 7500 4300
F 0 "VI137" H 7549 4335 50  0000 L CNN
F 1 "GND" H 7549 4255 35  0000 L CNN
F 2 "AllModules:VIA-08X03-VE" H 7500 4300 50  0001 C CNN
F 3 "~" H 7500 4300 50  0001 C CNN
	1    7500 4300
	1    0    0    -1  
$EndComp
$Comp
L V_Connector:Via VI138
U 1 1 5EBC032A
P 7500 4500
F 0 "VI138" H 7549 4535 50  0000 L CNN
F 1 "GND" H 7549 4455 35  0000 L CNN
F 2 "AllModules:VIA-08X03-VE" H 7500 4500 50  0001 C CNN
F 3 "~" H 7500 4500 50  0001 C CNN
	1    7500 4500
	1    0    0    -1  
$EndComp
$Comp
L V_Connector:Via VI139
U 1 1 5EBC0334
P 3300 4500
F 0 "VI139" H 3349 4535 50  0000 L CNN
F 1 "N$58" H 3349 4455 35  0000 L CNN
F 2 "AllModules:VIA-08X03-VE_1011" H 3300 4500 50  0001 C CNN
F 3 "~" H 3300 4500 50  0001 C CNN
	1    3300 4500
	1    0    0    -1  
$EndComp
$Comp
L V_Connector:Via VI140
U 1 1 5EBC033E
P 7500 4700
F 0 "VI140" H 7549 4735 50  0000 L CNN
F 1 "GND" H 7549 4655 35  0000 L CNN
F 2 "AllModules:VIA-08X03-VE" H 7500 4700 50  0001 C CNN
F 3 "~" H 7500 4700 50  0001 C CNN
	1    7500 4700
	1    0    0    -1  
$EndComp
$Comp
L V_Connector:Via VI156
U 1 1 5EBC0348
P 1500 3500
F 0 "VI156" H 1549 3535 50  0000 L CNN
F 1 "SHDN2" H 1549 3455 35  0000 L CNN
F 2 "AllModules:VIA-08X03-VE_1001" H 1500 3500 50  0001 C CNN
F 3 "~" H 1500 3500 50  0001 C CNN
	1    1500 3500
	1    0    0    -1  
$EndComp
$Comp
L V_Connector:Via VI157
U 1 1 5EBC0352
P 6900 1700
F 0 "VI157" H 6949 1735 50  0000 L CNN
F 1 "GND" H 6949 1655 35  0000 L CNN
F 2 "AllModules:VIA-08X03-VE" H 6900 1700 50  0001 C CNN
F 3 "~" H 6900 1700 50  0001 C CNN
	1    6900 1700
	1    0    0    -1  
$EndComp
$Comp
L V_Connector:Via VI158
U 1 1 5EBC035C
P 6900 1900
F 0 "VI158" H 6949 1935 50  0000 L CNN
F 1 "GND" H 6949 1855 35  0000 L CNN
F 2 "AllModules:VIA-08X03-VE" H 6900 1900 50  0001 C CNN
F 3 "~" H 6900 1900 50  0001 C CNN
	1    6900 1900
	1    0    0    -1  
$EndComp
$Comp
L V_Connector:Via VI159
U 1 1 5EBC0366
P 1500 1500
F 0 "VI159" H 1549 1535 50  0000 L CNN
F 1 "N$10" H 1549 1455 35  0000 L CNN
F 2 "AllModules:VIA-08X03-VE_1001" H 1500 1500 50  0001 C CNN
F 3 "~" H 1500 1500 50  0001 C CNN
	1    1500 1500
	1    0    0    -1  
$EndComp
$Comp
L V_Connector:Via VI160
U 1 1 5EBC0370
P 2100 3500
F 0 "VI160" H 2149 3535 50  0000 L CNN
F 1 "SHDN2" H 2149 3455 35  0000 L CNN
F 2 "AllModules:VIA-08X03-VE_1001" H 2100 3500 50  0001 C CNN
F 3 "~" H 2100 3500 50  0001 C CNN
	1    2100 3500
	1    0    0    -1  
$EndComp
$Comp
L V_Connector:Via VI161
U 1 1 5EBD966A
P 2100 3100
F 0 "VI161" H 2149 3135 50  0000 L CNN
F 1 "SHDN1" H 2149 3055 35  0000 L CNN
F 2 "AllModules:VIA-08X03-VE_1001" H 2100 3100 50  0001 C CNN
F 3 "~" H 2100 3100 50  0001 C CNN
	1    2100 3100
	1    0    0    -1  
$EndComp
$Comp
L V_Connector:Via VI162
U 1 1 5EBD9674
P 6900 4300
F 0 "VI162" H 6949 4335 50  0000 L CNN
F 1 "GND" H 6949 4255 35  0000 L CNN
F 2 "AllModules:VIA-08X03-VE" H 6900 4300 50  0001 C CNN
F 3 "~" H 6900 4300 50  0001 C CNN
	1    6900 4300
	1    0    0    -1  
$EndComp
$Comp
L V_Connector:Via VI163
U 1 1 5EBD967E
P 6900 4500
F 0 "VI163" H 6949 4535 50  0000 L CNN
F 1 "GND" H 6949 4455 35  0000 L CNN
F 2 "AllModules:VIA-08X03-VE" H 6900 4500 50  0001 C CNN
F 3 "~" H 6900 4500 50  0001 C CNN
	1    6900 4500
	1    0    0    -1  
$EndComp
$Comp
L V_Connector:Via VI164
U 1 1 5EBD9688
P 3900 4500
F 0 "VI164" H 3949 4535 50  0000 L CNN
F 1 "N$58" H 3949 4455 35  0000 L CNN
F 2 "AllModules:VIA-08X03-VE_1011" H 3900 4500 50  0001 C CNN
F 3 "~" H 3900 4500 50  0001 C CNN
	1    3900 4500
	1    0    0    -1  
$EndComp
$Comp
L V_Connector:Via VI165
U 1 1 5EBD9692
P 5700 3100
F 0 "VI165" H 5749 3135 50  0000 L CNN
F 1 "VCHARG" H 5749 3055 35  0000 L CNN
F 2 "AllModules:VIA-08X03_1011" H 5700 3100 50  0001 C CNN
F 3 "~" H 5700 3100 50  0001 C CNN
	1    5700 3100
	1    0    0    -1  
$EndComp
$Comp
L V_Connector:Via VI171
U 1 1 5EBD969C
P 5700 3300
F 0 "VI171" H 5749 3335 50  0000 L CNN
F 1 "VCHARG" H 5749 3255 35  0000 L CNN
F 2 "AllModules:VIA-08X03_1011" H 5700 3300 50  0001 C CNN
F 3 "~" H 5700 3300 50  0001 C CNN
	1    5700 3300
	1    0    0    -1  
$EndComp
$Comp
L V_Connector:Via VI167
U 1 1 5EBD96D8
P 4500 2300
F 0 "VI167" H 4549 2335 50  0000 L CNN
F 1 "+5V" H 4549 2255 35  0000 L CNN
F 2 "AllModules:VIA-08X03_1011" H 4500 2300 50  0001 C CNN
F 3 "~" H 4500 2300 50  0001 C CNN
	1    4500 2300
	1    0    0    -1  
$EndComp
$Comp
L V_Connector:Via VI168
U 1 1 5EBD96E2
P 2100 3900
F 0 "VI168" H 2149 3935 50  0000 L CNN
F 1 "INHIB-STOP-INV" H 2149 3855 35  0000 L CNN
F 2 "AllModules:VIA-08X03_1011" H 2100 3900 50  0001 C CNN
F 3 "~" H 2100 3900 50  0001 C CNN
	1    2100 3900
	1    0    0    -1  
$EndComp
$Comp
L V_Connector:Via VI169
U 1 1 5EBD96EC
P 6900 4700
F 0 "VI169" H 6949 4735 50  0000 L CNN
F 1 "GND" H 6949 4655 35  0000 L CNN
F 2 "AllModules:VIA-08X03-VE" H 6900 4700 50  0001 C CNN
F 3 "~" H 6900 4700 50  0001 C CNN
	1    6900 4700
	1    0    0    -1  
$EndComp
$Comp
L V_Connector:Via VI170
U 1 1 5EBD96F6
P 6900 4900
F 0 "VI170" H 6949 4935 50  0000 L CNN
F 1 "GND" H 6949 4855 35  0000 L CNN
F 2 "AllModules:VIA-08X03-VE" H 6900 4900 50  0001 C CNN
F 3 "~" H 6900 4900 50  0001 C CNN
	1    6900 4900
	1    0    0    -1  
$EndComp
Wire Wire Line
	6900 2100 6900 2300
Wire Wire Line
	6900 2500 6900 2700
Wire Wire Line
	1500 2300 1500 2500
Wire Wire Line
	1500 1700 1500 1900
Connection ~ 1500 1900
Wire Wire Line
	1500 1900 1500 2100
Connection ~ 1500 2100
Wire Wire Line
	1500 2100 1500 2300
Wire Wire Line
	6900 1700 6900 1900
Wire Wire Line
	6900 2900 6900 3100
Connection ~ 6900 3100
Wire Wire Line
	6900 3100 6900 3300
Connection ~ 6900 3300
Wire Wire Line
	6900 3300 6900 3500
Connection ~ 6900 3500
Wire Wire Line
	6900 3500 6900 3700
Connection ~ 7500 1900
Wire Wire Line
	7500 1900 7500 1700
Connection ~ 7500 2100
Wire Wire Line
	7500 2100 7500 1900
Wire Wire Line
	7500 2300 7500 2100
Connection ~ 7500 2500
Wire Wire Line
	7500 2500 7500 2300
Connection ~ 7500 2700
Wire Wire Line
	7500 2700 7500 2500
Connection ~ 7500 2900
Wire Wire Line
	7500 2900 7500 2700
Connection ~ 7500 3100
Wire Wire Line
	7500 3100 7500 2900
Connection ~ 7500 3300
Wire Wire Line
	7500 3300 7500 3100
Connection ~ 7500 3500
Wire Wire Line
	7500 3500 7500 3300
Connection ~ 7500 3700
Wire Wire Line
	7500 3700 7500 3500
Connection ~ 7500 3900
Wire Wire Line
	7500 3900 7500 3700
Connection ~ 7500 4100
Wire Wire Line
	7500 4100 7500 3900
Connection ~ 7500 4300
Wire Wire Line
	7500 4300 7500 4100
Connection ~ 7500 4500
Wire Wire Line
	7500 4700 7500 4500
Wire Wire Line
	6900 3900 6900 4100
Connection ~ 8100 2100
Wire Wire Line
	8100 2100 8100 2300
Wire Wire Line
	8100 2500 8100 2700
Wire Wire Line
	8100 2700 8100 2900
Connection ~ 8100 2900
Wire Wire Line
	8100 2900 8100 3100
Connection ~ 8100 3100
Wire Wire Line
	8100 3100 8100 3300
Connection ~ 8100 3300
Wire Wire Line
	8100 3300 8100 3500
Wire Wire Line
	8100 3500 8100 3700
Connection ~ 8100 3700
Wire Wire Line
	8100 3700 8100 3900
Connection ~ 8100 3900
Wire Wire Line
	8100 3900 8100 4100
Connection ~ 8100 4100
Wire Wire Line
	8100 4100 8100 4300
Connection ~ 8100 4300
Wire Wire Line
	8100 4300 8100 4500
Connection ~ 8100 4500
Wire Wire Line
	8100 4500 8100 4700
Connection ~ 8100 4700
Wire Wire Line
	8100 4700 8100 4900
Wire Wire Line
	8700 3900 8700 4100
Connection ~ 8700 4100
Wire Wire Line
	8700 4100 8700 4300
Connection ~ 8700 4300
Wire Wire Line
	8700 2700 8700 2900
Connection ~ 8700 2900
Wire Wire Line
	8700 2900 8700 3100
Wire Wire Line
	9300 4900 9300 5000
Wire Wire Line
	8700 1700 8700 1900
Connection ~ 8700 1900
Wire Wire Line
	8700 1900 8700 2100
Connection ~ 8700 2100
Wire Wire Line
	8700 2100 8700 2300
Wire Wire Line
	8700 2500 8700 2700
Wire Wire Line
	8700 3500 8700 3700
Connection ~ 8700 3700
Wire Wire Line
	8700 3700 8700 3900
Connection ~ 8700 4900
Wire Wire Line
	8700 4900 8700 5000
Wire Wire Line
	8100 1500 8100 1700
Connection ~ 8100 1700
Wire Wire Line
	8100 1700 8100 1900
Wire Wire Line
	6900 4300 6900 4500
Wire Wire Line
	5700 3100 5700 3300
Wire Wire Line
	2100 4100 2100 4300
Wire Wire Line
	2100 3900 2100 4100
Wire Wire Line
	6900 4700 6900 4900
Wire Wire Line
	5700 4900 5700 4700
Connection ~ 5700 4500
Wire Wire Line
	5700 4500 5700 4300
Connection ~ 5700 4700
Wire Wire Line
	5700 4700 5700 4500
Wire Wire Line
	5700 1500 5700 1700
Connection ~ 5700 1700
Wire Wire Line
	5700 1700 5700 1900
Connection ~ 5700 1900
Wire Wire Line
	5700 1900 5700 2100
Connection ~ 5700 2100
Wire Wire Line
	5700 2100 5700 2300
Connection ~ 5700 2300
Wire Wire Line
	5700 2300 5700 2500
Wire Wire Line
	3300 1500 3300 1700
Connection ~ 3300 1700
Wire Wire Line
	3300 1700 3300 1900
Connection ~ 3300 1900
Wire Wire Line
	3300 1900 3300 2100
Connection ~ 3300 2100
Wire Wire Line
	3300 2100 3300 2300
Wire Wire Line
	3300 2700 3300 2900
Wire Wire Line
	4500 2700 4500 2900
Connection ~ 4500 2900
Wire Wire Line
	4500 2900 4500 3100
Wire Wire Line
	2100 4300 2100 4500
Wire Wire Line
	1500 4300 1500 4500
Wire Wire Line
	2100 2500 2100 2700
Connection ~ 2100 2500
Wire Wire Line
	2100 2300 2100 2500
Connection ~ 2100 2300
Wire Wire Line
	2100 2100 2100 2300
Connection ~ 2100 2100
Wire Wire Line
	2100 1900 2100 2100
$Comp
L V_Connector:Via VI123
U 1 1 5EBC01FE
P 2100 1700
F 0 "VI123" H 2149 1735 50  0000 L CNN
F 1 "N$10" H 2149 1655 35  0000 L CNN
F 2 "AllModules:VIA-08X03-VE_1011" H 2100 1700 50  0001 C CNN
F 3 "~" H 2100 1700 50  0001 C CNN
	1    2100 1700
	1    0    0    -1  
$EndComp
$Comp
L V_Connector:Via VI120
U 1 1 5EBC01E0
P 2100 1900
F 0 "VI120" H 2149 1935 50  0000 L CNN
F 1 "N$10" H 2149 1855 35  0000 L CNN
F 2 "AllModules:VIA-08X03-VE_1011" H 2100 1900 50  0001 C CNN
F 3 "~" H 2100 1900 50  0001 C CNN
	1    2100 1900
	1    0    0    -1  
$EndComp
$Comp
L V_Connector:Via VI115
U 1 1 5EBC017C
P 2100 2100
F 0 "VI115" H 2149 2135 50  0000 L CNN
F 1 "N$10" H 2149 2055 35  0000 L CNN
F 2 "AllModules:VIA-08X03-VE_1011" H 2100 2100 50  0001 C CNN
F 3 "~" H 2100 2100 50  0001 C CNN
	1    2100 2100
	1    0    0    -1  
$EndComp
$Comp
L V_Connector:Via VI110
U 1 1 5EBC0118
P 2100 2300
F 0 "VI110" H 2149 2335 50  0000 L CNN
F 1 "N$10" H 2149 2255 35  0000 L CNN
F 2 "AllModules:VIA-08X03-VE_1011" H 2100 2300 50  0001 C CNN
F 3 "~" H 2100 2300 50  0001 C CNN
	1    2100 2300
	1    0    0    -1  
$EndComp
$Comp
L V_Connector:Via VI105
U 1 1 5EBC00B4
P 2100 2500
F 0 "VI105" H 2149 2535 50  0000 L CNN
F 1 "N$10" H 2149 2455 35  0000 L CNN
F 2 "AllModules:VIA-08X03-VE_1011" H 2100 2500 50  0001 C CNN
F 3 "~" H 2100 2500 50  0001 C CNN
	1    2100 2500
	1    0    0    -1  
$EndComp
$Comp
L V_Connector:Via VI102
U 1 1 5EBC0096
P 2100 2700
F 0 "VI102" H 2149 2735 50  0000 L CNN
F 1 "N$10" H 2149 2655 35  0000 L CNN
F 2 "AllModules:VIA-08X03-VE_1011" H 2100 2700 50  0001 C CNN
F 3 "~" H 2100 2700 50  0001 C CNN
	1    2100 2700
	1    0    0    -1  
$EndComp
$Comp
L V_Power:-12V #PWR?
U 1 1 5EF16EB7
P 5700 5000
AR Path="/5EF16EB7" Ref="#PWR?"  Part="1" 
AR Path="/5EBD289A/5EF16EB7" Ref="#PWR0109"  Part="1" 
F 0 "#PWR0109" H 5700 5100 50  0001 C CNN
F 1 "-12V" H 5700 5150 50  0000 C CNN
F 2 "" H 5700 5000 50  0001 C CNN
F 3 "" H 5700 5000 50  0001 C CNN
	1    5700 5000
	-1   0    0    1   
$EndComp
$Comp
L V_Power:+12V #PWR?
U 1 1 5EF17215
P 5700 1450
AR Path="/5EF17215" Ref="#PWR?"  Part="1" 
AR Path="/5EBD289A/5EF17215" Ref="#PWR0110"  Part="1" 
F 0 "#PWR0110" H 5700 1300 50  0001 C CNN
F 1 "+12V" H 5715 1623 50  0000 C CNN
F 2 "" H 5700 1450 50  0001 C CNN
F 3 "" H 5700 1450 50  0001 C CNN
	1    5700 1450
	1    0    0    -1  
$EndComp
Wire Wire Line
	5700 1500 5700 1450
Connection ~ 5700 1500
Wire Wire Line
	5700 5000 5700 4900
Connection ~ 5700 4900
$Comp
L V_Power:+5V #PWR?
U 1 1 5F064BB0
P 4500 1400
AR Path="/5F064BB0" Ref="#PWR?"  Part="1" 
AR Path="/5EBD289A/5F064BB0" Ref="#PWR0111"  Part="1" 
F 0 "#PWR0111" H 4500 1250 50  0001 C CNN
F 1 "+5V" H 4515 1573 50  0000 C CNN
F 2 "" H 4500 1400 50  0001 C CNN
F 3 "" H 4500 1400 50  0001 C CNN
	1    4500 1400
	1    0    0    -1  
$EndComp
Wire Wire Line
	4500 1400 4500 1500
Connection ~ 4500 1500
Wire Wire Line
	4500 1500 4500 1700
Connection ~ 4500 1700
Wire Wire Line
	4500 1700 4500 1900
Connection ~ 4500 1900
Wire Wire Line
	4500 1900 4500 2100
$Comp
L V_Power:GND #PWR?
U 1 1 5F1351E5
P 6900 5200
AR Path="/5F1351E5" Ref="#PWR?"  Part="1" 
AR Path="/5EBD289A/5F1351E5" Ref="#PWR0112"  Part="1" 
F 0 "#PWR0112" H 6900 4950 50  0001 C CNN
F 1 "GND" H 6905 5027 50  0000 C CNN
F 2 "" H 6900 5200 50  0001 C CNN
F 3 "" H 6900 5200 50  0001 C CNN
	1    6900 5200
	1    0    0    -1  
$EndComp
Wire Wire Line
	6900 5000 6900 4900
Connection ~ 6900 4900
$Comp
L V_Connector:Via VI173
U 1 1 5F373711
P 5700 3500
F 0 "VI173" H 5749 3535 50  0000 L CNN
F 1 "VCHARG" H 5749 3455 35  0000 L CNN
F 2 "AllModules:VIA-08X03_1001" H 5700 3500 50  0001 C CNN
F 3 "~" H 5700 3500 50  0001 C CNN
	1    5700 3500
	1    0    0    -1  
$EndComp
$Comp
L V_Connector:Via VI172
U 1 1 5F3D87AA
P 5100 1500
F 0 "VI172" H 5149 1535 50  0000 L CNN
F 1 "+BATTV" H 5149 1455 35  0000 L CNN
F 2 "AllModules:VIA-08X03_1001" H 5100 1500 50  0001 C CNN
F 3 "~" H 5100 1500 50  0001 C CNN
	1    5100 1500
	1    0    0    -1  
$EndComp
Wire Wire Line
	5700 3300 5700 3500
Connection ~ 5700 3300
Connection ~ 2100 4300
Wire Wire Line
	4500 2300 4500 2100
Connection ~ 2100 1900
Connection ~ 1500 2300
Wire Wire Line
	1500 2700 1500 2500
Connection ~ 1500 2500
Connection ~ 2100 4100
Wire Wire Line
	6900 3900 6900 3700
Connection ~ 6900 3700
Connection ~ 4500 2100
Wire Wire Line
	6900 4700 6900 4500
Connection ~ 6900 4700
Connection ~ 6900 4500
$Comp
L V_Power:+BATTV #PWR0113
U 1 1 5EE1FBFF
P 5100 1400
F 0 "#PWR0113" H 5100 1250 50  0001 C CNN
F 1 "+BATTV" H 5100 1540 50  0000 C CNN
F 2 "" H 5100 1400 50  0001 C CNN
F 3 "" H 5100 1400 50  0001 C CNN
	1    5100 1400
	1    0    0    -1  
$EndComp
Wire Wire Line
	5100 1400 5100 1500
Connection ~ 7500 2300
Connection ~ 8100 3500
Connection ~ 6900 3900
Wire Wire Line
	6900 2700 6900 2900
Connection ~ 6900 2700
Connection ~ 6900 2900
Wire Wire Line
	6900 2300 6900 2500
Connection ~ 6900 2300
Connection ~ 6900 2500
Wire Wire Line
	6900 1900 6900 2100
Connection ~ 6900 1900
Connection ~ 6900 2100
Connection ~ 8100 1900
Wire Wire Line
	8700 3100 8700 3300
Connection ~ 8700 3100
Wire Wire Line
	6900 5000 6900 5200
Connection ~ 6900 5000
$Comp
L V_Connector:Via VI166
U 1 1 5EBD96CE
P 2100 4100
F 0 "VI166" H 2149 4135 50  0000 L CNN
F 1 "INHIB-STOP-INV" H 2149 4055 35  0000 L CNN
F 2 "AllModules:VIA-08X03_1011" H 2100 4100 50  0001 C CNN
F 3 "~" H 2100 4100 50  0001 C CNN
	1    2100 4100
	1    0    0    -1  
$EndComp
Connection ~ 9300 4100
Wire Wire Line
	9300 4100 9300 4300
Connection ~ 9300 3100
Wire Wire Line
	9300 3100 9300 2900
Wire Wire Line
	9300 2900 9300 2700
Connection ~ 9300 2900
Wire Wire Line
	9300 2700 9300 2500
Connection ~ 9300 2700
Wire Wire Line
	9300 2500 9300 2300
Connection ~ 9300 2500
Wire Wire Line
	9300 2300 9300 2100
Connection ~ 9300 2300
Wire Wire Line
	9300 2100 9300 1900
Connection ~ 9300 2100
Wire Wire Line
	9300 1900 9300 1700
Connection ~ 9300 1900
Wire Wire Line
	9300 4100 9300 3900
Wire Wire Line
	9300 3900 9300 3700
Connection ~ 9300 3900
Wire Wire Line
	9300 3700 9300 3500
Connection ~ 9300 3700
Wire Wire Line
	9300 3500 9300 3300
Connection ~ 9300 3500
Wire Wire Line
	9300 3300 9300 3100
Connection ~ 9300 3300
$Comp
L V_Connector:Via VI40
U 1 1 5EBB17F8
P 9300 4100
F 0 "VI40" H 9349 4135 50  0000 L CNN
F 1 "GND" H 9349 4055 35  0000 L CNN
F 2 "AllModules:VIA-08X03-VE" H 9300 4100 50  0001 C CNN
F 3 "~" H 9300 4100 50  0001 C CNN
	1    9300 4100
	1    0    0    -1  
$EndComp
$Comp
L V_Connector:Via VI39
U 1 1 5EBB17EE
P 9300 3900
F 0 "VI39" H 9349 3935 50  0000 L CNN
F 1 "GND" H 9349 3855 35  0000 L CNN
F 2 "AllModules:VIA-08X03-VE" H 9300 3900 50  0001 C CNN
F 3 "~" H 9300 3900 50  0001 C CNN
	1    9300 3900
	1    0    0    -1  
$EndComp
$Comp
L V_Connector:Via VI36
U 1 1 5EBB17D0
P 9300 3700
F 0 "VI36" H 9349 3735 50  0000 L CNN
F 1 "GND" H 9349 3655 35  0000 L CNN
F 2 "AllModules:VIA-08X03-VE" H 9300 3700 50  0001 C CNN
F 3 "~" H 9300 3700 50  0001 C CNN
	1    9300 3700
	1    0    0    -1  
$EndComp
$Comp
L V_Connector:Via VI34
U 1 1 5EBB178A
P 9300 3500
F 0 "VI34" H 9349 3535 50  0000 L CNN
F 1 "GND" H 9349 3455 35  0000 L CNN
F 2 "AllModules:VIA-08X03-VE" H 9300 3500 50  0001 C CNN
F 3 "~" H 9300 3500 50  0001 C CNN
	1    9300 3500
	1    0    0    -1  
$EndComp
$Comp
L V_Connector:Via VI33
U 1 1 5EBB1780
P 9300 3300
F 0 "VI33" H 9349 3335 50  0000 L CNN
F 1 "GND" H 9349 3255 35  0000 L CNN
F 2 "AllModules:VIA-08X03-VE" H 9300 3300 50  0001 C CNN
F 3 "~" H 9300 3300 50  0001 C CNN
	1    9300 3300
	1    0    0    -1  
$EndComp
$Comp
L V_Connector:Via VI32
U 1 1 5EBB1776
P 9300 3100
F 0 "VI32" H 9349 3135 50  0000 L CNN
F 1 "GND" H 9349 3055 35  0000 L CNN
F 2 "AllModules:VIA-08X03-VE" H 9300 3100 50  0001 C CNN
F 3 "~" H 9300 3100 50  0001 C CNN
	1    9300 3100
	1    0    0    -1  
$EndComp
$Comp
L V_Connector:Via VI29
U 1 1 5EBAE052
P 9300 2900
F 0 "VI29" H 9349 2935 50  0000 L CNN
F 1 "GND" H 9349 2855 35  0000 L CNN
F 2 "AllModules:VIA-08X03-VE" H 9300 2900 50  0001 C CNN
F 3 "~" H 9300 2900 50  0001 C CNN
	1    9300 2900
	1    0    0    -1  
$EndComp
$Comp
L V_Connector:Via VI28
U 1 1 5EBAE048
P 9300 2700
F 0 "VI28" H 9349 2735 50  0000 L CNN
F 1 "GND" H 9349 2655 35  0000 L CNN
F 2 "AllModules:VIA-08X03-VE" H 9300 2700 50  0001 C CNN
F 3 "~" H 9300 2700 50  0001 C CNN
	1    9300 2700
	1    0    0    -1  
$EndComp
$Comp
L V_Connector:Via VI26
U 1 1 5EBAE034
P 9300 2500
F 0 "VI26" H 9349 2535 50  0000 L CNN
F 1 "GND" H 9349 2455 35  0000 L CNN
F 2 "AllModules:VIA-08X03-VE" H 9300 2500 50  0001 C CNN
F 3 "~" H 9300 2500 50  0001 C CNN
	1    9300 2500
	1    0    0    -1  
$EndComp
$Comp
L V_Connector:Via VI25
U 1 1 5EBAAA9E
P 9300 2300
F 0 "VI25" H 9349 2335 50  0000 L CNN
F 1 "GND" H 9349 2255 35  0000 L CNN
F 2 "AllModules:VIA-08X03-VE" H 9300 2300 50  0001 C CNN
F 3 "~" H 9300 2300 50  0001 C CNN
	1    9300 2300
	1    0    0    -1  
$EndComp
$Comp
L V_Connector:Via VI24
U 1 1 5EBAAA94
P 9300 2100
F 0 "VI24" H 9349 2135 50  0000 L CNN
F 1 "GND" H 9349 2055 35  0000 L CNN
F 2 "AllModules:VIA-08X03-VE" H 9300 2100 50  0001 C CNN
F 3 "~" H 9300 2100 50  0001 C CNN
	1    9300 2100
	1    0    0    -1  
$EndComp
$Comp
L V_Connector:Via VI23
U 1 1 5EBAAA8A
P 9300 1900
F 0 "VI23" H 9349 1935 50  0000 L CNN
F 1 "GND" H 9349 1855 35  0000 L CNN
F 2 "AllModules:VIA-08X03-VE" H 9300 1900 50  0001 C CNN
F 3 "~" H 9300 1900 50  0001 C CNN
	1    9300 1900
	1    0    0    -1  
$EndComp
$Comp
L V_Connector:Via VI22
U 1 1 5EBAAA80
P 9300 1700
F 0 "VI22" H 9349 1735 50  0000 L CNN
F 1 "GND" H 9349 1655 35  0000 L CNN
F 2 "AllModules:VIA-08X03-VE" H 9300 1700 50  0001 C CNN
F 3 "~" H 9300 1700 50  0001 C CNN
	1    9300 1700
	1    0    0    -1  
$EndComp
Connection ~ 9300 4900
Wire Wire Line
	9300 4700 9300 4900
Wire Wire Line
	9300 4500 9300 4700
Connection ~ 9300 4500
Wire Wire Line
	9300 4300 9300 4500
$Comp
L V_Connector:Via VI43
U 1 1 5EBB77E4
P 9300 4700
F 0 "VI43" H 9349 4735 50  0000 L CNN
F 1 "GND" H 9349 4655 35  0000 L CNN
F 2 "AllModules:VIA-08X03-VE" H 9300 4700 50  0001 C CNN
F 3 "~" H 9300 4700 50  0001 C CNN
	1    9300 4700
	1    0    0    -1  
$EndComp
$Comp
L V_Connector:Via VI42
U 1 1 5EBB77DA
P 9300 4500
F 0 "VI42" H 9349 4535 50  0000 L CNN
F 1 "GND" H 9349 4455 35  0000 L CNN
F 2 "AllModules:VIA-08X03-VE" H 9300 4500 50  0001 C CNN
F 3 "~" H 9300 4500 50  0001 C CNN
	1    9300 4500
	1    0    0    -1  
$EndComp
$Comp
L V_Connector:Via VI41
U 1 1 5EBB77D0
P 9300 4300
F 0 "VI41" H 9349 4335 50  0000 L CNN
F 1 "GND" H 9349 4255 35  0000 L CNN
F 2 "AllModules:VIA-08X03-VE" H 9300 4300 50  0001 C CNN
F 3 "~" H 9300 4300 50  0001 C CNN
	1    9300 4300
	1    0    0    -1  
$EndComp
Connection ~ 9900 4100
Connection ~ 9900 4300
Wire Wire Line
	9900 4300 9900 4100
Connection ~ 9900 3700
Wire Wire Line
	9900 4700 9900 4500
Wire Wire Line
	9900 4500 9900 4300
Connection ~ 9900 4500
Wire Wire Line
	9900 4100 9900 3900
Wire Wire Line
	9900 3900 9900 3700
Connection ~ 9900 3900
Wire Wire Line
	9900 3700 9900 3500
Wire Wire Line
	9900 3500 9900 3300
Connection ~ 9900 3500
Wire Wire Line
	9900 3300 9900 3100
Connection ~ 9900 3300
Wire Wire Line
	9900 3100 9900 2900
Connection ~ 9900 3100
Wire Wire Line
	9900 2900 9900 2700
Connection ~ 9900 2900
Wire Wire Line
	9900 2700 9900 2500
Connection ~ 9900 2700
Wire Wire Line
	9900 2500 9900 2300
Connection ~ 9900 2500
Wire Wire Line
	9900 2300 9900 2100
Connection ~ 9900 2300
Wire Wire Line
	9900 2100 9900 1900
Connection ~ 9900 2100
Wire Wire Line
	9900 1900 9900 1700
Connection ~ 9900 1900
Wire Wire Line
	9900 1700 9900 1500
Connection ~ 9900 1700
$Comp
L V_Connector:Via VI19
U 1 1 5EBB17BC
P 9900 4700
F 0 "VI19" H 9949 4735 50  0000 L CNN
F 1 "GND" H 9949 4655 35  0000 L CNN
F 2 "AllModules:VIA-08X03-VE" H 9900 4700 50  0001 C CNN
F 3 "~" H 9900 4700 50  0001 C CNN
	1    9900 4700
	1    0    0    -1  
$EndComp
$Comp
L V_Connector:Via VI18
U 1 1 5EBB17B2
P 9900 4500
F 0 "VI18" H 9949 4535 50  0000 L CNN
F 1 "GND" H 9949 4455 35  0000 L CNN
F 2 "AllModules:VIA-08X03-VE" H 9900 4500 50  0001 C CNN
F 3 "~" H 9900 4500 50  0001 C CNN
	1    9900 4500
	1    0    0    -1  
$EndComp
$Comp
L V_Connector:Via VI17
U 1 1 5EBB17A8
P 9900 4300
F 0 "VI17" H 9949 4335 50  0000 L CNN
F 1 "GND" H 9949 4255 35  0000 L CNN
F 2 "AllModules:VIA-08X03-VE" H 9900 4300 50  0001 C CNN
F 3 "~" H 9900 4300 50  0001 C CNN
	1    9900 4300
	1    0    0    -1  
$EndComp
$Comp
L V_Connector:Via VI14
U 1 1 5EBB1758
P 9900 4100
F 0 "VI14" H 9949 4135 50  0000 L CNN
F 1 "GND" H 9949 4055 35  0000 L CNN
F 2 "AllModules:VIA-08X03-VE" H 9900 4100 50  0001 C CNN
F 3 "~" H 9900 4100 50  0001 C CNN
	1    9900 4100
	1    0    0    -1  
$EndComp
$Comp
L V_Connector:Via VI13
U 1 1 5EBB174E
P 9900 3900
F 0 "VI13" H 9949 3935 50  0000 L CNN
F 1 "GND" H 9949 3855 35  0000 L CNN
F 2 "AllModules:VIA-08X03-VE" H 9900 3900 50  0001 C CNN
F 3 "~" H 9900 3900 50  0001 C CNN
	1    9900 3900
	1    0    0    -1  
$EndComp
$Comp
L V_Connector:Via VI12
U 1 1 5EBB1744
P 9900 3700
F 0 "VI12" H 9949 3735 50  0000 L CNN
F 1 "GND" H 9949 3655 35  0000 L CNN
F 2 "AllModules:VIA-08X03-VE" H 9900 3700 50  0001 C CNN
F 3 "~" H 9900 3700 50  0001 C CNN
	1    9900 3700
	1    0    0    -1  
$EndComp
$Comp
L V_Connector:Via VI11
U 1 1 5EBB173A
P 9900 3500
F 0 "VI11" H 9949 3535 50  0000 L CNN
F 1 "GND" H 9949 3455 35  0000 L CNN
F 2 "AllModules:VIA-08X03-VE" H 9900 3500 50  0001 C CNN
F 3 "~" H 9900 3500 50  0001 C CNN
	1    9900 3500
	1    0    0    -1  
$EndComp
$Comp
L V_Connector:Via VI10
U 1 1 5EBAE02A
P 9900 3300
F 0 "VI10" H 9949 3335 50  0000 L CNN
F 1 "GND" H 9949 3255 35  0000 L CNN
F 2 "AllModules:VIA-08X03-VE" H 9900 3300 50  0001 C CNN
F 3 "~" H 9900 3300 50  0001 C CNN
	1    9900 3300
	1    0    0    -1  
$EndComp
$Comp
L V_Connector:Via VI9
U 1 1 5EBAE020
P 9900 3100
F 0 "VI9" H 9949 3135 50  0000 L CNN
F 1 "GND" H 9949 3055 35  0000 L CNN
F 2 "AllModules:VIA-08X03-VE" H 9900 3100 50  0001 C CNN
F 3 "~" H 9900 3100 50  0001 C CNN
	1    9900 3100
	1    0    0    -1  
$EndComp
$Comp
L V_Connector:Via VI8
U 1 1 5EBAE016
P 9900 2900
F 0 "VI8" H 9949 2935 50  0000 L CNN
F 1 "GND" H 9949 2855 35  0000 L CNN
F 2 "AllModules:VIA-08X03-VE" H 9900 2900 50  0001 C CNN
F 3 "~" H 9900 2900 50  0001 C CNN
	1    9900 2900
	1    0    0    -1  
$EndComp
$Comp
L V_Connector:Via VI7
U 1 1 5EBAE00C
P 9900 2700
F 0 "VI7" H 9949 2735 50  0000 L CNN
F 1 "GND" H 9949 2655 35  0000 L CNN
F 2 "AllModules:VIA-08X03-VE" H 9900 2700 50  0001 C CNN
F 3 "~" H 9900 2700 50  0001 C CNN
	1    9900 2700
	1    0    0    -1  
$EndComp
$Comp
L V_Connector:Via VI6
U 1 1 5EBAE002
P 9900 2500
F 0 "VI6" H 9949 2535 50  0000 L CNN
F 1 "GND" H 9949 2455 35  0000 L CNN
F 2 "AllModules:VIA-08X03-VE" H 9900 2500 50  0001 C CNN
F 3 "~" H 9900 2500 50  0001 C CNN
	1    9900 2500
	1    0    0    -1  
$EndComp
$Comp
L V_Connector:Via VI5
U 1 1 5EBA9ADE
P 9900 2300
F 0 "VI5" H 9949 2335 50  0000 L CNN
F 1 "GND" H 9949 2255 35  0000 L CNN
F 2 "AllModules:VIA-08X03-VE" H 9900 2300 50  0001 C CNN
F 3 "~" H 9900 2300 50  0001 C CNN
	1    9900 2300
	1    0    0    -1  
$EndComp
$Comp
L V_Connector:Via VI4
U 1 1 5EBA9AD4
P 9900 2100
F 0 "VI4" H 9949 2135 50  0000 L CNN
F 1 "GND" H 9949 2055 35  0000 L CNN
F 2 "AllModules:VIA-08X03-VE" H 9900 2100 50  0001 C CNN
F 3 "~" H 9900 2100 50  0001 C CNN
	1    9900 2100
	1    0    0    -1  
$EndComp
$Comp
L V_Connector:Via VI3
U 1 1 5EBA9ACA
P 9900 1900
F 0 "VI3" H 9949 1935 50  0000 L CNN
F 1 "GND" H 9949 1855 35  0000 L CNN
F 2 "AllModules:VIA-08X03-VE" H 9900 1900 50  0001 C CNN
F 3 "~" H 9900 1900 50  0001 C CNN
	1    9900 1900
	1    0    0    -1  
$EndComp
$Comp
L V_Connector:Via VI2
U 1 1 5EBA9AC0
P 9900 1700
F 0 "VI2" H 9949 1735 50  0000 L CNN
F 1 "GND" H 9949 1655 35  0000 L CNN
F 2 "AllModules:VIA-08X03-VE" H 9900 1700 50  0001 C CNN
F 3 "~" H 9900 1700 50  0001 C CNN
	1    9900 1700
	1    0    0    -1  
$EndComp
$Comp
L V_Connector:Via VI1
U 1 1 5EBA9AB6
P 9900 1500
F 0 "VI1" H 9949 1535 50  0000 L CNN
F 1 "GND" H 9949 1455 35  0000 L CNN
F 2 "AllModules:VIA-08X03-VE" H 9900 1500 50  0001 C CNN
F 3 "~" H 9900 1500 50  0001 C CNN
	1    9900 1500
	1    0    0    -1  
$EndComp
Wire Wire Line
	9900 4900 9900 4700
$Comp
L V_Connector:Via VI20
U 1 1 5EBB17C6
P 9900 4900
F 0 "VI20" H 9949 4935 50  0000 L CNN
F 1 "GND" H 9949 4855 35  0000 L CNN
F 2 "AllModules:VIA-08X03-VE" H 9900 4900 50  0001 C CNN
F 3 "~" H 9900 4900 50  0001 C CNN
	1    9900 4900
	1    0    0    -1  
$EndComp
Wire Wire Line
	9300 1500 9300 1700
Connection ~ 9300 1700
Connection ~ 9900 4700
Connection ~ 9300 4300
Connection ~ 8700 3900
Connection ~ 8700 2700
Wire Wire Line
	8700 4500 8700 4700
Connection ~ 8100 2700
Wire Wire Line
	8100 1900 8100 2100
Wire Wire Line
	9900 5000 9900 4900
Connection ~ 9900 4900
Connection ~ 9300 4700
Connection ~ 9300 5000
Wire Wire Line
	9300 5000 9900 5000
Connection ~ 8700 4500
Wire Wire Line
	8700 5000 9300 5000
Connection ~ 8700 4700
Wire Wire Line
	8700 4700 8700 4900
Wire Wire Line
	8700 2300 8700 2500
Connection ~ 8700 2300
Connection ~ 8700 2500
Wire Wire Line
	8700 3500 8700 3300
Connection ~ 8700 3500
Connection ~ 8700 3300
Wire Wire Line
	8100 2300 8100 2500
Connection ~ 8100 2500
Connection ~ 8100 2300
Connection ~ 8700 5000
Wire Wire Line
	7500 4300 7500 4500
Wire Wire Line
	8700 4300 8700 4500
Wire Wire Line
	8100 4900 8100 5000
Connection ~ 8100 4900
Connection ~ 8100 5000
Wire Wire Line
	8100 5000 8700 5000
Wire Wire Line
	7500 1500 7500 1700
Connection ~ 7500 1700
Wire Wire Line
	6900 5000 7500 5000
Wire Wire Line
	6900 4100 6900 4300
Connection ~ 6900 4100
Connection ~ 6900 4300
Wire Wire Line
	7500 4700 7500 5000
Connection ~ 7500 4700
Connection ~ 7500 5000
Wire Wire Line
	7500 5000 8100 5000
Text HLabel 1300 1400 0    50   Input ~ 0
N$10
Wire Wire Line
	2100 1500 2100 1700
Connection ~ 2100 1700
Wire Wire Line
	2100 1700 2100 1900
Wire Wire Line
	1300 1400 1500 1400
Wire Wire Line
	2100 1400 2100 1500
Connection ~ 2100 1500
Wire Wire Line
	1500 1700 1500 1500
Connection ~ 1500 1700
Wire Wire Line
	1500 1500 1500 1400
Connection ~ 1500 1500
Connection ~ 1500 1400
Wire Wire Line
	1500 1400 2100 1400
Text HLabel 1300 3100 0    50   Input ~ 0
SHDN1
Text HLabel 1300 3500 0    50   Input ~ 0
SHDN2
Wire Wire Line
	2100 3100 1500 3100
Wire Wire Line
	1300 3100 1500 3100
Connection ~ 1500 3100
Wire Wire Line
	1300 3500 1500 3500
Wire Wire Line
	2100 3500 1500 3500
Connection ~ 1500 3500
Text HLabel 1300 3800 0    50   Input ~ 0
INHIB-STOP-INV
Text HLabel 1300 4200 0    50   Input ~ 0
STOP-INV
Wire Wire Line
	1300 3800 2100 3800
Wire Wire Line
	2100 3800 2100 3900
Connection ~ 2100 3900
Wire Wire Line
	1300 4200 1500 4200
Wire Wire Line
	1500 4200 1500 4300
Connection ~ 1500 4300
Text HLabel 3100 1400 0    50   Input ~ 0
SUPPLY-BUZ
Wire Wire Line
	3100 1400 3300 1400
Wire Wire Line
	3300 1400 3300 1500
Connection ~ 3300 1500
Text HLabel 3100 2600 0    50   Input ~ 0
SUPPLY-BUZ-CPU
Wire Wire Line
	3300 2700 3300 2600
Wire Wire Line
	3300 2600 3100 2600
Connection ~ 3300 2700
Text HLabel 3100 4100 0    50   Input ~ 0
N$18
Text HLabel 3100 4500 0    50   Input ~ 0
N$58
Text HLabel 3100 4900 0    50   Input ~ 0
N$78
Wire Wire Line
	3100 4100 3300 4100
Wire Wire Line
	3950 4100 3300 4100
Connection ~ 3300 4100
Wire Wire Line
	3900 4900 3300 4900
Wire Wire Line
	3300 4500 3900 4500
Wire Wire Line
	3100 4500 3300 4500
Connection ~ 3300 4500
Wire Wire Line
	3100 4900 3300 4900
Connection ~ 3300 4900
Text HLabel 4300 2600 0    50   Input ~ 0
VBAT
Wire Wire Line
	4300 2600 4500 2600
Wire Wire Line
	4500 2600 4500 2700
Connection ~ 4500 2700
Text HLabel 5500 2800 0    50   Input ~ 0
VCHARG
Wire Wire Line
	5500 2800 5700 2800
Wire Wire Line
	5700 2800 5700 2900
Wire Wire Line
	5700 2900 5700 3100
Connection ~ 5700 2900
Connection ~ 5700 3100
Text HLabel 3100 3300 0    50   Input ~ 0
GT1
Wire Wire Line
	3100 3300 3300 3300
Wire Wire Line
	3900 3300 3300 3300
Connection ~ 3300 3300
Wire Wire Line
	3300 3700 3900 3700
Wire Wire Line
	5100 3700 4500 3700
Wire Wire Line
	3900 3700 4500 3700
Connection ~ 3900 3700
Connection ~ 4500 3700
Text HLabel 3100 3700 0    50   Input ~ 0
BUZ-ACT
Wire Wire Line
	3100 3700 3300 3700
Connection ~ 3300 3700
Text HLabel 4800 4100 0    50   Input ~ 0
N$31
Text HLabel 4800 4500 0    50   Input ~ 0
N$19
Wire Wire Line
	5000 4500 4800 4500
Wire Wire Line
	4800 4100 5000 4100
$EndSCHEMATC
