EESchema Schematic File Version 4
EELAYER 30 0
EELAYER END
$Descr A4 11693 8268
encoding utf-8
Sheet 2 2
Title "Blower Driver Board"
Date ""
Rev "1"
Comp "KiCad OpenVentilator Group"
Comment1 "based on Medtronic open design files"
Comment2 ""
Comment3 ""
Comment4 ""
$EndDescr
$Comp
L V_Connector:Via VI1
U 1 1 5EC9F2E6
P 3500 1500
F 0 "VI1" H 3525 1550 50  0000 L CNN
F 1 "Via" H 3500 1500 50  0001 C CNN
F 2 "AllModules:VIA-091X03-VE_1011" H 3500 1500 50  0001 C CNN
F 3 "" H 3500 1500 50  0001 C CNN
	1    3500 1500
	1    0    0    -1  
$EndComp
$Comp
L V_Connector:Via VI3
U 1 1 5EC9F2EC
P 4100 1500
F 0 "VI3" H 4125 1550 50  0000 L CNN
F 1 "Via" H 4100 1500 50  0001 C CNN
F 2 "AllModules:VIA-091X03-VE_1001" H 4100 1500 50  0001 C CNN
F 3 "" H 4100 1500 50  0001 C CNN
	1    4100 1500
	1    0    0    -1  
$EndComp
$Comp
L V_Connector:Via VI2
U 1 1 5EC9F2F2
P 3800 1500
F 0 "VI2" H 3825 1550 50  0000 L CNN
F 1 "Via" H 3800 1500 50  0001 C CNN
F 2 "AllModules:VIA-091X03-VE_1011" H 3800 1500 50  0001 C CNN
F 3 "" H 3800 1500 50  0001 C CNN
	1    3800 1500
	1    0    0    -1  
$EndComp
$Comp
L V_Connector:Via VI4
U 1 1 5EC9F2F8
P 6500 2400
F 0 "VI4" H 6525 2450 50  0000 L CNN
F 1 "Via" H 6500 2400 50  0001 C CNN
F 2 "AllModules:VIA-091X03-VE_1011" H 6500 2400 50  0001 C CNN
F 3 "" H 6500 2400 50  0001 C CNN
	1    6500 2400
	1    0    0    -1  
$EndComp
$Comp
L V_Connector:Via VI5
U 1 1 5EC9F2FE
P 6500 2600
F 0 "VI5" H 6525 2650 50  0000 L CNN
F 1 "Via" H 6500 2600 50  0001 C CNN
F 2 "AllModules:VIA-091X03-VE_1011" H 6500 2600 50  0001 C CNN
F 3 "" H 6500 2600 50  0001 C CNN
	1    6500 2600
	1    0    0    -1  
$EndComp
$Comp
L V_Connector:Via VI7
U 1 1 5EC9F304
P 1750 3300
F 0 "VI7" H 1775 3350 50  0000 L CNN
F 1 "Via" H 1750 3300 50  0001 C CNN
F 2 "AllModules:VIA-091X03-VE_1011" H 1750 3300 50  0001 C CNN
F 3 "" H 1750 3300 50  0001 C CNN
	1    1750 3300
	1    0    0    -1  
$EndComp
$Comp
L V_Connector:Via VI6
U 1 1 5EC9F30A
P 6500 2800
F 0 "VI6" H 6525 2850 50  0000 L CNN
F 1 "Via" H 6500 2800 50  0001 C CNN
F 2 "AllModules:VIA-091X03-VE_1011" H 6500 2800 50  0001 C CNN
F 3 "" H 6500 2800 50  0001 C CNN
	1    6500 2800
	1    0    0    -1  
$EndComp
$Comp
L V_Connector:Via VI8
U 1 1 5EC9F310
P 1750 3425
F 0 "VI8" H 1775 3475 50  0000 L CNN
F 1 "Via" H 1750 3425 50  0001 C CNN
F 2 "AllModules:VIA-091X03-VE_1011" H 1750 3425 50  0001 C CNN
F 3 "" H 1750 3425 50  0001 C CNN
	1    1750 3425
	1    0    0    -1  
$EndComp
$Comp
L V_Connector:Via VI9
U 1 1 5EC9F316
P 1075 1525
F 0 "VI9" H 1100 1575 50  0000 L CNN
F 1 "Via" H 1075 1525 50  0001 C CNN
F 2 "AllModules:VIA-091X03-VE_1101" H 1075 1525 50  0001 C CNN
F 3 "" H 1075 1525 50  0001 C CNN
	1    1075 1525
	1    0    0    -1  
$EndComp
$Comp
L V_Connector:Via VI11
U 1 1 5EC9F31C
P 5000 2100
F 0 "VI11" H 5025 2150 50  0000 L CNN
F 1 "Via" H 5000 2100 50  0001 C CNN
F 2 "AllModules:VIA-091X03-VE_1011" H 5000 2100 50  0001 C CNN
F 3 "" H 5000 2100 50  0001 C CNN
	1    5000 2100
	1    0    0    -1  
$EndComp
$Comp
L V_Connector:Via VI10
U 1 1 5EC9F322
P 1750 3550
F 0 "VI10" H 1775 3600 50  0000 L CNN
F 1 "Via" H 1750 3550 50  0001 C CNN
F 2 "AllModules:VIA-091X03-VE_1011" H 1750 3550 50  0001 C CNN
F 3 "" H 1750 3550 50  0001 C CNN
	1    1750 3550
	1    0    0    -1  
$EndComp
$Comp
L V_Connector:Via VI12
U 1 1 5EC9F328
P 5000 2400
F 0 "VI12" H 5025 2450 50  0000 L CNN
F 1 "Via" H 5000 2400 50  0001 C CNN
F 2 "AllModules:VIA-091X03-VE_1011" H 5000 2400 50  0001 C CNN
F 3 "" H 5000 2400 50  0001 C CNN
	1    5000 2400
	1    0    0    -1  
$EndComp
$Comp
L V_Connector:Via VI13
U 1 1 5EC9F32E
P 5000 2700
F 0 "VI13" H 5025 2750 50  0000 L CNN
F 1 "Via" H 5000 2700 50  0001 C CNN
F 2 "AllModules:VIA-091X03-VE_1011" H 5000 2700 50  0001 C CNN
F 3 "" H 5000 2700 50  0001 C CNN
	1    5000 2700
	1    0    0    -1  
$EndComp
$Comp
L V_Connector:Via VI14
U 1 1 5EC9F33A
P 1275 1525
F 0 "VI14" H 1300 1575 50  0000 L CNN
F 1 "Via" H 1275 1525 50  0001 C CNN
F 2 "AllModules:VIA-091X03-VE_1101" H 1275 1525 50  0001 C CNN
F 3 "" H 1275 1525 50  0001 C CNN
	1    1275 1525
	1    0    0    -1  
$EndComp
$Comp
L V_Connector:Via VI17
U 1 1 5EC9F346
P 1500 1525
F 0 "VI17" H 1525 1575 50  0000 L CNN
F 1 "Via" H 1500 1525 50  0001 C CNN
F 2 "AllModules:VIA-091X03-VE_1101" H 1500 1525 50  0001 C CNN
F 3 "" H 1500 1525 50  0001 C CNN
	1    1500 1525
	1    0    0    -1  
$EndComp
$Comp
L V_Connector:Via VI19
U 1 1 5EC9F34C
P 5300 2100
F 0 "VI19" H 5325 2150 50  0000 L CNN
F 1 "Via" H 5300 2100 50  0001 C CNN
F 2 "AllModules:VIA-091X03-VE_1011" H 5300 2100 50  0001 C CNN
F 3 "" H 5300 2100 50  0001 C CNN
	1    5300 2100
	1    0    0    -1  
$EndComp
$Comp
L V_Connector:Via VI18
U 1 1 5EC9F352
P 1700 1525
F 0 "VI18" H 1725 1575 50  0000 L CNN
F 1 "Via" H 1700 1525 50  0001 C CNN
F 2 "AllModules:VIA-091X03-VE_1101" H 1700 1525 50  0001 C CNN
F 3 "" H 1700 1525 50  0001 C CNN
	1    1700 1525
	1    0    0    -1  
$EndComp
$Comp
L V_Connector:Via VI20
U 1 1 5EC9F358
P 7500 2200
F 0 "VI20" H 7525 2250 50  0000 L CNN
F 1 "Via" H 7500 2200 50  0001 C CNN
F 2 "AllModules:VIA-091X03-VE_1011" H 7500 2200 50  0001 C CNN
F 3 "" H 7500 2200 50  0001 C CNN
	1    7500 2200
	1    0    0    -1  
$EndComp
Wire Wire Line
	975  1900 975  1775
Connection ~ 975  1650
Wire Wire Line
	975  1650 975  1525
Connection ~ 975  1775
Wire Wire Line
	975  1775 975  1650
Wire Wire Line
	2375 1900 2375 1950
$Comp
L V_Power:GND #PWR01
U 1 1 5ECFE26F
P 2375 1950
F 0 "#PWR01" H 2515 1900 50  0001 C CNN
F 1 "GND" H 2375 1776 50  0000 C CNN
F 2 "" H 2375 1850 50  0001 C CNN
F 3 "" H 2375 1850 50  0001 C CNN
	1    2375 1950
	1    0    0    -1  
$EndComp
Wire Wire Line
	2200 1525 2200 1650
Connection ~ 2200 1650
Wire Wire Line
	2200 1650 2200 1775
Connection ~ 2200 1775
Wire Wire Line
	2200 1775 2200 1900
Wire Wire Line
	2200 1900 2375 1900
Connection ~ 2200 1900
$Comp
L V_Connector:Via VI21
U 1 1 5ED12638
P 1900 1525
F 0 "VI21" H 1925 1575 50  0000 L CNN
F 1 "Via" H 1900 1525 50  0001 C CNN
F 2 "AllModules:VIA-091X03-VE_1101" H 1900 1525 50  0001 C CNN
F 3 "" H 1900 1525 50  0001 C CNN
	1    1900 1525
	1    0    0    -1  
$EndComp
$Comp
L V_Connector:Via VI23
U 1 1 5ED12642
P 5300 2700
F 0 "VI23" H 5325 2750 50  0000 L CNN
F 1 "Via" H 5300 2700 50  0001 C CNN
F 2 "AllModules:VIA-091X03-VE_1011" H 5300 2700 50  0001 C CNN
F 3 "" H 5300 2700 50  0001 C CNN
	1    5300 2700
	1    0    0    -1  
$EndComp
$Comp
L V_Connector:Via VI22
U 1 1 5ED1264C
P 5300 2400
F 0 "VI22" H 5325 2450 50  0000 L CNN
F 1 "Via" H 5300 2400 50  0001 C CNN
F 2 "AllModules:VIA-091X03-VE_1011" H 5300 2400 50  0001 C CNN
F 3 "" H 5300 2400 50  0001 C CNN
	1    5300 2400
	1    0    0    -1  
$EndComp
$Comp
L V_Connector:Via VI24
U 1 1 5ED12656
P 1075 1650
F 0 "VI24" H 1100 1700 50  0000 L CNN
F 1 "Via" H 1075 1650 50  0001 C CNN
F 2 "AllModules:VIA-091X03-VE_1101" H 1075 1650 50  0001 C CNN
F 3 "" H 1075 1650 50  0001 C CNN
	1    1075 1650
	1    0    0    -1  
$EndComp
$Comp
L V_Connector:Via VI33
U 1 1 5ED12660
P 7500 2400
F 0 "VI33" H 7525 2450 50  0000 L CNN
F 1 "Via" H 7500 2400 50  0001 C CNN
F 2 "AllModules:VIA-091X03-VE_1011" H 7500 2400 50  0001 C CNN
F 3 "" H 7500 2400 50  0001 C CNN
	1    7500 2400
	1    0    0    -1  
$EndComp
$Comp
L V_Connector:Via VI35
U 1 1 5ED1266A
P 3500 3600
F 0 "VI35" H 3525 3650 50  0000 L CNN
F 1 "Via" H 3500 3600 50  0001 C CNN
F 2 "AllModules:VIA-091X03-VE_1011" H 3500 3600 50  0001 C CNN
F 3 "" H 3500 3600 50  0001 C CNN
	1    3500 3600
	1    0    0    -1  
$EndComp
$Comp
L V_Connector:Via VI34
U 1 1 5ED12674
P 1700 1650
F 0 "VI34" H 1725 1700 50  0000 L CNN
F 1 "Via" H 1700 1650 50  0001 C CNN
F 2 "AllModules:VIA-091X03-VE_1101" H 1700 1650 50  0001 C CNN
F 3 "" H 1700 1650 50  0001 C CNN
	1    1700 1650
	1    0    0    -1  
$EndComp
$Comp
L V_Connector:Via VI36
U 1 1 5ED1267E
P 1900 1650
F 0 "VI36" H 1925 1700 50  0000 L CNN
F 1 "Via" H 1900 1650 50  0001 C CNN
F 2 "AllModules:VIA-091X03-VE_1101" H 1900 1650 50  0001 C CNN
F 3 "" H 1900 1650 50  0001 C CNN
	1    1900 1650
	1    0    0    -1  
$EndComp
$Comp
L V_Connector:Via VI45
U 1 1 5ED12688
P 7500 4000
F 0 "VI45" H 7525 4050 50  0000 L CNN
F 1 "Via" H 7500 4000 50  0001 C CNN
F 2 "AllModules:VIA-091X03-VE_1001" H 7500 4000 50  0001 C CNN
F 3 "" H 7500 4000 50  0001 C CNN
	1    7500 4000
	1    0    0    -1  
$EndComp
$Comp
L V_Connector:Via VI47
U 1 1 5ED12692
P 3500 3000
F 0 "VI47" H 3525 3050 50  0000 L CNN
F 1 "Via" H 3500 3000 50  0001 C CNN
F 2 "AllModules:VIA-091X03-VE_1011" H 3500 3000 50  0001 C CNN
F 3 "" H 3500 3000 50  0001 C CNN
	1    3500 3000
	1    0    0    -1  
$EndComp
$Comp
L V_Connector:Via VI46
U 1 1 5ED1269C
P 1500 1775
F 0 "VI46" H 1525 1825 50  0000 L CNN
F 1 "Via" H 1500 1775 50  0001 C CNN
F 2 "AllModules:VIA-091X03-VE_1101" H 1500 1775 50  0001 C CNN
F 3 "" H 1500 1775 50  0001 C CNN
	1    1500 1775
	1    0    0    -1  
$EndComp
$Comp
L V_Connector:Via VI48
U 1 1 5ED126A6
P 1700 1775
F 0 "VI48" H 1725 1825 50  0000 L CNN
F 1 "Via" H 1700 1775 50  0001 C CNN
F 2 "AllModules:VIA-091X03-VE_1101" H 1700 1775 50  0001 C CNN
F 3 "" H 1700 1775 50  0001 C CNN
	1    1700 1775
	1    0    0    -1  
$EndComp
$Comp
L V_Connector:Via VI57
U 1 1 5ED126B0
P 1075 2375
F 0 "VI57" H 1100 2425 50  0000 L CNN
F 1 "Via" H 1075 2375 50  0001 C CNN
F 2 "AllModules:VIA-091X03-VE_1101" H 1075 2375 50  0001 C CNN
F 3 "" H 1075 2375 50  0001 C CNN
	1    1075 2375
	1    0    0    -1  
$EndComp
$Comp
L V_Connector:Via VI59
U 1 1 5ED126BA
P 1475 2375
F 0 "VI59" H 1500 2425 50  0000 L CNN
F 1 "Via" H 1475 2375 50  0001 C CNN
F 2 "AllModules:VIA-091X03-VE_1101" H 1475 2375 50  0001 C CNN
F 3 "" H 1475 2375 50  0001 C CNN
	1    1475 2375
	1    0    0    -1  
$EndComp
$Comp
L V_Connector:Via VI58
U 1 1 5ED126C4
P 1250 2375
F 0 "VI58" H 1275 2425 50  0000 L CNN
F 1 "Via" H 1250 2375 50  0001 C CNN
F 2 "AllModules:VIA-091X03-VE_1101" H 1250 2375 50  0001 C CNN
F 3 "" H 1250 2375 50  0001 C CNN
	1    1250 2375
	1    0    0    -1  
$EndComp
$Comp
L V_Connector:Via VI60
U 1 1 5ED126CE
P 1675 2375
F 0 "VI60" H 1700 2425 50  0000 L CNN
F 1 "Via" H 1675 2375 50  0001 C CNN
F 2 "AllModules:VIA-091X03-VE_1101" H 1675 2375 50  0001 C CNN
F 3 "" H 1675 2375 50  0001 C CNN
	1    1675 2375
	1    0    0    -1  
$EndComp
$Comp
L V_Connector:Via VI69
U 1 1 5ED126D8
P 6800 1500
F 0 "VI69" H 6825 1550 50  0000 L CNN
F 1 "Via" H 6800 1500 50  0001 C CNN
F 2 "AllModules:VIA-091X03-VE_1011" H 6800 1500 50  0001 C CNN
F 3 "" H 6800 1500 50  0001 C CNN
	1    6800 1500
	1    0    0    -1  
$EndComp
$Comp
L V_Connector:Via VI71
U 1 1 5ED126E2
P 1475 2500
F 0 "VI71" H 1500 2550 50  0000 L CNN
F 1 "Via" H 1475 2500 50  0001 C CNN
F 2 "AllModules:VIA-091X03-VE_1101" H 1475 2500 50  0001 C CNN
F 3 "" H 1475 2500 50  0001 C CNN
	1    1475 2500
	1    0    0    -1  
$EndComp
$Comp
L V_Connector:Via VI70
U 1 1 5ED126EC
P 6500 4200
F 0 "VI70" H 6525 4250 50  0000 L CNN
F 1 "Via" H 6500 4200 50  0001 C CNN
F 2 "AllModules:VIA-091X03-VE_1011" H 6500 4200 50  0001 C CNN
F 3 "" H 6500 4200 50  0001 C CNN
	1    6500 4200
	1    0    0    -1  
$EndComp
$Comp
L V_Connector:Via VI72
U 1 1 5ED126F6
P 1675 2500
F 0 "VI72" H 1700 2550 50  0000 L CNN
F 1 "Via" H 1675 2500 50  0001 C CNN
F 2 "AllModules:VIA-091X03-VE_1101" H 1675 2500 50  0001 C CNN
F 3 "" H 1675 2500 50  0001 C CNN
	1    1675 2500
	1    0    0    -1  
$EndComp
Connection ~ 975  2500
Wire Wire Line
	975  2500 975  2375
Wire Wire Line
	975  2625 975  2500
Wire Wire Line
	2450 2625 2450 2675
$Comp
L V_Power:GND #PWR02
U 1 1 5ED12728
P 2450 2675
F 0 "#PWR02" H 2590 2625 50  0001 C CNN
F 1 "GND" H 2450 2501 50  0000 C CNN
F 2 "" H 2450 2575 50  0001 C CNN
F 3 "" H 2450 2575 50  0001 C CNN
	1    2450 2675
	1    0    0    -1  
$EndComp
Wire Wire Line
	2200 2375 2200 2500
Connection ~ 2200 2500
Wire Wire Line
	2200 2500 2200 2625
Connection ~ 2200 2625
$Comp
L V_Connector:Via VI25
U 1 1 5ED17FB1
P 1275 1650
F 0 "VI25" H 1300 1700 50  0000 L CNN
F 1 "Via" H 1275 1650 50  0001 C CNN
F 2 "AllModules:VIA-091X03-VE_1101" H 1275 1650 50  0001 C CNN
F 3 "" H 1275 1650 50  0001 C CNN
	1    1275 1650
	1    0    0    -1  
$EndComp
$Comp
L V_Connector:Via VI27
U 1 1 5ED17FBB
P 6500 3000
F 0 "VI27" H 6525 3050 50  0000 L CNN
F 1 "Via" H 6500 3000 50  0001 C CNN
F 2 "AllModules:VIA-091X03-VE_1011" H 6500 3000 50  0001 C CNN
F 3 "" H 6500 3000 50  0001 C CNN
	1    6500 3000
	1    0    0    -1  
$EndComp
$Comp
L V_Connector:Via VI26
U 1 1 5ED17FC5
P 6500 2100
F 0 "VI26" H 6525 2150 50  0000 L CNN
F 1 "Via" H 6500 2100 50  0001 C CNN
F 2 "AllModules:VIA-091X03-VE_1011" H 6500 2100 50  0001 C CNN
F 3 "" H 6500 2100 50  0001 C CNN
	1    6500 2100
	1    0    0    -1  
$EndComp
$Comp
L V_Connector:Via VI28
U 1 1 5ED17FCF
P 6500 3300
F 0 "VI28" H 6525 3350 50  0000 L CNN
F 1 "Via" H 6500 3300 50  0001 C CNN
F 2 "AllModules:VIA-091X03-VE_1011" H 6500 3300 50  0001 C CNN
F 3 "" H 6500 3300 50  0001 C CNN
	1    6500 3300
	1    0    0    -1  
$EndComp
$Comp
L V_Connector:Via VI37
U 1 1 5ED17FD9
P 1075 1775
F 0 "VI37" H 1100 1825 50  0000 L CNN
F 1 "Via" H 1075 1775 50  0001 C CNN
F 2 "AllModules:VIA-091X03-VE_1101" H 1075 1775 50  0001 C CNN
F 3 "" H 1075 1775 50  0001 C CNN
	1    1075 1775
	1    0    0    -1  
$EndComp
$Comp
L V_Connector:Via VI39
U 1 1 5ED17FE3
P 3800 3600
F 0 "VI39" H 3825 3650 50  0000 L CNN
F 1 "Via" H 3800 3600 50  0001 C CNN
F 2 "AllModules:VIA-091X03-VE_1011" H 3800 3600 50  0001 C CNN
F 3 "" H 3800 3600 50  0001 C CNN
	1    3800 3600
	1    0    0    -1  
$EndComp
$Comp
L V_Connector:Via VI38
U 1 1 5ED17FED
P 1750 3850
F 0 "VI38" H 1775 3900 50  0000 L CNN
F 1 "Via" H 1750 3850 50  0001 C CNN
F 2 "AllModules:VIA-091X03-VE_1011" H 1750 3850 50  0001 C CNN
F 3 "" H 1750 3850 50  0001 C CNN
	1    1750 3850
	1    0    0    -1  
$EndComp
$Comp
L V_Connector:Via VI40
U 1 1 5ED17FF7
P 1275 1775
F 0 "VI40" H 1300 1825 50  0000 L CNN
F 1 "Via" H 1275 1775 50  0001 C CNN
F 2 "AllModules:VIA-091X03-VE_1101" H 1275 1775 50  0001 C CNN
F 3 "" H 1275 1775 50  0001 C CNN
	1    1275 1775
	1    0    0    -1  
$EndComp
$Comp
L V_Connector:Via VI49
U 1 1 5ED18001
P 1900 1775
F 0 "VI49" H 1925 1825 50  0000 L CNN
F 1 "Via" H 1900 1775 50  0001 C CNN
F 2 "AllModules:VIA-091X03-VE_1101" H 1900 1775 50  0001 C CNN
F 3 "" H 1900 1775 50  0001 C CNN
	1    1900 1775
	1    0    0    -1  
$EndComp
$Comp
L V_Connector:Via VI51
U 1 1 5ED1800B
P 1075 1900
F 0 "VI51" H 1100 1950 50  0000 L CNN
F 1 "Via" H 1075 1900 50  0001 C CNN
F 2 "AllModules:VIA-091X03-VE_1101" H 1075 1900 50  0001 C CNN
F 3 "" H 1075 1900 50  0001 C CNN
	1    1075 1900
	1    0    0    -1  
$EndComp
$Comp
L V_Connector:Via VI50
U 1 1 5ED18015
P 5000 1800
F 0 "VI50" H 5025 1850 50  0000 L CNN
F 1 "Via" H 5000 1800 50  0001 C CNN
F 2 "AllModules:VIA-091X03-VE_1011" H 5000 1800 50  0001 C CNN
F 3 "" H 5000 1800 50  0001 C CNN
	1    5000 1800
	1    0    0    -1  
$EndComp
$Comp
L V_Connector:Via VI52
U 1 1 5ED1801F
P 6500 3900
F 0 "VI52" H 6525 3950 50  0000 L CNN
F 1 "Via" H 6500 3900 50  0001 C CNN
F 2 "AllModules:VIA-091X03-VE_1011" H 6500 3900 50  0001 C CNN
F 3 "" H 6500 3900 50  0001 C CNN
	1    6500 3900
	1    0    0    -1  
$EndComp
$Comp
L V_Connector:Via VI61
U 1 1 5ED18029
P 1875 2375
F 0 "VI61" H 1900 2425 50  0000 L CNN
F 1 "Via" H 1875 2375 50  0001 C CNN
F 2 "AllModules:VIA-091X03-VE_1101" H 1875 2375 50  0001 C CNN
F 3 "" H 1875 2375 50  0001 C CNN
	1    1875 2375
	1    0    0    -1  
$EndComp
$Comp
L V_Connector:Via VI63
U 1 1 5ED18033
P 1250 2500
F 0 "VI63" H 1275 2550 50  0000 L CNN
F 1 "Via" H 1250 2500 50  0001 C CNN
F 2 "AllModules:VIA-091X03-VE_1101" H 1250 2500 50  0001 C CNN
F 3 "" H 1250 2500 50  0001 C CNN
	1    1250 2500
	1    0    0    -1  
$EndComp
$Comp
L V_Connector:Via VI62
U 1 1 5ED1803D
P 1075 2500
F 0 "VI62" H 1100 2550 50  0000 L CNN
F 1 "Via" H 1075 2500 50  0001 C CNN
F 2 "AllModules:VIA-091X03-VE_1101" H 1075 2500 50  0001 C CNN
F 3 "" H 1075 2500 50  0001 C CNN
	1    1075 2500
	1    0    0    -1  
$EndComp
$Comp
L V_Connector:Via VI64
U 1 1 5ED18047
P 3800 1800
F 0 "VI64" H 3825 1850 50  0000 L CNN
F 1 "Via" H 3800 1800 50  0001 C CNN
F 2 "AllModules:VIA-091X03-VE_1011" H 3800 1800 50  0001 C CNN
F 3 "" H 3800 1800 50  0001 C CNN
	1    3800 1800
	1    0    0    -1  
$EndComp
$Comp
L V_Connector:Via VI73
U 1 1 5ED18051
P 1875 2500
F 0 "VI73" H 1900 2550 50  0000 L CNN
F 1 "Via" H 1875 2500 50  0001 C CNN
F 2 "AllModules:VIA-091X03-VE_1101" H 1875 2500 50  0001 C CNN
F 3 "" H 1875 2500 50  0001 C CNN
	1    1875 2500
	1    0    0    -1  
$EndComp
$Comp
L V_Connector:Via VI75
U 1 1 5ED1805B
P 7500 2800
F 0 "VI75" H 7525 2850 50  0000 L CNN
F 1 "Via" H 7500 2800 50  0001 C CNN
F 2 "AllModules:VIA-091X03-VE_1011" H 7500 2800 50  0001 C CNN
F 3 "" H 7500 2800 50  0001 C CNN
	1    7500 2800
	1    0    0    -1  
$EndComp
$Comp
L V_Connector:Via VI74
U 1 1 5ED18065
P 1075 2625
F 0 "VI74" H 1100 2675 50  0000 L CNN
F 1 "Via" H 1075 2625 50  0001 C CNN
F 2 "AllModules:VIA-091X03-VE_1101" H 1075 2625 50  0001 C CNN
F 3 "" H 1075 2625 50  0001 C CNN
	1    1075 2625
	1    0    0    -1  
$EndComp
$Comp
L V_Connector:Via VI76
U 1 1 5ED1806F
P 7500 3000
F 0 "VI76" H 7525 3050 50  0000 L CNN
F 1 "Via" H 7500 3000 50  0001 C CNN
F 2 "AllModules:VIA-091X03-VE_1011" H 7500 3000 50  0001 C CNN
F 3 "" H 7500 3000 50  0001 C CNN
	1    7500 3000
	1    0    0    -1  
$EndComp
$Comp
L V_Connector:Via VI29
U 1 1 5ED180B7
P 3500 1800
F 0 "VI29" H 3525 1850 50  0000 L CNN
F 1 "Via" H 3500 1800 50  0001 C CNN
F 2 "AllModules:VIA-091X03-VE_1011" H 3500 1800 50  0001 C CNN
F 3 "" H 3500 1800 50  0001 C CNN
	1    3500 1800
	1    0    0    -1  
$EndComp
$Comp
L V_Connector:Via VI31
U 1 1 5ED180C1
P 6500 1800
F 0 "VI31" H 6525 1850 50  0000 L CNN
F 1 "Via" H 6500 1800 50  0001 C CNN
F 2 "AllModules:VIA-091X03-VE_1011" H 6500 1800 50  0001 C CNN
F 3 "" H 6500 1800 50  0001 C CNN
	1    6500 1800
	1    0    0    -1  
$EndComp
$Comp
L V_Connector:Via VI30
U 1 1 5ED180CB
P 1500 1650
F 0 "VI30" H 1500 1650 50  0001 C CNN
F 1 "Via" H 1500 1650 50  0001 C CNN
F 2 "AllModules:VIA-091X03-VE_1101" H 1500 1650 50  0001 C CNN
F 3 "" H 1500 1650 50  0001 C CNN
	1    1500 1650
	1    0    0    -1  
$EndComp
$Comp
L V_Connector:Via VI32
U 1 1 5ED180D5
P 1750 3700
F 0 "VI32" H 1775 3750 50  0000 L CNN
F 1 "Via" H 1750 3700 50  0001 C CNN
F 2 "AllModules:VIA-091X03-VE_1011" H 1750 3700 50  0001 C CNN
F 3 "" H 1750 3700 50  0001 C CNN
	1    1750 3700
	1    0    0    -1  
$EndComp
$Comp
L V_Connector:Via VI41
U 1 1 5ED180DF
P 5000 3000
F 0 "VI41" H 5025 3050 50  0000 L CNN
F 1 "Via" H 5000 3000 50  0001 C CNN
F 2 "AllModules:VIA-091X03-VE_1011" H 5000 3000 50  0001 C CNN
F 3 "" H 5000 3000 50  0001 C CNN
	1    5000 3000
	1    0    0    -1  
$EndComp
$Comp
L V_Connector:Via VI43
U 1 1 5ED180E9
P 5000 3600
F 0 "VI43" H 5025 3650 50  0000 L CNN
F 1 "Via" H 5000 3600 50  0001 C CNN
F 2 "AllModules:VIA-091X03-VE_1011" H 5000 3600 50  0001 C CNN
F 3 "" H 5000 3600 50  0001 C CNN
	1    5000 3600
	1    0    0    -1  
$EndComp
$Comp
L V_Connector:Via VI42
U 1 1 5ED180F3
P 5000 3300
F 0 "VI42" H 5025 3350 50  0000 L CNN
F 1 "Via" H 5000 3300 50  0001 C CNN
F 2 "AllModules:VIA-091X03-VE_1011" H 5000 3300 50  0001 C CNN
F 3 "" H 5000 3300 50  0001 C CNN
	1    5000 3300
	1    0    0    -1  
$EndComp
$Comp
L V_Connector:Via VI44
U 1 1 5ED180FD
P 7500 2600
F 0 "VI44" H 7525 2650 50  0000 L CNN
F 1 "Via" H 7500 2600 50  0001 C CNN
F 2 "AllModules:VIA-091X03-VE_1001" H 7500 2600 50  0001 C CNN
F 3 "" H 7500 2600 50  0001 C CNN
	1    7500 2600
	1    0    0    -1  
$EndComp
$Comp
L V_Connector:Via VI53
U 1 1 5ED18107
P 1275 1900
F 0 "VI53" H 1300 1950 50  0000 L CNN
F 1 "Via" H 1275 1900 50  0001 C CNN
F 2 "AllModules:VIA-091X03-VE_1101" H 1275 1900 50  0001 C CNN
F 3 "" H 1275 1900 50  0001 C CNN
	1    1275 1900
	1    0    0    -1  
$EndComp
$Comp
L V_Connector:Via VI55
U 1 1 5ED18111
P 1700 1900
F 0 "VI55" H 1725 1950 50  0000 L CNN
F 1 "Via" H 1700 1900 50  0001 C CNN
F 2 "AllModules:VIA-091X03-VE_1101" H 1700 1900 50  0001 C CNN
F 3 "" H 1700 1900 50  0001 C CNN
	1    1700 1900
	1    0    0    -1  
$EndComp
$Comp
L V_Connector:Via VI54
U 1 1 5ED1811B
P 1500 1900
F 0 "VI54" H 1525 1950 50  0000 L CNN
F 1 "Via" H 1500 1900 50  0001 C CNN
F 2 "AllModules:VIA-091X03-VE_1101" H 1500 1900 50  0001 C CNN
F 3 "" H 1500 1900 50  0001 C CNN
	1    1500 1900
	1    0    0    -1  
$EndComp
$Comp
L V_Connector:Via VI56
U 1 1 5ED18125
P 1900 1900
F 0 "VI56" H 1925 1950 50  0000 L CNN
F 1 "Via" H 1900 1900 50  0001 C CNN
F 2 "AllModules:VIA-091X03-VE_1101" H 1900 1900 50  0001 C CNN
F 3 "" H 1900 1900 50  0001 C CNN
	1    1900 1900
	1    0    0    -1  
$EndComp
$Comp
L V_Connector:Via VI65
U 1 1 5ED1812F
P 3500 3300
F 0 "VI65" H 3525 3350 50  0000 L CNN
F 1 "Via" H 3500 3300 50  0001 C CNN
F 2 "AllModules:VIA-091X03-VE_1001" H 3500 3300 50  0001 C CNN
F 3 "" H 3500 3300 50  0001 C CNN
	1    3500 3300
	1    0    0    -1  
$EndComp
$Comp
L V_Connector:Via VI67
U 1 1 5ED18139
P 5000 1500
F 0 "VI67" H 5025 1550 50  0000 L CNN
F 1 "Via" H 5000 1500 50  0001 C CNN
F 2 "AllModules:VIA-091X03-VE_1011" H 5000 1500 50  0001 C CNN
F 3 "" H 5000 1500 50  0001 C CNN
	1    5000 1500
	1    0    0    -1  
$EndComp
$Comp
L V_Connector:Via VI66
U 1 1 5ED18143
P 5300 1800
F 0 "VI66" H 5325 1850 50  0000 L CNN
F 1 "Via" H 5300 1800 50  0001 C CNN
F 2 "AllModules:VIA-091X03-VE_1011" H 5300 1800 50  0001 C CNN
F 3 "" H 5300 1800 50  0001 C CNN
	1    5300 1800
	1    0    0    -1  
$EndComp
$Comp
L V_Connector:Via VI68
U 1 1 5ED1814D
P 6500 1500
F 0 "VI68" H 6525 1550 50  0000 L CNN
F 1 "Via" H 6500 1500 50  0001 C CNN
F 2 "AllModules:VIA-091X03-VE_1011" H 6500 1500 50  0001 C CNN
F 3 "" H 6500 1500 50  0001 C CNN
	1    6500 1500
	1    0    0    -1  
$EndComp
$Comp
L V_Connector:Via VI77
U 1 1 5ED18157
P 3800 3000
F 0 "VI77" H 3825 3050 50  0000 L CNN
F 1 "Via" H 3800 3000 50  0001 C CNN
F 2 "AllModules:VIA-091X03-VE_1011" H 3800 3000 50  0001 C CNN
F 3 "" H 3800 3000 50  0001 C CNN
	1    3800 3000
	1    0    0    -1  
$EndComp
$Comp
L V_Connector:Via VI79
U 1 1 5ED18161
P 5300 3300
F 0 "VI79" H 5325 3350 50  0000 L CNN
F 1 "Via" H 5300 3300 50  0001 C CNN
F 2 "AllModules:VIA-091X03-VE_1011" H 5300 3300 50  0001 C CNN
F 3 "" H 5300 3300 50  0001 C CNN
	1    5300 3300
	1    0    0    -1  
$EndComp
$Comp
L V_Connector:Via VI78
U 1 1 5ED1816B
P 5300 3600
F 0 "VI78" H 5325 3650 50  0000 L CNN
F 1 "Via" H 5300 3600 50  0001 C CNN
F 2 "AllModules:VIA-091X03-VE_1011" H 5300 3600 50  0001 C CNN
F 3 "" H 5300 3600 50  0001 C CNN
	1    5300 3600
	1    0    0    -1  
$EndComp
$Comp
L V_Connector:Via VI80
U 1 1 5ED18175
P 5300 3000
F 0 "VI80" H 5325 3050 50  0000 L CNN
F 1 "Via" H 5300 3000 50  0001 C CNN
F 2 "AllModules:VIA-091X03-VE_1011" H 5300 3000 50  0001 C CNN
F 3 "" H 5300 3000 50  0001 C CNN
	1    5300 3000
	1    0    0    -1  
$EndComp
$Comp
L V_Connector:Via VI81
U 1 1 5ED28B09
P 6800 2100
F 0 "VI81" H 6825 2150 50  0000 L CNN
F 1 "Via" H 6800 2100 50  0001 C CNN
F 2 "AllModules:VIA-091X03-VE_1011" H 6800 2100 50  0001 C CNN
F 3 "" H 6800 2100 50  0001 C CNN
	1    6800 2100
	1    0    0    -1  
$EndComp
$Comp
L V_Connector:Via VI82
U 1 1 5ED28B31
P 6500 3600
F 0 "VI82" H 6525 3650 50  0000 L CNN
F 1 "Via" H 6500 3600 50  0001 C CNN
F 2 "AllModules:VIA-091X03-VE_1011" H 6500 3600 50  0001 C CNN
F 3 "" H 6500 3600 50  0001 C CNN
	1    6500 3600
	1    0    0    -1  
$EndComp
$Comp
L V_Connector:Via VI83
U 1 1 5ED28B59
P 1250 2625
F 0 "VI83" H 1275 2675 50  0000 L CNN
F 1 "Via" H 1250 2625 50  0001 C CNN
F 2 "AllModules:VIA-091X03-VE_1101" H 1250 2625 50  0001 C CNN
F 3 "" H 1250 2625 50  0001 C CNN
	1    1250 2625
	1    0    0    -1  
$EndComp
$Comp
L V_Connector:Via VI84
U 1 1 5ED28B6D
P 5300 1500
F 0 "VI84" H 5325 1550 50  0000 L CNN
F 1 "Via" H 5300 1500 50  0001 C CNN
F 2 "AllModules:VIA-091X03-VE_1011" H 5300 1500 50  0001 C CNN
F 3 "" H 5300 1500 50  0001 C CNN
	1    5300 1500
	1    0    0    -1  
$EndComp
$Comp
L V_Connector:Via VI85
U 1 1 5ED28B81
P 3500 2100
F 0 "VI85" H 3525 2150 50  0000 L CNN
F 1 "Via" H 3500 2100 50  0001 C CNN
F 2 "AllModules:VIA-091X03-VE_1001" H 3500 2100 50  0001 C CNN
F 3 "" H 3500 2100 50  0001 C CNN
	1    3500 2100
	1    0    0    -1  
$EndComp
$Comp
L V_Connector:Via VI87
U 1 1 5ED28BA9
P 3500 2700
F 0 "VI87" H 3525 2750 50  0000 L CNN
F 1 "Via" H 3500 2700 50  0001 C CNN
F 2 "AllModules:VIA-091X03-VE_1001" H 3500 2700 50  0001 C CNN
F 3 "" H 3500 2700 50  0001 C CNN
	1    3500 2700
	1    0    0    -1  
$EndComp
Wire Wire Line
	975  1525 1075 1525
Wire Wire Line
	1750 3300 1950 3300
Wire Wire Line
	1750 3425 1950 3425
Wire Wire Line
	1950 3425 1950 3300
Wire Wire Line
	1950 3850 2375 3850
Wire Wire Line
	1750 3550 1950 3550
Wire Wire Line
	1950 3550 1950 3425
Connection ~ 1950 3425
Wire Wire Line
	975  1775 1075 1775
Wire Wire Line
	975  1900 1075 1900
Wire Wire Line
	1750 3700 1950 3700
Wire Wire Line
	1950 3700 1950 3550
Connection ~ 1950 3550
Wire Wire Line
	1750 3850 1950 3850
Wire Wire Line
	1950 3850 1950 3700
Connection ~ 1950 3700
Wire Wire Line
	975  2375 1075 2375
Wire Wire Line
	975  2625 1075 2625
Connection ~ 1075 1525
Wire Wire Line
	1075 1525 1275 1525
Connection ~ 1275 1525
Wire Wire Line
	1275 1525 1500 1525
Connection ~ 1500 1525
Wire Wire Line
	1500 1525 1700 1525
Connection ~ 1700 1525
Wire Wire Line
	1700 1525 1900 1525
Wire Wire Line
	975  1650 1075 1650
Connection ~ 1900 1525
Connection ~ 1275 1650
Wire Wire Line
	1275 1650 1500 1650
Connection ~ 1075 1650
Wire Wire Line
	1075 1650 1275 1650
Connection ~ 1500 1650
Wire Wire Line
	1500 1650 1700 1650
Connection ~ 1700 1650
Wire Wire Line
	1700 1650 1900 1650
Connection ~ 1900 1650
Wire Wire Line
	1900 1650 2200 1650
Connection ~ 1075 1775
Wire Wire Line
	1075 1775 1275 1775
Connection ~ 1275 1775
Wire Wire Line
	1275 1775 1500 1775
Connection ~ 1500 1775
Wire Wire Line
	1500 1775 1700 1775
Connection ~ 1700 1775
Wire Wire Line
	1700 1775 1900 1775
Connection ~ 1900 1775
Wire Wire Line
	1900 1775 2200 1775
Connection ~ 1075 1900
Wire Wire Line
	1075 1900 1275 1900
Connection ~ 1275 1900
Wire Wire Line
	1275 1900 1500 1900
Connection ~ 1500 1900
Wire Wire Line
	1500 1900 1700 1900
Connection ~ 1700 1900
Wire Wire Line
	1700 1900 1900 1900
Connection ~ 1900 1900
Wire Wire Line
	1900 1900 2200 1900
Connection ~ 1075 2375
Wire Wire Line
	1075 2375 1250 2375
Connection ~ 1250 2375
Wire Wire Line
	1250 2375 1475 2375
Wire Wire Line
	975  2500 1075 2500
Connection ~ 1475 2375
Wire Wire Line
	1475 2375 1675 2375
Connection ~ 1675 2375
Wire Wire Line
	1675 2375 1875 2375
Connection ~ 1875 2375
Wire Wire Line
	1875 2375 2200 2375
Connection ~ 1075 2500
Wire Wire Line
	1075 2500 1250 2500
Connection ~ 1250 2500
Wire Wire Line
	1250 2500 1475 2500
Connection ~ 1475 2500
Wire Wire Line
	1475 2500 1675 2500
Connection ~ 1675 2500
Wire Wire Line
	1675 2500 1875 2500
Connection ~ 1875 2500
Wire Wire Line
	1875 2500 2200 2500
Connection ~ 1075 2625
Wire Wire Line
	1075 2625 1250 2625
Connection ~ 1250 2625
Wire Wire Line
	1250 2625 2200 2625
Wire Wire Line
	1900 1525 2200 1525
Wire Wire Line
	2200 2625 2450 2625
$Comp
L V_Power:PGND #PWR0147
U 1 1 5EBADB1C
P 2375 3900
F 0 "#PWR0147" H 2515 3850 50  0001 C CNN
F 1 "PGND" H 2375 3726 50  0000 C CNN
F 2 "" H 2375 3800 50  0001 C CNN
F 3 "" H 2375 3800 50  0001 C CNN
	1    2375 3900
	1    0    0    -1  
$EndComp
Wire Wire Line
	2375 3900 2375 3850
Connection ~ 1950 3850
$Comp
L V_Connector:Via VI16
U 1 1 5EC9F340
P 7500 2000
F 0 "VI16" H 7525 2050 50  0000 L CNN
F 1 "Via" H 7500 2000 50  0001 C CNN
F 2 "AllModules:VIA-091X03-VE_1011" H 7500 2000 50  0001 C CNN
F 3 "" H 7500 2000 50  0001 C CNN
	1    7500 2000
	1    0    0    -1  
$EndComp
$Comp
L V_Connector:Via VI15
U 1 1 5EC9F334
P 7500 1800
F 0 "VI15" H 7525 1850 50  0000 L CNN
F 1 "Via" H 7500 1800 50  0001 C CNN
F 2 "AllModules:VIA-091X03-VE_1011" H 7500 1800 50  0001 C CNN
F 3 "" H 7500 1800 50  0001 C CNN
	1    7500 1800
	1    0    0    -1  
$EndComp
Wire Wire Line
	7500 3000 7900 3000
Wire Wire Line
	7900 3000 7900 2800
Wire Wire Line
	7500 4000 7900 4000
Wire Wire Line
	7900 4000 7900 3800
$Comp
L V_Power:+24V #PWR0148
U 1 1 5EFFE41F
P 7900 3800
F 0 "#PWR0148" H 8050 3700 50  0001 C CNN
F 1 "+24V" H 7900 3940 50  0000 C CNN
F 2 "" H 7900 3800 50  0001 C CNN
F 3 "" H 7900 3800 50  0001 C CNN
	1    7900 3800
	1    0    0    -1  
$EndComp
$Comp
L V_Power:+15V #PWR0149
U 1 1 5EFFEE48
P 7900 1600
F 0 "#PWR0149" H 8075 1550 50  0001 C CNN
F 1 "+15V" H 7900 1740 50  0000 C CNN
F 2 "" H 7900 1600 50  0001 C CNN
F 3 "" H 7900 1600 50  0001 C CNN
	1    7900 1600
	1    0    0    -1  
$EndComp
Wire Wire Line
	7500 2800 7900 2800
Connection ~ 7900 2800
Wire Wire Line
	7900 2800 7900 2600
Wire Wire Line
	7500 2600 7900 2600
Connection ~ 7900 2600
Wire Wire Line
	7900 2600 7900 2400
Wire Wire Line
	7500 2400 7900 2400
Connection ~ 7900 2400
Wire Wire Line
	7900 2400 7900 2200
Wire Wire Line
	7500 2200 7900 2200
Connection ~ 7900 2200
Wire Wire Line
	7900 2200 7900 2000
Wire Wire Line
	7500 2000 7900 2000
Connection ~ 7900 2000
Wire Wire Line
	7900 2000 7900 1800
Wire Wire Line
	7500 1800 7900 1800
Connection ~ 7900 1800
Wire Wire Line
	7900 1800 7900 1600
Text HLabel 3300 1500 0    50   Input ~ 0
N10
Text HLabel 3300 1800 0    50   Input ~ 0
N8
Text HLabel 3300 2100 0    50   Input ~ 0
N70
Text HLabel 3300 2400 0    50   Input ~ 0
N65
Text HLabel 3300 2700 0    50   Input ~ 0
N63
Text HLabel 3300 3000 0    50   Input ~ 0
N14
$Comp
L V_Connector:Via VI86
U 1 1 5ED28B95
P 3500 2400
F 0 "VI86" H 3525 2450 50  0000 L CNN
F 1 "Via" H 3500 2400 50  0001 C CNN
F 2 "AllModules:VIA-091X03-VE_1001" H 3500 2400 50  0001 C CNN
F 3 "" H 3500 2400 50  0001 C CNN
	1    3500 2400
	1    0    0    -1  
$EndComp
Text HLabel 3300 3300 0    50   Input ~ 0
N1
Wire Wire Line
	3300 3300 3500 3300
Wire Wire Line
	3300 3000 3500 3000
Wire Wire Line
	3800 3000 3500 3000
Connection ~ 3500 3000
Wire Wire Line
	3800 1800 3500 1800
Wire Wire Line
	3300 1800 3500 1800
Connection ~ 3500 1800
Wire Wire Line
	3500 2100 3300 2100
Wire Wire Line
	3300 2400 3500 2400
Wire Wire Line
	3500 2700 3300 2700
Wire Wire Line
	3300 1500 3500 1500
Wire Wire Line
	3800 1500 3500 1500
Connection ~ 3500 1500
Wire Wire Line
	3800 1500 4100 1500
Connection ~ 3800 1500
Text HLabel 3300 3600 0    50   Input ~ 0
N56
Wire Wire Line
	3300 3600 3500 3600
Wire Wire Line
	3800 3600 3500 3600
Connection ~ 3500 3600
Text HLabel 4800 1500 0    50   Input ~ 0
~BRAKE~
Text HLabel 4800 1800 0    50   Input ~ 0
~FAULT~
Text HLabel 4800 2100 0    50   Input ~ 0
TOP-DR-C
Text HLabel 4800 2400 0    50   Input ~ 0
TOP-DR-B
Text HLabel 4800 2700 0    50   Input ~ 0
TOP-DR-A
Text HLabel 4800 3000 0    50   Input ~ 0
BOT-DR-A
Text HLabel 4800 3300 0    50   Input ~ 0
BOT-DR-B
Text HLabel 4800 3600 0    50   Input ~ 0
BOT-DR-C
Wire Wire Line
	5000 1500 5300 1500
Wire Wire Line
	5300 1800 5000 1800
Wire Wire Line
	5000 2100 5300 2100
Wire Wire Line
	5300 2400 5000 2400
Wire Wire Line
	5000 2700 5300 2700
Wire Wire Line
	5300 3000 5000 3000
Wire Wire Line
	5000 3300 5300 3300
Wire Wire Line
	5300 3600 5000 3600
Wire Wire Line
	4800 3600 5000 3600
Connection ~ 5000 3600
Wire Wire Line
	5000 3300 4800 3300
Connection ~ 5000 3300
Wire Wire Line
	4800 3000 5000 3000
Connection ~ 5000 3000
Wire Wire Line
	5000 2700 4800 2700
Connection ~ 5000 2700
Wire Wire Line
	4800 2400 5000 2400
Connection ~ 5000 2400
Wire Wire Line
	5000 2100 4800 2100
Connection ~ 5000 2100
Wire Wire Line
	4800 1800 5000 1800
Connection ~ 5000 1800
Wire Wire Line
	5000 1500 4800 1500
Connection ~ 5000 1500
Text HLabel 6300 1500 0    50   Input ~ 0
SPEED-SETPOINT
Text HLabel 6300 1800 0    50   Input ~ 0
OE
Text HLabel 6300 2100 0    50   Input ~ 0
V-REF-M
Text HLabel 6300 3600 0    50   Input ~ 0
SENSOR3
Text HLabel 6300 2400 0    50   Input ~ 0
ISENS
Text HLabel 6300 3000 0    50   Input ~ 0
SENSOR1
Text HLabel 6300 3300 0    50   Input ~ 0
SENSOR2
Wire Wire Line
	6300 2400 6400 2400
Wire Wire Line
	6400 2400 6400 2600
Wire Wire Line
	6400 2800 6500 2800
Wire Wire Line
	6500 2600 6400 2600
Connection ~ 6400 2600
Wire Wire Line
	6400 2600 6400 2800
Wire Wire Line
	6500 2400 6400 2400
Connection ~ 6400 2400
Wire Wire Line
	6500 3000 6300 3000
Wire Wire Line
	6500 3300 6300 3300
Wire Wire Line
	6500 3600 6300 3600
Wire Wire Line
	6300 1500 6500 1500
Wire Wire Line
	6500 1800 6300 1800
Wire Wire Line
	6300 2100 6500 2100
Wire Wire Line
	6800 2100 6500 2100
Connection ~ 6500 2100
Wire Wire Line
	6500 1500 6800 1500
Connection ~ 6500 1500
Text HLabel 6300 4200 0    50   Input ~ 0
TEMPMEASURE-
Text HLabel 6300 3900 0    50   Input ~ 0
TEMPMEASURE+
Wire Wire Line
	6500 3900 6300 3900
Wire Wire Line
	6300 4200 6500 4200
$EndSCHEMATC
