(module MX.A8_COMPOSANT (layer F.Cu) (tedit 5ED46951)
  (descr "SOIC-8 for buzzer board, courtyard slightly smaller")
  (solder_mask_margin 0.1016)
  (clearance 0.2032)
  (zone_connect 2)
  (attr smd)
  (fp_text reference REF** (at 0 0) (layer F.SilkS)
    (effects (font (size 1.2 1.2) (thickness 0.15)))
  )
  (fp_text value MX.A8_COMPOSANT (at 0 4.5) (layer F.Fab) hide
    (effects (font (size 1 1) (thickness 0.15)))
  )
  (fp_arc (start -1.7 0.8) (end -1.7 1.11749) (angle 360) (layer F.SilkS) (width 0.1))
  (fp_arc (start -1.524 0) (end -1.524 0.508) (angle -180) (layer F.Fab) (width 0.1))
  (fp_line (start -2.7178 3.716) (end -2.7178 -3.716) (layer Dwgs.User) (width 0.05))
  (fp_line (start -2.7178 -3.716) (end 2.7178 -3.716) (layer Dwgs.User) (width 0.05))
  (fp_line (start 2.7178 -3.716) (end 2.7178 3.716) (layer Dwgs.User) (width 0.05))
  (fp_line (start 2.7178 3.716) (end -2.7178 3.716) (layer Dwgs.User) (width 0.05))
  (fp_line (start 2.54 -1.5875) (end -2.54 -1.5875) (layer F.SilkS) (width 0.18))
  (fp_line (start -2.54 -1.5875) (end -2.54 1.5875) (layer F.SilkS) (width 0.18))
  (fp_line (start -2.54 1.5875) (end 2.54 1.5875) (layer F.SilkS) (width 0.18))
  (fp_line (start 2.54 1.5875) (end 2.54 -1.5875) (layer F.SilkS) (width 0.18))
  (fp_line (start -2.55 -3.55) (end 2.55 -3.55) (layer F.CrtYd) (width 0.02))
  (fp_line (start 2.55 -3.55) (end 2.55 3.55) (layer F.CrtYd) (width 0.02))
  (fp_line (start 2.55 3.55) (end -2.55 3.55) (layer F.CrtYd) (width 0.02))
  (fp_line (start -2.55 3.55) (end -2.55 -3.55) (layer F.CrtYd) (width 0.02))
  (fp_line (start 1.905 -2.69875) (end 1.905 -1.905) (layer F.Fab) (width 0.1))
  (fp_line (start 0.635 -2.69875) (end 0.635 -1.905) (layer F.Fab) (width 0.1))
  (fp_line (start -0.635 -2.69875) (end -0.635 -1.905) (layer F.Fab) (width 0.1))
  (fp_line (start -1.905 -2.69875) (end -1.905 -1.905) (layer F.Fab) (width 0.1))
  (fp_line (start 1.905 2.69875) (end 1.905 1.905) (layer F.Fab) (width 0.1))
  (fp_line (start 0.635 2.69875) (end 0.635 1.905) (layer F.Fab) (width 0.1))
  (fp_line (start -0.635 2.69875) (end -0.635 1.905) (layer F.Fab) (width 0.1))
  (fp_line (start -1.905 2.69875) (end -1.905 1.905) (layer F.Fab) (width 0.1))
  (fp_line (start -2.54 0.508) (end -1.524 0.508) (layer F.Fab) (width 0.1))
  (fp_line (start -1.524 -0.508) (end -2.54 -0.508) (layer F.Fab) (width 0.1))
  (fp_line (start -2.54 -0.508) (end -2.54 0.508) (layer F.Fab) (width 0.1))
  (fp_line (start 2.54 -1.905) (end -2.54 -1.905) (layer F.Fab) (width 0.1))
  (fp_line (start -2.54 -1.905) (end -2.54 1.9) (layer F.Fab) (width 0.1))
  (fp_line (start -2.54 1.9) (end 2.54 1.9) (layer F.Fab) (width 0.1))
  (fp_line (start 2.54 1.9) (end 2.54 -1.905) (layer F.Fab) (width 0.1))
  (pad 1 smd rect (at -2.032 2.7) (size 0.8636 1.524) (layers F.Cu F.Paste F.Mask)
    (zone_connect 2))
  (pad 2 smd rect (at -0.635 2.7) (size 0.6096 1.524) (layers F.Cu F.Paste F.Mask)
    (zone_connect 2))
  (pad 3 smd rect (at 0.635 2.7) (size 0.6096 1.524) (layers F.Cu F.Paste F.Mask)
    (zone_connect 2))
  (pad 4 smd rect (at 2.032 2.7) (size 0.8636 1.524) (layers F.Cu F.Paste F.Mask)
    (zone_connect 2))
  (pad 5 smd rect (at 2.032 -2.7) (size 0.8636 1.524) (layers F.Cu F.Paste F.Mask)
    (zone_connect 2))
  (pad 6 smd rect (at 0.635 -2.7) (size 0.6096 1.524) (layers F.Cu F.Paste F.Mask)
    (zone_connect 2))
  (pad 7 smd rect (at -0.635 -2.7) (size 0.6096 1.524) (layers F.Cu F.Paste F.Mask)
    (zone_connect 2))
  (pad 8 smd rect (at -2.032 -2.7) (size 0.8636 1.524) (layers F.Cu F.Paste F.Mask)
    (zone_connect 2))
  (model ${KISYS3DMOD}/Package_SO.3dshapes/SOIC-8_3.9x4.9mm_P1.27mm.wrl
    (at (xyz 0 0 0))
    (scale (xyz 1 1 1))
    (rotate (xyz 0 0 -90))
  )
)
