(module 03515_10111101 (layer F.Cu) (tedit 5ECBD22D)
  (descr "10mm through-hole radial electrolytic capacitor, 5mm lead spacing")
  (fp_text reference REF** (at -4.25 -4) (layer F.SilkS)
    (effects (font (size 1.2 1.2) (thickness 0.15)) (justify right))
  )
  (fp_text value 03515 (at 0 0) (layer F.Fab) hide
    (effects (font (size 1 1) (thickness 0.15)))
  )
  (fp_text user + (at -0.635 5.70985) (layer F.Fab)
    (effects (font (size 1 1) (thickness 0.2032)) (justify left))
  )
  (fp_arc (start 0 0) (end 5.08 0) (angle 360) (layer F.Fab) (width 0.1))
  (fp_arc (start 0 -2.54) (end 0.8382 -2.54) (angle 360) (layer B.CrtYd) (width 0.02))
  (fp_arc (start 0 0) (end 5.25 0) (angle 360) (layer F.CrtYd) (width 0.02))
  (fp_arc (start 0 0) (end 5.08 0) (angle 360) (layer F.SilkS) (width 0.18))
  (fp_line (start -5.25 5.81145) (end -5.25 -5.25) (layer Dwgs.User) (width 0.05))
  (fp_line (start -5.25 -5.25) (end 5.25 -5.25) (layer Dwgs.User) (width 0.05))
  (fp_line (start 5.25 -5.25) (end 5.25 5.81145) (layer Dwgs.User) (width 0.05))
  (fp_line (start 5.25 5.81145) (end -5.25 5.81145) (layer Dwgs.User) (width 0.05))
  (fp_line (start 0.635 4.1275) (end -0.635 4.1275) (layer F.SilkS) (width 0.18))
  (fp_line (start 0 4.7625) (end 0 3.4925) (layer F.SilkS) (width 0.18))
  (fp_line (start 0.8382 1.7018) (end 0.8382 3.3782) (layer B.CrtYd) (width 0.02))
  (fp_line (start 0.8382 3.3782) (end -0.8382 3.3782) (layer B.CrtYd) (width 0.02))
  (fp_line (start -0.8382 3.3782) (end -0.8382 1.7018) (layer B.CrtYd) (width 0.02))
  (fp_line (start -0.8382 1.7018) (end 0.8382 1.7018) (layer B.CrtYd) (width 0.02))
  (pad - thru_hole circle (at 0 -2.54) (size 1.6002 1.6002) (drill 0.9652) (layers *.Mask F.Cu In1.Cu B.Cu)
    (solder_mask_margin 0.1016) (zone_connect 2))
  (pad + thru_hole rect (at 0 2.54) (size 1.6002 1.6002) (drill 0.9652) (layers *.Mask F.Cu In2.Cu B.Cu)
    (solder_mask_margin 0.1016) (zone_connect 2))
  (model ${KISYS3DMOD}/Capacitor_THT.3dshapes/CP_Radial_D10.0mm_P5.00mm.wrl
    (offset (xyz 0 -2.5 0))
    (scale (xyz 1 1 1))
    (rotate (xyz 0 0 -90))
  )
)
