(module 85SMX (layer F.Cu) (tedit 0)
  (descr "maybe a crystal?")
  (solder_mask_margin 0.1016)
  (clearance 0.2032)
  (zone_connect 2)
  (attr smd)
  (fp_text reference REF** (at 1.0675 1 -90) (layer F.SilkS)
    (effects (font (size 1.2 1.2) (thickness 0.15)) (justify left))
  )
  (fp_text value 85SMX (at 0 2) (layer F.Fab) hide
    (effects (font (size 1 1) (thickness 0.15)))
  )
  (fp_line (start -4.49 2.8065) (end -4.49 -2.8065) (layer Dwgs.User) (width 0.05))
  (fp_line (start -4.49 -2.8065) (end 4.49 -2.8065) (layer Dwgs.User) (width 0.05))
  (fp_line (start 4.49 -2.8065) (end 4.49 2.8065) (layer Dwgs.User) (width 0.05))
  (fp_line (start 4.49 2.8065) (end -4.49 2.8065) (layer Dwgs.User) (width 0.05))
  (fp_line (start -4.4 1.7) (end 4.4 1.7) (layer F.SilkS) (width 0.18))
  (fp_line (start 4.4 1.7) (end 4.4 -1.7) (layer F.SilkS) (width 0.18))
  (fp_line (start 4.4 -1.7) (end -4.4 -1.7) (layer F.SilkS) (width 0.18))
  (fp_line (start -4.4 -1.7) (end -4.4 1.7) (layer F.SilkS) (width 0.18))
  (fp_line (start -3.6 2.54) (end -3.6 1.7) (layer F.CrtYd) (width 0.02))
  (fp_line (start -3.6 1.7) (end -4.4 1.7) (layer F.CrtYd) (width 0.02))
  (fp_line (start -4.4 1.7) (end -4.4 -1.7) (layer F.CrtYd) (width 0.02))
  (fp_line (start -4.4 -1.7) (end -3.6 -1.7) (layer F.CrtYd) (width 0.02))
  (fp_line (start -3.6 -1.7) (end -3.6 -2.54) (layer F.CrtYd) (width 0.02))
  (fp_line (start -3.6 -2.54) (end -1.9 -2.54) (layer F.CrtYd) (width 0.02))
  (fp_line (start -1.9 -2.54) (end -1.9 -1.7) (layer F.CrtYd) (width 0.02))
  (fp_line (start -1.9 -1.7) (end 1.9 -1.7) (layer F.CrtYd) (width 0.02))
  (fp_line (start 1.9 -1.7) (end 1.9 -2.54) (layer F.CrtYd) (width 0.02))
  (fp_line (start 1.9 -2.54) (end 3.6 -2.54) (layer F.CrtYd) (width 0.02))
  (fp_line (start 3.6 -2.54) (end 3.6 -1.7) (layer F.CrtYd) (width 0.02))
  (fp_line (start 3.6 -1.7) (end 4.4 -1.7) (layer F.CrtYd) (width 0.02))
  (fp_line (start 4.4 -1.7) (end 4.4 1.7) (layer F.CrtYd) (width 0.02))
  (fp_line (start 4.4 1.7) (end 3.6 1.7) (layer F.CrtYd) (width 0.02))
  (fp_line (start 3.6 1.7) (end 3.6 2.54) (layer F.CrtYd) (width 0.02))
  (fp_line (start 3.6 2.54) (end 1.9 2.54) (layer F.CrtYd) (width 0.02))
  (fp_line (start 1.9 2.54) (end 1.9 1.7) (layer F.CrtYd) (width 0.02))
  (fp_line (start 1.9 1.7) (end -1.9 1.7) (layer F.CrtYd) (width 0.02))
  (fp_line (start -1.9 1.7) (end -1.9 2.54) (layer F.CrtYd) (width 0.02))
  (fp_line (start -1.9 2.54) (end -3.6 2.54) (layer F.CrtYd) (width 0.02))
  (fp_line (start 3.9 1.2) (end 4.4 1.7) (layer F.Fab) (width 0.1))
  (fp_line (start 3.9 -1.2) (end 4.4 -1.7) (layer F.Fab) (width 0.1))
  (fp_line (start -3.2 -1.2) (end 3.9 -1.2) (layer F.Fab) (width 0.1))
  (fp_line (start 3.9 -1.2) (end 3.9 1.2) (layer F.Fab) (width 0.1))
  (fp_line (start 3.9 1.2) (end -3.2 1.2) (layer F.Fab) (width 0.1))
  (fp_line (start -4.4 -1.7) (end -3.2 -1.2) (layer F.Fab) (width 0.1))
  (fp_line (start -3.2 -1.2) (end -3.2 1.2) (layer F.Fab) (width 0.1))
  (fp_line (start -3.2 1.2) (end -4.4 1.7) (layer F.Fab) (width 0.1))
  (fp_line (start -4.4 1.7) (end 4.4 1.7) (layer F.Fab) (width 0.1))
  (fp_line (start 4.4 1.7) (end 4.4 -1.7) (layer F.Fab) (width 0.1))
  (fp_line (start 4.4 -1.7) (end -4.4 -1.7) (layer F.Fab) (width 0.1))
  (fp_line (start -4.4 -1.7) (end -4.4 1.7) (layer F.Fab) (width 0.1))
  (fp_line (start -3.5374 2.5525) (end -3.5374 0.6475) (layer F.SilkS) (width 0.02))
  (fp_line (start -3.5374 0.6475) (end -1.9626 0.6475) (layer F.SilkS) (width 0.02))
  (fp_line (start -1.9626 0.6475) (end -1.9626 2.5525) (layer F.SilkS) (width 0.02))
  (fp_line (start -1.9626 2.5525) (end -3.5374 2.5525) (layer F.SilkS) (width 0.02))
  (fp_line (start 1.9626 2.5525) (end 1.9626 0.6475) (layer F.SilkS) (width 0.02))
  (fp_line (start 1.9626 0.6475) (end 3.5374 0.6475) (layer F.SilkS) (width 0.02))
  (fp_line (start 3.5374 0.6475) (end 3.5374 2.5525) (layer F.SilkS) (width 0.02))
  (fp_line (start 3.5374 2.5525) (end 1.9626 2.5525) (layer F.SilkS) (width 0.02))
  (fp_line (start 1.9626 -0.6475) (end 1.9626 -2.5525) (layer F.SilkS) (width 0.02))
  (fp_line (start 1.9626 -2.5525) (end 3.5374 -2.5525) (layer F.SilkS) (width 0.02))
  (fp_line (start 3.5374 -2.5525) (end 3.5374 -0.6475) (layer F.SilkS) (width 0.02))
  (fp_line (start 3.5374 -0.6475) (end 1.9626 -0.6475) (layer F.SilkS) (width 0.02))
  (fp_line (start -3.5374 -0.6475) (end -3.5374 -2.5525) (layer F.SilkS) (width 0.02))
  (fp_line (start -3.5374 -2.5525) (end -1.9626 -2.5525) (layer F.SilkS) (width 0.02))
  (fp_line (start -1.9626 -2.5525) (end -1.9626 -0.6475) (layer F.SilkS) (width 0.02))
  (fp_line (start -1.9626 -0.6475) (end -3.5374 -0.6475) (layer F.SilkS) (width 0.02))
  (pad 1 smd rect (at -2.75 1.6) (size 1.5748 1.905) (layers F.Cu F.Paste F.Mask)
    (zone_connect 2))
  (pad 2 smd rect (at 2.75 1.6) (size 1.5748 1.905) (layers F.Cu F.Paste F.Mask)
    (zone_connect 2))
  (pad 3 smd rect (at 2.75 -1.6) (size 1.5748 1.905) (layers F.Cu F.Paste F.Mask)
    (zone_connect 2))
  (pad 4 smd rect (at -2.75 -1.6) (size 1.5748 1.905) (layers F.Cu F.Paste F.Mask)
    (zone_connect 2))
  (model ${KIPRJMOD}/../Library/Footprints.3dshapes/85SMX.step
    (at (xyz 0 0 0))
    (scale (xyz 1 1 1))
    (rotate (xyz 0 0 0))
  )
)
