(module A3_EQFS_COVIDIEN_1 (layer F.Cu) (tedit 0)
  (attr smd)
  (fp_text reference CAM1 (at -110.29013 -112.524 unlocked) (layer F.SilkS) hide
    (effects (font (size 1.332992 1.40208) (thickness 0.254)))
  )
  (fp_text value A3_EQFS_COVIDIEN (at 3.53987 0.3762 unlocked) (layer F.SilkS) hide
    (effects (font (size 1.332992 1.40208) (thickness 0.254)))
  )
)
