(module A3_EQFS_COVIDIEN (layer F.Cu) (tedit 0)
  (fp_text reference REF** (at 0 0) (layer F.SilkS)
    (effects (font (size 1 1) (thickness 0.15)))
  )
  (fp_text value A3_EQFS_COVIDIEN (at 0 2) (layer F.Fab) hide
    (effects (font (size 1 1) (thickness 0.15)))
  )
  (fp_arc (start 64 106.5) (end 65 106.5) (angle 360) (layer Dwgs.User) (width 0.1))
  (fp_line (start -216.15 139.65) (end -216.15 -140.61991) (layer Dwgs.User) (width 0.05))
  (fp_line (start -216.15 -140.61991) (end 216.15 -140.61991) (layer Dwgs.User) (width 0.05))
  (fp_line (start 216.15 -140.61991) (end 216.15 139.65) (layer Dwgs.User) (width 0.05))
  (fp_line (start 216.15 139.65) (end -216.15 139.65) (layer Dwgs.User) (width 0.05))
  (fp_line (start -207 0) (end -209.5 -2.5) (layer Dwgs.User) (width 0.3))
  (fp_line (start -209.5 -2.5) (end -209.5 2.5) (layer Dwgs.User) (width 0.3))
  (fp_line (start -209.5 2.5) (end -207 0) (layer Dwgs.User) (width 0.3))
  (fp_line (start -216 0) (end -209.5 0) (layer Dwgs.User) (width 0.3))
  (fp_line (start 207 -0.5) (end 209.5 2) (layer Dwgs.User) (width 0.3))
  (fp_line (start 209.5 2) (end 209.5 -3) (layer Dwgs.User) (width 0.3))
  (fp_line (start 209.5 -3) (end 207 -0.5) (layer Dwgs.User) (width 0.3))
  (fp_line (start 216 -0.5) (end 209.5 -0.5) (layer Dwgs.User) (width 0.3))
  (fp_line (start 0 130.5) (end -2.5 133) (layer Dwgs.User) (width 0.3))
  (fp_line (start -2.5 133) (end 2.5 133) (layer Dwgs.User) (width 0.3))
  (fp_line (start 2.5 133) (end 0 130.5) (layer Dwgs.User) (width 0.3))
  (fp_line (start 0 139.5) (end 0 133) (layer Dwgs.User) (width 0.3))
  (fp_line (start 0 -130.5) (end 2.5 -133) (layer Dwgs.User) (width 0.3))
  (fp_line (start 2.5 -133) (end -2.5 -133) (layer Dwgs.User) (width 0.3))
  (fp_line (start -2.5 -133) (end 0 -130.5) (layer Dwgs.User) (width 0.3))
  (fp_line (start 0 -139.5) (end 0 -133) (layer Dwgs.User) (width 0.3))
  (fp_line (start -105 139) (end -105 130.1989) (layer Dwgs.User) (width 0.25))
  (fp_line (start 105 139.3011) (end 105 130.5) (layer Dwgs.User) (width 0.25))
  (fp_line (start -105 -140.49491) (end -105 -130.5) (layer Dwgs.User) (width 0.25))
  (fp_line (start 105 -140.49491) (end 105 -130.5) (layer Dwgs.User) (width 0.25))
  (fp_line (start -206.5 -130) (end 206.5 -130) (layer Dwgs.User) (width 0.5))
  (fp_line (start 206.5 -130) (end 206.5 130) (layer Dwgs.User) (width 0.5))
  (fp_line (start 206.5 130) (end -206.5 130) (layer Dwgs.User) (width 0.5))
  (fp_line (start -206.5 130) (end -206.5 -130) (layer Dwgs.User) (width 0.5))
  (fp_line (start 98.5 113) (end 206.5 113) (layer Dwgs.User) (width 0.3))
  (fp_line (start 98.5 124) (end 206.5 124) (layer Dwgs.User) (width 0.3))
  (fp_line (start 108.5 113) (end 108.5 124) (layer Dwgs.User) (width 0.3))
  (fp_line (start 123.5 113) (end 123.5 124) (layer Dwgs.User) (width 0.3))
  (fp_line (start 193.5 113) (end 193.5 124) (layer Dwgs.User) (width 0.3))
  (fp_line (start 121 124) (end 121 130) (layer Dwgs.User) (width 0.3))
  (fp_line (start 181 124) (end 181 130) (layer Dwgs.User) (width 0.3))
  (fp_line (start 66.5 -130) (end 206.5 -130) (layer Dwgs.User) (width 0.3))
  (fp_line (start 206.5 -130) (end 206.5 -110) (layer Dwgs.User) (width 0.3))
  (fp_line (start 206.5 -110) (end 66.5 -110) (layer Dwgs.User) (width 0.3))
  (fp_line (start 66.5 -110) (end 66.5 -130) (layer Dwgs.User) (width 0.3))
  (fp_line (start 66.5 -123.5) (end 206.5 -123.5) (layer Dwgs.User) (width 0.3))
  (fp_line (start 66.5 -117) (end 206.5 -117) (layer Dwgs.User) (width 0.3))
  (fp_line (start 77.5 -123.5) (end 77.5 -110) (layer Dwgs.User) (width 0.3))
  (fp_line (start 147.5 -123.5) (end 147.5 -110) (layer Dwgs.User) (width 0.3))
  (fp_line (start 177.5 -123.5) (end 177.5 -110) (layer Dwgs.User) (width 0.3))
  (fp_line (start 206.5 80) (end 214.5 80) (layer Dwgs.User) (width 0.3))
  (fp_line (start 214.5 80) (end 214.5 10.5) (layer Dwgs.User) (width 0.3))
  (fp_line (start 214.5 10.5) (end 206.5 10.5) (layer Dwgs.User) (width 0.3))
  (fp_line (start 206.5 10.5) (end 206.5 80) (layer Dwgs.User) (width 0.3))
  (fp_line (start 206.5 22.5) (end 214.5 22.5) (layer Dwgs.User) (width 0.3))
  (fp_line (start 214.5 22.5) (end 206.5 22.5) (layer Dwgs.User) (width 0.3))
  (fp_line (start 206.5 30) (end 214.5 30) (layer Dwgs.User) (width 0.3))
  (fp_line (start 214.5 30) (end 206.5 30) (layer Dwgs.User) (width 0.3))
  (fp_line (start 98.5 100) (end 36.5 100) (layer Dwgs.User) (width 0.3))
  (fp_line (start 36.5 100) (end 36.5 130) (layer Dwgs.User) (width 0.3))
  (fp_line (start 36.5 130) (end 98.5 130) (layer Dwgs.User) (width 0.3))
  (fp_line (start 98.5 130) (end 98.5 100) (layer Dwgs.User) (width 0.3))
  (fp_line (start 98.5 100) (end 206.5 100) (layer Dwgs.User) (width 0.3))
  (fp_line (start 98.5 130) (end 98.5 100) (layer Dwgs.User) (width 0.3))
  (fp_poly (pts (xy 103.5 110) (xy 103.5 102.5) (xy 108.5 102.5) (xy 108.5 105)
     (xy 106 105) (xy 106 107.5) (xy 108.5 107.5) (xy 108.5 110)) (layer Dwgs.User) (width 0.02))
  (fp_poly (pts (xy 116 102.5) (xy 116 110) (xy 111 110) (xy 111 107.5)
     (xy 113.5 107.5) (xy 113.5 105) (xy 111 105) (xy 111 102.5)) (layer Dwgs.User) (width 0.02))
  (fp_text user SIZE (at 100.5 117) (layer Dwgs.User)
    (effects (font (size 1 1) (thickness 0.1)) (justify left))
  )
  (fp_text user MODEL (at 112.5 117) (layer Dwgs.User)
    (effects (font (size 1 1) (thickness 0.1)) (justify left))
  )
  (fp_text user "DWG NO." (at 125 117) (layer Dwgs.User)
    (effects (font (size 1 1) (thickness 0.1)) (justify left))
  )
  (fp_text user "SCALE: x/x" (at 99.5 128.5) (layer Dwgs.User)
    (effects (font (size 1 1) (thickness 0.1)) (justify left))
  )
  (fp_text user "Template 10093692 Rev A " (at 133.5 128.5) (layer Dwgs.User)
    (effects (font (size 1 1) (thickness 0.1)) (justify left))
  )
  (fp_text user "SHEET x OF x" (at 184 128.5) (layer Dwgs.User)
    (effects (font (size 1 1) (thickness 0.1)) (justify left))
  )
  (fp_text user XXXXXXXX (at 145.5 122.5) (layer Dwgs.User)
    (effects (font (size 1 1) (thickness 0.1)) (justify left))
  )
  (fp_text user Xnn (at 198 122) (layer Dwgs.User)
    (effects (font (size 1 1) (thickness 0.1)) (justify left))
  )
  (fp_text user REV (at 198 117) (layer Dwgs.User)
    (effects (font (size 1 1) (thickness 0.1)) (justify left))
  )
  (fp_text user B (at 103 122) (layer Dwgs.User)
    (effects (font (size 1 1) (thickness 0.1)) (justify left))
  )
  (fp_text user PBXXX (at 112.5 122) (layer Dwgs.User)
    (effects (font (size 1 1) (thickness 0.1)) (justify left))
  )
  (fp_text user REVISIONS (at 126 -124.5) (layer Dwgs.User)
    (effects (font (size 1 1) (thickness 0.1)) (justify left))
  )
  (fp_text user REV (at 70 -118.5) (layer Dwgs.User)
    (effects (font (size 1 1) (thickness 0.1)) (justify left))
  )
  (fp_text user DESCRIPTION (at 104 -118.5) (layer Dwgs.User)
    (effects (font (size 1 1) (thickness 0.1)) (justify left))
  )
  (fp_text user DATE (at 159.5 -118.5) (layer Dwgs.User)
    (effects (font (size 1 1) (thickness 0.1)) (justify left))
  )
  (fp_text user DATE (at 189 -118.5) (layer Dwgs.User)
    (effects (font (size 1 1) (thickness 0.1)) (justify left))
  )
  (fp_text user "DWG NO." (at 210 79 -90) (layer Dwgs.User)
    (effects (font (size 1 1) (thickness 0.1)) (justify left))
  )
  (fp_text user REV (at 210 19 -90) (layer Dwgs.User)
    (effects (font (size 1 1) (thickness 0.1)) (justify left))
  )
  (fp_text user SH (at 210 28 -90) (layer Dwgs.User)
    (effects (font (size 1 1) (thickness 0.1)) (justify left))
  )
  (fp_text user X (at 214 27.5 -90) (layer Dwgs.User)
    (effects (font (size 1 1) (thickness 0.1)) (justify left))
  )
  (fp_text user XXXXXXXX (at 214 64.5 -90) (layer Dwgs.User)
    (effects (font (size 1 1) (thickness 0.1)) (justify left))
  )
  (fp_text user Xnn (at 214 20.5 -90) (layer Dwgs.User)
    (effects (font (size 1 1) (thickness 0.1)) (justify left))
  )
  (fp_text user "PADS DRAWING - ALL CHANGES MUST BE DONE IN PADS SYSTEM" (at 94.5 -103.5) (layer Dwgs.User)
    (effects (font (size 1 1) (thickness 0.1)) (justify left))
  )
  (fp_text user "CONFIDENTIALITY STATEMENT" (at 49.5 104) (layer Dwgs.User)
    (effects (font (size 1 1) (thickness 0.2)) (justify left))
  )
  (fp_text user "Copyright C 2012, Covidien" (at 51.5 107.5) (layer Dwgs.User)
    (effects (font (size 1 1) (thickness 0.1)) (justify left))
  )
  (fp_text user "The information contained in this document is the" (at 40.5 113.5) (layer Dwgs.User)
    (effects (font (size 1 1) (thickness 0.1)) (justify left))
  )
  (fp_text user "proprietary and confidential property of Covidien" (at 40.5 116.5) (layer Dwgs.User)
    (effects (font (size 1 1) (thickness 0.1)) (justify left))
  )
  (fp_text user "Supplied Data, Tooling, Partial or finished materials" (at 38.5 119.5) (layer Dwgs.User)
    (effects (font (size 1 1) (thickness 0.1)) (justify left))
  )
  (fp_text user "shall not be disclosed to others without" (at 45 122.5) (layer Dwgs.User)
    (effects (font (size 1 1) (thickness 0.1)) (justify left))
  )
  (fp_text user "the written permission of Covidien" (at 47.5 125.5) (layer Dwgs.User)
    (effects (font (size 1 1) (thickness 0.1)) (justify left))
  )
  (fp_text user COVIDIEN (at 120 109.5) (layer Dwgs.User)
    (effects (font (size 1 1) (thickness 0.3)) (justify left))
  )
  (fp_text user "2101 Faraday Avenue" (at 174 106) (layer Dwgs.User)
    (effects (font (size 1 1) (thickness 0.1)) (justify left))
  )
  (fp_text user "Carlsbad, CA  92008" (at 174 110.5) (layer Dwgs.User)
    (effects (font (size 1 1) (thickness 0.1)) (justify left))
  )
  (fp_text user "SEE SHEET 1." (at 79.5 -112) (layer Dwgs.User)
    (effects (font (size 1 1) (thickness 0.1)) (justify left))
  )
  (fp_text user - (at 71.5 -112) (layer Dwgs.User)
    (effects (font (size 1 1) (thickness 0.1)) (justify left))
  )
  (fp_text user - (at 162 -112) (layer Dwgs.User)
    (effects (font (size 1 1) (thickness 0.1)) (justify left))
  )
  (fp_text user - (at 192 -112) (layer Dwgs.User)
    (effects (font (size 1 1) (thickness 0.1)) (justify left))
  )
  (fp_text user 4 (at -156.99845 -133.37532) (layer Dwgs.User)
    (effects (font (size 1 1) (thickness 0.508)) (justify left))
  )
  (fp_text user 3 (at -52.5 -136.5) (layer Dwgs.User)
    (effects (font (size 1 1) (thickness 0.5083)))
  )
  (fp_text user 2 (at 50.50155 -133.37532) (layer Dwgs.User)
    (effects (font (size 1 1) (thickness 0.508)) (justify left))
  )
  (fp_text user 1 (at 153.00155 -133.37532) (layer Dwgs.User)
    (effects (font (size 1 1) (thickness 0.508)) (justify left))
  )
  (fp_text user B (at 210.00155 -66.37532) (layer Dwgs.User)
    (effects (font (size 1 1) (thickness 0.508)) (justify left))
  )
  (fp_text user B (at -213.49845 -66.37532) (layer Dwgs.User)
    (effects (font (size 1 1) (thickness 0.508)) (justify left))
  )
  (fp_text user A (at -213.49845 72.62468) (layer Dwgs.User)
    (effects (font (size 1 1) (thickness 0.508)) (justify left))
  )
  (fp_text user 4 (at -156.99845 137.62468) (layer Dwgs.User)
    (effects (font (size 1 1) (thickness 0.508)) (justify left))
  )
  (fp_text user 3 (at -53.5 134.5) (layer Dwgs.User)
    (effects (font (size 1 1) (thickness 0.508)))
  )
  (fp_text user 2 (at 50.50155 137.62468) (layer Dwgs.User)
    (effects (font (size 1 1) (thickness 0.508)) (justify left))
  )
  (fp_text user 1 (at 153.00155 137.62468) (layer Dwgs.User)
    (effects (font (size 1 1) (thickness 0.508)) (justify left))
  )
)
