(module ARF7151A locked placed (layer F.Cu) (tedit 5EC6992A)
  (fp_text reference IC37 (at -15.46358 -4.51098 -90) (layer B.SilkS)
    (effects (font (size 1.2 1.2) (thickness 0.1)) (justify left bottom mirror))
  )
  (fp_text value ER-ARF7151A (at 0 2) (layer F.Fab) hide
    (effects (font (size 1 1) (thickness 0.15)))
  )
  (fp_poly (pts (xy -14 -0.675) (xy 14 -0.675) (xy 14 0.675) (xy -14 0.675)) (layer Dwgs.User) (width 0.02))
  (fp_poly (pts (xy -14 -0.675) (xy 14 -0.675) (xy 14 0.675) (xy -14 0.675)) (layer Dwgs.User) (width 0.02))
  (fp_poly (pts (xy -14 -0.675) (xy 14 -0.675) (xy 14 0.675) (xy -14 0.675)) (layer Dwgs.User) (width 0.02))
  (fp_poly (pts (xy 12.15 -2.5) (xy 12.15 -0.7) (xy 10.65 -0.7) (xy 10.65 -2.5)) (layer B.Fab) (width 0.02))
  (fp_poly (pts (xy 12.15 0.7) (xy 12.15 2.5) (xy 10.65 2.5) (xy 10.65 0.7)) (layer B.Fab) (width 0.02))
  (fp_poly (pts (xy 10.25 -2.5) (xy 10.25 -0.7) (xy 8.75 -0.7) (xy 8.75 -2.5)) (layer B.Fab) (width 0.02))
  (fp_poly (pts (xy 10.25 0.7) (xy 10.25 2.5) (xy 8.75 2.5) (xy 8.75 0.7)) (layer B.Fab) (width 0.02))
  (fp_poly (pts (xy 8.35 -2.5) (xy 8.35 -0.7) (xy 6.85 -0.7) (xy 6.85 -2.5)) (layer B.Fab) (width 0.02))
  (fp_poly (pts (xy 8.35 0.7) (xy 8.35 2.5) (xy 6.85 2.5) (xy 6.85 0.7)) (layer B.Fab) (width 0.02))
  (fp_poly (pts (xy 4.55 -2.5) (xy 4.55 -0.7) (xy 3.05 -0.7) (xy 3.05 -2.5)) (layer B.Fab) (width 0.02))
  (fp_poly (pts (xy 4.55 0.7) (xy 4.55 2.5) (xy 3.05 2.5) (xy 3.05 0.7)) (layer B.Fab) (width 0.02))
  (fp_poly (pts (xy 2.65 -2.5) (xy 2.65 -0.7) (xy 1.15 -0.7) (xy 1.15 -2.5)) (layer B.Fab) (width 0.02))
  (fp_poly (pts (xy 2.65 0.7) (xy 2.65 2.5) (xy 1.15 2.5) (xy 1.15 0.7)) (layer B.Fab) (width 0.02))
  (fp_poly (pts (xy 0.75 -2.5) (xy 0.75 -0.7) (xy -0.75 -0.7) (xy -0.75 -2.5)) (layer B.Fab) (width 0.02))
  (fp_poly (pts (xy 0.75 0.7) (xy 0.75 2.5) (xy -0.75 2.5) (xy -0.75 0.7)) (layer B.Fab) (width 0.02))
  (fp_poly (pts (xy -1.15 -2.5) (xy -1.15 -0.7) (xy -2.65 -0.7) (xy -2.65 -2.5)) (layer B.Fab) (width 0.02))
  (fp_poly (pts (xy -1.15 0.7) (xy -1.15 2.5) (xy -2.65 2.5) (xy -2.65 0.7)) (layer B.Fab) (width 0.02))
  (fp_poly (pts (xy -3.05 -2.5) (xy -3.05 -0.7) (xy -4.55 -0.7) (xy -4.55 -2.5)) (layer B.Fab) (width 0.02))
  (fp_poly (pts (xy -3.05 0.7) (xy -3.05 2.5) (xy -4.55 2.5) (xy -4.55 0.7)) (layer B.Fab) (width 0.02))
  (fp_poly (pts (xy -4.95 -2.5) (xy -4.95 -0.7) (xy -6.45 -0.7) (xy -6.45 -2.5)) (layer B.Fab) (width 0.02))
  (fp_poly (pts (xy -4.95 0.7) (xy -4.95 2.5) (xy -6.45 2.5) (xy -6.45 0.7)) (layer B.Fab) (width 0.02))
  (fp_poly (pts (xy -6.85 -2.5) (xy -6.85 -0.7) (xy -8.35 -0.7) (xy -8.35 -2.5)) (layer B.Fab) (width 0.02))
  (fp_poly (pts (xy -6.85 0.7) (xy -6.85 2.5) (xy -8.35 2.5) (xy -8.35 0.7)) (layer B.Fab) (width 0.02))
  (fp_poly (pts (xy -8.75 -2.5) (xy -8.75 -0.7) (xy -10.25 -0.7) (xy -10.25 -2.5)) (layer B.Fab) (width 0.02))
  (fp_poly (pts (xy -8.75 0.7) (xy -8.75 2.5) (xy -10.25 2.5) (xy -10.25 0.7)) (layer B.Fab) (width 0.02))
  (fp_poly (pts (xy -10.65 -2.5) (xy -10.65 -0.7) (xy -12.15 -0.7) (xy -12.15 -2.5)) (layer B.Fab) (width 0.02))
  (fp_poly (pts (xy -10.65 0.7) (xy -10.65 2.5) (xy -12.15 2.5) (xy -12.15 0.7)) (layer B.Fab) (width 0.02))
  (fp_poly (pts (xy -27.5 0.6) (xy -27.5 -0.6) (xy -13.8 -0.6) (xy -12.3 -2.1)
    (xy -12.3 -2.6) (xy 12.3 -2.6) (xy 12.3 -2.1) (xy 13.8 -0.6)
    (xy 27.6 -0.6) (xy 27.6 0.6) (xy 13.8 0.6) (xy 12.3 2.1)
    (xy 12.3 2.6) (xy -12.3 2.6) (xy -12.3 2.1) (xy -13.8 0.6)) (layer F.Fab) (width 0.02))
  (fp_line (start 12.15 -2.5) (end 10.65 -2.5) (layer B.SilkS) (width 0.1))
  (fp_line (start 12.15 -0.7) (end 12.15 -2.5) (layer B.SilkS) (width 0.1))
  (fp_line (start 10.65 -0.7) (end 12.15 -0.7) (layer B.SilkS) (width 0.1))
  (fp_line (start 10.65 -2.5) (end 10.65 -0.7) (layer B.SilkS) (width 0.1))
  (fp_line (start 12.15 0.7) (end 10.65 0.7) (layer B.SilkS) (width 0.1))
  (fp_line (start 12.15 2.5) (end 12.15 0.7) (layer B.SilkS) (width 0.1))
  (fp_line (start 10.65 2.5) (end 12.15 2.5) (layer B.SilkS) (width 0.1))
  (fp_line (start 10.65 0.7) (end 10.65 2.5) (layer B.SilkS) (width 0.1))
  (fp_line (start 10.25 -2.5) (end 8.75 -2.5) (layer B.SilkS) (width 0.1))
  (fp_line (start 10.25 -0.7) (end 10.25 -2.5) (layer B.SilkS) (width 0.1))
  (fp_line (start 8.75 -0.7) (end 10.25 -0.7) (layer B.SilkS) (width 0.1))
  (fp_line (start 8.75 -2.5) (end 8.75 -0.7) (layer B.SilkS) (width 0.1))
  (fp_line (start 10.25 0.7) (end 8.75 0.7) (layer B.SilkS) (width 0.1))
  (fp_line (start 10.25 2.5) (end 10.25 0.7) (layer B.SilkS) (width 0.1))
  (fp_line (start 8.75 2.5) (end 10.25 2.5) (layer B.SilkS) (width 0.1))
  (fp_line (start 8.75 0.7) (end 8.75 2.5) (layer B.SilkS) (width 0.1))
  (fp_line (start 8.35 -2.5) (end 6.85 -2.5) (layer B.SilkS) (width 0.1))
  (fp_line (start 8.35 -0.7) (end 8.35 -2.5) (layer B.SilkS) (width 0.1))
  (fp_line (start 6.85 -0.7) (end 8.35 -0.7) (layer B.SilkS) (width 0.1))
  (fp_line (start 6.85 -2.5) (end 6.85 -0.7) (layer B.SilkS) (width 0.1))
  (fp_line (start 8.35 0.7) (end 6.85 0.7) (layer B.SilkS) (width 0.1))
  (fp_line (start 8.35 2.5) (end 8.35 0.7) (layer B.SilkS) (width 0.1))
  (fp_line (start 6.85 2.5) (end 8.35 2.5) (layer B.SilkS) (width 0.1))
  (fp_line (start 6.85 0.7) (end 6.85 2.5) (layer B.SilkS) (width 0.1))
  (fp_line (start 4.55 -2.5) (end 3.05 -2.5) (layer B.SilkS) (width 0.1))
  (fp_line (start 4.55 -0.7) (end 4.55 -2.5) (layer B.SilkS) (width 0.1))
  (fp_line (start 3.05 -0.7) (end 4.55 -0.7) (layer B.SilkS) (width 0.1))
  (fp_line (start 3.05 -2.5) (end 3.05 -0.7) (layer B.SilkS) (width 0.1))
  (fp_line (start 4.55 0.7) (end 3.05 0.7) (layer B.SilkS) (width 0.1))
  (fp_line (start 4.55 2.5) (end 4.55 0.7) (layer B.SilkS) (width 0.1))
  (fp_line (start 3.05 2.5) (end 4.55 2.5) (layer B.SilkS) (width 0.1))
  (fp_line (start 3.05 0.7) (end 3.05 2.5) (layer B.SilkS) (width 0.1))
  (fp_line (start 2.65 -2.5) (end 1.15 -2.5) (layer B.SilkS) (width 0.1))
  (fp_line (start 2.65 -0.7) (end 2.65 -2.5) (layer B.SilkS) (width 0.1))
  (fp_line (start 1.15 -0.7) (end 2.65 -0.7) (layer B.SilkS) (width 0.1))
  (fp_line (start 1.15 -2.5) (end 1.15 -0.7) (layer B.SilkS) (width 0.1))
  (fp_line (start 2.65 0.7) (end 1.15 0.7) (layer B.SilkS) (width 0.1))
  (fp_line (start 2.65 2.5) (end 2.65 0.7) (layer B.SilkS) (width 0.1))
  (fp_line (start 1.15 2.5) (end 2.65 2.5) (layer B.SilkS) (width 0.1))
  (fp_line (start 1.15 0.7) (end 1.15 2.5) (layer B.SilkS) (width 0.1))
  (fp_line (start 0.75 -2.5) (end -0.75 -2.5) (layer B.SilkS) (width 0.1))
  (fp_line (start 0.75 -0.7) (end 0.75 -2.5) (layer B.SilkS) (width 0.1))
  (fp_line (start -0.75 -0.7) (end 0.75 -0.7) (layer B.SilkS) (width 0.1))
  (fp_line (start -0.75 -2.5) (end -0.75 -0.7) (layer B.SilkS) (width 0.1))
  (fp_line (start 0.75 0.7) (end -0.75 0.7) (layer B.SilkS) (width 0.1))
  (fp_line (start 0.75 2.5) (end 0.75 0.7) (layer B.SilkS) (width 0.1))
  (fp_line (start -0.75 2.5) (end 0.75 2.5) (layer B.SilkS) (width 0.1))
  (fp_line (start -0.75 0.7) (end -0.75 2.5) (layer B.SilkS) (width 0.1))
  (fp_line (start -1.15 -2.5) (end -2.65 -2.5) (layer B.SilkS) (width 0.1))
  (fp_line (start -1.15 -0.7) (end -1.15 -2.5) (layer B.SilkS) (width 0.1))
  (fp_line (start -2.65 -0.7) (end -1.15 -0.7) (layer B.SilkS) (width 0.1))
  (fp_line (start -2.65 -2.5) (end -2.65 -0.7) (layer B.SilkS) (width 0.1))
  (fp_line (start -1.15 0.7) (end -2.65 0.7) (layer B.SilkS) (width 0.1))
  (fp_line (start -1.15 2.5) (end -1.15 0.7) (layer B.SilkS) (width 0.1))
  (fp_line (start -2.65 2.5) (end -1.15 2.5) (layer B.SilkS) (width 0.1))
  (fp_line (start -2.65 0.7) (end -2.65 2.5) (layer B.SilkS) (width 0.1))
  (fp_line (start -3.05 -2.5) (end -4.55 -2.5) (layer B.SilkS) (width 0.1))
  (fp_line (start -3.05 -0.7) (end -3.05 -2.5) (layer B.SilkS) (width 0.1))
  (fp_line (start -4.55 -0.7) (end -3.05 -0.7) (layer B.SilkS) (width 0.1))
  (fp_line (start -4.55 -2.5) (end -4.55 -0.7) (layer B.SilkS) (width 0.1))
  (fp_line (start -3.05 0.7) (end -4.55 0.7) (layer B.SilkS) (width 0.1))
  (fp_line (start -3.05 2.5) (end -3.05 0.7) (layer B.SilkS) (width 0.1))
  (fp_line (start -4.55 2.5) (end -3.05 2.5) (layer B.SilkS) (width 0.1))
  (fp_line (start -4.55 0.7) (end -4.55 2.5) (layer B.SilkS) (width 0.1))
  (fp_line (start -4.95 -2.5) (end -6.45 -2.5) (layer B.SilkS) (width 0.1))
  (fp_line (start -4.95 -0.7) (end -4.95 -2.5) (layer B.SilkS) (width 0.1))
  (fp_line (start -6.45 -0.7) (end -4.95 -0.7) (layer B.SilkS) (width 0.1))
  (fp_line (start -6.45 -2.5) (end -6.45 -0.7) (layer B.SilkS) (width 0.1))
  (fp_line (start -4.95 0.7) (end -6.45 0.7) (layer B.SilkS) (width 0.1))
  (fp_line (start -4.95 2.5) (end -4.95 0.7) (layer B.SilkS) (width 0.1))
  (fp_line (start -6.45 2.5) (end -4.95 2.5) (layer B.SilkS) (width 0.1))
  (fp_line (start -6.45 0.7) (end -6.45 2.5) (layer B.SilkS) (width 0.1))
  (fp_line (start -6.85 -2.5) (end -8.35 -2.5) (layer B.SilkS) (width 0.1))
  (fp_line (start -6.85 -0.7) (end -6.85 -2.5) (layer B.SilkS) (width 0.1))
  (fp_line (start -8.35 -0.7) (end -6.85 -0.7) (layer B.SilkS) (width 0.1))
  (fp_line (start -8.35 -2.5) (end -8.35 -0.7) (layer B.SilkS) (width 0.1))
  (fp_line (start -6.85 0.7) (end -8.35 0.7) (layer B.SilkS) (width 0.1))
  (fp_line (start -6.85 2.5) (end -6.85 0.7) (layer B.SilkS) (width 0.1))
  (fp_line (start -8.35 2.5) (end -6.85 2.5) (layer B.SilkS) (width 0.1))
  (fp_line (start -8.35 0.7) (end -8.35 2.5) (layer B.SilkS) (width 0.1))
  (fp_line (start -8.75 -2.5) (end -10.25 -2.5) (layer B.SilkS) (width 0.1))
  (fp_line (start -8.75 -0.7) (end -8.75 -2.5) (layer B.SilkS) (width 0.1))
  (fp_line (start -10.25 -0.7) (end -8.75 -0.7) (layer B.SilkS) (width 0.1))
  (fp_line (start -10.25 -2.5) (end -10.25 -0.7) (layer B.SilkS) (width 0.1))
  (fp_line (start -8.75 0.7) (end -10.25 0.7) (layer B.SilkS) (width 0.1))
  (fp_line (start -8.75 2.5) (end -8.75 0.7) (layer B.SilkS) (width 0.1))
  (fp_line (start -10.25 2.5) (end -8.75 2.5) (layer B.SilkS) (width 0.1))
  (fp_line (start -10.25 0.7) (end -10.25 2.5) (layer B.SilkS) (width 0.1))
  (fp_line (start -10.65 -2.5) (end -12.15 -2.5) (layer B.SilkS) (width 0.1))
  (fp_line (start -10.65 -0.7) (end -10.65 -2.5) (layer B.SilkS) (width 0.1))
  (fp_line (start -12.15 -0.7) (end -10.65 -0.7) (layer B.SilkS) (width 0.1))
  (fp_line (start -12.15 -2.5) (end -12.15 -0.7) (layer B.SilkS) (width 0.1))
  (fp_line (start -10.65 0.7) (end -12.15 0.7) (layer B.SilkS) (width 0.1))
  (fp_line (start -10.65 2.5) (end -10.65 0.7) (layer B.SilkS) (width 0.1))
  (fp_line (start -12.15 2.5) (end -10.65 2.5) (layer B.SilkS) (width 0.1))
  (fp_line (start -12.15 0.7) (end -12.15 2.5) (layer B.SilkS) (width 0.1))
  (fp_line (start -27.5 -0.6) (end -27.5 0.6) (layer F.SilkS) (width 0.1))
  (fp_line (start 27.6 -0.6) (end -27.5 -0.6) (layer F.SilkS) (width 0.1))
  (fp_line (start 27.6 0.6) (end 27.6 -0.6) (layer F.SilkS) (width 0.1))
  (fp_line (start -27.5 0.6) (end 27.6 0.6) (layer F.SilkS) (width 0.1))
  (fp_line (start -8.5 2.5) (end -8.5 0.6) (layer F.SilkS) (width 0.1))
  (fp_line (start 8.6 2.5) (end -8.5 2.5) (layer F.SilkS) (width 0.1))
  (fp_line (start 8.6 0.6) (end 8.6 2.5) (layer F.SilkS) (width 0.1))
  (fp_line (start -8.5 0.6) (end 8.6 0.6) (layer F.SilkS) (width 0.1))
  (fp_line (start 14 0.675) (end -14 0.675) (layer F.SilkS) (width 0.02))
  (fp_line (start 14 -0.675) (end 14 0.675) (layer F.SilkS) (width 0.02))
  (fp_line (start -14 -0.675) (end 14 -0.675) (layer F.SilkS) (width 0.02))
  (fp_line (start -27.5 -0.6) (end -27.5 0.6) (layer F.Fab) (width 0.18))
  (fp_line (start 27.6 -0.6) (end -27.5 -0.6) (layer F.Fab) (width 0.18))
  (fp_line (start 27.6 0.6) (end 27.6 -0.6) (layer F.Fab) (width 0.18))
  (fp_line (start -27.5 0.6) (end 27.6 0.6) (layer F.Fab) (width 0.18))
  (fp_line (start 27.69 2.6) (end -27.59 2.6) (layer Dwgs.User) (width 0.05))
  (fp_line (start 27.69 -2.6) (end 27.69 2.6) (layer Dwgs.User) (width 0.05))
  (fp_line (start -27.59 -2.6) (end 27.69 -2.6) (layer Dwgs.User) (width 0.05))
  (fp_line (start -27.59 2.6) (end -27.59 -2.6) (layer Dwgs.User) (width 0.05))
  (pad "" np_thru_hole roundrect (at 0 0) (size 28 1.35) (drill oval 28 1.35) (layers *.Mask) (roundrect_rratio 0.5))
  (pad 24 smd rect (at 11.4 -1.6) (size 1.5 1.8) (layers B.Cu B.Paste B.Mask)
    (solder_mask_margin 0.1) (zone_connect 2))
  (pad 23 smd rect (at 11.4 1.6) (size 1.5 1.8) (layers B.Cu B.Paste B.Mask)
    (solder_mask_margin 0.1) (zone_connect 2))
  (pad 22 smd rect (at 9.5 -1.6) (size 1.5 1.8) (layers B.Cu B.Paste B.Mask)
    (solder_mask_margin 0.1) (zone_connect 2))
  (pad 21 smd rect (at 9.5 1.6) (size 1.5 1.8) (layers B.Cu B.Paste B.Mask)
    (solder_mask_margin 0.1) (zone_connect 2))
  (pad 20 smd rect (at 7.6 -1.6) (size 1.5 1.8) (layers B.Cu B.Paste B.Mask)
    (solder_mask_margin 0.1) (zone_connect 2))
  (pad 19 smd rect (at 7.6 1.6) (size 1.5 1.8) (layers B.Cu B.Paste B.Mask)
    (solder_mask_margin 0.1) (zone_connect 2))
  (pad 18 smd rect (at 3.8 -1.6) (size 1.5 1.8) (layers B.Cu B.Paste B.Mask)
    (solder_mask_margin 0.1) (zone_connect 2))
  (pad 17 smd rect (at 3.8 1.6) (size 1.5 1.8) (layers B.Cu B.Paste B.Mask)
    (solder_mask_margin 0.1) (zone_connect 2))
  (pad 16 smd rect (at 1.9 -1.6) (size 1.5 1.8) (layers B.Cu B.Paste B.Mask)
    (solder_mask_margin 0.1) (zone_connect 2))
  (pad 15 smd rect (at 1.9 1.6) (size 1.5 1.8) (layers B.Cu B.Paste B.Mask)
    (solder_mask_margin 0.1) (zone_connect 2))
  (pad 14 smd rect (at 0 -1.6) (size 1.5 1.8) (layers B.Cu B.Paste B.Mask)
    (solder_mask_margin 0.1) (zone_connect 2))
  (pad 13 smd rect (at 0 1.6) (size 1.5 1.8) (layers B.Cu B.Paste B.Mask)
    (solder_mask_margin 0.1) (zone_connect 2))
  (pad 12 smd rect (at -1.9 -1.6) (size 1.5 1.8) (layers B.Cu B.Paste B.Mask)
    (solder_mask_margin 0.1) (zone_connect 2))
  (pad 11 smd rect (at -1.9 1.6) (size 1.5 1.8) (layers B.Cu B.Paste B.Mask)
    (solder_mask_margin 0.1) (zone_connect 2))
  (pad 10 smd rect (at -3.8 -1.6) (size 1.5 1.8) (layers B.Cu B.Paste B.Mask)
    (solder_mask_margin 0.1) (zone_connect 2))
  (pad 9 smd rect (at -3.8 1.6) (size 1.5 1.8) (layers B.Cu B.Paste B.Mask)
    (solder_mask_margin 0.1) (zone_connect 2))
  (pad 8 smd rect (at -5.7 -1.6) (size 1.5 1.8) (layers B.Cu B.Paste B.Mask)
    (solder_mask_margin 0.1) (zone_connect 2))
  (pad 7 smd rect (at -5.7 1.6) (size 1.5 1.8) (layers B.Cu B.Paste B.Mask)
    (solder_mask_margin 0.1) (zone_connect 2))
  (pad 6 smd rect (at -7.6 -1.6) (size 1.5 1.8) (layers B.Cu B.Paste B.Mask)
    (solder_mask_margin 0.1) (zone_connect 2))
  (pad 5 smd rect (at -7.6 1.6) (size 1.5 1.8) (layers B.Cu B.Paste B.Mask)
    (solder_mask_margin 0.1) (zone_connect 2))
  (pad 4 smd rect (at -9.5 -1.6) (size 1.5 1.8) (layers B.Cu B.Paste B.Mask)
    (solder_mask_margin 0.1) (zone_connect 2))
  (pad 3 smd rect (at -9.5 1.6) (size 1.5 1.8) (layers B.Cu B.Paste B.Mask)
    (solder_mask_margin 0.1) (zone_connect 2))
  (pad 2 smd rect (at -11.4 -1.6) (size 1.5 1.8) (layers B.Cu B.Paste B.Mask)
    (solder_mask_margin 0.1) (zone_connect 2))
  (pad 1 smd rect (at -11.4 1.6) (size 1.5 1.8) (layers B.Cu B.Paste B.Mask)
    (solder_mask_margin 0.1) (zone_connect 2))
  (model ${KIPRJMOD}/../Library/Footprints.3dshapes/ferrite-ard.stp
    (offset (xyz 13.5 -5 -4.7))
    (scale (xyz 1 1 1))
    (rotate (xyz 180 0 90))
  )
)
