(module B2BZR-SM3TF_1 (layer F.Cu) (tedit 5E9C39E8)
  (attr smd)
  (fp_text reference J19 (at 0.72323 -3.095 unlocked) (layer F.SilkS)
    (effects (font (size 1.0496 1.104) (thickness 0.1)))
  )
  (fp_text value F-COCMS-B2BZR-SM4TF (at 0.77323 6.21099 unlocked) (layer F.SilkS)
    (effects (font (size 1.0496 1.104) (thickness 0.1)))
  )
  (fp_line (start 1.3 1.85) (end 3 1.85) (layer F.SilkS) (width 0.18))
  (fp_line (start 3 -1.55) (end 3 -1.85) (layer F.SilkS) (width 0.18))
  (fp_line (start -3 -1.55) (end -3 -1.85) (layer F.SilkS) (width 0.18))
  (fp_line (start -3 -1.85) (end 3 -1.85) (layer F.SilkS) (width 0.18))
  (fp_line (start -3 1.85) (end -3 1.75) (layer F.SilkS) (width 0.18))
  (fp_line (start -3 1.75) (end -3 1.35) (layer F.SilkS) (width 0.18))
  (fp_line (start -3 1.85) (end -1.4 1.85) (layer F.SilkS) (width 0.18))
  (fp_line (start 3 1.85) (end 3 1.35) (layer F.SilkS) (width 0.18))
  (fp_line (start 0.5 -0.6) (end 1 -0.6) (layer F.Fab) (width 0.0254))
  (fp_line (start -1 -0.6) (end -0.5 -0.6) (layer F.Fab) (width 0.0254))
  (fp_line (start -3 1.85) (end -3 -1.85) (layer F.Fab) (width 0.1))
  (fp_line (start 0.75 3.35) (end 0.75 1.85) (layer F.Fab) (width 0.1))
  (fp_line (start -3 1.85) (end 3 1.85) (layer F.Fab) (width 0.1))
  (fp_line (start 3 1.85) (end 3 -1.85) (layer F.Fab) (width 0.1))
  (fp_line (start -3 -1.85) (end 3 -1.85) (layer F.Fab) (width 0.1))
  (fp_line (start -3 -0.8) (end -1.95 -1.85) (layer F.Fab) (width 0.1))
  (fp_line (start -3 0) (end 3 0) (layer F.Fab) (width 0.1))
  (fp_line (start -0.75 3.35) (end -0.75 1.85) (layer F.Fab) (width 0.1))
  (pad 4 smd rect (at -2.8 -0.1) (size 1.7 2.2) (layers F.Cu F.Paste F.Mask))
  (pad 3 smd rect (at 2.8 -0.1) (size 1.7 2.2) (layers F.Cu F.Paste F.Mask))
  (pad 2 smd rect (at 0.75 1.15) (size 0.7 5.1) (layers F.Cu F.Paste F.Mask))
  (pad 1 smd rect (at -0.75 1.15) (size 0.7 5.1) (layers F.Cu F.Paste F.Mask))
  (model "${KIPRJMOD}/../Library/Footprints.3dshapes/JST B2B-ZR-SM4-TF.step"
    (at (xyz 0 0 0))
    (scale (xyz 1 1 1))
    (rotate (xyz 0 0 0))
  )
)
