(module B2CAP-RB0505_100001100001100001100001 placed (layer F.Cu) (tedit 5EC6992A)
  (fp_text reference BL2 (at -7.62 -20.955 180) (layer F.SilkS)
    (effects (font (size 1.12 1.12) (thickness 0.1)))
  )
  (fp_text value B2CAP-RB0505 (at 0 2) (layer F.Fab) hide
    (effects (font (size 1 1) (thickness 0.15)))
  )
  (fp_arc (start 0 9.5) (end 2 9.5) (angle 360) (layer F.Fab) (width 0.18))
  (fp_arc (start 7.5 -19.25) (end 8.77 -19.25) (angle 360) (layer B.Fab) (width 0.02))
  (fp_arc (start -7.5 -19.25) (end -6.23 -19.25) (angle 360) (layer B.Fab) (width 0.02))
  (fp_arc (start -7.5 19.25) (end -6.23 19.25) (angle 360) (layer B.Fab) (width 0.02))
  (fp_arc (start 7.5 19.25) (end 8.77 19.25) (angle 360) (layer B.Fab) (width 0.02))
  (fp_arc (start 0 9.5) (end 2 9.5) (angle 360) (layer F.SilkS) (width 0.1))
  (fp_line (start -10.04 20.8502) (end -10.04 -20.8502) (layer Dwgs.User) (width 0.05))
  (fp_line (start -10.04 -20.8502) (end 10.04 -20.8502) (layer Dwgs.User) (width 0.05))
  (fp_line (start 10.04 -20.8502) (end 10.04 20.8502) (layer Dwgs.User) (width 0.05))
  (fp_line (start 10.04 20.8502) (end -10.04 20.8502) (layer Dwgs.User) (width 0.05))
  (fp_line (start -9.95 19.5) (end 9.95 19.5) (layer F.Fab) (width 0.18))
  (fp_line (start 9.95 19.5) (end 9.95 -19.5) (layer F.Fab) (width 0.18))
  (fp_line (start 9.95 -19.5) (end -9.95 -19.5) (layer F.Fab) (width 0.18))
  (fp_line (start -9.95 -19.5) (end -9.95 19.5) (layer F.Fab) (width 0.18))
  (fp_line (start -9.95 19.5) (end 9.95 19.5) (layer F.SilkS) (width 0.1))
  (fp_line (start 9.95 19.5) (end 9.95 -19.5) (layer F.SilkS) (width 0.1))
  (fp_line (start 9.95 -19.5) (end -9.95 -19.5) (layer F.SilkS) (width 0.1))
  (fp_line (start -9.95 -19.5) (end -9.95 19.5) (layer F.SilkS) (width 0.1))
  (fp_line (start -9.45 19) (end -9.45 -19) (layer F.SilkS) (width 0.1))
  (fp_line (start -9.45 -19) (end 9.45 -19) (layer F.SilkS) (width 0.1))
  (fp_line (start 9.45 -19) (end 9.45 19) (layer F.SilkS) (width 0.1))
  (fp_line (start 9.45 19) (end -9.45 19) (layer F.SilkS) (width 0.1))
  (fp_line (start 9.45 -13.5) (end 9.95 -13.5) (layer F.SilkS) (width 0.05))
  (fp_line (start 9.45 -9.5) (end 9.95 -9.5) (layer F.SilkS) (width 0.05))
  (fp_line (start 9.45 -5.5) (end 9.95 -5.5) (layer F.SilkS) (width 0.05))
  (fp_poly (pts (xy -9.95 -19.5) (xy 9.95 -19.5) (xy 9.95 19.5) (xy -9.95 19.5)) (layer F.Fab) (width 0.02))
  (pad 1 thru_hole circle (at 7.5 -19.25) (size 2.54 2.54) (drill 1.8034) (layers F&B.Cu *.Mask)
    (solder_mask_margin 0.1016) (clearance 0.1016) (zone_connect 2))
  (pad 2 thru_hole circle (at -7.5 -19.25) (size 2.54 2.54) (drill 1.8034) (layers F&B.Cu *.Mask)
    (solder_mask_margin 0.1016) (clearance 0.1016) (zone_connect 2))
  (pad 3 thru_hole circle (at -7.5 19.25) (size 2.54 2.54) (drill 1.8034) (layers F&B.Cu *.Mask)
    (solder_mask_margin 0.1016) (clearance 0.1016) (zone_connect 2))
  (pad 4 thru_hole circle (at 7.5 19.25) (size 2.54 2.54) (drill 1.8034) (layers F&B.Cu *.Mask)
    (solder_mask_margin 0.1016) (clearance 0.1016) (zone_connect 2))
  (model "${KIPRJMOD}/../Library/Footprints.3dshapes/capot 2 capteurs P phase 2 - recenter.stp"
    (at (xyz 0 0 0))
    (scale (xyz 1 1 1))
    (rotate (xyz 0 0 180))
  )
  (model "${KIPRJMOD}/../Library/Footprints.3dshapes/isolant adhesif capot capteur.stp"
    (offset (xyz -6.5 4 -6.8))
    (scale (xyz 1 1 1))
    (rotate (xyz 90 0 90))
  )
  (model "${KIPRJMOD}/../Library/Footprints.3dshapes/isolant adhesif capot capteur.stp"
    (offset (xyz -6.5 -34.5 -6.8))
    (scale (xyz 1 1 1))
    (rotate (xyz 90 0 90))
  )
)
