(module B3BZR-SM3TF placed (layer F.Cu) (tedit 5EC6992A)
  (fp_text reference J11 (at 1.5 0.1 -180) (layer F.SilkS)
    (effects (font (size 1.2 1.2) (thickness 0.1)) (justify left bottom))
  )
  (fp_text value F-COCMS-B3BZR-SM4TF (at 0 2) (layer F.Fab) hide
    (effects (font (size 1 1) (thickness 0.15)))
  )
  (fp_poly (pts (xy -4.5 -1.85) (xy 4.5 -1.85) (xy 4.5 2.05) (xy 1.95 2.05)
    (xy 1.95 3.8) (xy -1.95 3.8) (xy -1.95 2.05) (xy -4.5 2.05)) (layer F.Fab) (width 0.02))
  (fp_line (start -2.7 -1.2) (end -4.4 -1.2) (layer F.SilkS) (width 0.1))
  (fp_line (start -2.7 1) (end -2.7 -1.2) (layer F.SilkS) (width 0.1))
  (fp_line (start -4.4 1) (end -2.7 1) (layer F.SilkS) (width 0.1))
  (fp_line (start -4.4 -1.2) (end -4.4 1) (layer F.SilkS) (width 0.1))
  (fp_line (start 4.4 -1.2) (end 2.7 -1.2) (layer F.SilkS) (width 0.1))
  (fp_line (start 4.4 1) (end 4.4 -1.2) (layer F.SilkS) (width 0.1))
  (fp_line (start 2.7 1) (end 4.4 1) (layer F.SilkS) (width 0.1))
  (fp_line (start 2.7 -1.2) (end 2.7 1) (layer F.SilkS) (width 0.1))
  (fp_line (start 1.85 -1.4) (end 1.15 -1.4) (layer F.SilkS) (width 0.1))
  (fp_line (start 1.85 3.7) (end 1.85 -1.4) (layer F.SilkS) (width 0.1))
  (fp_line (start 1.15 3.7) (end 1.85 3.7) (layer F.SilkS) (width 0.1))
  (fp_line (start 1.15 -1.4) (end 1.15 3.7) (layer F.SilkS) (width 0.1))
  (fp_line (start 0.35 -1.4) (end -0.35 -1.4) (layer F.SilkS) (width 0.1))
  (fp_line (start 0.35 3.7) (end 0.35 -1.4) (layer F.SilkS) (width 0.1))
  (fp_line (start -0.35 3.7) (end 0.35 3.7) (layer F.SilkS) (width 0.1))
  (fp_line (start -0.35 -1.4) (end -0.35 3.7) (layer F.SilkS) (width 0.1))
  (fp_line (start -1.15 -1.4) (end -1.85 -1.4) (layer F.SilkS) (width 0.1))
  (fp_line (start -1.15 3.7) (end -1.15 -1.4) (layer F.SilkS) (width 0.1))
  (fp_line (start -1.85 3.7) (end -1.15 3.7) (layer F.SilkS) (width 0.1))
  (fp_line (start -1.85 -1.4) (end -1.85 3.7) (layer F.SilkS) (width 0.1))
  (fp_line (start -2.7 -1.85) (end -3.75 -0.8) (layer F.SilkS) (width 0.1))
  (fp_line (start 3.75 -1.85) (end -3.75 -1.85) (layer F.SilkS) (width 0.1))
  (fp_line (start 3.75 1.85) (end 3.75 -1.85) (layer F.SilkS) (width 0.1))
  (fp_line (start -3.75 1.85) (end 3.75 1.85) (layer F.SilkS) (width 0.1))
  (fp_line (start -3.75 -1.85) (end -3.75 1.85) (layer F.SilkS) (width 0.1))
  (fp_line (start -1.5 1.85) (end -1.5 3.35) (layer F.SilkS) (width 0.1))
  (fp_line (start 0 1.85) (end 0 3.35) (layer F.SilkS) (width 0.1))
  (fp_line (start -3.75 0) (end 3.75 0) (layer F.SilkS) (width 0.1))
  (fp_line (start 1.5 1.85) (end 1.5 3.35) (layer F.SilkS) (width 0.1))
  (fp_line (start 3.7 -1.85) (end 3.7 -1.55) (layer F.Fab) (width 0.18))
  (fp_line (start -3.7 -1.85) (end 3.7 -1.85) (layer F.Fab) (width 0.18))
  (fp_line (start -3.7 -1.55) (end -3.7 -1.85) (layer F.Fab) (width 0.18))
  (fp_line (start 3.7 1.85) (end 3.7 1.45) (layer F.Fab) (width 0.18))
  (fp_line (start 2.1 1.85) (end 3.7 1.85) (layer F.Fab) (width 0.18))
  (fp_line (start -3.7 1.85) (end -3.7 1.45) (layer F.Fab) (width 0.18))
  (fp_line (start -2.1 1.85) (end -3.7 1.85) (layer F.Fab) (width 0.18))
  (fp_line (start 4.5 3.8) (end -4.5 3.8) (layer Dwgs.User) (width 0.05))
  (fp_line (start 4.5 -1.94) (end 4.5 3.8) (layer Dwgs.User) (width 0.05))
  (fp_line (start -4.5 -1.94) (end 4.5 -1.94) (layer Dwgs.User) (width 0.05))
  (fp_line (start -4.5 3.8) (end -4.5 -1.94) (layer Dwgs.User) (width 0.05))
  (fp_arc (start -1.49999 -0.6) (end -1.25 -0.6) (angle 360) (layer F.SilkS) (width 0.1))
  (fp_arc (start 0 -0.6) (end 0.25 -0.6) (angle 360) (layer F.SilkS) (width 0.1))
  (fp_arc (start 1.5 -0.6) (end 1.75 -0.6) (angle 360) (layer F.SilkS) (width 0.1))
  (pad 5 smd rect (at -3.55 -0.1) (size 1.7 2.2) (layers F.Cu F.Paste F.Mask)
    (solder_mask_margin 0.1) (zone_connect 2))
  (pad 4 smd rect (at 3.55 -0.1) (size 1.7 2.2) (layers F.Cu F.Paste F.Mask)
    (solder_mask_margin 0.1) (zone_connect 2))
  (pad 3 smd rect (at 1.5 1.15) (size 0.7 5.1) (layers F.Cu F.Paste F.Mask)
    (solder_mask_margin 0.1) (zone_connect 2))
  (pad 2 smd rect (at 0 1.15) (size 0.7 5.1) (layers F.Cu F.Paste F.Mask)
    (solder_mask_margin 0.1) (zone_connect 2))
  (pad 1 smd rect (at -1.5 1.15) (size 0.7 5.1) (layers F.Cu F.Paste F.Mask)
    (solder_mask_margin 0.1) (zone_connect 2))
  (model "${KIPRJMOD}/../Library/Footprints.3dshapes/JST B3B-ZR-SM4-TF.step"
    (at (xyz 0 0 0))
    (scale (xyz 1 1 1))
    (rotate (xyz 0 0 0))
  )
)
