(module B6BZR-SM3TF placed (layer F.Cu) (tedit 5EBE99B9)
  (fp_text reference J2 (at 6.18844 -0.748121 90) (layer F.SilkS)
    (effects (font (size 1.2 1.2) (thickness 0.1)) (justify left bottom))
  )
  (fp_text value F-COCMS-B6BZR-SM4TF (at 0 2) (layer F.Fab) hide
    (effects (font (size 1 1) (thickness 0.15)))
  )
  (fp_poly (pts (xy 4.2 3.8) (xy -4.2 3.8) (xy -4.2 2.05) (xy -6.75 2.05)
    (xy -6.75 -1.85) (xy 6.75 -1.85) (xy 6.75 2.05) (xy 4.2 2.05)) (layer F.Fab) (width 0.02))
  (fp_line (start -4.95 -1.2) (end -6.65 -1.2) (layer F.SilkS) (width 0.1))
  (fp_line (start -4.95 1) (end -4.95 -1.2) (layer F.SilkS) (width 0.1))
  (fp_line (start -6.65 1) (end -4.95 1) (layer F.SilkS) (width 0.1))
  (fp_line (start -6.65 -1.2) (end -6.65 1) (layer F.SilkS) (width 0.1))
  (fp_line (start 6.65 -1.2) (end 4.95 -1.2) (layer F.SilkS) (width 0.1))
  (fp_line (start 6.65 1) (end 6.65 -1.2) (layer F.SilkS) (width 0.1))
  (fp_line (start 4.95 1) (end 6.65 1) (layer F.SilkS) (width 0.1))
  (fp_line (start 4.95 -1.2) (end 4.95 1) (layer F.SilkS) (width 0.1))
  (fp_line (start 4.1 -1.4) (end 3.4 -1.4) (layer F.SilkS) (width 0.1))
  (fp_line (start 4.1 3.7) (end 4.1 -1.4) (layer F.SilkS) (width 0.1))
  (fp_line (start 3.4 3.7) (end 4.1 3.7) (layer F.SilkS) (width 0.1))
  (fp_line (start 3.4 -1.4) (end 3.4 3.7) (layer F.SilkS) (width 0.1))
  (fp_line (start 2.6 -1.4) (end 1.9 -1.4) (layer F.SilkS) (width 0.1))
  (fp_line (start 2.6 3.7) (end 2.6 -1.4) (layer F.SilkS) (width 0.1))
  (fp_line (start 1.9 3.7) (end 2.6 3.7) (layer F.SilkS) (width 0.1))
  (fp_line (start 1.9 -1.4) (end 1.9 3.7) (layer F.SilkS) (width 0.1))
  (fp_line (start 1.1 -1.4) (end 0.4 -1.4) (layer F.SilkS) (width 0.1))
  (fp_line (start 1.1 3.7) (end 1.1 -1.4) (layer F.SilkS) (width 0.1))
  (fp_line (start 0.4 3.7) (end 1.1 3.7) (layer F.SilkS) (width 0.1))
  (fp_line (start 0.4 -1.4) (end 0.4 3.7) (layer F.SilkS) (width 0.1))
  (fp_line (start -0.4 -1.4) (end -1.1 -1.4) (layer F.SilkS) (width 0.1))
  (fp_line (start -0.4 3.7) (end -0.4 -1.4) (layer F.SilkS) (width 0.1))
  (fp_line (start -1.1 3.7) (end -0.4 3.7) (layer F.SilkS) (width 0.1))
  (fp_line (start -1.1 -1.4) (end -1.1 3.7) (layer F.SilkS) (width 0.1))
  (fp_line (start -1.9 -1.4) (end -2.6 -1.4) (layer F.SilkS) (width 0.1))
  (fp_line (start -1.9 3.7) (end -1.9 -1.4) (layer F.SilkS) (width 0.1))
  (fp_line (start -2.6 3.7) (end -1.9 3.7) (layer F.SilkS) (width 0.1))
  (fp_line (start -2.6 -1.4) (end -2.6 3.7) (layer F.SilkS) (width 0.1))
  (fp_line (start -3.4 -1.4) (end -4.1 -1.4) (layer F.SilkS) (width 0.1))
  (fp_line (start -3.4 3.7) (end -3.4 -1.4) (layer F.SilkS) (width 0.1))
  (fp_line (start -4.1 3.7) (end -3.4 3.7) (layer F.SilkS) (width 0.1))
  (fp_line (start -4.1 -1.4) (end -4.1 3.7) (layer F.SilkS) (width 0.1))
  (fp_line (start 3.75 1.85) (end 3.75 3.35) (layer F.SilkS) (width 0.1))
  (fp_line (start -3.75 1.85) (end -3.75 3.35) (layer F.SilkS) (width 0.1))
  (fp_line (start -4.95 -1.85) (end -6 -0.8) (layer F.SilkS) (width 0.1))
  (fp_line (start -6 1.85) (end 6 1.85) (layer F.SilkS) (width 0.1))
  (fp_line (start -6 -1.85) (end -6 1.85) (layer F.SilkS) (width 0.1))
  (fp_line (start 6 -1.85) (end -6 -1.85) (layer F.SilkS) (width 0.1))
  (fp_line (start 6 1.85) (end 6 -1.85) (layer F.SilkS) (width 0.1))
  (fp_line (start -2.25 1.85) (end -2.25 3.35) (layer F.SilkS) (width 0.1))
  (fp_line (start -0.75 1.85) (end -0.75 3.35) (layer F.SilkS) (width 0.1))
  (fp_line (start -6 0) (end 6 0) (layer F.SilkS) (width 0.1))
  (fp_line (start 0.75 1.85) (end 0.75 3.35) (layer F.SilkS) (width 0.1))
  (fp_line (start 2.25 1.85) (end 2.25 3.35) (layer F.SilkS) (width 0.1))
  (fp_line (start -3.75 -1.4) (end -3.3 -1.85) (layer F.Fab) (width 0.18))
  (fp_line (start -4.2 -1.85) (end -3.75 -1.4) (layer F.Fab) (width 0.18))
  (fp_line (start 6 1.85) (end 6 1.35) (layer F.Fab) (width 0.18))
  (fp_line (start 4.4 1.85) (end 6 1.85) (layer F.Fab) (width 0.18))
  (fp_line (start -6 1.85) (end -6 1.35) (layer F.Fab) (width 0.18))
  (fp_line (start -4.4 1.85) (end -6 1.85) (layer F.Fab) (width 0.18))
  (fp_line (start 6 -1.85) (end 6 -1.55) (layer F.Fab) (width 0.18))
  (fp_line (start -6 -1.85) (end 6 -1.85) (layer F.Fab) (width 0.18))
  (fp_line (start -6 -1.55) (end -6 -1.85) (layer F.Fab) (width 0.18))
  (fp_line (start 6.75 3.8) (end -6.75 3.8) (layer Dwgs.User) (width 0.05))
  (fp_line (start 6.75 -1.94) (end 6.75 3.8) (layer Dwgs.User) (width 0.05))
  (fp_line (start -6.75 -1.94) (end 6.75 -1.94) (layer Dwgs.User) (width 0.05))
  (fp_line (start -6.75 3.8) (end -6.75 -1.94) (layer Dwgs.User) (width 0.05))
  (fp_arc (start 3.75 -0.6) (end 4 -0.6) (angle 360) (layer F.SilkS) (width 0.1))
  (fp_arc (start -3.74999 -0.6) (end -3.5 -0.6) (angle 360) (layer F.SilkS) (width 0.1))
  (fp_arc (start -2.24999 -0.6) (end -2 -0.6) (angle 360) (layer F.SilkS) (width 0.1))
  (fp_arc (start -0.74999 -0.6) (end -0.5 -0.6) (angle 360) (layer F.SilkS) (width 0.1))
  (fp_arc (start 0.75 -0.6) (end 1 -0.6) (angle 360) (layer F.SilkS) (width 0.1))
  (fp_arc (start 2.25 -0.6) (end 2.5 -0.6) (angle 360) (layer F.SilkS) (width 0.1))
  (pad 8 smd rect (at -5.8 -0.1) (size 1.7 2.2) (layers F.Cu F.Paste F.Mask)
    (solder_mask_margin 0.1) (zone_connect 2))
  (pad 7 smd rect (at 5.8 -0.1) (size 1.7 2.2) (layers F.Cu F.Paste F.Mask)
    (solder_mask_margin 0.1) (zone_connect 2))
  (pad 6 smd rect (at 3.75 1.15) (size 0.7 5.1) (layers F.Cu F.Paste F.Mask)
    (solder_mask_margin 0.1) (zone_connect 2))
  (pad 5 smd rect (at 2.25 1.15) (size 0.7 5.1) (layers F.Cu F.Paste F.Mask)
    (solder_mask_margin 0.1) (zone_connect 2))
  (pad 4 smd rect (at 0.75 1.15) (size 0.7 5.1) (layers F.Cu F.Paste F.Mask)
    (solder_mask_margin 0.1) (zone_connect 2))
  (pad 3 smd rect (at -0.75 1.15) (size 0.7 5.1) (layers F.Cu F.Paste F.Mask)
    (solder_mask_margin 0.1) (zone_connect 2))
  (pad 2 smd rect (at -2.25 1.15) (size 0.7 5.1) (layers F.Cu F.Paste F.Mask)
    (solder_mask_margin 0.1) (zone_connect 2))
  (pad 1 smd rect (at -3.75 1.15) (size 0.7 5.1) (layers F.Cu F.Paste F.Mask)
    (solder_mask_margin 0.1) (zone_connect 2))
  (model "${KIPRJMOD}/../Library/Footprints.3dshapes/JST B6B-ZR-SM4-TF.step"
    (at (xyz 0 0 0))
    (scale (xyz 1 1 1))
    (rotate (xyz 0 0 0))
  )
)
