(module BCN16_1 (layer F.Cu) (tedit 5E9B9833)
  (attr smd)
  (fp_text reference RS1 (at 0.78673 -2.8986 unlocked) (layer F.SilkS)
    (effects (font (size 1.0496 1.104) (thickness 0.1)))
  )
  (fp_text value RR-BC-BCN16 (at -3.60443 -0.0332 unlocked) (layer F.SilkS) hide
    (effects (font (size 1.0496 1.104) (thickness 0.1)))
  )
  (fp_line (start -1.7 0.155) (end -1.7 -0.155) (layer F.SilkS) (width 0.18))
  (fp_line (start 1.7 1.5) (end 1.7 1.445) (layer F.SilkS) (width 0.18))
  (fp_line (start -1.7 -1.445) (end -1.7 -1.5) (layer F.SilkS) (width 0.18))
  (fp_line (start -1.7 1.5) (end 1.7 1.5) (layer F.SilkS) (width 0.18))
  (fp_line (start 1.7 -1.445) (end 1.7 -1.5) (layer F.SilkS) (width 0.18))
  (fp_line (start -1.7 -1.5) (end 1.7 -1.5) (layer F.SilkS) (width 0.18))
  (fp_line (start -1.7 1.5) (end -1.7 1.445) (layer F.SilkS) (width 0.18))
  (fp_line (start 1.7 0.155) (end 1.7 -0.155) (layer F.SilkS) (width 0.18))
  (fp_line (start 0.6 -0.6) (end 1 -0.6) (layer F.Fab) (width 0.1))
  (fp_line (start 0.6 -0.6) (end 0.6 -0.8) (layer F.Fab) (width 0.1))
  (fp_line (start 0.2 -0.8) (end 0.6 -0.8) (layer F.Fab) (width 0.1))
  (fp_line (start -1.4 0.8) (end -1.4 0.6) (layer F.Fab) (width 0.1))
  (fp_line (start -1.6 0.6) (end -1.4 0.6) (layer F.Fab) (width 0.1))
  (fp_line (start -1.4 0.8) (end -1 0.8) (layer F.Fab) (width 0.1))
  (fp_line (start 0.2 -0.6) (end 0.2 -0.8) (layer F.Fab) (width 0.1))
  (fp_line (start -1 0.8) (end -1 0.6) (layer F.Fab) (width 0.1))
  (fp_line (start -1 -0.6) (end -1 -0.8) (layer F.Fab) (width 0.1))
  (fp_line (start 1.4 0.6) (end 1.6 0.6) (layer F.Fab) (width 0.1))
  (fp_line (start -0.2 0.6) (end 0.2 0.6) (layer F.Fab) (width 0.1))
  (fp_line (start -1.4 -0.8) (end -1 -0.8) (layer F.Fab) (width 0.1))
  (fp_line (start 0.2 0.8) (end 0.2 0.6) (layer F.Fab) (width 0.1))
  (fp_line (start -0.2 -0.6) (end 0.2 -0.6) (layer F.Fab) (width 0.1))
  (fp_line (start 1.4 0.8) (end 1.4 0.6) (layer F.Fab) (width 0.1))
  (fp_line (start -0.2 -0.6) (end -0.2 -0.8) (layer F.Fab) (width 0.1))
  (fp_line (start -1 0.6) (end -0.6 0.6) (layer F.Fab) (width 0.1))
  (fp_line (start -0.6 -0.8) (end -0.2 -0.8) (layer F.Fab) (width 0.1))
  (fp_line (start -0.6 0.8) (end -0.6 0.6) (layer F.Fab) (width 0.1))
  (fp_line (start 1 0.8) (end 1.4 0.8) (layer F.Fab) (width 0.1))
  (fp_line (start -1.6 0.6) (end -1.6 -0.6) (layer F.Fab) (width 0.1))
  (fp_line (start -0.6 0.8) (end -0.2 0.8) (layer F.Fab) (width 0.1))
  (fp_line (start 1 0.8) (end 1 0.6) (layer F.Fab) (width 0.1))
  (fp_line (start 0.6 0.6) (end 1 0.6) (layer F.Fab) (width 0.1))
  (fp_line (start 0.2 0.8) (end 0.6 0.8) (layer F.Fab) (width 0.1))
  (fp_line (start -0.6 -0.6) (end -0.6 -0.8) (layer F.Fab) (width 0.1))
  (fp_line (start -0.2 0.8) (end -0.2 0.6) (layer F.Fab) (width 0.1))
  (fp_line (start -1.6 -0.6) (end -1.4 -0.6) (layer F.Fab) (width 0.1))
  (fp_line (start -1 -0.6) (end -0.6 -0.6) (layer F.Fab) (width 0.1))
  (fp_line (start 0.6 0.8) (end 0.6 0.6) (layer F.Fab) (width 0.1))
  (fp_line (start -1.4 -0.6) (end -1.4 -0.8) (layer F.Fab) (width 0.1))
  (fp_line (start 1.4 -0.6) (end 1.6 -0.6) (layer F.Fab) (width 0.1))
  (fp_line (start 1 -0.8) (end 1.4 -0.8) (layer F.Fab) (width 0.1))
  (fp_line (start 1.6 0.6) (end 1.6 -0.6) (layer F.Fab) (width 0.1))
  (fp_line (start 1 -0.6) (end 1 -0.8) (layer F.Fab) (width 0.1))
  (pad 8 smd rect (at -1.26 -0.8) (size 0.68 0.91) (layers F.Cu F.Paste F.Mask))
  (pad 7 smd rect (at -0.4 -0.8) (size 0.56 0.91) (layers F.Cu F.Paste F.Mask))
  (pad 6 smd rect (at 0.4 -0.8) (size 0.56 0.91) (layers F.Cu F.Paste F.Mask))
  (pad 5 smd rect (at 1.26 -0.8) (size 0.68 0.91) (layers F.Cu F.Paste F.Mask))
  (pad 4 smd rect (at 1.26 0.8) (size 0.68 0.91) (layers F.Cu F.Paste F.Mask))
  (pad 3 smd rect (at 0.4 0.8) (size 0.5588 0.9144) (layers F.Cu F.Paste F.Mask))
  (pad 2 smd rect (at -0.4 0.8) (size 0.56 0.91) (layers F.Cu F.Paste F.Mask))
  (pad 1 smd rect (at -1.26 0.8) (size 0.68 0.91) (layers F.Cu F.Paste F.Mask))
  (model ${KIPRJMOD}/../Library/Footprints.3dshapes/BLACKCAPCAF80P160X320X90-8N.stp
    (at (xyz 0 0 0))
    (scale (xyz 1 1 1))
    (rotate (xyz 0 0 90))
  )
)
