(module BNX002_1 (layer F.Cu) (tedit 5E9E3E7F)
  (attr smd)
  (fp_text reference REF** (at 1.524 -1.016 unlocked) (layer F.SilkS) hide
    (effects (font (size 1.332992 1.40208) (thickness 0.254)))
  )
  (fp_text value FL-10-BNX002-01 (at 7.62 -1.016 unlocked) (layer F.SilkS) hide
    (effects (font (size 1.332992 1.40208) (thickness 0.254)))
  )
  (fp_line (start -6.2484 5.7404) (end -6.2484 -5.7404) (layer F.SilkS) (width 0.1778))
  (fp_line (start 6.2484 -0.635) (end 6.2484 -5.7404) (layer F.SilkS) (width 0.1778))
  (fp_line (start -6.2484 -5.7404) (end 6.2484 -5.7404) (layer F.SilkS) (width 0.1778))
  (fp_line (start 6.2484 5.7404) (end 6.2484 -5.7404) (layer F.SilkS) (width 0.1778))
  (fp_line (start -6.2484 5.7404) (end 6.2484 5.7404) (layer F.SilkS) (width 0.1778))
  (fp_line (start -6.2484 5.7404) (end -6.2484 -5.7404) (layer Dwgs.User) (width 0.1778))
  (fp_line (start -6.2484 -5.7404) (end 6.2484 -5.7404) (layer Dwgs.User) (width 0.1778))
  (fp_line (start 6.2484 5.7404) (end 6.2484 -5.7404) (layer Dwgs.User) (width 0.1778))
  (fp_line (start -6.2484 5.7404) (end 6.2484 5.7404) (layer Dwgs.User) (width 0.1778))
  (fp_line (start -6.2484 5.7404) (end -6.2484 -5.7404) (layer F.Fab) (width 0.0762))
  (fp_line (start -6.2484 -5.7404) (end 6.6548 -5.7404) (layer F.Fab) (width 0.0762))
  (fp_line (start 6.6548 5.7404) (end 6.6548 -5.7404) (layer F.Fab) (width 0.0762))
  (fp_line (start -6.2484 5.7404) (end 6.6548 5.7404) (layer F.Fab) (width 0.0762))
  (pad PSG thru_hole circle (at -2.4892 -2.4892) (size 2.2352 2.2352) (drill 1.2192) (layers *.Cu *.Mask))
  (pad CG3 thru_hole circle (at 4.9784 0) (size 2.2352 2.2352) (drill 1.2192) (layers *.Cu *.Mask))
  (pad CG2 thru_hole circle (at 0 0) (size 2.2352 2.2352) (drill 1.2192) (layers *.Cu *.Mask))
  (pad CG1 thru_hole circle (at -2.4892 2.4892) (size 2.2352 2.2352) (drill 1.2192) (layers *.Cu *.Mask))
  (pad CB thru_hole circle (at 2.4892 2.4892) (size 2.2352 2.2352) (drill 1.2192) (layers *.Cu *.Mask))
  (pad B thru_hole circle (at 2.4892 -2.4892) (size 2.2352 2.2352) (drill 1.2192) (layers *.Cu *.Mask))
  (model ${KIPRJMOD}/../Library/Footprints.3dshapes/BNX002.step
    (at (xyz 0 0 0))
    (scale (xyz 1 1 1))
    (rotate (xyz 0 0 0))
  )
)
