(module BP2X13D_1 (layer F.Cu) (tedit 5E976313)
  (attr smd)
  (fp_text reference J7 (at 15.7958 -0.7548 -90 unlocked) (layer F.SilkS)
    (effects (font (size 1.0496 1.104) (thickness 0.18)))
  )
  (fp_text value F-CO-HE10-2026D (at 0.8 6 -90 unlocked) (layer F.SilkS) hide
    (effects (font (size 1.0496 1.104) (thickness 0.18)))
  )
  (fp_line (start -5.08 3.175) (end -5.08 -5.715) (layer F.Fab) (width 0.1))
  (fp_line (start -5.08 3.175) (end 35.56 3.175) (layer F.Fab) (width 0.1))
  (fp_line (start -4.445 2.54) (end 34.925 2.54) (layer F.Fab) (width 0.1))
  (fp_line (start -1.27 3.175) (end -1.27 2.54) (layer F.Fab) (width 0.1))
  (fp_line (start -4.445 -5.08) (end 34.925 -5.08) (layer F.Fab) (width 0.1))
  (fp_line (start -5.08 -5.715) (end 35.56 -5.715) (layer F.Fab) (width 0.1))
  (fp_line (start 34.925 2.54) (end 34.925 -5.08) (layer F.Fab) (width 0.1))
  (fp_line (start 35.56 3.175) (end 35.56 -5.715) (layer F.Fab) (width 0.1))
  (fp_line (start 13.335 3.175) (end 13.335 2.54) (layer F.Fab) (width 0.1))
  (fp_line (start 1.27 3.175) (end 1.27 2.54) (layer F.Fab) (width 0.1))
  (fp_line (start -4.445 2.54) (end -4.445 -5.08) (layer F.Fab) (width 0.1))
  (fp_line (start 17.145 3.175) (end 17.145 2.54) (layer F.Fab) (width 0.1))
  (fp_line (start 22.9055 3.175) (end 22.92025 3.175) (layer F.SilkS) (width 0.18))
  (fp_line (start 26.3865 3.175) (end 26.85725 3.175) (layer F.SilkS) (width 0.18))
  (fp_line (start -5.08 3.175) (end -5.08 -5.715) (layer F.SilkS) (width 0.18))
  (fp_line (start 30.361 3.175) (end 35.56 3.175) (layer F.SilkS) (width 0.18))
  (fp_line (start -5.08 3.175) (end 7.69096 3.175) (layer F.SilkS) (width 0.18))
  (fp_line (start -5.08 -5.715) (end 35.56 -5.715) (layer F.SilkS) (width 0.18))
  (fp_line (start 35.56 3.175) (end 35.56 -5.715) (layer F.SilkS) (width 0.18))
  (fp_line (start 11.19471 3.175) (end 11.61725 3.175) (layer F.SilkS) (width 0.18))
  (fp_line (start 15.0835 3.175) (end 15.30025 3.175) (layer F.SilkS) (width 0.18))
  (fp_line (start 18.804 3.175) (end 19.36425 3.175) (layer F.SilkS) (width 0.18))
  (pad 1 thru_hole rect (at 0 0) (size 1.5748 1.5748) (drill 0.9144) (layers *.Cu *.Mask))
  (pad 2 thru_hole circle (at 0 -2.54) (size 1.5748 1.5748) (drill 0.9144) (layers *.Cu *.Mask))
  (pad 3 thru_hole circle (at 2.54 0) (size 1.5748 1.5748) (drill 0.9144) (layers *.Cu *.Mask))
  (pad 4 thru_hole circle (at 2.54 -2.54) (size 1.5748 1.5748) (drill 0.9144) (layers *.Cu *.Mask))
  (pad 5 thru_hole circle (at 5.08 0) (size 1.5748 1.5748) (drill 0.9144) (layers *.Cu *.Mask))
  (pad 6 thru_hole circle (at 5.08 -2.54) (size 1.5748 1.5748) (drill 0.9144) (layers *.Cu *.Mask))
  (pad 7 thru_hole circle (at 7.62 0) (size 1.5748 1.5748) (drill 0.9144) (layers *.Cu *.Mask))
  (pad 8 thru_hole circle (at 7.62 -2.54) (size 1.5748 1.5748) (drill 0.9144) (layers *.Cu *.Mask))
  (pad 9 thru_hole circle (at 10.16 0) (size 1.5748 1.5748) (drill 0.9144) (layers *.Cu *.Mask))
  (pad 10 thru_hole circle (at 10.16 -2.54) (size 1.5748 1.5748) (drill 0.9144) (layers *.Cu *.Mask))
  (pad 11 thru_hole circle (at 12.7 0) (size 1.5748 1.5748) (drill 0.9144) (layers *.Cu *.Mask))
  (pad 12 thru_hole circle (at 12.7 -2.54) (size 1.5748 1.5748) (drill 0.9144) (layers *.Cu *.Mask))
  (pad 13 thru_hole circle (at 15.24 0) (size 1.5748 1.5748) (drill 0.9144) (layers *.Cu *.Mask))
  (pad 14 thru_hole circle (at 15.24 -2.54) (size 1.5748 1.5748) (drill 0.9144) (layers *.Cu *.Mask))
  (pad 15 thru_hole circle (at 17.78 0) (size 1.5748 1.5748) (drill 0.9144) (layers *.Cu *.Mask))
  (pad 16 thru_hole circle (at 17.78 -2.54) (size 1.5748 1.5748) (drill 0.9144) (layers *.Cu *.Mask))
  (pad 17 thru_hole circle (at 20.32 0) (size 1.5748 1.5748) (drill 0.9144) (layers *.Cu *.Mask))
  (pad 18 thru_hole circle (at 20.32 -2.54) (size 1.5748 1.5748) (drill 0.9144) (layers *.Cu *.Mask))
  (pad 19 thru_hole circle (at 22.86 0) (size 1.5748 1.5748) (drill 0.9144) (layers *.Cu *.Mask))
  (pad 20 thru_hole circle (at 22.86 -2.54) (size 1.5748 1.5748) (drill 0.9144) (layers *.Cu *.Mask))
  (pad 21 thru_hole circle (at 25.4 0) (size 1.5748 1.5748) (drill 0.9144) (layers *.Cu *.Mask))
  (pad 22 thru_hole circle (at 25.4 -2.54) (size 1.5748 1.5748) (drill 0.9144) (layers *.Cu *.Mask))
  (pad 23 thru_hole circle (at 27.94 0) (size 1.5748 1.5748) (drill 0.9144) (layers *.Cu *.Mask))
  (pad 24 thru_hole circle (at 27.94 -2.54) (size 1.5748 1.5748) (drill 0.9144) (layers *.Cu *.Mask))
  (pad 25 thru_hole circle (at 30.48 0) (size 1.5748 1.5748) (drill 0.9144) (layers *.Cu *.Mask))
  (pad 26 thru_hole circle (at 30.48 -2.54) (size 1.5748 1.5748) (drill 0.9144) (layers *.Cu *.Mask))
  (model "${KIPRJMOD}/../Library/Footprints.3dshapes/39-26-7265-recenter.stp"
    (at (xyz 0 0 0))
    (scale (xyz 1 1 1))
    (rotate (xyz 0 0 0))
  )
)
