(module BSDX-A2_1 (layer F.Cu) (tedit 5E9CB9BC)
  (attr smd)
  (fp_text reference IC33 (at -10.5948 -1.49257 270 unlocked) (layer F.SilkS)
    (effects (font (size 1.0496 1.104) (thickness 0.1)))
  )
  (fp_text value CAPT-BT-BSDX-BARO (at -0.0332 5.45207 270 unlocked) (layer F.SilkS) hide
    (effects (font (size 1.0496 1.104) (thickness 0.1)))
  )
  (fp_arc (start 0 0) (end -1 0) (angle -360) (layer F.SilkS) (width 0.18))
  (fp_arc (start 0 0) (end -0.575 0) (angle -360) (layer F.SilkS) (width 0.18))
  (fp_arc (start 4.5 -5.5) (end 5.5 -5.5) (angle -90) (layer F.SilkS) (width 0.18))
  (fp_arc (start 4.5 6.5) (end 4.5 7.5) (angle -90) (layer F.SilkS) (width 0.18))
  (fp_arc (start -4.5 6.5) (end -5.5 6.5) (angle -90) (layer F.SilkS) (width 0.18))
  (fp_arc (start -4.5 -5.5) (end -4.5 -6.5) (angle -90) (layer F.SilkS) (width 0.18))
  (fp_arc (start -4.5 -5.5) (end -4.5 -6.5) (angle -90) (layer B.Fab) (width 0.1))
  (fp_arc (start 4.5 -5.5) (end 5.5 -5.5) (angle -90) (layer B.Fab) (width 0.1))
  (fp_arc (start 0 0) (end -1 0) (angle -360) (layer B.Fab) (width 0.1))
  (fp_arc (start 0 0) (end -0.575 0) (angle -360) (layer B.Fab) (width 0.1))
  (fp_arc (start 4.5 6.5) (end 4.5 7.5) (angle -90) (layer B.Fab) (width 0.1))
  (fp_arc (start -4.5 6.5) (end -5.5 6.5) (angle -90) (layer B.Fab) (width 0.1))
  (fp_line (start 7.05 8.9) (end -7.05 8.9) (layer F.SilkS) (width 0.18))
  (fp_line (start -7.05 -8) (end -7.05 8.9) (layer F.SilkS) (width 0.18))
  (fp_line (start 4.5 7.5) (end -4.5 7.5) (layer F.SilkS) (width 0.18))
  (fp_line (start -5.5 -5.5) (end -5.5 6.5) (layer F.SilkS) (width 0.18))
  (fp_line (start 5.5 0.25) (end 5.5 6.5) (layer F.SilkS) (width 0.18))
  (fp_line (start 5.5 -5.5) (end 5.5 0.25) (layer F.SilkS) (width 0.18))
  (fp_line (start 7.05 -8) (end 7.05 8.9) (layer F.SilkS) (width 0.18))
  (fp_line (start 4.5 -6.5) (end -4.5 -6.5) (layer F.SilkS) (width 0.18))
  (fp_line (start 7.05 -8) (end -7.05 -8) (layer F.SilkS) (width 0.18))
  (fp_line (start 7.05 8.9) (end -7.05 8.9) (layer B.Fab) (width 0.1))
  (fp_line (start -7.05 -8) (end -7.05 8.9) (layer B.Fab) (width 0.1))
  (fp_line (start -7.05 4.445) (end -8.255 4.445) (layer B.Fab) (width 0.1))
  (fp_line (start -8.255 3.175) (end -8.255 4.445) (layer B.Fab) (width 0.1))
  (fp_line (start -7.05 3.175) (end -7.05 4.445) (layer B.Fab) (width 0.1))
  (fp_line (start -7.05 3.175) (end -8.255 3.175) (layer B.Fab) (width 0.1))
  (fp_line (start 4.5 7.5) (end -4.5 7.5) (layer B.Fab) (width 0.1))
  (fp_line (start 8.255 -4.445) (end 7.05 -4.445) (layer B.Fab) (width 0.1))
  (fp_line (start 8.255 -4.445) (end 8.255 -3.175) (layer B.Fab) (width 0.1))
  (fp_line (start -5.5 -5.5) (end -5.5 6.5) (layer B.Fab) (width 0.1))
  (fp_line (start -7.05 1.905) (end -8.255 1.905) (layer B.Fab) (width 0.1))
  (fp_line (start -8.255 0.635) (end -8.255 1.905) (layer B.Fab) (width 0.1))
  (fp_line (start 7.05 -4.445) (end 7.05 -3.175) (layer B.Fab) (width 0.1))
  (fp_line (start 8.255 -3.175) (end 7.05 -3.175) (layer B.Fab) (width 0.1))
  (fp_line (start -7.05 0.635) (end -7.05 1.905) (layer B.Fab) (width 0.1))
  (fp_line (start -7.05 0.635) (end -8.255 0.635) (layer B.Fab) (width 0.1))
  (fp_line (start 8.255 -1.905) (end 7.05 -1.905) (layer B.Fab) (width 0.1))
  (fp_line (start 8.255 -1.905) (end 8.255 -0.635) (layer B.Fab) (width 0.1))
  (fp_line (start -7.05 -0.635) (end -8.255 -0.635) (layer B.Fab) (width 0.1))
  (fp_line (start -8.255 -1.905) (end -8.255 -0.635) (layer B.Fab) (width 0.1))
  (fp_line (start 7.05 -1.905) (end 7.05 -0.635) (layer B.Fab) (width 0.1))
  (fp_line (start 8.255 -0.635) (end 7.05 -0.635) (layer B.Fab) (width 0.1))
  (fp_line (start 5.5 0.25) (end 5.5 6.5) (layer B.Fab) (width 0.1))
  (fp_line (start -7.05 -1.905) (end -7.05 -0.635) (layer B.Fab) (width 0.1))
  (fp_line (start -7.05 -1.905) (end -8.255 -1.905) (layer B.Fab) (width 0.1))
  (fp_line (start 8.255 0.635) (end 7.05 0.635) (layer B.Fab) (width 0.1))
  (fp_line (start 8.255 0.635) (end 8.255 1.905) (layer B.Fab) (width 0.1))
  (fp_line (start 5.5 -5.5) (end 5.5 0.25) (layer B.Fab) (width 0.1))
  (fp_line (start -7.05 -3.175) (end -8.255 -3.175) (layer B.Fab) (width 0.1))
  (fp_line (start -8.255 -4.445) (end -8.255 -3.175) (layer B.Fab) (width 0.1))
  (fp_line (start 7.05 0.635) (end 7.05 1.905) (layer B.Fab) (width 0.1))
  (fp_line (start 8.255 1.905) (end 7.05 1.905) (layer B.Fab) (width 0.1))
  (fp_line (start -7.05 -4.445) (end -7.05 -3.175) (layer B.Fab) (width 0.1))
  (fp_line (start -7.05 -4.445) (end -8.255 -4.445) (layer B.Fab) (width 0.1))
  (fp_line (start 8.255 3.175) (end 7.05 3.175) (layer B.Fab) (width 0.1))
  (fp_line (start 8.255 3.175) (end 8.255 4.445) (layer B.Fab) (width 0.1))
  (fp_line (start 4.5 -6.5) (end -4.5 -6.5) (layer B.Fab) (width 0.1))
  (fp_line (start 7.05 -8) (end 7.05 8.9) (layer B.Fab) (width 0.1))
  (fp_line (start 7.05 3.175) (end 7.05 4.445) (layer B.Fab) (width 0.1))
  (fp_line (start 7.05 -8) (end -7.05 -8) (layer B.Fab) (width 0.1))
  (fp_line (start 8.255 4.445) (end 7.05 4.445) (layer B.Fab) (width 0.1))
  (pad 8 thru_hole circle (at 8.3185 -3.81 180) (size 1.6764 1.6764) (drill 0.9652) (layers *.Cu *.Mask))
  (pad 7 thru_hole circle (at 8.3185 -1.27 180) (size 1.6764 1.6764) (drill 0.9652) (layers *.Cu *.Mask))
  (pad 6 thru_hole circle (at 8.3185 1.27 180) (size 1.6764 1.6764) (drill 0.9652) (layers *.Cu *.Mask))
  (pad 5 thru_hole circle (at 8.3185 3.81 180) (size 1.6764 1.6764) (drill 0.9652) (layers *.Cu *.Mask))
  (pad 4 thru_hole circle (at -8.3185 -3.81 180) (size 1.6764 1.6764) (drill 0.9652) (layers *.Cu *.Mask))
  (pad 3 thru_hole circle (at -8.3185 -1.27 180) (size 1.6764 1.6764) (drill 0.9652) (layers *.Cu *.Mask))
  (pad 2 thru_hole circle (at -8.3185 1.27 180) (size 1.6764 1.6764) (drill 0.9652) (layers *.Cu *.Mask))
  (pad 1 thru_hole rect (at -8.3185 3.81 180) (size 1.6764 1.6764) (drill 0.9652) (layers *.Cu *.Mask))
  (model "${KIPRJMOD}/../Library/Footprints.3dshapes/capteur pression absolue-recenter.stp"
    (at (xyz 0 0 0))
    (scale (xyz 1 1 1))
    (rotate (xyz 0 0 0))
  )
)
