(module BT-4-V150H-4.8V (layer F.Cu) (tedit 5ED24786)
  (fp_text reference REF** (at 0 -14) (layer F.SilkS)
    (effects (font (size 1.5 1.5) (thickness 0.18)))
  )
  (fp_text value BT-4-V150H-4.8V (at 0 2) (layer F.Fab) hide
    (effects (font (size 1 1) (thickness 0.15)))
  )
  (fp_text user + (at -8.9 -9.5) (layer F.SilkS)
    (effects (font (size 1 1) (thickness 0.18)) (justify left))
  )
  (fp_text user + (at 5.588 -9.525) (layer F.SilkS)
    (effects (font (size 1 1) (thickness 0.18)) (justify left))
  )
  (fp_text user + (at -1.5 -8) (layer F.Fab)
    (effects (font (size 1 1) (thickness 0.1)) (justify left))
  )
  (fp_arc (start 0 12.4) (end 1.3335 12.4) (angle 360) (layer B.CrtYd) (width 0.02))
  (fp_line (start -13.69 13.8351) (end -13.69 -13.8351) (layer Dwgs.User) (width 0.05))
  (fp_line (start -13.69 -13.8351) (end 13.69 -13.8351) (layer Dwgs.User) (width 0.05))
  (fp_line (start 13.69 -13.8351) (end 13.69 13.8351) (layer Dwgs.User) (width 0.05))
  (fp_line (start 13.69 13.8351) (end -13.69 13.8351) (layer Dwgs.User) (width 0.05))
  (fp_line (start -13.6 -12.4) (end 13.6 -12.4) (layer F.SilkS) (width 0.18))
  (fp_line (start 13.6 -12.4) (end 13.6 12.4) (layer F.SilkS) (width 0.18))
  (fp_line (start 13.6 12.4) (end -13.6 12.4) (layer F.SilkS) (width 0.18))
  (fp_line (start -13.6 12.4) (end -13.6 -12.4) (layer F.SilkS) (width 0.18))
  (fp_line (start -13.6 -12.4) (end -6.3 -12.4) (layer F.CrtYd) (width 0.02))
  (fp_line (start -6.3 -12.4) (end -6.3 -13.7) (layer F.CrtYd) (width 0.02))
  (fp_line (start -6.3 -13.7) (end 6.3 -13.7) (layer F.CrtYd) (width 0.02))
  (fp_line (start 6.3 -13.7) (end 6.3 -12.4) (layer F.CrtYd) (width 0.02))
  (fp_line (start 6.3 -12.4) (end 13.6 -12.4) (layer F.CrtYd) (width 0.02))
  (fp_line (start 13.6 -12.4) (end 13.6 12.4) (layer F.CrtYd) (width 0.02))
  (fp_line (start 13.6 12.4) (end 4.3 12.4) (layer F.CrtYd) (width 0.02))
  (fp_line (start 4.3 12.4) (end 4.3 13.7) (layer F.CrtYd) (width 0.02))
  (fp_line (start 4.3 13.7) (end -4.3 13.7) (layer F.CrtYd) (width 0.02))
  (fp_line (start -4.3 13.7) (end -4.3 12.4) (layer F.CrtYd) (width 0.02))
  (fp_line (start -4.3 12.4) (end -13.6 12.4) (layer F.CrtYd) (width 0.02))
  (fp_line (start -13.6 12.4) (end -13.6 -12.4) (layer F.CrtYd) (width 0.02))
  (fp_line (start -3.6665 -13.7335) (end -3.6665 -11.0665) (layer B.CrtYd) (width 0.02))
  (fp_line (start -3.6665 -11.0665) (end -6.3335 -11.0665) (layer B.CrtYd) (width 0.02))
  (fp_line (start -6.3335 -11.0665) (end -6.3335 -13.7335) (layer B.CrtYd) (width 0.02))
  (fp_line (start -6.3335 -13.7335) (end -3.6665 -13.7335) (layer B.CrtYd) (width 0.02))
  (fp_line (start 6.3335 -13.7335) (end 6.3335 -11.0665) (layer B.CrtYd) (width 0.02))
  (fp_line (start 6.3335 -11.0665) (end 3.6665 -11.0665) (layer B.CrtYd) (width 0.02))
  (fp_line (start 3.6665 -11.0665) (end 3.6665 -13.7335) (layer B.CrtYd) (width 0.02))
  (fp_line (start 3.6665 -13.7335) (end 6.3335 -13.7335) (layer B.CrtYd) (width 0.02))
  (fp_line (start -5.5 -12.4) (end 5.5 -12.4) (layer F.Fab) (width 0.25))
  (fp_line (start -4 12.4) (end 4 12.4) (layer F.Fab) (width 0.25))
  (fp_line (start -13.5 -11.025) (end 13.5 -11.025) (layer F.Fab) (width 0.1))
  (fp_line (start 13.5 -11.025) (end 13.5 12.2) (layer F.Fab) (width 0.1))
  (fp_line (start 13.5 12.2) (end -13.5 12.2) (layer F.Fab) (width 0.1))
  (fp_line (start -13.5 12.2) (end -13.5 -11.025) (layer F.Fab) (width 0.1))
  (fp_line (start 12 -11) (end -12 -11) (layer F.Fab) (width 0.1))
  (fp_line (start -12 -11) (end -12 -12.2) (layer F.Fab) (width 0.1))
  (fp_line (start -12 -12.2) (end 12 -12.2) (layer F.Fab) (width 0.1))
  (fp_line (start 12 -12.2) (end 12 -11) (layer F.Fab) (width 0.1))
  (pad + thru_hole rect (at -5 -12.4) (size 2.667 2.667) (drill 1.3208) (layers *.Cu *.Mask)
    (solder_mask_margin 0.1016) (zone_connect 2))
  (pad - thru_hole circle (at 0 12.4) (size 2.667 2.667) (drill 1.3208) (layers *.Cu *.Mask)
    (solder_mask_margin 0.1016) (zone_connect 2))
  (pad 3 thru_hole rect (at 5 -12.4) (size 2.667 2.667) (drill 1.3208) (layers *.Cu *.Mask)
    (solder_mask_margin 0.1016) (zone_connect 2))
  (model ${KIPRJMOD}/../Library/Footprints.3dshapes/VARTA_Battery.stp
    (at (xyz 0 0 0))
    (scale (xyz 1 1 1))
    (rotate (xyz 0 0 180))
  )
)
