(module C-SC8 (layer F.Cu) (tedit 5ECBD036)
  (descr "8mm radial electrolytic surface-mount capacitor")
  (attr smd)
  (fp_text reference REF** (at 4 -5) (layer F.SilkS)
    (effects (font (size 1.2 1.2) (thickness 0.15)) (justify left))
  )
  (fp_text value C-SC8 (at 0 0) (layer F.Fab) hide
    (effects (font (size 1 1) (thickness 0.15)))
  )
  (fp_text user + (at -0.5 -1.62762) (layer F.Fab)
    (effects (font (size 1 1) (thickness 0.1524)) (justify left))
  )
  (fp_arc (start 0 0) (end 4.00125 0) (angle 360) (layer F.Fab) (width 0.1))
  (fp_line (start -4.3 5.359) (end -4.3 -5.359) (layer Dwgs.User) (width 0.05))
  (fp_line (start -4.3 -5.359) (end 4.3 -5.359) (layer Dwgs.User) (width 0.05))
  (fp_line (start 4.3 -5.359) (end 4.3 5.359) (layer Dwgs.User) (width 0.05))
  (fp_line (start 4.3 5.359) (end -4.3 5.359) (layer Dwgs.User) (width 0.05))
  (fp_line (start -1.27 4.2) (end -4.2 4.2) (layer F.SilkS) (width 0.18))
  (fp_line (start -4.2 4.2) (end -4.2 -3) (layer F.SilkS) (width 0.18))
  (fp_line (start -4.2 -3) (end -3 -4.2) (layer F.SilkS) (width 0.18))
  (fp_line (start -3 -4.2) (end -1.27 -4.2) (layer F.SilkS) (width 0.18))
  (fp_line (start 1.27 -4.2) (end 3 -4.2) (layer F.SilkS) (width 0.18))
  (fp_line (start 3 -4.2) (end 4.2 -3) (layer F.SilkS) (width 0.18))
  (fp_line (start 4.2 -3) (end 4.2 4.2) (layer F.SilkS) (width 0.18))
  (fp_line (start 4.2 4.2) (end 1.27 4.2) (layer F.SilkS) (width 0.18))
  (fp_line (start -1.1 5.2) (end -1.1 4.3) (layer F.CrtYd) (width 0.02))
  (fp_line (start -1.1 4.3) (end -4.3 4.2) (layer F.CrtYd) (width 0.02))
  (fp_line (start -4.3 4.2) (end -4.3 -3.1) (layer F.CrtYd) (width 0.02))
  (fp_line (start -4.3 -3.1) (end -3 -4.4) (layer F.CrtYd) (width 0.02))
  (fp_line (start -3 -4.4) (end -1.1 -4.4) (layer F.CrtYd) (width 0.02))
  (fp_line (start -1.1 -4.4) (end -1.1 -5.2) (layer F.CrtYd) (width 0.02))
  (fp_line (start -1.1 -5.2) (end 1 -5.2) (layer F.CrtYd) (width 0.02))
  (fp_line (start 1 -5.2) (end 1 -4.4) (layer F.CrtYd) (width 0.02))
  (fp_line (start 1 -4.4) (end 3 -4.4) (layer F.CrtYd) (width 0.02))
  (fp_line (start 3 -4.4) (end 4.3 -3.1) (layer F.CrtYd) (width 0.02))
  (fp_line (start 4.3 -3.1) (end 4.2 4.2) (layer F.CrtYd) (width 0.02))
  (fp_line (start 4.2 4.2) (end 1.3 4.2) (layer F.CrtYd) (width 0.02))
  (fp_line (start 1.3 4.2) (end 1.1 4.2) (layer F.CrtYd) (width 0.02))
  (fp_line (start 1.1 4.2) (end 1.1 5.2) (layer F.CrtYd) (width 0.02))
  (fp_line (start 1.1 5.2) (end -1.1 5.2) (layer F.CrtYd) (width 0.02))
  (fp_line (start -4.2 4.2) (end 4.2 4.2) (layer F.Fab) (width 0.1))
  (fp_line (start 4.2 4.2) (end 4.2 -3) (layer F.Fab) (width 0.1))
  (fp_line (start 4.2 -3) (end 3 -4.2) (layer F.Fab) (width 0.1))
  (fp_line (start 3 -4.2) (end -3 -4.2) (layer F.Fab) (width 0.1))
  (fp_line (start -3 -4.2) (end -4.2 -3) (layer F.Fab) (width 0.1))
  (fp_line (start -4.2 -3) (end -4.2 4.2) (layer F.Fab) (width 0.1))
  (fp_line (start 0.5 -4.2) (end 0.5 -4.5) (layer F.Fab) (width 0.1))
  (fp_line (start 0.5 -4.5) (end -0.5 -4.5) (layer F.Fab) (width 0.1))
  (fp_line (start -0.5 -4.5) (end -0.5 -4.2) (layer F.Fab) (width 0.1))
  (fp_line (start -0.5 -4.2) (end 0.5 -4.2) (layer F.Fab) (width 0.1))
  (fp_line (start 0.5 4.2) (end -0.5 4.2) (layer F.Fab) (width 0.1))
  (fp_line (start -0.5 4.2) (end -0.5 4.5) (layer F.Fab) (width 0.1))
  (fp_line (start -0.5 4.5) (end 0.5 4.5) (layer F.Fab) (width 0.1))
  (fp_line (start 0.5 4.5) (end 0.5 4.2) (layer F.Fab) (width 0.1))
  (fp_line (start -1.8 3.5) (end 1.8 3.5) (layer F.Fab) (width 0.1))
  (fp_line (start -1.5 3.7) (end 1.5 3.7) (layer F.Fab) (width 0.1))
  (fp_line (start -2.3 3.3) (end 2.2 3.3) (layer F.Fab) (width 0.1))
  (pad + smd rect (at 0 -3.2) (size 1.905 3.81) (layers F.Cu F.Paste F.Mask)
    (solder_mask_margin 0.1143) (clearance 0.2032) (zone_connect 2))
  (pad - smd rect (at 0 3.2) (size 1.905 3.81) (layers F.Cu F.Paste F.Mask)
    (solder_mask_margin 0.1143) (clearance 0.2032) (zone_connect 2))
  (model ${KISYS3DMOD}/Capacitor_SMD.3dshapes/CP_Elec_8x10.5.wrl
    (at (xyz 0 0 0))
    (scale (xyz 1 1 1))
    (rotate (xyz 0 0 90))
  )
)
