(module C0402_1b (layer F.Cu) (tedit 5E99D816)
  (attr smd)
  (fp_text reference C2 (at -0.05 1.324 unlocked) (layer F.SilkS)
    (effects (font (size 1.0496 1.104) (thickness 0.18)))
  )
  (fp_text value C-BC-C0402 (at 4 -0.8 unlocked) (layer F.SilkS) hide
    (effects (font (size 1.0496 1.104) (thickness 0.18)))
  )
  (fp_line (start 1.11125 0.47625) (end 1.11125 0.45049) (layer F.SilkS) (width 0.18))
  (fp_line (start -0.55 0.3) (end -0.55 -0.3) (layer F.SilkS) (width 0.1))
  (fp_line (start 1.09199 0.47625) (end 1.11125 0.47625) (layer F.SilkS) (width 0.18))
  (fp_line (start -0.00801 0.47625) (end 0.00801 0.47625) (layer F.SilkS) (width 0.18))
  (fp_line (start 0.55 0.3) (end 0.55 -0.3) (layer F.SilkS) (width 0.1))
  (fp_line (start -0.00801 -0.47625) (end 0.00801 -0.47625) (layer F.SilkS) (width 0.18))
  (fp_line (start -0.55 -0.3) (end 0.55 -0.3) (layer F.SilkS) (width 0.1))
  (fp_line (start -1.1116 0.47625) (end -1.09199 0.47625) (layer F.SilkS) (width 0.18))
  (fp_line (start -1.1116 0.47625) (end -1.1116 0.44993) (layer F.SilkS) (width 0.18))
  (fp_line (start -1.1116 -0.47625) (end -1.09199 -0.47625) (layer F.SilkS) (width 0.18))
  (fp_line (start -0.55 0.3) (end 0.55 0.3) (layer F.SilkS) (width 0.1))
  (fp_line (start -1.1116 -0.44993) (end -1.1116 -0.47625) (layer F.SilkS) (width 0.18))
  (fp_line (start 1.09199 -0.47625) (end 1.11125 -0.47625) (layer F.SilkS) (width 0.18))
  (fp_line (start 1.11125 -0.45049) (end 1.11125 -0.47625) (layer F.SilkS) (width 0.18))
  (fp_line (start -0.55 0.3) (end -0.55 -0.3) (layer F.Fab) (width 0.1))
  (fp_line (start 0.55 0.3) (end 0.55 -0.3) (layer F.Fab) (width 0.1))
  (fp_line (start -0.55 -0.3) (end 0.55 -0.3) (layer F.Fab) (width 0.1))
  (fp_line (start -0.55 0.3) (end 0.55 0.3) (layer F.Fab) (width 0.1))
  (pad 2 smd rect (at 0.55 0 270) (size 0.5 0.6) (layers F.Cu F.Paste F.Mask))
  (pad 1 smd rect (at -0.55 0 270) (size 0.5 0.6) (layers F.Cu F.Paste F.Mask))
  (model ${KISYS3DMOD}/Capacitor_SMD.3dshapes/C_0402_1005Metric.wrl
    (at (xyz 0 0 0))
    (scale (xyz 1 1 1))
    (rotate (xyz 0 0 0))
  )
)
