(module C0805-AIROX-KEMET-C0805C106KA3 (layer F.Cu) (tedit 5E950FE4)
  (attr smd)
  (fp_text reference C2 (at -0.4841 0.4714 unlocked) (layer F.SilkS)
    (effects (font (size 1.0496 1.104) (thickness 0.18)))
  )
  (fp_text value C-BC-C0805 (at -0.8 -4 270 unlocked) (layer F.SilkS) hide
    (effects (font (size 1.0496 1.104) (thickness 0.18)))
  )
  (fp_line (start 0.5 -0.635) (end 0.5 0.635) (layer B.Fab) (width 0.1))
  (fp_line (start 1 0.635) (end 0.5 0.635) (layer B.Fab) (width 0.1))
  (fp_line (start 1 -0.635) (end -1 -0.635) (layer B.Fab) (width 0.1))
  (fp_line (start -0.5 -0.635) (end -1 -0.635) (layer B.Fab) (width 0.1))
  (fp_line (start 1 -0.635) (end 0.5 -0.635) (layer B.Fab) (width 0.1))
  (fp_line (start -0.5 -0.635) (end -0.5 0.635) (layer B.Fab) (width 0.1))
  (fp_line (start 1 0.635) (end -1 0.635) (layer B.Fab) (width 0.1))
  (fp_line (start 1 -0.635) (end 1 0.635) (layer B.Fab) (width 0.1))
  (fp_line (start -1 -0.635) (end -1 0.635) (layer B.Fab) (width 0.1))
  (fp_line (start -0.5 0.635) (end -1 0.635) (layer B.Fab) (width 0.1))
  (fp_line (start 1.7 1) (end -1.12517 1) (layer F.SilkS) (width 0.18))
  (fp_line (start -1.7 -1) (end -1.7 0.83432) (layer F.SilkS) (width 0.18))
  (fp_line (start 1.7 -1) (end 1.7 1) (layer F.SilkS) (width 0.18))
  (fp_line (start 1.7 -1) (end -1.7 -1) (layer F.SilkS) (width 0.18))
  (pad 1 smd rect (at 0.9 0 180) (size 1.15 1.6) (layers F.Cu F.Paste F.Mask))
  (pad 2 smd rect (at -0.9 0 180) (size 1.15 1.6) (layers F.Cu F.Paste F.Mask))
  (model ${KISYS3DMOD}/Capacitor_SMD.3dshapes/C_0805_2012Metric.wrl
    (at (xyz 0 0 0))
    (scale (xyz 1 1 1))
    (rotate (xyz 0 0 0))
  )
)
