(module C2220 placed (layer F.Cu) (tedit 5EBE99B9)
  (fp_text reference C10 (at 0.635 0.9525 270) (layer F.SilkS)
    (effects (font (size 1.2 1.2) (thickness 0.1)) (justify left bottom))
  )
  (fp_text value C-BC-C2220 (at 0 2) (layer F.Fab) hide
    (effects (font (size 1 1) (thickness 0.15)))
  )
  (fp_poly (pts (xy 3.9 2.9) (xy -3.9 2.9) (xy -3.9 -2.9) (xy 3.9 -2.9)) (layer F.Fab) (width 0.02))
  (fp_line (start 3.81 2.794) (end 1.905 2.794) (layer F.SilkS) (width 0.02))
  (fp_line (start 3.81 -2.794) (end 3.81 2.794) (layer F.SilkS) (width 0.02))
  (fp_line (start 1.905 -2.794) (end 3.81 -2.794) (layer F.SilkS) (width 0.02))
  (fp_line (start 1.905 2.794) (end 1.905 -2.794) (layer F.SilkS) (width 0.02))
  (fp_line (start -1.905 2.794) (end -3.81 2.794) (layer F.SilkS) (width 0.02))
  (fp_line (start -1.905 -2.794) (end -1.905 2.794) (layer F.SilkS) (width 0.02))
  (fp_line (start -3.81 -2.794) (end -1.905 -2.794) (layer F.SilkS) (width 0.02))
  (fp_line (start -3.81 2.794) (end -3.81 -2.794) (layer F.SilkS) (width 0.02))
  (fp_line (start 2.85115 -2.54) (end -2.8575 -2.54) (layer F.SilkS) (width 0.1))
  (fp_line (start 2.85115 2.54) (end 2.85115 -2.54) (layer F.SilkS) (width 0.1))
  (fp_line (start -2.8575 2.54) (end 2.85115 2.54) (layer F.SilkS) (width 0.1))
  (fp_line (start -2.8575 -2.54) (end -2.8575 2.54) (layer F.SilkS) (width 0.1))
  (fp_line (start -3.1 -2.7) (end -3.1 2.7) (layer F.Fab) (width 0.18))
  (fp_line (start 3.1 -2.7) (end -3.1 -2.7) (layer F.Fab) (width 0.18))
  (fp_line (start 3.1 2.7) (end 3.1 -2.7) (layer F.Fab) (width 0.18))
  (fp_line (start -3.1 2.7) (end 3.1 2.7) (layer F.Fab) (width 0.18))
  (fp_line (start 4.064 3.048) (end -4.064 3.048) (layer Dwgs.User) (width 0.05))
  (fp_line (start 4.064 -3.048) (end 4.064 3.048) (layer Dwgs.User) (width 0.05))
  (fp_line (start -4.064 -3.048) (end 4.064 -3.048) (layer Dwgs.User) (width 0.05))
  (fp_line (start -4.064 3.048) (end -4.064 -3.048) (layer Dwgs.User) (width 0.05))
  (pad 2 smd rect (at 2.8575 0) (size 1.905 5.588) (layers F.Cu F.Paste F.Mask)
    (solder_mask_margin 0.1143) (clearance 0.2032) (zone_connect 2))
  (pad 1 smd rect (at -2.8575 0) (size 1.905 5.588) (layers F.Cu F.Paste F.Mask)
    (solder_mask_margin 0.1143) (clearance 0.2032) (zone_connect 2))
  (model ${KISYS3DMOD}/Capacitor_SMD.3dshapes/C_2220_5650Metric.wrl
    (at (xyz 0 0 0))
    (scale (xyz 1 1 1))
    (rotate (xyz 0 0 0))
  )
)
