(module C3528 placed (layer F.Cu) (tedit 5EC6992A)
  (fp_text reference C19 (at -0.115 -1.5 90) (layer F.SilkS)
    (effects (font (size 1.2 1.2) (thickness 0.1)) (justify left bottom))
  )
  (fp_text value C-BCP-C3528 (at 0 2) (layer F.Fab) hide
    (effects (font (size 1 1) (thickness 0.15)))
  )
  (fp_text user + (at -0.9 0.00996) (layer F.SilkS)
    (effects (font (size 1 1) (thickness 0.1)) (justify left))
  )
  (fp_poly (pts (xy -2.54 -1.5875) (xy 2.54 -1.5875) (xy 2.54 1.5875) (xy -2.54 1.5875)
    (xy -2.54 -1.5875)) (layer F.Fab) (width 0.02))
  (fp_line (start 2.1336 1.27) (end 0.5588 1.27) (layer F.SilkS) (width 0.02))
  (fp_line (start 2.1336 -1.27) (end 2.1336 1.27) (layer F.SilkS) (width 0.02))
  (fp_line (start 0.5588 -1.27) (end 2.1336 -1.27) (layer F.SilkS) (width 0.02))
  (fp_line (start 0.5588 1.27) (end 0.5588 -1.27) (layer F.SilkS) (width 0.02))
  (fp_line (start -0.5588 1.27) (end -2.1336 1.27) (layer F.SilkS) (width 0.02))
  (fp_line (start -0.5588 -1.27) (end -0.5588 1.27) (layer F.SilkS) (width 0.02))
  (fp_line (start -2.1336 -1.27) (end -0.5588 -1.27) (layer F.SilkS) (width 0.02))
  (fp_line (start -2.1336 1.27) (end -2.1336 -1.27) (layer F.SilkS) (width 0.02))
  (fp_line (start -1.34 -1.4) (end -1.34 -1.397) (layer F.SilkS) (width 0.1))
  (fp_line (start -1.35 -1.4) (end -1.34 -1.4) (layer F.SilkS) (width 0.1))
  (fp_line (start -1.35 1.4) (end -1.35 -1.4) (layer F.SilkS) (width 0.1))
  (fp_line (start -1.36 1.4) (end -1.35 1.4) (layer F.SilkS) (width 0.1))
  (fp_line (start -1.36 1.397) (end -1.36 1.4) (layer F.SilkS) (width 0.1))
  (fp_line (start -1.14 -1.4) (end -1.14 -1.397) (layer F.SilkS) (width 0.1))
  (fp_line (start -1.15 -1.4) (end -1.14 -1.4) (layer F.SilkS) (width 0.1))
  (fp_line (start -1.15 1.4) (end -1.15 -1.4) (layer F.SilkS) (width 0.1))
  (fp_line (start -1.16 1.4) (end -1.15 1.4) (layer F.SilkS) (width 0.1))
  (fp_line (start -1.16 1.397) (end -1.16 1.4) (layer F.SilkS) (width 0.1))
  (fp_line (start 1.75 1.4) (end 1.75 -1.4) (layer F.SilkS) (width 0.1))
  (fp_line (start -1.75 1.4) (end 1.75 1.4) (layer F.SilkS) (width 0.1))
  (fp_line (start -1.75 -1.4) (end -1.75 1.4) (layer F.SilkS) (width 0.1))
  (fp_line (start 1.75 -1.4) (end -1.75 -1.4) (layer F.SilkS) (width 0.1))
  (fp_line (start 2.54 -1.5875) (end -2.2225 -1.5875) (layer F.Fab) (width 0.18))
  (fp_line (start 2.54 1.5875) (end 2.54 -1.5875) (layer F.Fab) (width 0.18))
  (fp_line (start -2.2225 1.5875) (end 2.54 1.5875) (layer F.Fab) (width 0.18))
  (fp_line (start -2.54 1.27) (end -2.2225 1.5875) (layer F.Fab) (width 0.18))
  (fp_line (start -2.54 -1.27) (end -2.54 1.27) (layer F.Fab) (width 0.18))
  (fp_line (start -2.2225 -1.5875) (end -2.54 -1.27) (layer F.Fab) (width 0.18))
  (fp_line (start 2.63 1.6775) (end -2.63 1.6775) (layer Dwgs.User) (width 0.05))
  (fp_line (start 2.63 -1.6775) (end 2.63 1.6775) (layer Dwgs.User) (width 0.05))
  (fp_line (start -2.63 -1.6775) (end 2.63 -1.6775) (layer Dwgs.User) (width 0.05))
  (fp_line (start -2.63 1.6775) (end -2.63 -1.6775) (layer Dwgs.User) (width 0.05))
  (pad - smd rect (at 1.3462 0) (size 1.5748 2.54) (layers F.Cu F.Paste F.Mask)
    (solder_mask_margin 0.1016) (clearance 0.2032) (zone_connect 2))
  (pad + smd rect (at -1.3462 0) (size 1.5748 2.54) (layers F.Cu F.Paste F.Mask)
    (solder_mask_margin 0.1016) (clearance 0.2032) (zone_connect 2))
  (model ${KISYS3DMOD}/Capacitor_Tantalum_SMD.3dshapes/CP_EIA-3528-21_Kemet-B.wrl
    (at (xyz 0 0 0))
    (scale (xyz 1 1 1))
    (rotate (xyz 0 0 0))
  )
)
