(module CON254W80L508T254H600P (layer F.Cu) (tedit 5E8B9435)
  (attr smd)
  (fp_text reference REF** (at 3.9497 -0.2413 unlocked) (layer F.SilkS)
    (effects (font (size 0.316586 0.332994) (thickness 0.0254)))
  )
  (fp_text value CON254W80L508T254H600P (at -1.0287 -0.0381 unlocked) (layer F.SilkS) hide
    (effects (font (size 0.316586 0.332994) (thickness 0.0254)))
  )
  (fp_circle (center -1.27 0) (end -0.5842 0) (layer B.Fab) (width 0.1778))
  (fp_circle (center 1.27 0) (end 1.9558 0) (layer B.Fab) (width 0.1778))
  (fp_circle (center -1.27 0) (end -0.5842 0) (layer F.Fab) (width 0.1778))
  (fp_circle (center 1.27 0) (end 1.9558 0) (layer F.Fab) (width 0.1778))
  (fp_line (start -2.54 1.2446) (end 2.54 1.2446) (layer F.SilkS) (width 0.1778))
  (fp_line (start -2.54 1.2446) (end -2.54 -1.2446) (layer F.SilkS) (width 0.1778))
  (fp_line (start 2.54 1.2446) (end 2.54 -1.2446) (layer F.SilkS) (width 0.1778))
  (fp_line (start -2.54 -1.2446) (end 2.54 -1.2446) (layer F.SilkS) (width 0.1778))
  (fp_line (start -2.54 1.27) (end 2.54 1.27) (layer F.Fab) (width 0.1778))
  (fp_line (start -2.54 1.27) (end -2.54 -1.27) (layer F.Fab) (width 0.1778))
  (fp_line (start 2.54 1.27) (end 2.54 -1.27) (layer F.Fab) (width 0.1778))
  (fp_line (start -2.54 -1.27) (end 2.54 -1.27) (layer F.Fab) (width 0.1778))
  (pad 2 thru_hole circle (at 1.27 0) (size 1.778 1.778) (drill 0.9906) (layers *.Cu *.Mask))
  (pad 1 thru_hole circle (at -1.27 0) (size 1.778 1.778) (drill 0.9906) (layers *.Cu *.Mask))
  (model "${KIPRJMOD}/../Library/Footprints.3dshapes/5078_ACP-D-254-1-02-65.stp"
    (offset (xyz -2.5 -1.3 0))
    (scale (xyz 1 1 1))
    (rotate (xyz 0 0 0))
  )
)
