(module CR1220-3000 placed (layer F.Cu) (tedit 5EC6992A)
  (fp_text reference G1 (at -1.3175 0.4325) (layer F.SilkS)
    (effects (font (size 1.2 1.2) (thickness 0.1)) (justify left bottom))
  )
  (fp_text value BAT-12-3000 (at 0 2) (layer F.Fab) hide
    (effects (font (size 1 1) (thickness 0.15)))
  )
  (fp_text user + (at -0.635 6.37531) (layer F.SilkS)
    (effects (font (size 1 1) (thickness 0.254)) (justify left))
  )
  (fp_poly (pts (xy -6.477 -1.651) (xy -6.477 -12.065) (xy 6.604 -12.065) (xy 6.604 -1.524)
    (xy 9.525 -1.524) (xy 9.525 1.651) (xy 6.604 1.651) (xy 6.604 6.604)
    (xy -6.604 6.604) (xy -6.604 1.651) (xy -9.525 1.651) (xy -9.525 -1.651)
    (xy -6.477 -1.651)) (layer F.Fab) (width 0.02))
  (fp_line (start -5.969 -1.905) (end -9.779 -1.905) (layer F.SilkS) (width 0.1))
  (fp_line (start -5.969 1.905) (end -5.969 -1.905) (layer F.SilkS) (width 0.1))
  (fp_line (start -9.779 1.905) (end -5.969 1.905) (layer F.SilkS) (width 0.1))
  (fp_line (start -9.779 -1.905) (end -9.779 1.905) (layer F.SilkS) (width 0.1))
  (fp_line (start 1.905 -1.905) (end -1.905 -1.905) (layer F.SilkS) (width 0.1))
  (fp_line (start 1.905 1.905) (end 1.905 -1.905) (layer F.SilkS) (width 0.1))
  (fp_line (start -1.905 1.905) (end 1.905 1.905) (layer F.SilkS) (width 0.1))
  (fp_line (start -1.905 -1.905) (end -1.905 1.905) (layer F.SilkS) (width 0.1))
  (fp_line (start 9.779 -1.905) (end 5.969 -1.905) (layer F.SilkS) (width 0.1))
  (fp_line (start 9.779 1.905) (end 9.779 -1.905) (layer F.SilkS) (width 0.1))
  (fp_line (start 5.969 1.905) (end 9.779 1.905) (layer F.SilkS) (width 0.1))
  (fp_line (start 5.969 -1.905) (end 5.969 1.905) (layer F.SilkS) (width 0.1))
  (fp_line (start 6.604 6.604) (end 6.604 -6.604) (layer F.SilkS) (width 0.1))
  (fp_line (start -6.604 6.604) (end 6.604 6.604) (layer F.SilkS) (width 0.1))
  (fp_line (start -6.604 -6.604) (end -6.604 6.604) (layer F.SilkS) (width 0.1))
  (fp_line (start -5.588 -6.604) (end -6.604 -6.604) (layer F.SilkS) (width 0.1))
  (fp_line (start -3.556 -5.334) (end -5.588 -6.604) (layer F.SilkS) (width 0.1))
  (fp_line (start 3.556 -5.334) (end -3.556 -5.334) (layer F.SilkS) (width 0.1))
  (fp_line (start 5.588 -6.604) (end 3.556 -5.334) (layer F.SilkS) (width 0.1))
  (fp_line (start 6.604 -6.604) (end 5.588 -6.604) (layer F.SilkS) (width 0.1))
  (fp_line (start -6.604 -1.651) (end -9.525 -1.651) (layer F.SilkS) (width 0.1))
  (fp_line (start -6.604 1.651) (end -6.604 -1.651) (layer F.SilkS) (width 0.1))
  (fp_line (start -9.525 1.651) (end -6.604 1.651) (layer F.SilkS) (width 0.1))
  (fp_line (start -9.525 -1.651) (end -9.525 1.651) (layer F.SilkS) (width 0.1))
  (fp_line (start 6.604 1.651) (end 9.525 1.651) (layer F.SilkS) (width 0.3048))
  (fp_line (start 6.604 -1.524) (end 6.604 1.651) (layer F.SilkS) (width 0.3048))
  (fp_line (start 9.525 -1.524) (end 6.604 -1.524) (layer F.SilkS) (width 0.3048))
  (fp_line (start 9.525 1.651) (end 9.525 -1.524) (layer F.SilkS) (width 0.3048))
  (fp_line (start 5.382 2.4125) (end 5.382 3.6825) (layer F.Fab) (width 0.18))
  (fp_line (start 4.747 2.9205) (end 6.017 2.9205) (layer F.Fab) (width 0.18))
  (fp_line (start -6.604 -6.604) (end -6.604 6.604) (layer F.Fab) (width 0.18))
  (fp_line (start -5.588 -6.604) (end -6.604 -6.604) (layer F.Fab) (width 0.18))
  (fp_line (start -3.5 -5.334) (end -5.588 -6.604) (layer F.Fab) (width 0.18))
  (fp_line (start 3.5 -5.334) (end -3.5 -5.334) (layer F.Fab) (width 0.18))
  (fp_line (start 5.588 -6.604) (end 3.5 -5.334) (layer F.Fab) (width 0.18))
  (fp_line (start 6.604 -6.604) (end 5.588 -6.604) (layer F.Fab) (width 0.18))
  (fp_line (start 6.604 6.604) (end 6.604 -6.604) (layer F.Fab) (width 0.18))
  (fp_line (start -6.604 6.604) (end 6.604 6.604) (layer F.Fab) (width 0.18))
  (fp_line (start 10.033 6.694) (end -10.033 6.694) (layer Dwgs.User) (width 0.05))
  (fp_line (start 10.033 -12.065) (end 10.033 6.694) (layer Dwgs.User) (width 0.05))
  (fp_line (start -10.033 -12.065) (end 10.033 -12.065) (layer Dwgs.User) (width 0.05))
  (fp_line (start -10.033 6.694) (end -10.033 -12.065) (layer Dwgs.User) (width 0.05))
  (fp_arc (start 7.874 0) (end 8.509 0) (angle 360) (layer F.SilkS) (width 0.1))
  (fp_arc (start -7.87399 0) (end -7.239 0) (angle 360) (layer F.SilkS) (width 0.1))
  (fp_arc (start 0 -1.009947) (end -3.937 -5.715) (angle 79.842493) (layer F.SilkS) (width 0.1))
  (fp_arc (start 0 -1.009947) (end -3.937 -5.715) (angle 79.842493) (layer F.Fab) (width 0.18))
  (pad 3 smd rect (at -7.874 0) (size 3.81 3.81) (layers F.Cu F.Paste F.Mask)
    (solder_mask_margin 0.1016) (clearance 0.2032) (zone_connect 2) (thermal_width 0.3048) (thermal_gap 0.254))
  (pad - smd rect (at 0 0) (size 3.81 3.81) (layers F.Cu F.Paste F.Mask)
    (solder_mask_margin 0.1016) (clearance 0.2032) (zone_connect 2) (thermal_width 0.3048) (thermal_gap 0.254))
  (pad + smd rect (at 7.874 0) (size 3.81 3.81) (layers F.Cu F.Paste F.Mask)
    (solder_mask_margin 0.1016) (clearance 0.2032) (zone_connect 2) (thermal_width 0.3048) (thermal_gap 0.254))
  (model ${KISYS3DMOD}/Battery.3dshapes/BatteryHolder_Keystone_3000_1x12mm.wrl
    (at (xyz 0 0 0))
    (scale (xyz 1 1 1))
    (rotate (xyz 0 0 180))
  )
  (model ${KISYS3DMOD}/Battery.3dshapes/Battery_CR1225.wrl
    (at (xyz 0 0 0))
    (scale (xyz 1 1 1))
    (rotate (xyz 0 0 0))
  )
)
