(module D0603 (layer F.Cu) (tedit 5ED24951)
  (attr smd)
  (fp_text reference REF** (at 1.5 0 -180) (layer F.SilkS)
    (effects (font (size 1.2 1.2) (thickness 0.15)) (justify left))
  )
  (fp_text value D0603 (at -0.25 1.5) (layer F.Fab) hide
    (effects (font (size 1 1) (thickness 0.15)))
  )
  (fp_line (start -1.51875 0.725) (end -1.51875 -1.39) (layer Dwgs.User) (width 0.05))
  (fp_line (start -1.51875 -1.39) (end 1.51875 -1.39) (layer Dwgs.User) (width 0.05))
  (fp_line (start 1.51875 -1.39) (end 1.51875 0.725) (layer Dwgs.User) (width 0.05))
  (fp_line (start 1.51875 0.725) (end -1.51875 0.725) (layer Dwgs.User) (width 0.05))
  (fp_line (start -1.42875 -0.635) (end -1.42875 0.635) (layer F.SilkS) (width 0.18))
  (fp_line (start -1.42875 0.635) (end 1.42875 0.635) (layer F.SilkS) (width 0.18))
  (fp_line (start 1.42875 0.635) (end 1.42875 -0.635) (layer F.SilkS) (width 0.18))
  (fp_line (start 1.42875 -0.635) (end -1.42875 -0.635) (layer F.SilkS) (width 0.18))
  (fp_line (start 1.42875 -0.635) (end 1.42875 0.635) (layer F.CrtYd) (width 0.02))
  (fp_line (start 1.42875 0.635) (end -1.42875 0.635) (layer F.CrtYd) (width 0.02))
  (fp_line (start -1.42875 0.635) (end -1.42875 -0.635) (layer F.CrtYd) (width 0.02))
  (fp_line (start -1.42875 -0.635) (end 1.42875 -0.635) (layer F.CrtYd) (width 0.02))
  (fp_line (start 0.9 -0.4) (end -0.9 -0.4) (layer F.Fab) (width 0.1))
  (fp_line (start -0.9 -0.4) (end -0.9 0.4) (layer F.Fab) (width 0.1))
  (fp_line (start -0.9 0.4) (end 0.9 0.4) (layer F.Fab) (width 0.1))
  (fp_line (start 0.9 0.4) (end 0.9 -0.4) (layer F.Fab) (width 0.1))
  (fp_line (start -0.625 -0.4) (end -0.625 0.4) (layer F.Fab) (width 0.1))
  (fp_line (start 0.625 -0.4) (end 0.625 0.4) (layer F.Fab) (width 0.1))
  (fp_text user K (at 0.625 -0.8) (layer F.SilkS)
    (effects (font (size 1 1) (thickness 0.18)) (justify left))
  )
  (fp_text user K (at 0.625 -0.8) (layer F.Fab)
    (effects (font (size 1 1) (thickness 0.1)) (justify left))
  )
  (pad A smd rect (at -0.825 0) (size 0.8 0.8) (layers F.Cu F.Paste F.Mask)
    (solder_mask_margin 0.1) (zone_connect 2))
  (pad K smd rect (at 0.825 0) (size 0.8 0.8) (layers F.Cu F.Paste F.Mask)
    (solder_mask_margin 0.1) (zone_connect 2))
  (model ${KISYS3DMOD}/LED_SMD.3dshapes/LED_0603_1608Metric.wrl
    (at (xyz 0 0 0))
    (scale (xyz 1 1 1))
    (rotate (xyz 0 0 0))
  )
)
