(module DLP31S-AIROX placed (layer F.Cu) (tedit 5EBE99B9)
  (fp_text reference L8 (at 0.50902 0.90997 -180) (layer F.SilkS)
    (effects (font (size 1.2 1.2) (thickness 0.1)) (justify left bottom))
  )
  (fp_text value SF-BC-DLP31S (at 0 2) (layer F.Fab) hide
    (effects (font (size 1 1) (thickness 0.15)))
  )
  (fp_poly (pts (xy -1.4 -0.875) (xy -0.7 -0.875) (xy -0.7 -0.575) (xy -1.4 -0.575)) (layer F.SilkS) (width 0.1))
  (fp_poly (pts (xy 0.7 -0.875) (xy 1.4 -0.875) (xy 1.4 -0.575) (xy 0.7 -0.575)) (layer F.SilkS) (width 0.1))
  (fp_poly (pts (xy 0.7 0.575) (xy 1.4 0.575) (xy 1.4 0.875) (xy 0.7 0.875)) (layer F.SilkS) (width 0.1))
  (fp_poly (pts (xy -1.4 0.575) (xy -0.7 0.575) (xy -0.7 0.875) (xy -1.4 0.875)) (layer F.SilkS) (width 0.1))
  (fp_poly (pts (xy -1.6 1.5) (xy -1.6 1) (xy -1.8 1) (xy -1.8 -1)
    (xy -1.6 -1) (xy -1.6 -1.5) (xy -0.5 -1.5) (xy -0.5 -1)
    (xy 0.5 -1) (xy 0.5 -1.5) (xy 1.6 -1.5) (xy 1.6 -1)
    (xy 1.8 -1) (xy 1.8 1) (xy 1.6 1) (xy 1.6 1.5)
    (xy 0.5 1.5) (xy 0.5 1) (xy -0.5 1) (xy -0.5 1.5)) (layer F.Fab) (width 0.02))
  (fp_poly (pts (xy -1.675 0.875) (xy -1.675 -0.875) (xy 1.675 -0.875) (xy 1.675 0.875)) (layer F.Fab) (width 0.02))
  (fp_line (start 1.45 0.375) (end 0.65 0.375) (layer F.SilkS) (width 0.1))
  (fp_line (start 1.45 1.325) (end 1.45 0.375) (layer F.SilkS) (width 0.1))
  (fp_line (start 0.65 1.325) (end 1.45 1.325) (layer F.SilkS) (width 0.1))
  (fp_line (start 0.65 0.375) (end 0.65 1.325) (layer F.SilkS) (width 0.1))
  (fp_line (start 1.45 -1.325) (end 0.65 -1.325) (layer F.SilkS) (width 0.1))
  (fp_line (start 1.45 -0.375) (end 1.45 -1.325) (layer F.SilkS) (width 0.1))
  (fp_line (start 0.65 -0.375) (end 1.45 -0.375) (layer F.SilkS) (width 0.1))
  (fp_line (start 0.65 -1.325) (end 0.65 -0.375) (layer F.SilkS) (width 0.1))
  (fp_line (start -0.65 -1.325) (end -1.45 -1.325) (layer F.SilkS) (width 0.1))
  (fp_line (start -0.65 -0.375) (end -0.65 -1.325) (layer F.SilkS) (width 0.1))
  (fp_line (start -1.45 -0.375) (end -0.65 -0.375) (layer F.SilkS) (width 0.1))
  (fp_line (start -1.45 -1.325) (end -1.45 -0.375) (layer F.SilkS) (width 0.1))
  (fp_line (start -0.65 0.375) (end -1.45 0.375) (layer F.SilkS) (width 0.1))
  (fp_line (start -0.65 1.325) (end -0.65 0.375) (layer F.SilkS) (width 0.1))
  (fp_line (start -1.45 1.325) (end -0.65 1.325) (layer F.SilkS) (width 0.1))
  (fp_line (start -1.45 0.375) (end -1.45 1.325) (layer F.SilkS) (width 0.1))
  (fp_line (start 0.3 0.55) (end 0.3 0.7) (layer F.SilkS) (width 0.01))
  (fp_line (start 0.15 0.55) (end 0.3 0.55) (layer F.SilkS) (width 0.01))
  (fp_line (start 0.15 0.3) (end 0.15 0.55) (layer F.SilkS) (width 0.01))
  (fp_line (start 0.3 0.3) (end 0.15 0.3) (layer F.SilkS) (width 0.01))
  (fp_line (start 0.3 0.25) (end 0.3 0.3) (layer F.SilkS) (width 0.01))
  (fp_line (start 0.15 0.25) (end 0.3 0.25) (layer F.SilkS) (width 0.01))
  (fp_line (start 0.15 0) (end 0.15 0.25) (layer F.SilkS) (width 0.01))
  (fp_line (start 0.3 0) (end 0.15 0) (layer F.SilkS) (width 0.01))
  (fp_line (start 0.3 -0.05) (end 0.3 0) (layer F.SilkS) (width 0.01))
  (fp_line (start 0.15 -0.05) (end 0.3 -0.05) (layer F.SilkS) (width 0.01))
  (fp_line (start 0.15 -0.3) (end 0.15 -0.05) (layer F.SilkS) (width 0.01))
  (fp_line (start 0.3 -0.3) (end 0.15 -0.3) (layer F.SilkS) (width 0.01))
  (fp_line (start 0.3 -0.35) (end 0.3 -0.3) (layer F.SilkS) (width 0.01))
  (fp_line (start 0.15 -0.35) (end 0.3 -0.35) (layer F.SilkS) (width 0.01))
  (fp_line (start 0.15 -0.6) (end 0.15 -0.35) (layer F.SilkS) (width 0.01))
  (fp_line (start 0.3 -0.6) (end 0.15 -0.6) (layer F.SilkS) (width 0.01))
  (fp_line (start 0.3 -0.7) (end 0.3 -0.6) (layer F.SilkS) (width 0.01))
  (fp_line (start -0.3 -0.6) (end -0.3 -0.7) (layer F.SilkS) (width 0.01))
  (fp_line (start -0.15 -0.6) (end -0.3 -0.6) (layer F.SilkS) (width 0.01))
  (fp_line (start -0.15 -0.35) (end -0.15 -0.6) (layer F.SilkS) (width 0.01))
  (fp_line (start -0.3 -0.35) (end -0.15 -0.35) (layer F.SilkS) (width 0.01))
  (fp_line (start -0.3 -0.3) (end -0.3 -0.35) (layer F.SilkS) (width 0.01))
  (fp_line (start -0.15 -0.3) (end -0.3 -0.3) (layer F.SilkS) (width 0.01))
  (fp_line (start -0.15 -0.05) (end -0.15 -0.3) (layer F.SilkS) (width 0.01))
  (fp_line (start -0.3 -0.05) (end -0.15 -0.05) (layer F.SilkS) (width 0.01))
  (fp_line (start -0.3 0) (end -0.3 -0.05) (layer F.SilkS) (width 0.01))
  (fp_line (start -0.15 0) (end -0.3 0) (layer F.SilkS) (width 0.01))
  (fp_line (start -0.15 0.25) (end -0.15 0) (layer F.SilkS) (width 0.01))
  (fp_line (start -0.3 0.25) (end -0.15 0.25) (layer F.SilkS) (width 0.01))
  (fp_line (start -0.3 0.3) (end -0.3 0.25) (layer F.SilkS) (width 0.01))
  (fp_line (start -0.15 0.3) (end -0.3 0.3) (layer F.SilkS) (width 0.01))
  (fp_line (start -0.15 0.55) (end -0.15 0.3) (layer F.SilkS) (width 0.01))
  (fp_line (start -0.3 0.55) (end -0.15 0.55) (layer F.SilkS) (width 0.01))
  (fp_line (start -0.3 0.7) (end -0.3 0.55) (layer F.SilkS) (width 0.01))
  (fp_line (start -0.05 -0.6) (end -0.05 0.7) (layer F.SilkS) (width 0.01))
  (fp_line (start 0.05 0.7) (end 0.05 -0.6) (layer F.SilkS) (width 0.01))
  (fp_line (start 1.7 0.875) (end 1.7 -0.875) (layer F.SilkS) (width 0.1))
  (fp_line (start -1.675 0.875) (end 1.7 0.875) (layer F.SilkS) (width 0.1))
  (fp_line (start -1.675 -0.875) (end -1.675 0.875) (layer F.SilkS) (width 0.1))
  (fp_line (start 1.7 -0.875) (end -1.675 -0.875) (layer F.SilkS) (width 0.1))
  (fp_line (start 0.5 -0.9) (end -0.5 -0.9) (layer F.Fab) (width 0.18))
  (fp_line (start 1.7 -0.9) (end 1.6 -0.9) (layer F.Fab) (width 0.18))
  (fp_line (start 1.7 0.9) (end 1.7 -0.9) (layer F.Fab) (width 0.18))
  (fp_line (start 1.6 0.9) (end 1.7 0.9) (layer F.Fab) (width 0.18))
  (fp_line (start -0.5 0.9) (end 0.5 0.9) (layer F.Fab) (width 0.18))
  (fp_line (start -1.7 0.9) (end -1.6 0.9) (layer F.Fab) (width 0.18))
  (fp_line (start -1.7 -0.9) (end -1.7 0.9) (layer F.Fab) (width 0.18))
  (fp_line (start -1.6 -0.9) (end -1.7 -0.9) (layer F.Fab) (width 0.18))
  (fp_line (start 1.8 1.5) (end -1.8 1.5) (layer Dwgs.User) (width 0.05))
  (fp_line (start 1.8 -1.5) (end 1.8 1.5) (layer Dwgs.User) (width 0.05))
  (fp_line (start -1.8 -1.5) (end 1.8 -1.5) (layer Dwgs.User) (width 0.05))
  (fp_line (start -1.8 1.5) (end -1.8 -1.5) (layer Dwgs.User) (width 0.05))
  (fp_arc (start -0.4 0.65) (end -0.35 0.65) (angle 360) (layer F.SilkS) (width 0.01))
  (fp_arc (start 0.45 0.65) (end 0.5 0.65) (angle 360) (layer F.SilkS) (width 0.01))
  (fp_arc (start 0.4 0.6) (end 0.45 0.6) (angle 360) (layer F.Fab) (width 0.18))
  (fp_arc (start -0.4 0.6) (end -0.35 0.6) (angle 360) (layer F.Fab) (width 0.18))
  (pad 4 smd rect (at 1.05 0.85) (size 0.8 0.95) (layers F.Cu F.Paste F.Mask)
    (solder_mask_margin 0.1) (zone_connect 2))
  (pad 3 smd rect (at 1.05 -0.85) (size 0.8 0.95) (layers F.Cu F.Paste F.Mask)
    (solder_mask_margin 0.1) (zone_connect 2))
  (pad 2 smd rect (at -1.05 -0.85) (size 0.8 0.95) (layers F.Cu F.Paste F.Mask)
    (solder_mask_margin 0.1) (zone_connect 2))
  (pad 1 smd rect (at -1.05 0.85 180) (size 0.8 0.95) (layers F.Cu F.Paste F.Mask)
    (solder_mask_margin 0.1) (zone_connect 2))
  (model ${KIPRJMOD}/../Library/Footprints.3dshapes/IND_DLP31S_1206_MUR.step
    (at (xyz 0 0 0))
    (scale (xyz 1 1 1))
    (rotate (xyz 0 0 90))
  )
)
