(module DO216AA (layer F.Cu) (tedit 5ED249FE)
  (tags diode)
  (attr smd)
  (fp_text reference REF** (at 0.5 -1.75 180) (layer F.SilkS)
    (effects (font (size 1.2 1.2) (thickness 0.15)) (justify left))
  )
  (fp_text value DO216AA (at 0 2) (layer F.Fab) hide
    (effects (font (size 1 1) (thickness 0.15)))
  )
  (fp_line (start -3.29 1.59) (end -3.29 -1.59) (layer Dwgs.User) (width 0.05))
  (fp_line (start -3.29 -1.59) (end 2.59 -1.59) (layer Dwgs.User) (width 0.05))
  (fp_line (start 2.59 -1.59) (end 2.59 1.59) (layer Dwgs.User) (width 0.05))
  (fp_line (start 2.59 1.59) (end -3.29 1.59) (layer Dwgs.User) (width 0.05))
  (fp_line (start -3.2 1.5) (end -3.2 -1.5) (layer F.SilkS) (width 0.18))
  (fp_line (start -3.2 -1.5) (end 0.3 -1.5) (layer F.SilkS) (width 0.18))
  (fp_line (start 0.3 -1.5) (end 0.3 -0.9) (layer F.SilkS) (width 0.18))
  (fp_line (start 0.3 -0.9) (end 2.5 -0.9) (layer F.SilkS) (width 0.18))
  (fp_line (start 2.5 -0.9) (end 2.5 0.9) (layer F.SilkS) (width 0.18))
  (fp_line (start 2.5 0.9) (end 0.3 0.9) (layer F.SilkS) (width 0.18))
  (fp_line (start 0.3 0.9) (end 0.3 1.5) (layer F.SilkS) (width 0.18))
  (fp_line (start 0.3 1.5) (end -3.2 1.5) (layer F.SilkS) (width 0.18))
  (fp_line (start 2.5 -0.9) (end 2.5 0.9) (layer F.CrtYd) (width 0.02))
  (fp_line (start 2.5 0.9) (end 0.3 0.9) (layer F.CrtYd) (width 0.02))
  (fp_line (start 0.3 0.9) (end 0.3 1.5) (layer F.CrtYd) (width 0.02))
  (fp_line (start 0.3 1.5) (end -3.2 1.5) (layer F.CrtYd) (width 0.02))
  (fp_line (start -3.2 1.5) (end -3.2 -1.5) (layer F.CrtYd) (width 0.02))
  (fp_line (start -3.2 -1.5) (end 0.3 -1.5) (layer F.CrtYd) (width 0.02))
  (fp_line (start 0.3 -1.5) (end 0.3 -0.9) (layer F.CrtYd) (width 0.02))
  (fp_line (start 0.3 -0.9) (end 2.5 -0.9) (layer F.CrtYd) (width 0.02))
  (fp_line (start -0.2 -1.1) (end -0.2 1.1) (layer F.Fab) (width 0.1))
  (fp_line (start -0.2 1.1) (end -2.1 1.1) (layer F.Fab) (width 0.1))
  (fp_line (start -2.1 1.1) (end -2.1 0.5) (layer F.Fab) (width 0.1))
  (fp_line (start -2.1 0.5) (end -2.6 0.5) (layer F.Fab) (width 0.1))
  (fp_line (start -2.6 0.5) (end -2.6 -0.5) (layer F.Fab) (width 0.1))
  (fp_line (start -2.6 -0.5) (end -2.1 -0.5) (layer F.Fab) (width 0.1))
  (fp_line (start -2.1 -0.5) (end -2.1 -1.1) (layer F.Fab) (width 0.1))
  (fp_line (start -2.1 -1.1) (end -0.15 -1.1) (layer F.Fab) (width 0.1))
  (fp_line (start -2.1 -0.5) (end -2.1 0.5) (layer F.Fab) (width 0.1))
  (fp_line (start -0.2 -0.3) (end 1.4 -0.3) (layer F.Fab) (width 0.1))
  (fp_line (start 1.4 -0.3) (end 1.4 0.3) (layer F.Fab) (width 0.1))
  (fp_line (start 1.4 0.3) (end -0.2 0.3) (layer F.Fab) (width 0.1))
  (fp_line (start -1.6 -1.1) (end -1.6 1.1) (layer F.Fab) (width 0.1))
  (pad A smd rect (at 1.4425 0 90) (size 1.27 1.5) (layers F.Cu F.Paste F.Mask)
    (solder_mask_margin 0.1) (zone_connect 2))
  (pad K smd rect (at -1.4425 0 90) (size 2.54 3) (layers F.Cu F.Paste F.Mask)
    (solder_mask_margin 0.1) (zone_connect 2))
  (model ${KIPRJMOD}/../Library/Footprints.3dshapes/ONSEMI_POWERMITE.stp
    (at (xyz 0 0 0))
    (scale (xyz 1 1 1))
    (rotate (xyz 0 0 180))
  )
)
