(module EPG-1B-306-HLN_100001100001100001100001100001100001101111101111101111101111 placed (layer F.Cu) (tedit 5EBE99B9)
  (fp_text reference J5 (at 0 -0.6215 90) (layer F.SilkS)
    (effects (font (size 1.2 1.2) (thickness 0.1)) (justify left bottom))
  )
  (fp_text value F-CO-EPG1B306HLN (at 0 2) (layer F.Fab) hide
    (effects (font (size 1 1) (thickness 0.15)))
  )
  (fp_arc (start -3.81 1.27) (end -3.0226 1.27) (angle 360) (layer B.Fab) (width 0.02))
  (fp_arc (start -1.27 1.27) (end -0.4826 1.27) (angle 360) (layer B.Fab) (width 0.02))
  (fp_arc (start 1.27 1.27) (end 2.0574 1.27) (angle 360) (layer B.Fab) (width 0.02))
  (fp_arc (start -3.81 -1.27) (end -3.0226 -1.27) (angle 360) (layer B.Fab) (width 0.02))
  (fp_arc (start -1.27 -1.27) (end -0.4826 -1.27) (angle 360) (layer B.Fab) (width 0.02))
  (fp_arc (start 1.27 -1.27) (end 2.0574 -1.27) (angle 360) (layer B.Fab) (width 0.02))
  (fp_arc (start -3.81 3.81) (end -3.0226 3.81) (angle 360) (layer B.Fab) (width 0.02))
  (fp_arc (start 3.81 3.81) (end 4.5974 3.81) (angle 360) (layer B.Fab) (width 0.02))
  (fp_arc (start 3.81 -3.81) (end 4.5974 -3.81) (angle 360) (layer B.Fab) (width 0.02))
  (fp_arc (start -3.81 -3.81) (end -3.0226 -3.81) (angle 360) (layer B.Fab) (width 0.02))
  (fp_line (start -6.74 6.39) (end -6.74 -6.39) (layer Dwgs.User) (width 0.05))
  (fp_line (start -6.74 -6.39) (end 20.29 -6.39) (layer Dwgs.User) (width 0.05))
  (fp_line (start 20.29 -6.39) (end 20.29 6.39) (layer Dwgs.User) (width 0.05))
  (fp_line (start 20.29 6.39) (end -6.74 6.39) (layer Dwgs.User) (width 0.05))
  (fp_line (start -6.6 6.3) (end 6.6 6.3) (layer F.Fab) (width 0.18))
  (fp_line (start 6.6 6.3) (end 6.6 -6.3) (layer F.Fab) (width 0.18))
  (fp_line (start 6.6 -6.3) (end -6.65 -6.3) (layer F.Fab) (width 0.18))
  (fp_line (start -6.65 -6.3) (end -6.65 6.3) (layer F.Fab) (width 0.18))
  (fp_line (start 6.6 6) (end 20.2 6) (layer F.Fab) (width 0.18))
  (fp_line (start 20.2 6) (end 20.2 -6) (layer F.Fab) (width 0.18))
  (fp_line (start 20.2 -6) (end 6.6 -6) (layer F.Fab) (width 0.18))
  (fp_line (start 6.6 -6) (end 6.6 6) (layer F.Fab) (width 0.18))
  (fp_line (start -6.6 6.3) (end 6.6 6.3) (layer F.SilkS) (width 0.1))
  (fp_line (start 6.6 6.3) (end 6.6 -6.3) (layer F.SilkS) (width 0.1))
  (fp_line (start 6.6 -6.3) (end -6.65 -6.3) (layer F.SilkS) (width 0.1))
  (fp_line (start -6.65 -6.3) (end -6.65 6.3) (layer F.SilkS) (width 0.1))
  (fp_line (start 6.6 6) (end 20.2 6) (layer F.SilkS) (width 0.1))
  (fp_line (start 20.2 6) (end 20.2 -6) (layer F.SilkS) (width 0.1))
  (fp_line (start 20.2 -6) (end 6.6 -6) (layer F.SilkS) (width 0.1))
  (fp_line (start 6.6 -6) (end 6.6 6) (layer F.SilkS) (width 0.1))
  (fp_poly (pts (xy -6.65 -6.3) (xy 20.2 -6.3) (xy 20.2 6.3) (xy -6.65 6.3)) (layer F.Fab) (width 0.02))
  (pad 1 thru_hole circle (at -3.81 1.27) (size 1.5748 1.5748) (drill 0.9144) (layers F&B.Cu *.Mask)
    (solder_mask_margin 0.1016) (clearance 0.1524) (zone_connect 2) (thermal_width 0.2032) (thermal_gap 0.2032))
  (pad 2 thru_hole circle (at -1.27 1.27) (size 1.5748 1.5748) (drill 0.9144) (layers F&B.Cu *.Mask)
    (solder_mask_margin 0.1016) (clearance 0.1524) (zone_connect 2) (thermal_width 0.2032) (thermal_gap 0.2032))
  (pad 3 thru_hole circle (at 1.27 1.27) (size 1.5748 1.5748) (drill 0.9144) (layers F&B.Cu *.Mask)
    (solder_mask_margin 0.1016) (clearance 0.1524) (zone_connect 2) (thermal_width 0.2032) (thermal_gap 0.2032))
  (pad 4 thru_hole circle (at -3.81 -1.27) (size 1.5748 1.5748) (drill 0.9144) (layers F&B.Cu *.Mask)
    (solder_mask_margin 0.1016) (clearance 0.1524) (zone_connect 2) (thermal_width 0.2032) (thermal_gap 0.2032))
  (pad 5 thru_hole circle (at -1.27 -1.27) (size 1.5748 1.5748) (drill 0.9144) (layers F&B.Cu *.Mask)
    (solder_mask_margin 0.1016) (clearance 0.1524) (zone_connect 2) (thermal_width 0.2032) (thermal_gap 0.2032))
  (pad 6 thru_hole circle (at 1.27 -1.27) (size 1.5748 1.5748) (drill 0.9144) (layers F&B.Cu *.Mask)
    (solder_mask_margin 0.1016) (clearance 0.1524) (zone_connect 2) (thermal_width 0.2032) (thermal_gap 0.2032))
  (pad 7 thru_hole circle (at -3.81 3.81) (size 1.5748 1.5748) (drill 0.9144) (layers *.Mask F.Cu In2.Cu In3.Cu In4.Cu B.Cu)
    (solder_mask_margin 0.1016) (clearance 0.1524) (zone_connect 2) (thermal_width 0.2032) (thermal_gap 0.2032))
  (pad 8 thru_hole circle (at 3.81 3.81) (size 1.5748 1.5748) (drill 0.9144) (layers *.Mask F.Cu In2.Cu In3.Cu In4.Cu B.Cu)
    (solder_mask_margin 0.1016) (clearance 0.1524) (zone_connect 2) (thermal_width 0.2032) (thermal_gap 0.2032))
  (pad 9 thru_hole circle (at 3.81 -3.81) (size 1.5748 1.5748) (drill 0.9144) (layers *.Mask F.Cu In2.Cu In3.Cu In4.Cu B.Cu)
    (solder_mask_margin 0.1016) (clearance 0.1524) (zone_connect 2) (thermal_width 0.2032) (thermal_gap 0.2032))
  (pad 10 thru_hole circle (at -3.81 -3.81) (size 1.5748 1.5748) (drill 0.9144) (layers *.Mask F.Cu In2.Cu In3.Cu In4.Cu B.Cu)
    (solder_mask_margin 0.1016) (clearance 0.1524) (zone_connect 2) (thermal_width 0.2032) (thermal_gap 0.2032))
  (model ${KIPRJMOD}/../Library/Footprints.3dshapes/GF1L0C_P06QF00_0000_cp.wrl
    (at (xyz 0 0 0))
    (scale (xyz 1 1 1))
    (rotate (xyz 0 0 0))
  )
)
