(module FILM30_HORIZONTAL locked placed (layer F.Cu) (tedit 5EBE99B9)
  (fp_text reference cam1 (at 0 0) (layer F.SilkS) hide
    (effects (font (size 1 1) (thickness 0.15)))
  )
  (fp_text value FILM30_HORIZONTAL (at 0 2) (layer F.Fab) hide
    (effects (font (size 1 1) (thickness 0.15)))
  )
  (fp_text user "Face 3" (at 18 138.99594) (layer In2.Cu)
    (effects (font (size 1 1) (thickness 0.05)) (justify left mirror))
  )
  (fp_text user "Face 2" (at -18 138.99594) (layer In1.Cu)
    (effects (font (size 1 1) (thickness 0.05)) (justify left))
  )
  (fp_text user Detourage (at -18 138.99594) (layer Dwgs.User)
    (effects (font (size 1 1) (thickness 0.05)) (justify left))
  )
  (fp_text user "Client :" (at 62.5 143.99594) (layer B.Cu)
    (effects (font (size 1 1) (thickness 0.05)) (justify left mirror))
  )
  (fp_text user "Fait par :  FEE" (at 18 143.99594) (layer B.Cu)
    (effects (font (size 1 1) (thickness 0.05)) (justify left mirror))
  )
  (fp_text user "Carte :" (at 62.5 138.99594) (layer B.Cu)
    (effects (font (size 1 1) (thickness 0.05)) (justify left mirror))
  )
  (fp_text user "Date :" (at -8 143.99594) (layer B.Cu)
    (effects (font (size 1 1) (thickness 0.05)) (justify left mirror))
  )
  (fp_text user "Dossier N`:" (at -34 143.99594) (layer B.Cu)
    (effects (font (size 1 1) (thickness 0.05)) (justify left mirror))
  )
  (fp_text user "Ech : 1/1" (at -34 138.99594) (layer B.Cu)
    (effects (font (size 1 1) (thickness 0.05)) (justify left mirror))
  )
  (fp_text user "Ind :" (at -51 138.99594) (layer B.Cu)
    (effects (font (size 1 1) (thickness 0.05)) (justify left mirror))
  )
  (fp_text user "France Etudes Electroniques " (at -180.975 142.55492) (layer B.Cu)
    (effects (font (size 1 1) (thickness 0.05)) (justify mirror))
  )
  (fp_text user "Client :" (at -62.5 143.99594) (layer F.Cu)
    (effects (font (size 1 1) (thickness 0.05)) (justify left))
  )
  (fp_text user "Fait par :  FEE" (at -18 143.99594) (layer F.Cu)
    (effects (font (size 1 1) (thickness 0.05)) (justify left))
  )
  (fp_text user "Carte :" (at -62.5 138.99594) (layer F.Cu)
    (effects (font (size 1 1) (thickness 0.05)) (justify left))
  )
  (fp_text user "Date :" (at 8 143.99594) (layer F.Cu)
    (effects (font (size 1 1) (thickness 0.05)) (justify left))
  )
  (fp_text user "Dossier N`:" (at 34 143.99594) (layer F.Cu)
    (effects (font (size 1 1) (thickness 0.05)) (justify left))
  )
  (fp_text user "Ech : 1/1" (at 34 138.99594) (layer F.Cu)
    (effects (font (size 1 1) (thickness 0.05)) (justify left))
  )
  (fp_text user "Ind :" (at 51 138.99594) (layer F.Cu)
    (effects (font (size 1 1) (thickness 0.05)) (justify left))
  )
  (fp_text user "France Etudes Electroniques " (at -179.705 142.55492) (layer F.Cu)
    (effects (font (size 1 1) (thickness 0.05)))
  )
  (fp_text user "Vernis epargne face soudures" (at 18 138.99594) (layer B.Mask)
    (effects (font (size 1 1) (thickness 0.05)) (justify left mirror))
  )
  (fp_text user "Pate a braser face composants" (at -18 138.99594) (layer F.Paste)
    (effects (font (size 1 1) (thickness 0.05)) (justify left))
  )
  (fp_text user "Vernis epargne face composants" (at -18 138.99594) (layer F.Mask)
    (effects (font (size 1 1) (thickness 0.05)) (justify left))
  )
  (fp_text user "Serigraphie face composants" (at -18 138.99594) (layer F.Fab)
    (effects (font (size 1 1) (thickness 0.05)) (justify left))
  )
  (fp_text user "Face composants" (at -18 138.99594) (layer F.Cu)
    (effects (font (size 1 1) (thickness 0.05)) (justify left))
  )
  (fp_line (start -181.5338 136.53442) (end -181.06727 136.59998) (layer B.Cu) (width 0.02))
  (fp_line (start -180.66971 138.23083) (end -181.75084 138.07891) (layer B.Cu) (width 0.02))
  (fp_line (start -179.98345 139.32475) (end -177.10041 139.7299) (layer B.Cu) (width 0.02))
  (fp_line (start -181.43387 138.43844) (end -180.71312 138.53972) (layer B.Cu) (width 0.02))
  (fp_line (start -178.06882 140.64379) (end -181.67261 140.13735) (layer B.Cu) (width 0.02))
  (fp_line (start -178.18347 129.97029) (end -174.06483 130.54908) (layer B.Cu) (width 0.02))
  (fp_line (start -175.27625 132.16382) (end -177.7087 131.82199) (layer B.Cu) (width 0.02))
  (fp_line (start -181.89967 131.75804) (end -174.83377 132.75099) (layer B.Cu) (width 0.02))
  (fp_line (start -174.58575 134.25584) (end -182.10225 133.19956) (layer B.Cu) (width 0.02))
  (fp_line (start -169.89444 134.49511) (end -170.22723 136.86332) (layer B.Cu) (width 0.02))
  (fp_line (start -171.23296 134.307) (end -169.89444 134.49511) (layer B.Cu) (width 0.02))
  (fp_line (start -181.02386 136.29108) (end -181.42625 136.23453) (layer B.Cu) (width 0.02))
  (fp_line (start -181.22368 134.79301) (end -180.6652 134.8715) (layer B.Cu) (width 0.02))
  (fp_line (start 187.96 137.16) (end 191.16 137.16) (layer B.Cu) (width 0.02))
  (fp_line (start 187.96 140.36) (end 187.96 137.16) (layer B.Cu) (width 0.02))
  (fp_line (start 187.96 137.16) (end 184.76 137.16) (layer B.Cu) (width 0.02))
  (fp_line (start 187.96 133.96) (end 187.96 137.16) (layer B.Cu) (width 0.02))
  (fp_line (start 187.96 -137.16) (end 191.16 -137.16) (layer B.Cu) (width 0.02))
  (fp_line (start 187.96 -133.96) (end 187.96 -137.16) (layer B.Cu) (width 0.02))
  (fp_line (start 187.96 -137.16) (end 184.76 -137.16) (layer B.Cu) (width 0.02))
  (fp_line (start 187.96 -140.36) (end 187.96 -137.16) (layer B.Cu) (width 0.02))
  (fp_line (start -185.42 -137.16) (end -182.22 -137.16) (layer B.Cu) (width 0.02))
  (fp_line (start -185.42 -133.96) (end -185.42 -137.16) (layer B.Cu) (width 0.02))
  (fp_line (start -185.42 -137.16) (end -188.62 -137.16) (layer B.Cu) (width 0.02))
  (fp_line (start -185.42 -140.36) (end -185.42 -137.16) (layer B.Cu) (width 0.02))
  (fp_line (start -64 135) (end 64 135) (layer B.Cu) (width 0.2))
  (fp_line (start -64 145) (end -64 135) (layer B.Cu) (width 0.2))
  (fp_line (start 64 145) (end -64 145) (layer B.Cu) (width 0.2))
  (fp_line (start 64 135) (end 64 145) (layer B.Cu) (width 0.2))
  (fp_line (start 64 140) (end -64 140) (layer B.Cu) (width 0.2))
  (fp_line (start 20 145) (end 19.5 145) (layer B.Cu) (width 0.2))
  (fp_line (start 20 135) (end 20 145) (layer B.Cu) (width 0.2))
  (fp_line (start -5.5 140) (end -5.5 145) (layer B.Cu) (width 0.2))
  (fp_line (start -32 135) (end -32 145) (layer B.Cu) (width 0.2))
  (fp_line (start -49 135) (end -49 140) (layer B.Cu) (width 0.2))
  (fp_line (start -174.371 142.621) (end -180.086 142.621) (layer B.Cu) (width 0.254))
  (fp_line (start -176.95701 135.8126) (end -179.84004 135.40745) (layer B.Cu) (width 0.2032))
  (fp_line (start -179.88345 135.71635) (end -177.00041 136.12149) (layer B.Cu) (width 0.2032))
  (fp_line (start -177.21746 137.66598) (end -180.10049 137.26083) (layer B.Cu) (width 0.2032))
  (fp_line (start -179.57759 137.64931) (end -177.26086 137.97487) (layer B.Cu) (width 0.2032))
  (fp_line (start -175.66153 139.66962) (end -179.78016 139.09083) (layer B.Cu) (width 0.2032))
  (fp_line (start -179.63746 133.96593) (end -174.95252 134.62429) (layer B.Cu) (width 0.2032))
  (fp_line (start -195 -145) (end -195 145) (layer B.Cu) (width 0.254))
  (fp_line (start 195 -145) (end -195 -145) (layer B.Cu) (width 0.254))
  (fp_line (start 195 145) (end 195 -145) (layer B.Cu) (width 0.254))
  (fp_line (start -195 145) (end 195 145) (layer B.Cu) (width 0.254))
  (fp_line (start -180.0148 134.8715) (end -179.45632 134.79301) (layer F.Cu) (width 0.02))
  (fp_line (start -179.25375 136.23453) (end -179.65614 136.29108) (layer F.Cu) (width 0.02))
  (fp_line (start -190.78558 134.49511) (end -189.44704 134.307) (layer F.Cu) (width 0.02))
  (fp_line (start -190.45279 136.86332) (end -190.78558 134.49511) (layer F.Cu) (width 0.02))
  (fp_line (start -178.57775 133.19956) (end -186.09425 134.25584) (layer F.Cu) (width 0.02))
  (fp_line (start -185.84623 132.75099) (end -178.78033 131.75804) (layer F.Cu) (width 0.02))
  (fp_line (start -182.9713 131.82199) (end -185.40375 132.16382) (layer F.Cu) (width 0.02))
  (fp_line (start -186.61517 130.54908) (end -182.49653 129.97029) (layer F.Cu) (width 0.02))
  (fp_line (start -179.00737 140.13735) (end -182.61116 140.64379) (layer F.Cu) (width 0.02))
  (fp_line (start -179.96688 138.53972) (end -179.24613 138.43844) (layer F.Cu) (width 0.02))
  (fp_line (start -183.57959 139.7299) (end -180.69655 139.32475) (layer F.Cu) (width 0.02))
  (fp_line (start -178.92916 138.07891) (end -180.01029 138.23083) (layer F.Cu) (width 0.02))
  (fp_line (start -179.61273 136.59998) (end -179.1462 136.53442) (layer F.Cu) (width 0.02))
  (fp_line (start 187.96 137.16) (end 191.16 137.16) (layer F.Cu) (width 0.02))
  (fp_line (start 187.96 140.36) (end 187.96 137.16) (layer F.Cu) (width 0.02))
  (fp_line (start 187.96 137.16) (end 184.76 137.16) (layer F.Cu) (width 0.02))
  (fp_line (start 187.96 133.96) (end 187.96 137.16) (layer F.Cu) (width 0.02))
  (fp_line (start 187.96 -137.16) (end 191.16 -137.16) (layer F.Cu) (width 0.02))
  (fp_line (start 187.96 -133.96) (end 187.96 -137.16) (layer F.Cu) (width 0.02))
  (fp_line (start 187.96 -137.16) (end 184.76 -137.16) (layer F.Cu) (width 0.02))
  (fp_line (start 187.96 -140.36) (end 187.96 -137.16) (layer F.Cu) (width 0.02))
  (fp_line (start -185.42 -137.16) (end -182.22 -137.16) (layer F.Cu) (width 0.02))
  (fp_line (start -185.42 -133.96) (end -185.42 -137.16) (layer F.Cu) (width 0.02))
  (fp_line (start -185.42 -137.16) (end -188.62 -137.16) (layer F.Cu) (width 0.02))
  (fp_line (start -185.42 -140.36) (end -185.42 -137.16) (layer F.Cu) (width 0.02))
  (fp_line (start 64 135) (end -64 135) (layer F.Cu) (width 0.2))
  (fp_line (start 64 145) (end 64 135) (layer F.Cu) (width 0.2))
  (fp_line (start -64 145) (end 64 145) (layer F.Cu) (width 0.2))
  (fp_line (start -64 135) (end -64 145) (layer F.Cu) (width 0.2))
  (fp_line (start -64 140) (end 64 140) (layer F.Cu) (width 0.2))
  (fp_line (start -20 145) (end -19.5 145) (layer F.Cu) (width 0.2))
  (fp_line (start -20 135) (end -20 145) (layer F.Cu) (width 0.2))
  (fp_line (start 5.5 140) (end 5.5 145) (layer F.Cu) (width 0.2))
  (fp_line (start 32 135) (end 32 145) (layer F.Cu) (width 0.2))
  (fp_line (start 49 135) (end 49 140) (layer F.Cu) (width 0.2))
  (fp_line (start -186.309 142.621) (end -180.721 142.621) (layer F.Cu) (width 0.254))
  (fp_line (start -183.72299 135.8126) (end -180.83996 135.40745) (layer F.Cu) (width 0.2032))
  (fp_line (start -180.79655 135.71635) (end -183.67959 136.12149) (layer F.Cu) (width 0.2032))
  (fp_line (start -183.46254 137.66598) (end -180.57951 137.26083) (layer F.Cu) (width 0.2032))
  (fp_line (start -181.10241 137.64931) (end -183.41914 137.97487) (layer F.Cu) (width 0.2032))
  (fp_line (start -185.01847 139.66962) (end -180.89984 139.09083) (layer F.Cu) (width 0.2032))
  (fp_line (start -181.04254 133.96593) (end -185.72748 134.62429) (layer F.Cu) (width 0.2032))
  (fp_line (start -195 -145) (end -195 145) (layer F.Cu) (width 0.254))
  (fp_line (start 195 -145) (end -195 -145) (layer F.Cu) (width 0.254))
  (fp_line (start 195 145) (end 195 -145) (layer F.Cu) (width 0.254))
  (fp_line (start -195 145) (end 195 145) (layer F.Cu) (width 0.254))
  (fp_line (start 195.127 145.127) (end -195.127 145.127) (layer Dwgs.User) (width 0.05))
  (fp_line (start 195.127 -145.127) (end 195.127 145.127) (layer Dwgs.User) (width 0.05))
  (fp_line (start -195.127 -145.127) (end 195.127 -145.127) (layer Dwgs.User) (width 0.05))
  (fp_line (start -195.127 145.127) (end -195.127 -145.127) (layer Dwgs.User) (width 0.05))
  (fp_arc (start -179.871854 138.304935) (end -180.16621 137.55967) (angle -63.141131) (layer B.Cu) (width 0.02))
  (fp_arc (start -179.953452 136.457059) (end -181.06727 136.59998) (angle -71.76651) (layer B.Cu) (width 0.02))
  (fp_arc (start -181.63476 137.307727) (end -181.75084 138.07891) (angle 178.878185) (layer B.Cu) (width 0.02))
  (fp_arc (start -179.872081 138.489613) (end -180.71312 138.53972) (angle -78.994694) (layer B.Cu) (width 0.02))
  (fp_arc (start -181.42912 139.305337) (end -181.67261 140.13735) (angle 163.373881) (layer B.Cu) (width 0.02))
  (fp_arc (start -178.042816 139.701309) (end -177.10041 139.7299) (angle 89.842679) (layer B.Cu) (width 0.02))
  (fp_arc (start -174.527674 133.843839) (end -174.06483 130.54908) (angle 90.005509) (layer B.Cu) (width 0.02))
  (fp_arc (start -178.169199 130.600068) (end -178.77065 130.41277) (angle 71.404705) (layer B.Cu) (width 0.02))
  (fp_arc (start -177.529289 130.582053) (end -177.7087 131.82199) (angle 89.53226) (layer B.Cu) (width 0.02))
  (fp_arc (start -175.402872 132.719547) (end -174.83377 132.75099) (angle -80.326697) (layer B.Cu) (width 0.02))
  (fp_arc (start -182.014973 132.476831) (end -182.10225 133.19956) (angle 182.227586) (layer B.Cu) (width 0.02))
  (fp_arc (start -175.044784 135.360285) (end -174.35308 136.33602) (angle -122.098039) (layer B.Cu) (width 0.02))
  (fp_arc (start -175.189286 137.163501) (end -174.61353 138.1894) (angle -105.397496) (layer B.Cu) (width 0.02))
  (fp_arc (start -175.260967 138.950416) (end -174.73485 139.79984) (angle -107.837081) (layer B.Cu) (width 0.02))
  (fp_arc (start -173.949151 136.077998) (end -170.22723 136.86332) (angle 90.005809) (layer B.Cu) (width 0.02))
  (fp_arc (start -180.254345 136.260559) (end -180.27551 135.49073) (angle -90.696463) (layer B.Cu) (width 0.02))
  (fp_arc (start -179.833379 134.780257) (end -180.6652 134.8715) (angle -51.846021) (layer B.Cu) (width 0.02))
  (fp_arc (start -181.319862 135.514487) (end -181.42625 136.23453) (angle 179.188764) (layer B.Cu) (width 0.02))
  (fp_arc (start 187.85983 137.05983) (end 191.16 137.16) (angle 86.522868) (layer B.Cu) (width 0.02))
  (fp_arc (start 188.06018 137.26018) (end 184.76 137.16) (angle 86.522541) (layer B.Cu) (width 0.02))
  (fp_arc (start 187.85983 -137.26017) (end 191.16 -137.16) (angle 86.522868) (layer B.Cu) (width 0.02))
  (fp_arc (start 188.06018 -137.05982) (end 184.76 -137.16) (angle 86.522541) (layer B.Cu) (width 0.02))
  (fp_arc (start -185.52017 -137.26017) (end -182.22 -137.16) (angle 86.522868) (layer B.Cu) (width 0.02))
  (fp_arc (start -185.31981 -137.05981) (end -188.62 -137.16) (angle 86.522215) (layer B.Cu) (width 0.02))
  (fp_arc (start -176.977146 135.967265) (end -177.00041 136.12149) (angle -181.16003) (layer B.Cu) (width 0.2032))
  (fp_arc (start -179.980749 136.490167) (end -180.10049 137.26083) (angle 178.335031) (layer B.Cu) (width 0.2032))
  (fp_arc (start -177.236814 137.820755) (end -177.26086 137.97487) (angle -181.740499) (layer B.Cu) (width 0.2032))
  (fp_arc (start -179.692406 138.368169) (end -179.78016 139.09083) (angle 182.150937) (layer B.Cu) (width 0.2032))
  (fp_arc (start -175.513743 138.95539) (end -175.45896 138.22809) (angle 187.382994) (layer B.Cu) (width 0.2032))
  (fp_arc (start -175.437255 138.073645) (end -175.41555 137.9192) (angle -180) (layer B.Cu) (width 0.2032))
  (fp_arc (start -175.277711 137.15108) (end -175.1985 136.37472) (angle 184.347718) (layer B.Cu) (width 0.2032))
  (fp_arc (start -175.175836 136.220405) (end -175.1551 136.06582) (angle -179.284499) (layer B.Cu) (width 0.2032))
  (fp_arc (start -175.003762 135.352088) (end -174.95252 134.62429) (angle 187.944244) (layer B.Cu) (width 0.2032))
  (fp_arc (start -179.693586 134.693037) (end -179.84004 135.40745) (angle 172.828847) (layer B.Cu) (width 0.2032))
  (fp_arc (start 187.96 137.16) (end 191.16 137.16) (angle 360) (layer B.Cu) (width 0.1016))
  (fp_arc (start 187.96 -137.16) (end 191.16 -137.16) (angle 360) (layer B.Cu) (width 0.1016))
  (fp_arc (start -185.41999 -137.16) (end -182.22 -137.16) (angle 360) (layer B.Cu) (width 0.1016))
  (fp_arc (start -179.349932 135.513053) (end -179.45632 134.79301) (angle 180.811236) (layer F.Cu) (width 0.02))
  (fp_arc (start -180.846602 134.780269) (end -180.40449 135.49073) (angle -51.847353) (layer F.Cu) (width 0.02))
  (fp_arc (start -180.425645 136.260549) (end -179.65614 136.29108) (angle -90.697969) (layer F.Cu) (width 0.02))
  (fp_arc (start -186.730845 136.077967) (end -185.94515 139.79984) (angle 90.005262) (layer F.Cu) (width 0.02))
  (fp_arc (start -185.418999 138.950413) (end -186.06647 138.1894) (angle -107.833934) (layer F.Cu) (width 0.02))
  (fp_arc (start -185.490698 137.163498) (end -186.32692 136.33602) (angle -105.396217) (layer F.Cu) (width 0.02))
  (fp_arc (start -185.635196 135.360288) (end -186.09425 134.25584) (angle -122.096307) (layer F.Cu) (width 0.02))
  (fp_arc (start -178.665546 132.476904) (end -178.78033 131.75804) (angle 182.145093) (layer F.Cu) (width 0.02))
  (fp_arc (start -185.277107 132.719563) (end -185.40375 132.16382) (angle -80.323304) (layer F.Cu) (width 0.02))
  (fp_arc (start -183.150711 130.582053) (end -181.90935 130.41277) (angle 89.53226) (layer F.Cu) (width 0.02))
  (fp_arc (start -182.510794 130.600058) (end -182.49653 129.97029) (angle 71.406012) (layer F.Cu) (width 0.02))
  (fp_arc (start -186.152337 133.84383) (end -189.44704 134.307) (angle 90.005853) (layer F.Cu) (width 0.02))
  (fp_arc (start -182.637155 139.701278) (end -182.61116 140.64379) (angle 89.840292) (layer F.Cu) (width 0.02))
  (fp_arc (start -179.25086 139.305337) (end -179.24613 138.43844) (angle 163.375154) (layer F.Cu) (width 0.02))
  (fp_arc (start -180.80789 138.489639) (end -180.69655 139.32475) (angle -78.998057) (layer F.Cu) (width 0.02))
  (fp_arc (start -179.03012 137.305603) (end -179.1462 136.53442) (angle 181.121815) (layer F.Cu) (width 0.02))
  (fp_arc (start -180.726548 136.457059) (end -180.51379 137.55967) (angle -71.76651) (layer F.Cu) (width 0.02))
  (fp_arc (start -180.808127 138.304921) (end -180.01029 138.23083) (angle -63.142889) (layer F.Cu) (width 0.02))
  (fp_arc (start 187.85983 137.05983) (end 191.16 137.16) (angle 86.522868) (layer F.Cu) (width 0.02))
  (fp_arc (start 188.06018 137.26018) (end 184.76 137.16) (angle 86.522541) (layer F.Cu) (width 0.02))
  (fp_arc (start 187.85983 -137.26017) (end 191.16 -137.16) (angle 86.522868) (layer F.Cu) (width 0.02))
  (fp_arc (start 188.06018 -137.05982) (end 184.76 -137.16) (angle 86.522541) (layer F.Cu) (width 0.02))
  (fp_arc (start -185.52017 -137.26017) (end -182.22 -137.16) (angle 86.522868) (layer F.Cu) (width 0.02))
  (fp_arc (start -185.31981 -137.05981) (end -188.62 -137.16) (angle 86.522215) (layer F.Cu) (width 0.02))
  (fp_arc (start -183.699726 135.966825) (end -183.67959 136.12149) (angle 178.83997) (layer F.Cu) (width 0.2032))
  (fp_arc (start -180.676809 136.487013) (end -180.57951 137.26083) (angle -181.664969) (layer F.Cu) (width 0.2032))
  (fp_arc (start -183.438494 137.820095) (end -183.41914 137.97487) (angle 178.259501) (layer F.Cu) (width 0.2032))
  (fp_arc (start -180.988133 138.368244) (end -180.89984 139.09083) (angle -182.065382) (layer F.Cu) (width 0.2032))
  (fp_arc (start -185.166257 138.95539) (end -185.22104 138.22809) (angle -187.382994) (layer F.Cu) (width 0.2032))
  (fp_arc (start -185.242745 138.073645) (end -185.26445 137.9192) (angle 180) (layer F.Cu) (width 0.2032))
  (fp_arc (start -185.402289 137.15108) (end -185.4815 136.37472) (angle -184.347718) (layer F.Cu) (width 0.2032))
  (fp_arc (start -185.502236 136.220135) (end -185.5249 136.06582) (angle 180.715501) (layer F.Cu) (width 0.2032))
  (fp_arc (start -185.676238 135.352088) (end -185.72748 134.62429) (angle -187.944244) (layer F.Cu) (width 0.2032))
  (fp_arc (start -180.986256 134.693015) (end -180.83996 135.40745) (angle -172.853968) (layer F.Cu) (width 0.2032))
  (fp_arc (start 187.96 137.16) (end 191.16 137.16) (angle 360) (layer F.Cu) (width 0.1016))
  (fp_arc (start 187.96 -137.16) (end 191.16 -137.16) (angle 360) (layer F.Cu) (width 0.1016))
  (fp_arc (start -185.41999 -137.16) (end -182.22 -137.16) (angle 360) (layer F.Cu) (width 0.1016))
)
