(module FIX45_100001 locked placed (layer F.Cu) (tedit 5EBE9ABC)
  (fp_text reference ZM1 (at 0 0) (layer F.SilkS) hide
    (effects (font (size 1 1) (thickness 0.15)))
  )
  (fp_text value FIX-0045 (at 0 2) (layer F.Fab) hide
    (effects (font (size 1 1) (thickness 0.15)))
  )
  (fp_arc (start 0 0) (end 2.6 0) (angle 360) (layer F.Fab) (width 0.02))
  (fp_arc (start 0 0) (end 1.905 0) (angle 360) (layer B.Fab) (width 0.02))
  (fp_arc (start 0 0) (end 2.25 0) (angle 360) (layer F.SilkS) (width 0.1))
  (fp_arc (start 0 0) (end 2.75 0) (angle 360) (layer Dwgs.User) (width 0.02))
  (fp_line (start -2.75 2.75) (end -2.75 -2.75) (layer Dwgs.User) (width 0.05))
  (fp_line (start -2.75 -2.75) (end 2.75 -2.75) (layer Dwgs.User) (width 0.05))
  (fp_line (start 2.75 -2.75) (end 2.75 2.75) (layer Dwgs.User) (width 0.05))
  (fp_line (start 2.75 2.75) (end -2.75 2.75) (layer Dwgs.User) (width 0.05))
  (pad 1 np_thru_hole circle (at 0 0) (size 3.81 3.81) (drill 4.6228) (layers F&B.Cu *.Mask)
    (solder_mask_margin 0.635) (clearance 0.889) (zone_connect 2))
)
