(module FIX45_1 (layer F.Cu) (tedit 5EA213A2)
  (attr smd)
  (fp_text reference ZM3 (at 1.524 -1.016 unlocked) (layer F.SilkS) hide
    (effects (font (size 1.332992 1.40208) (thickness 0.254)))
  )
  (fp_text value FIX-0045 (at 4.064 -1.016 unlocked) (layer F.SilkS) hide
    (effects (font (size 1.332992 1.40208) (thickness 0.254)))
  )
  (fp_circle (center 0 0) (end 2.25 0) (layer F.Fab) (width 0.1))
  (fp_circle (center 0 0) (end 3.5 0) (layer F.CrtYd) (width 0.12))
  (pad 1 thru_hole circle (at 0 0 90) (size 4.6228 4.6228) (drill 4.6228) (layers *.Cu *.Mask)
    (clearance 1.4386))
)
