(module FUS4755X155N (layer F.Cu) (tedit 5E8B9775)
  (attr smd)
  (fp_text reference REF** (at 3.8735 -0.1397 90 unlocked) (layer F.SilkS)
    (effects (font (size 0.316586 0.332994) (thickness 0.0254)))
  )
  (fp_text value FUS4755X155N (at -0.4826 -0.0381 -180 unlocked) (layer F.SilkS) hide
    (effects (font (size 0.316586 0.332994) (thickness 0.0254)))
  )
  (fp_line (start 2.6924 2.0828) (end 2.5908 2.1844) (layer F.Fab) (width 0.1778))
  (fp_line (start 2.7432 -2.2352) (end 2.7432 2.2352) (layer F.Fab) (width 0.1778))
  (fp_line (start 2.6924 1.9812) (end 2.4892 2.1844) (layer F.Fab) (width 0.1778))
  (fp_line (start 2.6924 1.8796) (end 2.3876 2.1844) (layer F.Fab) (width 0.1778))
  (fp_line (start -2.7432 -2.2352) (end -2.7432 2.2352) (layer F.Fab) (width 0.1778))
  (fp_line (start 2.7432 2.2352) (end -2.7432 2.2352) (layer F.Fab) (width 0.1778))
  (fp_line (start 2.6924 1.778) (end 2.286 2.1844) (layer F.Fab) (width 0.1778))
  (fp_line (start 2.7432 -2.2352) (end -2.7432 -2.2352) (layer F.Fab) (width 0.1778))
  (fp_line (start 2.6924 1.6764) (end 2.1844 2.1844) (layer F.Fab) (width 0.1778))
  (fp_line (start 2.6924 1.5748) (end 2.0828 2.1844) (layer F.Fab) (width 0.1778))
  (fp_line (start 2.6924 1.4986) (end 1.9812 2.1844) (layer F.Fab) (width 0.1778))
  (fp_line (start 2.6924 1.397) (end 1.8796 2.1844) (layer F.Fab) (width 0.1778))
  (fp_line (start 2.6924 1.2954) (end 1.778 2.1844) (layer F.Fab) (width 0.1778))
  (fp_line (start -1.2954 -2.2352) (end -1.2954 2.2352) (layer F.SilkS) (width 0.1778))
  (fp_line (start 1.2954 2.2352) (end -1.2954 2.2352) (layer F.SilkS) (width 0.1778))
  (fp_line (start 1.2954 -2.2352) (end -1.2954 -2.2352) (layer F.SilkS) (width 0.1778))
  (fp_line (start 1.2954 -2.2352) (end 1.2954 2.2352) (layer F.SilkS) (width 0.1778))
  (fp_arc (start 2.4892 2.6924) (end 2.3876 2.6924) (angle -360) (layer F.SilkS) (width 0.1778))
  (pad 1 smd rect (at 2.4384 0 90) (size 4.5974 1.4986) (layers F.Cu F.Paste F.Mask))
  (pad 2 smd rect (at -2.4384 0 90) (size 4.5974 1.4986) (layers F.Cu F.Paste F.Mask))
  (model "${KIPRJMOD}/../Library/Footprints.3dshapes/Fuse 2016L.step"
    (at (xyz 0 0 0))
    (scale (xyz 1 1 1))
    (rotate (xyz 0 0 0))
  )
)
