(module HT-13X27_10011011 (layer F.Cu) (tedit 5ECBC8B3)
  (descr "13 x 27 mm axial electrolytic capacitor")
  (fp_text reference REF** (at 15 0) (layer F.SilkS)
    (effects (font (size 1.2 1.2) (thickness 0.15)))
  )
  (fp_text value HT-13X27 (at 4 8) (layer F.Fab) hide
    (effects (font (size 1 1) (thickness 0.15)))
  )
  (fp_text user + (at 4.445 1) (layer F.Fab)
    (effects (font (size 1 1) (thickness 0.254)) (justify right))
  )
  (fp_text user + (at 4.445 1) (layer F.SilkS)
    (effects (font (size 1 1) (thickness 0.15)) (justify right))
  )
  (fp_arc (start 30.48 0) (end 31.2166 0) (angle 360) (layer B.CrtYd) (width 0.02))
  (fp_line (start -0.9398 6.59) (end -0.9398 -6.59) (layer Dwgs.User) (width 0.05))
  (fp_line (start -0.9398 -6.59) (end 31.4198 -6.59) (layer Dwgs.User) (width 0.05))
  (fp_line (start 31.4198 -6.59) (end 31.4198 6.59) (layer Dwgs.User) (width 0.05))
  (fp_line (start 31.4198 6.59) (end -0.9398 6.59) (layer Dwgs.User) (width 0.05))
  (fp_line (start 29.21 -6.5) (end 1.27 -6.5) (layer F.SilkS) (width 0.18))
  (fp_line (start 1.27 -6.5) (end 1.27 6.5) (layer F.SilkS) (width 0.18))
  (fp_line (start 1.27 6.5) (end 29.21 6.5) (layer F.SilkS) (width 0.18))
  (fp_line (start 29.21 6.5) (end 29.21 -6.5) (layer F.SilkS) (width 0.18))
  (fp_line (start -0.8 0.8) (end -0.8 -0.8) (layer F.CrtYd) (width 0.02))
  (fp_line (start -0.8 -0.8) (end 1.2 -0.8) (layer F.CrtYd) (width 0.02))
  (fp_line (start 1.2 -0.8) (end 1.2 -6.5) (layer F.CrtYd) (width 0.02))
  (fp_line (start 1.2 -6.5) (end 29.3 -6.5) (layer F.CrtYd) (width 0.02))
  (fp_line (start 29.3 -6.5) (end 29.3 -0.8) (layer F.CrtYd) (width 0.02))
  (fp_line (start 29.3 -0.8) (end 31.3 -0.8) (layer F.CrtYd) (width 0.02))
  (fp_line (start 31.3 -0.8) (end 31.3 0.8) (layer F.CrtYd) (width 0.02))
  (fp_line (start 31.3 0.8) (end 29.3 0.8) (layer F.CrtYd) (width 0.02))
  (fp_line (start 29.3 0.8) (end 29.3 6.5) (layer F.CrtYd) (width 0.02))
  (fp_line (start 29.3 6.5) (end 1.2 6.5) (layer F.CrtYd) (width 0.02))
  (fp_line (start 1.2 6.5) (end 1.2 0.8) (layer F.CrtYd) (width 0.02))
  (fp_line (start 1.2 0.8) (end -0.8 0.8) (layer F.CrtYd) (width 0.02))
  (fp_line (start 0.7366 -0.7366) (end 0.7366 0.7366) (layer B.CrtYd) (width 0.02))
  (fp_line (start 0.7366 0.7366) (end -0.7366 0.7366) (layer B.CrtYd) (width 0.02))
  (fp_line (start -0.7366 0.7366) (end -0.7366 -0.7366) (layer B.CrtYd) (width 0.02))
  (fp_line (start -0.7366 -0.7366) (end 0.7366 -0.7366) (layer B.CrtYd) (width 0.02))
  (fp_line (start 29.21 -6.5) (end 1.27 -6.5) (layer F.Fab) (width 0.1))
  (fp_line (start 1.27 -6.5) (end 1.27 6.5) (layer F.Fab) (width 0.1))
  (fp_line (start 1.27 6.5) (end 29.21 6.5) (layer F.Fab) (width 0.1))
  (fp_line (start 29.21 6.5) (end 29.21 -6.5) (layer F.Fab) (width 0.1))
  (fp_line (start 1.27 0) (end 0 0) (layer F.Fab) (width 0.1))
  (fp_line (start 30.48 0) (end 29.21 0) (layer F.Fab) (width 0.1))
  (pad - thru_hole circle (at 30.48 0) (size 1.4732 1.4732) (drill 0.8128) (layers *.Mask F.Cu In2.Cu B.Cu)
    (solder_mask_margin 0.1016) (clearance 0.1524) (zone_connect 2) (thermal_width 0.2032) (thermal_gap 0.2032))
  (pad + thru_hole rect (at 0 0) (size 1.4732 1.4732) (drill 0.8128) (layers F&B.Cu *.Mask)
    (solder_mask_margin 0.1016) (clearance 0.1524) (zone_connect 2) (thermal_width 0.2032) (thermal_gap 0.2032))
  (model ${KIPRJMOD}/../Library/Footprints.3dshapes/CP_Axial_L27.0mm_D13.0mm_P30.48mm_Horizontal.wrl
    (at (xyz 0 0 0))
    (scale (xyz 1 1 1))
    (rotate (xyz 0 0 0))
  )
)
