(module MIRECMS-SAFT (layer F.Cu) (tedit 5ED24E28)
  (descr fiducial)
  (fp_text reference REF** (at 0 -2) (layer F.SilkS) hide
    (effects (font (size 1 1) (thickness 0.15)))
  )
  (fp_text value MIRECMS-SAFT (at 0 2) (layer F.Fab) hide
    (effects (font (size 1 1) (thickness 0.15)))
  )
  (fp_arc (start 0 0) (end 1.5 0) (angle 360) (layer Dwgs.User) (width 0.1))
  (fp_line (start -1.55 1.55) (end -1.55 -1.55) (layer Dwgs.User) (width 0.05))
  (fp_line (start -1.55 -1.55) (end 1.55 -1.55) (layer Dwgs.User) (width 0.05))
  (fp_line (start 1.55 -1.55) (end 1.55 1.55) (layer Dwgs.User) (width 0.05))
  (fp_line (start 1.55 1.55) (end -1.55 1.55) (layer Dwgs.User) (width 0.05))
  (fp_line (start 1.5 0) (end 1.49665 -0.100189) (layer F.CrtYd) (width 0.02))
  (fp_line (start 1.49665 -0.100189) (end 1.486616 -0.19993) (layer F.CrtYd) (width 0.02))
  (fp_line (start 1.486616 -0.19993) (end 1.469943 -0.298779) (layer F.CrtYd) (width 0.02))
  (fp_line (start 1.469943 -0.298779) (end 1.446704 -0.396293) (layer F.CrtYd) (width 0.02))
  (fp_line (start 1.446704 -0.396293) (end 1.417004 -0.492037) (layer F.CrtYd) (width 0.02))
  (fp_line (start 1.417004 -0.492037) (end 1.380975 -0.585584) (layer F.CrtYd) (width 0.02))
  (fp_line (start 1.380975 -0.585584) (end 1.338778 -0.676515) (layer F.CrtYd) (width 0.02))
  (fp_line (start 1.338778 -0.676515) (end 1.290602 -0.764425) (layer F.CrtYd) (width 0.02))
  (fp_line (start 1.290602 -0.764425) (end 1.236662 -0.848921) (layer F.CrtYd) (width 0.02))
  (fp_line (start 1.236662 -0.848921) (end 1.177199 -0.929625) (layer F.CrtYd) (width 0.02))
  (fp_line (start 1.177199 -0.929625) (end 1.112478 -1.006177) (layer F.CrtYd) (width 0.02))
  (fp_line (start 1.112478 -1.006177) (end 1.042789 -1.078236) (layer F.CrtYd) (width 0.02))
  (fp_line (start 1.042789 -1.078236) (end 0.968442 -1.145478) (layer F.CrtYd) (width 0.02))
  (fp_line (start 0.968442 -1.145478) (end 0.88977 -1.207605) (layer F.CrtYd) (width 0.02))
  (fp_line (start 0.88977 -1.207605) (end 0.807124 -1.264338) (layer F.CrtYd) (width 0.02))
  (fp_line (start 0.807124 -1.264338) (end 0.720873 -1.315425) (layer F.CrtYd) (width 0.02))
  (fp_line (start 0.720873 -1.315425) (end 0.631402 -1.360636) (layer F.CrtYd) (width 0.02))
  (fp_line (start 0.631402 -1.360636) (end 0.539112 -1.399771) (layer F.CrtYd) (width 0.02))
  (fp_line (start 0.539112 -1.399771) (end 0.444413 -1.432654) (layer F.CrtYd) (width 0.02))
  (fp_line (start 0.444413 -1.432654) (end 0.34773 -1.459138) (layer F.CrtYd) (width 0.02))
  (fp_line (start 0.34773 -1.459138) (end 0.249494 -1.479105) (layer F.CrtYd) (width 0.02))
  (fp_line (start 0.249494 -1.479105) (end 0.150144 -1.492467) (layer F.CrtYd) (width 0.02))
  (fp_line (start 0.150144 -1.492467) (end 0.050122 -1.499162) (layer F.CrtYd) (width 0.02))
  (fp_line (start 0.050122 -1.499162) (end -0.050122 -1.499162) (layer F.CrtYd) (width 0.02))
  (fp_line (start -0.050122 -1.499162) (end -0.150144 -1.492467) (layer F.CrtYd) (width 0.02))
  (fp_line (start -0.150144 -1.492467) (end -0.249494 -1.479105) (layer F.CrtYd) (width 0.02))
  (fp_line (start -0.249494 -1.479105) (end -0.34773 -1.459138) (layer F.CrtYd) (width 0.02))
  (fp_line (start -0.34773 -1.459138) (end -0.444413 -1.432654) (layer F.CrtYd) (width 0.02))
  (fp_line (start -0.444413 -1.432654) (end -0.539112 -1.399771) (layer F.CrtYd) (width 0.02))
  (fp_line (start -0.539112 -1.399771) (end -0.631402 -1.360636) (layer F.CrtYd) (width 0.02))
  (fp_line (start -0.631402 -1.360636) (end -0.720873 -1.315425) (layer F.CrtYd) (width 0.02))
  (fp_line (start -0.720873 -1.315425) (end -0.807124 -1.264338) (layer F.CrtYd) (width 0.02))
  (fp_line (start -0.807124 -1.264338) (end -0.88977 -1.207605) (layer F.CrtYd) (width 0.02))
  (fp_line (start -0.88977 -1.207605) (end -0.968442 -1.145478) (layer F.CrtYd) (width 0.02))
  (fp_line (start -0.968442 -1.145478) (end -1.042789 -1.078236) (layer F.CrtYd) (width 0.02))
  (fp_line (start -1.042789 -1.078236) (end -1.112478 -1.006177) (layer F.CrtYd) (width 0.02))
  (fp_line (start -1.112478 -1.006177) (end -1.177199 -0.929625) (layer F.CrtYd) (width 0.02))
  (fp_line (start -1.177199 -0.929625) (end -1.236662 -0.848921) (layer F.CrtYd) (width 0.02))
  (fp_line (start -1.236662 -0.848921) (end -1.290602 -0.764425) (layer F.CrtYd) (width 0.02))
  (fp_line (start -1.290602 -0.764425) (end -1.338778 -0.676515) (layer F.CrtYd) (width 0.02))
  (fp_line (start -1.338778 -0.676515) (end -1.380975 -0.585584) (layer F.CrtYd) (width 0.02))
  (fp_line (start -1.380975 -0.585584) (end -1.417004 -0.492037) (layer F.CrtYd) (width 0.02))
  (fp_line (start -1.417004 -0.492037) (end -1.446704 -0.396293) (layer F.CrtYd) (width 0.02))
  (fp_line (start -1.446704 -0.396293) (end -1.469943 -0.298779) (layer F.CrtYd) (width 0.02))
  (fp_line (start -1.469943 -0.298779) (end -1.486616 -0.19993) (layer F.CrtYd) (width 0.02))
  (fp_line (start -1.486616 -0.19993) (end -1.49665 -0.100189) (layer F.CrtYd) (width 0.02))
  (fp_line (start -1.49665 -0.100189) (end -1.5 0) (layer F.CrtYd) (width 0.02))
  (fp_line (start -1.5 0) (end -1.49665 0.100189) (layer F.CrtYd) (width 0.02))
  (fp_line (start -1.49665 0.100189) (end -1.486616 0.19993) (layer F.CrtYd) (width 0.02))
  (fp_line (start -1.486616 0.19993) (end -1.469943 0.298779) (layer F.CrtYd) (width 0.02))
  (fp_line (start -1.469943 0.298779) (end -1.446704 0.396293) (layer F.CrtYd) (width 0.02))
  (fp_line (start -1.446704 0.396293) (end -1.417004 0.492037) (layer F.CrtYd) (width 0.02))
  (fp_line (start -1.417004 0.492037) (end -1.380975 0.585584) (layer F.CrtYd) (width 0.02))
  (fp_line (start -1.380975 0.585584) (end -1.338778 0.676515) (layer F.CrtYd) (width 0.02))
  (fp_line (start -1.338778 0.676515) (end -1.290602 0.764425) (layer F.CrtYd) (width 0.02))
  (fp_line (start -1.290602 0.764425) (end -1.236662 0.848921) (layer F.CrtYd) (width 0.02))
  (fp_line (start -1.236662 0.848921) (end -1.177199 0.929625) (layer F.CrtYd) (width 0.02))
  (fp_line (start -1.177199 0.929625) (end -1.112478 1.006177) (layer F.CrtYd) (width 0.02))
  (fp_line (start -1.112478 1.006177) (end -1.042789 1.078236) (layer F.CrtYd) (width 0.02))
  (fp_line (start -1.042789 1.078236) (end -0.968442 1.145478) (layer F.CrtYd) (width 0.02))
  (fp_line (start -0.968442 1.145478) (end -0.88977 1.207605) (layer F.CrtYd) (width 0.02))
  (fp_line (start -0.88977 1.207605) (end -0.807124 1.264338) (layer F.CrtYd) (width 0.02))
  (fp_line (start -0.807124 1.264338) (end -0.720873 1.315425) (layer F.CrtYd) (width 0.02))
  (fp_line (start -0.720873 1.315425) (end -0.631402 1.360636) (layer F.CrtYd) (width 0.02))
  (fp_line (start -0.631402 1.360636) (end -0.539112 1.399771) (layer F.CrtYd) (width 0.02))
  (fp_line (start -0.539112 1.399771) (end -0.444413 1.432654) (layer F.CrtYd) (width 0.02))
  (fp_line (start -0.444413 1.432654) (end -0.34773 1.459138) (layer F.CrtYd) (width 0.02))
  (fp_line (start -0.34773 1.459138) (end -0.249494 1.479105) (layer F.CrtYd) (width 0.02))
  (fp_line (start -0.249494 1.479105) (end -0.150144 1.492467) (layer F.CrtYd) (width 0.02))
  (fp_line (start -0.150144 1.492467) (end -0.050122 1.499162) (layer F.CrtYd) (width 0.02))
  (fp_line (start -0.050122 1.499162) (end 0.050122 1.499162) (layer F.CrtYd) (width 0.02))
  (fp_line (start 0.050122 1.499162) (end 0.150144 1.492467) (layer F.CrtYd) (width 0.02))
  (fp_line (start 0.150144 1.492467) (end 0.249494 1.479105) (layer F.CrtYd) (width 0.02))
  (fp_line (start 0.249494 1.479105) (end 0.34773 1.459138) (layer F.CrtYd) (width 0.02))
  (fp_line (start 0.34773 1.459138) (end 0.444413 1.432654) (layer F.CrtYd) (width 0.02))
  (fp_line (start 0.444413 1.432654) (end 0.539112 1.399771) (layer F.CrtYd) (width 0.02))
  (fp_line (start 0.539112 1.399771) (end 0.631402 1.360636) (layer F.CrtYd) (width 0.02))
  (fp_line (start 0.631402 1.360636) (end 0.720873 1.315425) (layer F.CrtYd) (width 0.02))
  (fp_line (start 0.720873 1.315425) (end 0.807124 1.264338) (layer F.CrtYd) (width 0.02))
  (fp_line (start 0.807124 1.264338) (end 0.88977 1.207605) (layer F.CrtYd) (width 0.02))
  (fp_line (start 0.88977 1.207605) (end 0.968442 1.145478) (layer F.CrtYd) (width 0.02))
  (fp_line (start 0.968442 1.145478) (end 1.042789 1.078236) (layer F.CrtYd) (width 0.02))
  (fp_line (start 1.042789 1.078236) (end 1.112478 1.006177) (layer F.CrtYd) (width 0.02))
  (fp_line (start 1.112478 1.006177) (end 1.177199 0.929625) (layer F.CrtYd) (width 0.02))
  (fp_line (start 1.177199 0.929625) (end 1.236662 0.848921) (layer F.CrtYd) (width 0.02))
  (fp_line (start 1.236662 0.848921) (end 1.290602 0.764425) (layer F.CrtYd) (width 0.02))
  (fp_line (start 1.290602 0.764425) (end 1.338778 0.676515) (layer F.CrtYd) (width 0.02))
  (fp_line (start 1.338778 0.676515) (end 1.380975 0.585584) (layer F.CrtYd) (width 0.02))
  (fp_line (start 1.380975 0.585584) (end 1.417004 0.492037) (layer F.CrtYd) (width 0.02))
  (fp_line (start 1.417004 0.492037) (end 1.446704 0.396293) (layer F.CrtYd) (width 0.02))
  (fp_line (start 1.446704 0.396293) (end 1.469943 0.298779) (layer F.CrtYd) (width 0.02))
  (fp_line (start 1.469943 0.298779) (end 1.486616 0.19993) (layer F.CrtYd) (width 0.02))
  (fp_line (start 1.486616 0.19993) (end 1.49665 0.100189) (layer F.CrtYd) (width 0.02))
  (fp_line (start 1.49665 0.100189) (end 1.5 0) (layer F.CrtYd) (width 0.02))
  (pad 1 smd circle (at 0 0) (size 1 1) (layers F.Cu F.Paste F.Mask)
    (solder_mask_margin 1) (zone_connect 2))
)
