(module MOL7395-2 (layer F.Cu) (tedit 0)
  (fp_text reference REF** (at 0.634999 -8.89 90) (layer F.SilkS)
    (effects (font (size 1.2 1.2) (thickness 0.15)) (justify left))
  )
  (fp_text value MOL7395-2 (at 0 2) (layer F.Fab) hide
    (effects (font (size 1 1) (thickness 0.15)))
  )
  (fp_arc (start 2.54 0) (end 3.4925 0) (angle 360) (layer B.CrtYd) (width 0.02))
  (fp_line (start -1.36 1.2827) (end -1.36 -14.06) (layer Dwgs.User) (width 0.05))
  (fp_line (start -1.36 -14.06) (end 3.9 -14.06) (layer Dwgs.User) (width 0.05))
  (fp_line (start 3.9 -14.06) (end 3.9 1.2827) (layer Dwgs.User) (width 0.05))
  (fp_line (start 3.9 1.2827) (end -1.36 1.2827) (layer Dwgs.User) (width 0.05))
  (fp_line (start 2.54 -1.27) (end 2.54 -2.54) (layer F.SilkS) (width 0.18))
  (fp_line (start 0 -1.27) (end 0 -2.54) (layer F.SilkS) (width 0.18))
  (fp_line (start 0 -13.6525) (end 0 -5.08) (layer F.SilkS) (width 0.18))
  (fp_line (start 0 -5.08) (end -1.27 -5.08) (layer F.SilkS) (width 0.18))
  (fp_line (start -1.27 -5.08) (end -1.27 -2.54) (layer F.SilkS) (width 0.18))
  (fp_line (start -1.27 -2.54) (end 3.81 -2.54) (layer F.SilkS) (width 0.18))
  (fp_line (start 3.81 -2.54) (end 3.81 -5.08) (layer F.SilkS) (width 0.18))
  (fp_line (start 3.81 -5.08) (end 2.54 -5.08) (layer F.SilkS) (width 0.18))
  (fp_line (start 2.54 -5.08) (end 2.54 -13.6525) (layer F.SilkS) (width 0.18))
  (fp_line (start 2.54 -13.6525) (end 2.2225 -13.97) (layer F.SilkS) (width 0.18))
  (fp_line (start 2.2225 -13.97) (end 0.3175 -13.97) (layer F.SilkS) (width 0.18))
  (fp_line (start 0.3175 -13.97) (end 0 -13.6525) (layer F.SilkS) (width 0.18))
  (fp_line (start -1.27 -3.82) (end 0 -2.55) (layer F.SilkS) (width 0.18))
  (fp_line (start -1.27 1.27) (end -1.27 -13.97) (layer F.CrtYd) (width 0.02))
  (fp_line (start -1.27 -13.97) (end 3.81 -13.97) (layer F.CrtYd) (width 0.02))
  (fp_line (start 3.81 -13.97) (end 3.81 1.27) (layer F.CrtYd) (width 0.02))
  (fp_line (start 3.81 1.27) (end -1.27 1.27) (layer F.CrtYd) (width 0.02))
  (fp_line (start 0.9525 -0.9525) (end 0.9525 0.9525) (layer B.CrtYd) (width 0.02))
  (fp_line (start 0.9525 0.9525) (end -0.9525 0.9525) (layer B.CrtYd) (width 0.02))
  (fp_line (start -0.9525 0.9525) (end -0.9525 -0.9525) (layer B.CrtYd) (width 0.02))
  (fp_line (start -0.9525 -0.9525) (end 0.9525 -0.9525) (layer B.CrtYd) (width 0.02))
  (fp_line (start 2.54 0) (end 2.54 -2.54) (layer F.Fab) (width 0.1))
  (fp_line (start 0 0) (end 0 -2.54) (layer F.Fab) (width 0.1))
  (fp_line (start 0 -5.08) (end -1.27 -5.08) (layer F.Fab) (width 0.1))
  (fp_line (start -1.27 -5.08) (end -1.27 -2.54) (layer F.Fab) (width 0.1))
  (fp_line (start -1.27 -2.54) (end 3.81 -2.54) (layer F.Fab) (width 0.1))
  (fp_line (start 3.81 -2.54) (end 3.81 -5.08) (layer F.Fab) (width 0.1))
  (fp_line (start 3.81 -5.08) (end 2.54 -5.08) (layer F.Fab) (width 0.1))
  (fp_line (start 2.54 -5.08) (end 2.54 -13.6525) (layer F.Fab) (width 0.1))
  (fp_line (start 2.54 -13.6525) (end 2.2225 -13.97) (layer F.Fab) (width 0.1))
  (fp_line (start 2.2225 -13.97) (end 0.3175 -13.97) (layer F.Fab) (width 0.1))
  (fp_line (start 0.3175 -13.97) (end 0 -13.6525) (layer F.Fab) (width 0.1))
  (fp_line (start 0 -13.6525) (end 0 -5.08) (layer F.Fab) (width 0.1))
  (fp_line (start -1.27 -3.82) (end 0 -2.55) (layer F.Fab) (width 0.1))
  (pad 1 thru_hole rect (at 0 0) (size 1.905 1.905) (drill 1.2192) (layers *.Cu *.Mask)
    (solder_mask_margin 0.1143) (clearance 0.3048) (zone_connect 2) (thermal_width 0.381) (thermal_gap 0.3302))
  (pad 2 thru_hole circle (at 2.54 0) (size 1.905 1.905) (drill 1.2192) (layers *.Cu *.Mask)
    (solder_mask_margin 0.1143) (clearance 0.3048) (zone_connect 2) (thermal_width 0.381) (thermal_gap 0.3302))
  (model ${KIPRJMOD}/../Library/Footprints.3dshapes/0022057028.step
    (offset (xyz 1.25 5.9 0))
    (scale (xyz 1 1 1))
    (rotate (xyz 0 0 90))
  )
)
