(module MOL7395-8 (layer F.Cu) (tedit 5ECBC660)
  (descr "Connector, 8 circuit, 0.1 inch (2.54 mm) pitch, Molex KK 254 series")
  (fp_text reference REF** (at 8.89 -13.335 90) (layer F.SilkS)
    (effects (font (size 1.2 1.2) (thickness 0.15)) (justify right))
  )
  (fp_text value MOL7395-8 (at 0 2) (layer F.Fab) hide
    (effects (font (size 1 1) (thickness 0.15)))
  )
  (fp_arc (start 2.54 0) (end 3.4925 0) (angle 360) (layer B.CrtYd) (width 0.02))
  (fp_arc (start 5.08 0) (end 6.0325 0) (angle 360) (layer B.CrtYd) (width 0.02))
  (fp_arc (start 7.62 0) (end 8.5725 0) (angle 360) (layer B.CrtYd) (width 0.02))
  (fp_arc (start 10.16 0) (end 11.1125 0) (angle 360) (layer B.CrtYd) (width 0.02))
  (fp_arc (start 12.7 0) (end 13.6525 0) (angle 360) (layer B.CrtYd) (width 0.02))
  (fp_arc (start 15.24 0) (end 16.1925 0) (angle 360) (layer B.CrtYd) (width 0.02))
  (fp_arc (start 17.78 0) (end 18.7325 0) (angle 360) (layer B.CrtYd) (width 0.02))
  (fp_line (start -1.36 1.2827) (end -1.36 -14.06) (layer Dwgs.User) (width 0.05))
  (fp_line (start -1.36 -14.06) (end 19.14 -14.06) (layer Dwgs.User) (width 0.05))
  (fp_line (start 19.14 -14.06) (end 19.14 1.2827) (layer Dwgs.User) (width 0.05))
  (fp_line (start 19.14 1.2827) (end -1.36 1.2827) (layer Dwgs.User) (width 0.05))
  (fp_line (start 15.24 -1.27) (end 15.24 -2.54) (layer F.SilkS) (width 0.18))
  (fp_line (start 10.16 -1.27) (end 10.16 -2.54) (layer F.SilkS) (width 0.18))
  (fp_line (start 5.08 -1.27) (end 5.08 -2.54) (layer F.SilkS) (width 0.18))
  (fp_line (start 2.54 -1.27) (end 2.54 -2.54) (layer F.SilkS) (width 0.18))
  (fp_line (start 0 -1.27) (end 0 -2.54) (layer F.SilkS) (width 0.18))
  (fp_line (start -1.27 -5.08) (end -1.27 -2.54) (layer F.SilkS) (width 0.18))
  (fp_line (start -1.27 -2.54) (end 19.05 -2.54) (layer F.SilkS) (width 0.18))
  (fp_line (start 19.05 -2.54) (end 19.05 -5.08) (layer F.SilkS) (width 0.18))
  (fp_line (start 19.05 -5.08) (end 17.78 -5.08) (layer F.SilkS) (width 0.18))
  (fp_line (start 17.78 -5.08) (end 17.78 -13.335) (layer F.SilkS) (width 0.18))
  (fp_line (start 17.78 -13.335) (end 17.145 -13.97) (layer F.SilkS) (width 0.18))
  (fp_line (start 17.145 -13.97) (end 0.635 -13.97) (layer F.SilkS) (width 0.18))
  (fp_line (start 0.635 -13.97) (end 0 -13.335) (layer F.SilkS) (width 0.18))
  (fp_line (start 0 -13.335) (end 0 -5.08) (layer F.SilkS) (width 0.18))
  (fp_line (start 0 -5.08) (end -1.27 -5.08) (layer F.SilkS) (width 0.18))
  (fp_line (start 7.62 -1.27) (end 7.62 -2.54) (layer F.SilkS) (width 0.18))
  (fp_line (start 12.7 -1.27) (end 12.7 -2.54) (layer F.SilkS) (width 0.18))
  (fp_line (start 17.78 -1.27) (end 17.78 -2.54) (layer F.SilkS) (width 0.18))
  (fp_line (start 0 -2.54) (end -1.25 -3.79) (layer F.SilkS) (width 0.18))
  (fp_line (start -1.27 -13.97) (end 19.05 -13.97) (layer F.CrtYd) (width 0.02))
  (fp_line (start 19.05 -13.97) (end 19.05 1.27) (layer F.CrtYd) (width 0.02))
  (fp_line (start 19.05 1.27) (end -1.27 1.27) (layer F.CrtYd) (width 0.02))
  (fp_line (start -1.27 1.27) (end -1.27 -13.97) (layer F.CrtYd) (width 0.02))
  (fp_line (start 0.9525 -0.9525) (end 0.9525 0.9525) (layer B.CrtYd) (width 0.02))
  (fp_line (start 0.9525 0.9525) (end -0.9525 0.9525) (layer B.CrtYd) (width 0.02))
  (fp_line (start -0.9525 0.9525) (end -0.9525 -0.9525) (layer B.CrtYd) (width 0.02))
  (fp_line (start -0.9525 -0.9525) (end 0.9525 -0.9525) (layer B.CrtYd) (width 0.02))
  (fp_line (start 15.24 0) (end 15.24 -2.54) (layer F.Fab) (width 0.1))
  (fp_line (start 10.16 0) (end 10.16 -2.54) (layer F.Fab) (width 0.1))
  (fp_line (start 7.62 0) (end 7.62 -2.54) (layer F.Fab) (width 0.1))
  (fp_line (start 2.54 0) (end 2.54 -2.54) (layer F.Fab) (width 0.1))
  (fp_line (start 0 0) (end 0 -2.54) (layer F.Fab) (width 0.1))
  (fp_line (start -1.27 -5.08) (end -1.27 -2.54) (layer F.Fab) (width 0.1))
  (fp_line (start -1.27 -2.54) (end 19.05 -2.54) (layer F.Fab) (width 0.1))
  (fp_line (start 19.05 -2.54) (end 19.05 -5.08) (layer F.Fab) (width 0.1))
  (fp_line (start 19.05 -5.08) (end 17.78 -5.08) (layer F.Fab) (width 0.1))
  (fp_line (start 17.78 -5.08) (end 17.78 -13.335) (layer F.Fab) (width 0.1))
  (fp_line (start 17.78 -13.335) (end 17.145 -13.97) (layer F.Fab) (width 0.1))
  (fp_line (start 17.145 -13.97) (end 0.635 -13.97) (layer F.Fab) (width 0.1))
  (fp_line (start 0.635 -13.97) (end 0 -13.335) (layer F.Fab) (width 0.1))
  (fp_line (start 0 -13.335) (end 0 -5.08) (layer F.Fab) (width 0.1))
  (fp_line (start 0 -5.08) (end -1.27 -5.08) (layer F.Fab) (width 0.1))
  (fp_line (start 5.08 0) (end 5.08 -2.54) (layer F.Fab) (width 0.1))
  (fp_line (start 12.7 0) (end 12.7 -2.54) (layer F.Fab) (width 0.1))
  (fp_line (start 17.78 0) (end 17.78 -2.54) (layer F.Fab) (width 0.1))
  (fp_line (start 0 -2.54) (end -1.25 -3.79) (layer F.Fab) (width 0.1))
  (pad 1 thru_hole rect (at 0 0) (size 1.905 1.905) (drill 1.2192) (layers *.Cu *.Mask)
    (solder_mask_margin 0.1143) (clearance 0.3048) (zone_connect 2) (thermal_width 0.381) (thermal_gap 0.3302))
  (pad 2 thru_hole circle (at 2.54 0) (size 1.905 1.905) (drill 1.2192) (layers *.Cu *.Mask)
    (solder_mask_margin 0.1143) (zone_connect 2))
  (pad 3 thru_hole circle (at 5.08 0) (size 1.905 1.905) (drill 1.2192) (layers *.Cu *.Mask)
    (solder_mask_margin 0.1143) (zone_connect 2))
  (pad 4 thru_hole circle (at 7.62 0) (size 1.905 1.905) (drill 1.2192) (layers *.Cu *.Mask)
    (solder_mask_margin 0.1143) (zone_connect 2))
  (pad 5 thru_hole circle (at 10.16 0) (size 1.905 1.905) (drill 1.2192) (layers *.Cu *.Mask)
    (solder_mask_margin 0.1143) (zone_connect 2))
  (pad 6 thru_hole circle (at 12.7 0) (size 1.905 1.905) (drill 1.2192) (layers *.Cu *.Mask)
    (solder_mask_margin 0.1143) (zone_connect 2))
  (pad 7 thru_hole circle (at 15.24 0) (size 1.905 1.905) (drill 1.2192) (layers *.Cu *.Mask)
    (solder_mask_margin 0.1143) (zone_connect 2))
  (pad 8 thru_hole circle (at 17.78 0) (size 1.905 1.905) (drill 1.2192) (layers *.Cu *.Mask)
    (solder_mask_margin 0.1143) (zone_connect 2))
  (model ${KIPRJMOD}/../Library/Footprints.3dshapes/0022057088.step
    (offset (xyz 8.9 5.9 0))
    (scale (xyz 1 1 1))
    (rotate (xyz 0 0 90))
  )
)
