(module MX.A8M placed (layer F.Cu) (tedit 5EBE99BA)
  (fp_text reference IC17 (at 0.762 1.2065 -90) (layer F.SilkS)
    (effects (font (size 1.2 1.2) (thickness 0.1)) (justify left bottom))
  )
  (fp_text value L-BC-SO08M (at 0 2) (layer F.Fab) hide
    (effects (font (size 1 1) (thickness 0.15)))
  )
  (fp_poly (pts (xy -2.921 4.92125) (xy -2.921 -4.92125) (xy 2.921 -4.92125) (xy 2.921 4.92125)
    (xy -2.921 4.92125)) (layer F.Fab) (width 0.02))
  (fp_line (start -1.6002 -2.784) (end -2.4638 -2.784) (layer F.SilkS) (width 0.02))
  (fp_line (start -1.6002 -4.816) (end -1.6002 -2.784) (layer F.SilkS) (width 0.02))
  (fp_line (start -2.4638 -4.816) (end -1.6002 -4.816) (layer F.SilkS) (width 0.02))
  (fp_line (start -2.4638 -2.784) (end -2.4638 -4.816) (layer F.SilkS) (width 0.02))
  (fp_line (start -0.3302 -2.784) (end -0.9398 -2.784) (layer F.SilkS) (width 0.02))
  (fp_line (start -0.3302 -4.816) (end -0.3302 -2.784) (layer F.SilkS) (width 0.02))
  (fp_line (start -0.9398 -4.816) (end -0.3302 -4.816) (layer F.SilkS) (width 0.02))
  (fp_line (start -0.9398 -2.784) (end -0.9398 -4.816) (layer F.SilkS) (width 0.02))
  (fp_line (start 0.9398 -2.784) (end 0.3302 -2.784) (layer F.SilkS) (width 0.02))
  (fp_line (start 0.9398 -4.816) (end 0.9398 -2.784) (layer F.SilkS) (width 0.02))
  (fp_line (start 0.3302 -4.816) (end 0.9398 -4.816) (layer F.SilkS) (width 0.02))
  (fp_line (start 0.3302 -2.784) (end 0.3302 -4.816) (layer F.SilkS) (width 0.02))
  (fp_line (start 2.4638 -2.784) (end 1.6002 -2.784) (layer F.SilkS) (width 0.02))
  (fp_line (start 2.4638 -4.816) (end 2.4638 -2.784) (layer F.SilkS) (width 0.02))
  (fp_line (start 1.6002 -4.816) (end 2.4638 -4.816) (layer F.SilkS) (width 0.02))
  (fp_line (start 1.6002 -2.784) (end 1.6002 -4.816) (layer F.SilkS) (width 0.02))
  (fp_line (start 2.4638 4.816) (end 1.6002 4.816) (layer F.SilkS) (width 0.02))
  (fp_line (start 2.4638 2.784) (end 2.4638 4.816) (layer F.SilkS) (width 0.02))
  (fp_line (start 1.6002 2.784) (end 2.4638 2.784) (layer F.SilkS) (width 0.02))
  (fp_line (start 1.6002 4.816) (end 1.6002 2.784) (layer F.SilkS) (width 0.02))
  (fp_line (start 0.9398 4.816) (end 0.3302 4.816) (layer F.SilkS) (width 0.02))
  (fp_line (start 0.9398 2.784) (end 0.9398 4.816) (layer F.SilkS) (width 0.02))
  (fp_line (start 0.3302 2.784) (end 0.9398 2.784) (layer F.SilkS) (width 0.02))
  (fp_line (start 0.3302 4.816) (end 0.3302 2.784) (layer F.SilkS) (width 0.02))
  (fp_line (start -0.3302 4.816) (end -0.9398 4.816) (layer F.SilkS) (width 0.02))
  (fp_line (start -0.3302 2.784) (end -0.3302 4.816) (layer F.SilkS) (width 0.02))
  (fp_line (start -0.9398 2.784) (end -0.3302 2.784) (layer F.SilkS) (width 0.02))
  (fp_line (start -0.9398 4.816) (end -0.9398 2.784) (layer F.SilkS) (width 0.02))
  (fp_line (start -1.6002 4.816) (end -2.4638 4.816) (layer F.SilkS) (width 0.02))
  (fp_line (start -1.6002 2.784) (end -1.6002 4.816) (layer F.SilkS) (width 0.02))
  (fp_line (start -2.4638 2.784) (end -1.6002 2.784) (layer F.SilkS) (width 0.02))
  (fp_line (start -2.4638 4.816) (end -2.4638 2.784) (layer F.SilkS) (width 0.02))
  (fp_line (start -2.8575 -2.69875) (end -2.8575 2.69875) (layer F.SilkS) (width 0.1))
  (fp_line (start 2.8575 -2.69875) (end -2.8575 -2.69875) (layer F.SilkS) (width 0.1))
  (fp_line (start 2.8575 2.69875) (end 2.8575 -2.69875) (layer F.SilkS) (width 0.1))
  (fp_line (start -2.8575 2.69875) (end 2.8575 2.69875) (layer F.SilkS) (width 0.1))
  (fp_line (start -2.8575 -0.508) (end -2.8575 0.508) (layer F.SilkS) (width 0.1))
  (fp_line (start -1.778 -0.508) (end -2.8575 -0.508) (layer F.SilkS) (width 0.1))
  (fp_line (start -2.8575 0.508) (end -1.778 0.508) (layer F.SilkS) (width 0.1))
  (fp_line (start -1.905 3.81) (end -1.905 2.69875) (layer F.SilkS) (width 0.1))
  (fp_line (start -0.635 3.81) (end -0.635 2.69875) (layer F.SilkS) (width 0.1))
  (fp_line (start 0.635 3.81) (end 0.635 2.69875) (layer F.SilkS) (width 0.1))
  (fp_line (start 1.905 3.81) (end 1.905 2.69875) (layer F.SilkS) (width 0.1))
  (fp_line (start -1.905 -3.81) (end -1.905 -2.69875) (layer F.SilkS) (width 0.25))
  (fp_line (start -0.635 -3.81) (end -0.635 -2.69875) (layer F.SilkS) (width 0.25))
  (fp_line (start 0.635 -3.81) (end 0.635 -2.69875) (layer F.SilkS) (width 0.25))
  (fp_line (start 1.905 -3.81) (end 1.905 -2.69875) (layer F.SilkS) (width 0.25))
  (fp_line (start 2.8575 2.38125) (end 2.8575 -2.38125) (layer F.Fab) (width 0.18))
  (fp_line (start -2.8575 2.38125) (end 2.8575 2.38125) (layer F.Fab) (width 0.18))
  (fp_line (start -2.8575 -2.38125) (end -2.8575 2.38125) (layer F.Fab) (width 0.18))
  (fp_line (start 2.8575 -2.38125) (end -2.8575 -2.38125) (layer F.Fab) (width 0.18))
  (fp_line (start 2.9475 5.07) (end -2.9475 5.07) (layer Dwgs.User) (width 0.05))
  (fp_line (start 2.9475 -5.07) (end 2.9475 5.07) (layer Dwgs.User) (width 0.05))
  (fp_line (start -2.9475 -5.07) (end 2.9475 -5.07) (layer Dwgs.User) (width 0.05))
  (fp_line (start -2.9475 5.07) (end -2.9475 -5.07) (layer Dwgs.User) (width 0.05))
  (fp_arc (start -1.778 0) (end -1.778 0.508) (angle -180) (layer F.SilkS) (width 0.1))
  (fp_arc (start -1.505 1.34626) (end -1.505 1.74625) (angle 360) (layer F.Fab) (width 0.02))
  (pad 8 smd rect (at -2.032 -3.8) (size 0.8636 2.032) (layers F.Cu F.Paste F.Mask)
    (solder_mask_margin 0.1016) (clearance 0.2032) (zone_connect 2))
  (pad 7 smd rect (at -0.635 -3.8) (size 0.6096 2.032) (layers F.Cu F.Paste F.Mask)
    (solder_mask_margin 0.1016) (clearance 0.2032) (zone_connect 2))
  (pad 6 smd rect (at 0.635 -3.8) (size 0.6096 2.032) (layers F.Cu F.Paste F.Mask)
    (solder_mask_margin 0.1016) (clearance 0.2032) (zone_connect 2))
  (pad 5 smd rect (at 2.032 -3.8) (size 0.8636 2.032) (layers F.Cu F.Paste F.Mask)
    (solder_mask_margin 0.1016) (clearance 0.2032) (zone_connect 2))
  (pad 4 smd rect (at 2.032 3.8) (size 0.8636 2.032) (layers F.Cu F.Paste F.Mask)
    (solder_mask_margin 0.1016) (clearance 0.2032) (zone_connect 2))
  (pad 3 smd rect (at 0.635 3.8) (size 0.6096 2.032) (layers F.Cu F.Paste F.Mask)
    (solder_mask_margin 0.1016) (clearance 0.2032) (zone_connect 2))
  (pad 2 smd rect (at -0.635 3.8) (size 0.6096 2.032) (layers F.Cu F.Paste F.Mask)
    (solder_mask_margin 0.1016) (clearance 0.2032) (zone_connect 2))
  (pad 1 smd rect (at -2.032 3.8) (size 0.8636 2.032) (layers F.Cu F.Paste F.Mask)
    (solder_mask_margin 0.1016) (clearance 0.2032) (zone_connect 2))
  (model ${KISYS3DMOD}/Package_SO.3dshapes/SO-8_5.3x6.2mm_P1.27mm.wrl
    (at (xyz 0 0 0))
    (scale (xyz 1 1 1))
    (rotate (xyz 0 0 -90))
  )
)
