(module NR4012 (layer F.Cu) (tedit 5EC6E08E)
  (descr "Taiyo Yuden NR4012 inductor, 4 x 4 x 1.2 mm")
  (tags inductor)
  (attr smd)
  (fp_text reference REF** (at 0 0) (layer F.SilkS) hide
    (effects (font (size 1 1) (thickness 0.15)))
  )
  (fp_text value NR4012 (at 0 2) (layer F.Fab) hide
    (effects (font (size 1 1) (thickness 0.15)))
  )
  (fp_line (start -2.69 2.19) (end -2.69 -2.19) (layer Dwgs.User) (width 0.05))
  (fp_line (start -2.69 -2.19) (end 2.69 -2.19) (layer Dwgs.User) (width 0.05))
  (fp_line (start 2.69 -2.19) (end 2.69 2.19) (layer Dwgs.User) (width 0.05))
  (fp_line (start 2.69 2.19) (end -2.69 2.19) (layer Dwgs.User) (width 0.05))
  (fp_line (start -2.6 2.1) (end 2.6 2.1) (layer F.SilkS) (width 0.18))
  (fp_line (start 2.6 2.1) (end 2.6 -2.1) (layer F.SilkS) (width 0.18))
  (fp_line (start 2.6 -2.1) (end -2.6 -2.1) (layer F.SilkS) (width 0.18))
  (fp_line (start -2.6 -2.1) (end -2.6 2.1) (layer F.SilkS) (width 0.18))
  (fp_line (start -2.6 -2.1) (end 2.6 -2.1) (layer F.CrtYd) (width 0.02))
  (fp_line (start 2.6 -2.1) (end 2.6 2.1) (layer F.CrtYd) (width 0.02))
  (fp_line (start 2.6 2.1) (end -2.6 2.1) (layer F.CrtYd) (width 0.02))
  (fp_line (start -2.6 2.1) (end -2.6 -2.1) (layer F.CrtYd) (width 0.02))
  (fp_line (start -2.1 2.1) (end 2.1 2.1) (layer F.Fab) (width 0.1))
  (fp_line (start 2.1 2.1) (end 2.1 -2.1) (layer F.Fab) (width 0.1))
  (fp_line (start 2.1 -2.1) (end -2.1 -2.1) (layer F.Fab) (width 0.1))
  (fp_line (start -2.1 -2.1) (end -2.1 2.1) (layer F.Fab) (width 0.1))
  (fp_line (start -1.8 -2.1) (end -1.8 2.1) (layer F.Fab) (width 0.1))
  (fp_line (start 1.8 -2.1) (end 1.8 2.1) (layer F.Fab) (width 0.1))
  (pad 1 smd rect (at -1.5 0) (size 1.6 3.7) (layers F.Cu F.Paste F.Mask)
    (solder_mask_margin 0.1) (zone_connect 2))
  (pad 2 smd rect (at 1.5 0) (size 1.6 3.7) (layers F.Cu F.Paste F.Mask)
    (solder_mask_margin 0.1) (zone_connect 2))
  (model ${KIPRJMOD}/../Library/Footprints.3dshapes/NR4012_cp.wrl
    (at (xyz 0 0 0))
    (scale (xyz 1 1 1))
    (rotate (xyz 0 0 90))
  )
)
