(module R2512_1 (layer F.Cu) (tedit 0)
  (attr smd)
  (fp_text reference REF** (at 0.4572 0.6985 -90 unlocked) (layer F.SilkS)
    (effects (font (size 1.033069 1.086612) (thickness 0.127)))
  )
  (fp_text value R-BC-R2512 (at 3.937 -0.7874 unlocked) (layer F.SilkS) hide
    (effects (font (size 1.033069 1.086612) (thickness 0.127)))
  )
  (fp_line (start 4.2672 1.905) (end 4.2672 -1.905) (layer F.SilkS) (width 0.1778))
  (fp_line (start -4.2672 -1.905) (end 4.2672 -1.905) (layer F.SilkS) (width 0.1778))
  (fp_line (start -4.2672 1.905) (end -4.2672 -1.905) (layer F.SilkS) (width 0.1778))
  (fp_line (start -4.2672 1.905) (end 4.2672 1.905) (layer F.SilkS) (width 0.1778))
  (fp_line (start 4.2672 1.905) (end 4.2672 -1.905) (layer Dwgs.User) (width 0.1778))
  (fp_line (start -4.2672 -1.905) (end 4.2672 -1.905) (layer Dwgs.User) (width 0.1778))
  (fp_line (start -4.2672 1.905) (end -4.2672 -1.905) (layer Dwgs.User) (width 0.1778))
  (fp_line (start -4.2672 1.905) (end 4.2672 1.905) (layer Dwgs.User) (width 0.1778))
  (fp_line (start -3.1496 1.5748) (end -3.1496 -1.5748) (layer F.Fab) (width 0.0762))
  (fp_line (start -3.1496 1.5748) (end 3.1496 1.5748) (layer F.Fab) (width 0.0762))
  (fp_line (start 3.1496 1.5748) (end 3.1496 -1.5748) (layer F.Fab) (width 0.0762))
  (fp_line (start -3.1496 -1.5748) (end 3.1496 -1.5748) (layer F.Fab) (width 0.0762))
  (pad 2 smd rect (at 3.175 0) (size 1.5748 3.5052) (layers F.Cu F.Paste F.Mask))
  (pad 1 smd rect (at -3.175 0) (size 1.5748 3.5052) (layers F.Cu F.Paste F.Mask))
  (model ${KISYS3DMOD}/Resistor_SMD.3dshapes/R_2512_6332Metric.wrl
    (at (xyz 0 0 0))
    (scale (xyz 1 1 1))
    (rotate (xyz 0 0 0))
  )
)
