(module RC1206-AIROX-C1206C107M9PAC placed (layer F.Cu) (tedit 5EBE99BA)
  (fp_text reference C89 (at -0.87593 2.45101) (layer F.SilkS)
    (effects (font (size 1.2 1.2) (thickness 0.1)) (justify left bottom))
  )
  (fp_text value C-BC-C1206 (at 0 2) (layer F.Fab) hide
    (effects (font (size 1 1) (thickness 0.15)))
  )
  (fp_poly (pts (xy -1.7 -0.9) (xy 1.7 -0.9) (xy 1.7 0.9) (xy -1.7 0.9)) (layer F.Fab) (width 0.02))
  (fp_poly (pts (xy -2.54 1.27) (xy -2.54 -1.27) (xy 2.54 -1.27) (xy 2.54 1.27)
    (xy -2.54 1.27)) (layer F.Fab) (width 0.02))
  (fp_line (start 2.25 -1) (end 0.75 -1) (layer F.SilkS) (width 0.1))
  (fp_line (start 2.25 1) (end 2.25 -1) (layer F.SilkS) (width 0.1))
  (fp_line (start 0.75 1) (end 2.25 1) (layer F.SilkS) (width 0.1))
  (fp_line (start 0.75 -1) (end 0.75 1) (layer F.SilkS) (width 0.1))
  (fp_line (start -0.75 -1) (end -2.25 -1) (layer F.SilkS) (width 0.1))
  (fp_line (start -0.75 1) (end -0.75 -1) (layer F.SilkS) (width 0.1))
  (fp_line (start -2.25 1) (end -0.75 1) (layer F.SilkS) (width 0.1))
  (fp_line (start -2.25 -1) (end -2.25 1) (layer F.SilkS) (width 0.1))
  (fp_line (start 1.7 -0.9) (end 1.7 0.9) (layer F.SilkS) (width 0.1))
  (fp_line (start 0.95 -0.9) (end 1.7 -0.9) (layer F.SilkS) (width 0.1))
  (fp_line (start 0.95 0.9) (end 0.95 -0.9) (layer F.SilkS) (width 0.1))
  (fp_line (start 1.7 0.9) (end 0.95 0.9) (layer F.SilkS) (width 0.1))
  (fp_line (start -1.7 -0.9) (end -1.7 0.9) (layer F.SilkS) (width 0.1))
  (fp_line (start -0.95 -0.9) (end -1.7 -0.9) (layer F.SilkS) (width 0.1))
  (fp_line (start -0.95 0.9) (end -0.95 -0.9) (layer F.SilkS) (width 0.1))
  (fp_line (start -1.7 0.9) (end -0.95 0.9) (layer F.SilkS) (width 0.1))
  (fp_line (start -1.7 0.9) (end -1.7 -0.9) (layer F.SilkS) (width 0.1))
  (fp_line (start 1.7 0.9) (end -1.7 0.9) (layer F.SilkS) (width 0.1))
  (fp_line (start 1.7 -0.9) (end 1.7 0.9) (layer F.SilkS) (width 0.1))
  (fp_line (start -1.7 -0.9) (end 1.7 -0.9) (layer F.SilkS) (width 0.1))
  (fp_line (start 2.54 1.27) (end 2.54 -1.27) (layer F.Fab) (width 0.18))
  (fp_line (start -2.54 1.27) (end 2.54 1.27) (layer F.Fab) (width 0.18))
  (fp_line (start -2.54 -1.27) (end -2.54 1.27) (layer F.Fab) (width 0.18))
  (fp_line (start 2.54 -1.27) (end -2.54 -1.27) (layer F.Fab) (width 0.18))
  (fp_line (start 2.63 1.36) (end -2.63 1.36) (layer Dwgs.User) (width 0.05))
  (fp_line (start 2.63 -1.36) (end 2.63 1.36) (layer Dwgs.User) (width 0.05))
  (fp_line (start -2.63 -1.36) (end 2.63 -1.36) (layer Dwgs.User) (width 0.05))
  (fp_line (start -2.63 1.36) (end -2.63 -1.36) (layer Dwgs.User) (width 0.05))
  (pad 2 smd rect (at 1.5 0) (size 1.5 2) (layers F.Cu F.Paste F.Mask)
    (solder_mask_margin 0.1) (zone_connect 2))
  (pad 1 smd rect (at -1.5 0) (size 1.5 2) (layers F.Cu F.Paste F.Mask)
    (solder_mask_margin 0.1) (zone_connect 2))
  (model ${KISYS3DMOD}/Inductor_SMD.3dshapes/L_1206_3216Metric.wrl
    (at (xyz 0 0 0))
    (scale (xyz 1 1 1))
    (rotate (xyz 0 0 0))
  )
)
