(module SC70-5_1 (layer F.Cu) (tedit 5E9C783E)
  (attr smd)
  (fp_text reference D1 (at 0.50103 -3.2034 unlocked) (layer F.SilkS)
    (effects (font (size 1.0496 1.104) (thickness 0.1)))
  )
  (fp_text value L-BC-SC70-5 (at -3.71873 -0.0332 unlocked) (layer F.SilkS) hide
    (effects (font (size 1.0496 1.104) (thickness 0.1)))
  )
  (fp_line (start 1.1 0.26786) (end 1.1 -0.26786) (layer F.SilkS) (width 0.18))
  (fp_line (start -1.1 -1.73214) (end -1.1 -1.8) (layer F.SilkS) (width 0.18))
  (fp_line (start 1.1 1.8) (end 1.1 1.73214) (layer F.SilkS) (width 0.18))
  (fp_line (start -1.1 1.8) (end 1.1 1.8) (layer F.SilkS) (width 0.18))
  (fp_line (start 1.1 -1.73214) (end 1.1 -1.8) (layer F.SilkS) (width 0.18))
  (fp_line (start -1.1 -1.8) (end 1.1 -1.8) (layer F.SilkS) (width 0.18))
  (fp_line (start -1.1 0.26786) (end -1.1 -0.26786) (layer F.SilkS) (width 0.18))
  (fp_line (start -1.1 1.8) (end -1.1 1.73214) (layer F.SilkS) (width 0.18))
  (fp_line (start -1.1 -0.7) (end 1.1 -0.7) (layer F.Fab) (width 0.1))
  (fp_line (start 0.75 -0.7) (end 0.75 -1.2) (layer F.Fab) (width 0.00003))
  (fp_line (start -0.75 1.2) (end -0.55 1.2) (layer F.Fab) (width 0.00003))
  (fp_line (start 0.55 -0.7) (end 0.55 -1.2) (layer F.Fab) (width 0.00003))
  (fp_line (start -0.75 1.2) (end -0.75 0.7) (layer F.Fab) (width 0.00003))
  (fp_line (start -0.75 -0.7) (end -0.55 -0.7) (layer F.Fab) (width 0.00003))
  (fp_line (start 0.55 -0.7) (end 0.75 -0.7) (layer F.Fab) (width 0.00003))
  (fp_line (start -0.55 1.2) (end -0.55 0.7) (layer F.Fab) (width 0.00003))
  (fp_line (start -0.1 -1.2) (end 0.1 -1.2) (layer F.Fab) (width 0.00003))
  (fp_line (start -0.75 0.7) (end -0.55 0.7) (layer F.Fab) (width 0.00003))
  (fp_line (start 0.1 -0.7) (end 0.1 -1.2) (layer F.Fab) (width 0.00003))
  (fp_line (start -0.1 -0.7) (end -0.1 -1.2) (layer F.Fab) (width 0.00003))
  (fp_line (start 0.55 0.7) (end 0.75 0.7) (layer F.Fab) (width 0.00003))
  (fp_line (start -0.1 -0.7) (end 0.1 -0.7) (layer F.Fab) (width 0.00003))
  (fp_line (start -0.75 -1.2) (end -0.55 -1.2) (layer F.Fab) (width 0.00003))
  (fp_line (start -0.55 -0.7) (end -0.55 -1.2) (layer F.Fab) (width 0.00003))
  (fp_line (start 0.55 1.2) (end 0.75 1.2) (layer F.Fab) (width 0.00003))
  (fp_line (start -1.1 0.7) (end 1.1 0.7) (layer F.Fab) (width 0.1))
  (fp_line (start -0.75 -0.7) (end -0.75 -1.2) (layer F.Fab) (width 0.00003))
  (fp_line (start 0.75 1.2) (end 0.75 0.7) (layer F.Fab) (width 0.00003))
  (fp_line (start 0.55 1.2) (end 0.55 0.7) (layer F.Fab) (width 0.00003))
  (fp_line (start -1.1 0.7) (end -1.1 -0.7) (layer F.Fab) (width 0.1))
  (fp_line (start 1.1 0.7) (end 1.1 -0.7) (layer F.Fab) (width 0.1))
  (fp_line (start 0.55 -1.2) (end 0.75 -1.2) (layer F.Fab) (width 0.00003))
  (pad 5 smd rect (at 0.65 1) (size 0.4064 1.016) (layers F.Cu F.Paste F.Mask))
  (pad 4 smd rect (at -0.65 1) (size 0.4064 1.016) (layers F.Cu F.Paste F.Mask))
  (pad 3 smd rect (at -0.65 -1) (size 0.4064 1.016) (layers F.Cu F.Paste F.Mask))
  (pad 2 smd rect (at 0 -1) (size 0.4064 1.016) (layers F.Cu F.Paste F.Mask))
  (pad 1 smd rect (at 0.65 -1) (size 0.4064 1.016) (layers F.Cu F.Paste F.Mask))
  (model ${KISYS3DMOD}/Package_TO_SOT_SMD.3dshapes/SOT-353_SC-70-5.wrl
    (at (xyz 0 0 0))
    (scale (xyz 1 1 1))
    (rotate (xyz 0 0 90))
  )
)
