(module SMC-NP placed (layer F.Cu) (tedit 5EBE99BA)
  (fp_text reference D13 (at -0.6735 -1.024 -270) (layer F.SilkS)
    (effects (font (size 1.2 1.2) (thickness 0.1)) (justify left bottom))
  )
  (fp_text value D-BC-SMC-NP (at 0 2) (layer F.Fab) hide
    (effects (font (size 1 1) (thickness 0.15)))
  )
  (fp_poly (pts (xy -5.4 -3) (xy 5.4 -3) (xy 5.4 3) (xy -5.4 3)) (layer F.Fab) (width 0.02))
  (fp_line (start 5.0986 1.905) (end 2.1014 1.905) (layer F.SilkS) (width 0.02))
  (fp_line (start 5.0986 -1.905) (end 5.0986 1.905) (layer F.SilkS) (width 0.02))
  (fp_line (start 2.1014 -1.905) (end 5.0986 -1.905) (layer F.SilkS) (width 0.02))
  (fp_line (start 2.1014 1.905) (end 2.1014 -1.905) (layer F.SilkS) (width 0.02))
  (fp_line (start -2.1014 1.905) (end -5.0986 1.905) (layer F.SilkS) (width 0.02))
  (fp_line (start -2.1014 -1.905) (end -2.1014 1.905) (layer F.SilkS) (width 0.02))
  (fp_line (start -5.0986 -1.905) (end -2.1014 -1.905) (layer F.SilkS) (width 0.02))
  (fp_line (start -5.0986 1.905) (end -5.0986 -1.905) (layer F.SilkS) (width 0.02))
  (fp_line (start -3.5 -3) (end -3.5 3) (layer F.SilkS) (width 0.1))
  (fp_line (start 3.5 -3) (end -3.5 -3) (layer F.SilkS) (width 0.1))
  (fp_line (start 3.5 3) (end 3.5 -3) (layer F.SilkS) (width 0.1))
  (fp_line (start -3.5 3) (end 3.5 3) (layer F.SilkS) (width 0.1))
  (fp_line (start -3.5 -1.6) (end -4 -1.6) (layer F.SilkS) (width 0.1))
  (fp_line (start -3.5 1.6) (end -3.5 -1.6) (layer F.SilkS) (width 0.1))
  (fp_line (start -4 1.6) (end -3.5 1.6) (layer F.SilkS) (width 0.1))
  (fp_line (start -4 -1.6) (end -4 1.6) (layer F.SilkS) (width 0.1))
  (fp_line (start 4 1.6) (end 4 -1.6) (layer F.SilkS) (width 0.1))
  (fp_line (start 3.5 1.6) (end 4 1.6) (layer F.SilkS) (width 0.1))
  (fp_line (start 3.5 -1.6) (end 3.5 1.6) (layer F.SilkS) (width 0.1))
  (fp_line (start 4 -1.6) (end 3.5 -1.6) (layer F.SilkS) (width 0.1))
  (fp_line (start -5.3975 -3.01625) (end -5.3975 3.01625) (layer F.Fab) (width 0.18))
  (fp_line (start 5.3975 -3.01625) (end -5.3975 -3.01625) (layer F.Fab) (width 0.18))
  (fp_line (start 5.3975 3.01625) (end 5.3975 -3.01625) (layer F.Fab) (width 0.18))
  (fp_line (start -5.3975 3.01625) (end 5.3975 3.01625) (layer F.Fab) (width 0.18))
  (fp_line (start 5.4875 3.10625) (end -5.4875 3.10625) (layer Dwgs.User) (width 0.05))
  (fp_line (start 5.4875 -3.10625) (end 5.4875 3.10625) (layer Dwgs.User) (width 0.05))
  (fp_line (start -5.4875 -3.10625) (end 5.4875 -3.10625) (layer Dwgs.User) (width 0.05))
  (fp_line (start -5.4875 3.10625) (end -5.4875 -3.10625) (layer Dwgs.User) (width 0.05))
  (pad 2 smd rect (at 3.6 0) (size 2.9972 3.81) (layers F.Cu F.Paste F.Mask)
    (solder_mask_margin 0.1016) (clearance 0.3048) (zone_connect 2))
  (pad 1 smd rect (at -3.6 0) (size 2.9972 3.81) (layers F.Cu F.Paste F.Mask)
    (solder_mask_margin 0.1016) (clearance 0.3048) (zone_connect 2))
  (model ${KISYS3DMOD}/Diode_SMD.3dshapes/D_SMC.wrl
    (at (xyz 0 0 0))
    (scale (xyz 1 1 1))
    (rotate (xyz 0 0 0))
  )
)
