(module SO08-PPAD_COMPOSANT (layer F.Cu) (tedit 0)
  (fp_text reference REF** (at -1.26896 0.69984) (layer F.SilkS)
    (effects (font (size 1.2 1.2) (thickness 0.15)) (justify left))
  )
  (fp_text value SO08-PPAD_COMPOSANT (at 0 2) (layer F.Fab) hide
    (effects (font (size 1 1) (thickness 0.15)))
  )
  (fp_poly (pts (xy 2.65 -1.7) (xy 2.65 1.7) (xy -2.6 1.7) (xy -2.6 -1.7)
     (xy 2.65 -1.7)) (layer F.Mask) (width 0.02))
  (fp_arc (start -1.5875 0.63501) (end -1.5875 0.9525) (angle 360) (layer F.SilkS) (width 0.02))
  (fp_arc (start -1.524 0) (end -1.524 0.508) (angle -180) (layer F.Fab) (width 0.1))
  (fp_line (start -2.7178 3.716) (end -2.7178 -3.716) (layer Dwgs.User) (width 0.05))
  (fp_line (start -2.7178 -3.716) (end 2.7178 -3.716) (layer Dwgs.User) (width 0.05))
  (fp_line (start 2.7178 -3.716) (end 2.7178 3.716) (layer Dwgs.User) (width 0.05))
  (fp_line (start 2.7178 3.716) (end -2.7178 3.716) (layer Dwgs.User) (width 0.05))
  (fp_line (start 2.54 -1.5875) (end 2.54 1.5875) (layer F.SilkS) (width 0.02))
  (fp_line (start 2.54 1.5875) (end -2.5 1.5875) (layer F.SilkS) (width 0.02))
  (fp_line (start -2.5 1.5875) (end -2.5 -1.5875) (layer F.SilkS) (width 0.02))
  (fp_line (start -2.5 -1.5875) (end 2.54 -1.5875) (layer F.SilkS) (width 0.02))
  (fp_line (start 2.54 -1.5875) (end -2.54 -1.5875) (layer F.SilkS) (width 0.18))
  (fp_line (start -2.54 -1.5875) (end -2.54 1.5875) (layer F.SilkS) (width 0.18))
  (fp_line (start -2.54 1.5875) (end 2.54 1.5875) (layer F.SilkS) (width 0.18))
  (fp_line (start 2.54 1.5875) (end 2.54 -1.5875) (layer F.SilkS) (width 0.18))
  (fp_line (start 2.667 -3.462) (end 2.667 3.462) (layer F.CrtYd) (width 0.02))
  (fp_line (start 2.667 3.462) (end -2.667 3.462) (layer F.CrtYd) (width 0.02))
  (fp_line (start -2.667 3.462) (end -2.667 -3.462) (layer F.CrtYd) (width 0.02))
  (fp_line (start -2.667 -3.462) (end 2.667 -3.462) (layer F.CrtYd) (width 0.02))
  (fp_line (start 1.905 -2.69875) (end 1.905 -1.905) (layer F.Fab) (width 0.1))
  (fp_line (start 0.635 -2.69875) (end 0.635 -1.905) (layer F.Fab) (width 0.1))
  (fp_line (start -0.635 -2.69875) (end -0.635 -1.905) (layer F.Fab) (width 0.1))
  (fp_line (start -1.905 -2.69875) (end -1.905 -1.905) (layer F.Fab) (width 0.1))
  (fp_line (start 1.905 2.69875) (end 1.905 1.905) (layer F.Fab) (width 0.1))
  (fp_line (start 0.635 2.69875) (end 0.635 1.905) (layer F.Fab) (width 0.1))
  (fp_line (start -0.635 2.69875) (end -0.635 1.905) (layer F.Fab) (width 0.1))
  (fp_line (start -1.905 2.69875) (end -1.905 1.905) (layer F.Fab) (width 0.1))
  (fp_line (start -2.54 0.508) (end -1.524 0.508) (layer F.Fab) (width 0.1))
  (fp_line (start -1.524 -0.508) (end -2.54 -0.508) (layer F.Fab) (width 0.1))
  (fp_line (start -2.54 -0.508) (end -2.54 0.508) (layer F.Fab) (width 0.1))
  (fp_line (start 2.54 -1.905) (end -2.54 -1.905) (layer F.Fab) (width 0.1))
  (fp_line (start -2.54 -1.905) (end -2.54 1.905) (layer F.Fab) (width 0.1))
  (fp_line (start -2.54 1.905) (end 2.54 1.905) (layer F.Fab) (width 0.1))
  (fp_line (start 2.54 1.905) (end 2.54 -1.905) (layer F.Fab) (width 0.1))
  (fp_line (start -2.4638 3.462) (end -2.4638 1.938) (layer F.SilkS) (width 0.02))
  (fp_line (start -2.4638 1.938) (end -1.6002 1.938) (layer F.SilkS) (width 0.02))
  (fp_line (start -1.6002 1.938) (end -1.6002 3.462) (layer F.SilkS) (width 0.02))
  (fp_line (start -1.6002 3.462) (end -2.4638 3.462) (layer F.SilkS) (width 0.02))
  (fp_line (start -0.9398 3.462) (end -0.9398 1.938) (layer F.SilkS) (width 0.02))
  (fp_line (start -0.9398 1.938) (end -0.3302 1.938) (layer F.SilkS) (width 0.02))
  (fp_line (start -0.3302 1.938) (end -0.3302 3.462) (layer F.SilkS) (width 0.02))
  (fp_line (start -0.3302 3.462) (end -0.9398 3.462) (layer F.SilkS) (width 0.02))
  (fp_line (start 0.3302 3.462) (end 0.3302 1.938) (layer F.SilkS) (width 0.02))
  (fp_line (start 0.3302 1.938) (end 0.9398 1.938) (layer F.SilkS) (width 0.02))
  (fp_line (start 0.9398 1.938) (end 0.9398 3.462) (layer F.SilkS) (width 0.02))
  (fp_line (start 0.9398 3.462) (end 0.3302 3.462) (layer F.SilkS) (width 0.02))
  (fp_line (start 1.6002 3.462) (end 1.6002 1.938) (layer F.SilkS) (width 0.02))
  (fp_line (start 1.6002 1.938) (end 2.4638 1.938) (layer F.SilkS) (width 0.02))
  (fp_line (start 2.4638 1.938) (end 2.4638 3.462) (layer F.SilkS) (width 0.02))
  (fp_line (start 2.4638 3.462) (end 1.6002 3.462) (layer F.SilkS) (width 0.02))
  (fp_line (start 1.6002 -1.938) (end 1.6002 -3.462) (layer F.SilkS) (width 0.02))
  (fp_line (start 1.6002 -3.462) (end 2.4638 -3.462) (layer F.SilkS) (width 0.02))
  (fp_line (start 2.4638 -3.462) (end 2.4638 -1.938) (layer F.SilkS) (width 0.02))
  (fp_line (start 2.4638 -1.938) (end 1.6002 -1.938) (layer F.SilkS) (width 0.02))
  (fp_line (start 0.3302 -1.938) (end 0.3302 -3.462) (layer F.SilkS) (width 0.02))
  (fp_line (start 0.3302 -3.462) (end 0.9398 -3.462) (layer F.SilkS) (width 0.02))
  (fp_line (start 0.9398 -3.462) (end 0.9398 -1.938) (layer F.SilkS) (width 0.02))
  (fp_line (start 0.9398 -1.938) (end 0.3302 -1.938) (layer F.SilkS) (width 0.02))
  (fp_line (start -0.9398 -1.938) (end -0.9398 -3.462) (layer F.SilkS) (width 0.02))
  (fp_line (start -0.9398 -3.462) (end -0.3302 -3.462) (layer F.SilkS) (width 0.02))
  (fp_line (start -0.3302 -3.462) (end -0.3302 -1.938) (layer F.SilkS) (width 0.02))
  (fp_line (start -0.3302 -1.938) (end -0.9398 -1.938) (layer F.SilkS) (width 0.02))
  (fp_line (start -2.4638 -1.938) (end -2.4638 -3.462) (layer F.SilkS) (width 0.02))
  (fp_line (start -2.4638 -3.462) (end -1.6002 -3.462) (layer F.SilkS) (width 0.02))
  (fp_line (start -1.6002 -3.462) (end -1.6002 -1.938) (layer F.SilkS) (width 0.02))
  (fp_line (start -1.6002 -1.938) (end -2.4638 -1.938) (layer F.SilkS) (width 0.02))
  (pad 1 smd rect (at -2.032 2.7) (size 0.8636 1.524) (layers F.Cu F.Paste F.Mask)
    (solder_mask_margin 0.1016) (clearance 0.2032) (zone_connect 2))
  (pad 2 smd rect (at -0.635 2.7) (size 0.6096 1.524) (layers F.Cu F.Paste F.Mask)
    (solder_mask_margin 0.1016) (clearance 0.2032) (zone_connect 2))
  (pad 3 smd rect (at 0.635 2.7) (size 0.6096 1.524) (layers F.Cu F.Paste F.Mask)
    (solder_mask_margin 0.1016) (clearance 0.2032) (zone_connect 2))
  (pad 4 smd rect (at 2.032 2.7) (size 0.8636 1.524) (layers F.Cu F.Paste F.Mask)
    (solder_mask_margin 0.1016) (clearance 0.2032) (zone_connect 2))
  (pad 5 smd rect (at 2.032 -2.7) (size 0.8636 1.524) (layers F.Cu F.Paste F.Mask)
    (solder_mask_margin 0.1016) (clearance 0.2032) (zone_connect 2))
  (pad 6 smd rect (at 0.635 -2.7) (size 0.6096 1.524) (layers F.Cu F.Paste F.Mask)
    (solder_mask_margin 0.1016) (clearance 0.2032) (zone_connect 2))
  (pad 7 smd rect (at -0.635 -2.7) (size 0.6096 1.524) (layers F.Cu F.Paste F.Mask)
    (solder_mask_margin 0.1016) (clearance 0.2032) (zone_connect 2))
  (pad 8 smd rect (at -2.032 -2.7) (size 0.8636 1.524) (layers F.Cu F.Paste F.Mask)
    (solder_mask_margin 0.1016) (clearance 0.2032) (zone_connect 2))
  (pad 9 smd custom (at 0 0) (size 2 2) (layers F.Cu)
    (options (clearance outline) (anchor rect))
    (primitives
      (gr_poly (pts
         (xy 2.54 -1.5875) (xy 2.54 1.5875) (xy -2.5 1.5875) (xy -2.5 -1.5875)
         (xy 2.54 -1.5875)) (width 0))
    )
    (zone_connect 2))
  (model ${KISYS3DMOD}/Package_SO.3dshapes/SOIC-8-1EP_3.9x4.9mm_P1.27mm_EP2.35x2.35mm.wrl
    (at (xyz 0 0 0))
    (scale (xyz 1 1 1))
    (rotate (xyz 0 0 -90))
  )
)
