(module SO08-PPAD_COMPOSANT_1 (layer F.Cu) (tedit 5EA05870)
  (attr smd)
  (fp_text reference IC29 (at 1.00893 -4.8798 unlocked) (layer F.SilkS)
    (effects (font (size 1.0496 1.104) (thickness 0.1)))
  )
  (fp_text value L-BC-SO08-PPAD (at -4.81743 -0.0332 unlocked) (layer F.SilkS) hide
    (effects (font (size 1.0496 1.104) (thickness 0.1)))
  )
  (fp_line (start -0.635 2.69875) (end -0.635 1.905) (layer F.Fab) (width 0.1))
  (fp_line (start -0.635 -1.905) (end -0.635 -2.69875) (layer F.Fab) (width 0.1))
  (fp_line (start -1.905 2.69875) (end -1.905 1.905) (layer F.Fab) (width 0.1))
  (fp_line (start 0.635 -1.905) (end 0.635 -2.69875) (layer F.Fab) (width 0.1))
  (fp_line (start -2.54 1.905) (end 2.54 1.905) (layer F.Fab) (width 0.1))
  (fp_line (start -2.54 -1.905) (end 2.54 -1.905) (layer F.Fab) (width 0.1))
  (fp_line (start 2.54 1.905) (end 2.54 -1.905) (layer F.Fab) (width 0.1))
  (fp_line (start 1.905 -1.905) (end 1.905 -2.69875) (layer F.Fab) (width 0.1))
  (fp_line (start -2.54 1.905) (end -2.54 -1.905) (layer F.Fab) (width 0.1))
  (fp_line (start -2.54 -0.508) (end -1.524 -0.508) (layer F.Fab) (width 0.1))
  (fp_line (start 0.635 2.69875) (end 0.635 1.905) (layer F.Fab) (width 0.1))
  (fp_line (start -1.905 -1.905) (end -1.905 -2.69875) (layer F.Fab) (width 0.1))
  (fp_line (start 1.905 2.69875) (end 1.905 1.905) (layer F.Fab) (width 0.1))
  (fp_line (start -2.54 0.508) (end -1.524 0.508) (layer F.Fab) (width 0.1))
  (fp_arc (start -1.52399 0) (end -1.52399 0.508) (angle -180) (layer F.Fab) (width 0.1))
  (fp_poly (pts (xy 1.5 1.25) (xy -1.5 1.25) (xy -1.5 -1.25) (xy 1.5 -1.25)) (layer F.Mask) (width 0.1))
  (fp_poly (pts (xy 1.5 1.25) (xy -1.5 1.25) (xy -1.5 -1.25) (xy 1.5 -1.25)) (layer F.Paste) (width 0.1))
  (pad 1 smd rect (at -2.032 2.7) (size 0.8636 1.524) (layers F.Cu F.Paste F.Mask))
  (pad 2 smd rect (at -0.635 2.7) (size 0.6096 1.524) (layers F.Cu F.Paste F.Mask))
  (pad 3 smd rect (at 0.635 2.7) (size 0.6096 1.524) (layers F.Cu F.Paste F.Mask))
  (pad 4 smd rect (at 2.032 2.7) (size 0.8636 1.524) (layers F.Cu F.Paste F.Mask))
  (pad 5 smd rect (at 2.032 -2.7) (size 0.8636 1.524) (layers F.Cu F.Paste F.Mask))
  (pad 6 smd rect (at 0.635 -2.7) (size 0.6096 1.524) (layers F.Cu F.Paste F.Mask))
  (pad 7 smd rect (at -0.635 -2.7) (size 0.6096 1.524) (layers F.Cu F.Paste F.Mask))
  (pad 8 smd rect (at -2.032 -2.7) (size 0.8636 1.524) (layers F.Cu F.Paste F.Mask))
  (pad 9 smd rect (at 0 0) (size 3.1 2.6) (layers F.Cu F.Paste F.Mask))
  (model ${KISYS3DMOD}/Package_SO.3dshapes/SOIC-8-1EP_3.9x4.9mm_P1.27mm_EP2.35x2.35mm.wrl
    (at (xyz 0 0 0))
    (scale (xyz 1 1 1))
    (rotate (xyz 0 0 -90))
  )
)
