(module SOD123-AK placed (layer F.Cu) (tedit 5EBE99BA)
  (fp_text reference CR1 (at -0.6985 0.762) (layer F.SilkS)
    (effects (font (size 1.2 1.2) (thickness 0.1)) (justify left bottom))
  )
  (fp_text value D-BC-SOD123-AK (at 0 2) (layer F.Fab) hide
    (effects (font (size 1 1) (thickness 0.15)))
  )
  (fp_poly (pts (xy -1.27 0.889) (xy -1.27 -0.889) (xy -0.889 -0.889) (xy -0.889 0.889)
    (xy -1.27 0.889)) (layer F.SilkS) (width 0.02))
  (fp_poly (pts (xy -2.413 1.11125) (xy -2.413 -1.11125) (xy 2.413 -1.11125) (xy 2.413 1.11125)
    (xy -2.413 1.11125)) (layer F.Fab) (width 0.02))
  (fp_line (start -0.7874 0.7112) (end -2.0574 0.7112) (layer F.SilkS) (width 0.02))
  (fp_line (start -0.7874 -0.7112) (end -0.7874 0.7112) (layer F.SilkS) (width 0.02))
  (fp_line (start -2.0574 -0.7112) (end -0.7874 -0.7112) (layer F.SilkS) (width 0.02))
  (fp_line (start -2.0574 0.7112) (end -2.0574 -0.7112) (layer F.SilkS) (width 0.02))
  (fp_line (start 2.0574 0.7112) (end 0.7874 0.7112) (layer F.SilkS) (width 0.02))
  (fp_line (start 2.0574 -0.7112) (end 2.0574 0.7112) (layer F.SilkS) (width 0.02))
  (fp_line (start 0.7874 -0.7112) (end 2.0574 -0.7112) (layer F.SilkS) (width 0.02))
  (fp_line (start 0.7874 0.7112) (end 0.7874 -0.7112) (layer F.SilkS) (width 0.02))
  (fp_line (start -1.7272 -0.9398) (end -1.7272 0.9398) (layer F.SilkS) (width 0.1))
  (fp_line (start 1.778 -0.9398) (end -1.7272 -0.9398) (layer F.SilkS) (width 0.1))
  (fp_line (start 1.778 0.9398) (end 1.778 -0.9398) (layer F.SilkS) (width 0.1))
  (fp_line (start -1.7272 0.9398) (end 1.778 0.9398) (layer F.SilkS) (width 0.1))
  (fp_line (start 2.38125 1.11125) (end 2.38125 -1.11125) (layer F.Fab) (width 0.18))
  (fp_line (start -2.06375 1.11125) (end 2.38125 1.11125) (layer F.Fab) (width 0.18))
  (fp_line (start -2.38125 0.79375) (end -2.06375 1.11125) (layer F.Fab) (width 0.18))
  (fp_line (start -2.38125 -0.79375) (end -2.38125 0.79375) (layer F.Fab) (width 0.18))
  (fp_line (start -2.06375 -1.11125) (end -2.38125 -0.79375) (layer F.Fab) (width 0.18))
  (fp_line (start 2.38125 -1.11125) (end -2.06375 -1.11125) (layer F.Fab) (width 0.18))
  (fp_line (start 2.47125 1.20125) (end -2.47125 1.20125) (layer Dwgs.User) (width 0.05))
  (fp_line (start 2.47125 -1.20125) (end 2.47125 1.20125) (layer Dwgs.User) (width 0.05))
  (fp_line (start -2.47125 -1.20125) (end 2.47125 -1.20125) (layer Dwgs.User) (width 0.05))
  (fp_line (start -2.47125 1.20125) (end -2.47125 -1.20125) (layer Dwgs.User) (width 0.05))
  (pad K smd rect (at -1.4224 0) (size 1.27 1.4224) (layers F.Cu F.Paste F.Mask)
    (solder_mask_margin 0.1016) (clearance 0.2032) (zone_connect 2))
  (pad A smd rect (at 1.4224 0) (size 1.27 1.4224) (layers F.Cu F.Paste F.Mask)
    (solder_mask_margin 0.1016) (clearance 0.2032) (zone_connect 2))
)
