(module SOD123-AK_1 (layer F.Cu) (tedit 5E95BB14)
  (attr smd)
  (fp_text reference CR2 (at -0.2921 1.9304 180 unlocked) (layer F.SilkS)
    (effects (font (size 1.033069 1.086612) (thickness 0.1778)))
  )
  (fp_text value D-BC-SOD123-AK (at 5.5118 -0.7874 unlocked) (layer F.SilkS) hide
    (effects (font (size 1.033069 1.086612) (thickness 0.1778)))
  )
  (fp_line (start 0.889 -0.889) (end 0.889 0.889) (layer B.Fab) (width 0.1))
  (fp_line (start 1.7272 0.9398) (end -1.778 0.9398) (layer B.Fab) (width 0.0762))
  (fp_line (start -1.778 -0.9398) (end -1.778 0.9398) (layer B.Fab) (width 0.0762))
  (fp_line (start 1.27 -0.889) (end 1.27 0.889) (layer B.Fab) (width 0.1))
  (fp_line (start 1.7272 -0.9398) (end 1.7272 0.9398) (layer B.Fab) (width 0.0762))
  (fp_line (start 1.7272 -0.9398) (end -1.778 -0.9398) (layer B.Fab) (width 0.0762))
  (fp_line (start 1.27 0.889) (end 0.889 0.889) (layer B.Fab) (width 0.1))
  (fp_line (start 1.27 -0.889) (end 0.889 -0.889) (layer B.Fab) (width 0.1))
  (fp_line (start 0.5588 1.0922) (end -0.5588 1.0922) (layer F.SilkS) (width 0.1778))
  (fp_line (start 0.5588 -1.0922) (end -0.5588 -1.0922) (layer F.SilkS) (width 0.1778))
  (pad A smd rect (at -1.4224 0) (size 1.27 1.4224) (layers F.Cu F.Paste F.Mask))
  (pad K smd rect (at 1.4224 0) (size 1.27 1.4224) (layers F.Cu F.Paste F.Mask))
  (model ${KISYS3DMOD}/Diode_SMD.3dshapes/D_SOD-123.wrl
    (at (xyz 0 0 0))
    (scale (xyz 1 1 1))
    (rotate (xyz 0 0 0))
  )
)
