(module SOT23-5 (layer F.Cu) (tedit 5EC6F99E)
  (attr smd)
  (fp_text reference REF** (at -2.25 0 90) (layer F.SilkS)
    (effects (font (size 1.2 1.2) (thickness 0.15)))
  )
  (fp_text value SOT23-5 (at 0 2) (layer F.Fab) hide
    (effects (font (size 1 1) (thickness 0.15)))
  )
  (fp_line (start -1.59 2.19) (end -1.59 -2.19) (layer Dwgs.User) (width 0.05))
  (fp_line (start -1.59 -2.19) (end 1.59 -2.19) (layer Dwgs.User) (width 0.05))
  (fp_line (start 1.59 -2.19) (end 1.59 2.19) (layer Dwgs.User) (width 0.05))
  (fp_line (start 1.59 2.19) (end -1.59 2.19) (layer Dwgs.User) (width 0.05))
  (fp_line (start -1.5 -2.1) (end -1.5 2.1) (layer F.SilkS) (width 0.18))
  (fp_line (start -1.5 2.1) (end 1.5 2.1) (layer F.SilkS) (width 0.18))
  (fp_line (start 1.5 2.1) (end 1.5 -2.1) (layer F.SilkS) (width 0.18))
  (fp_line (start 1.5 -2.1) (end -1.5 -2.1) (layer F.SilkS) (width 0.18))
  (fp_line (start -1.5 -2.1) (end 1.5 -2.1) (layer F.CrtYd) (width 0.02))
  (fp_line (start 1.5 -2.1) (end 1.5 2.1) (layer F.CrtYd) (width 0.02))
  (fp_line (start 1.5 2.1) (end -1.5 2.1) (layer F.CrtYd) (width 0.02))
  (fp_line (start -1.5 2.1) (end -1.5 -2.1) (layer F.CrtYd) (width 0.02))
  (fp_line (start 0.762 -0.8604) (end 0.762 -1.5) (layer F.Fab) (width 0.1))
  (fp_line (start 0.762 -1.5) (end 1.1684 -1.5) (layer F.Fab) (width 0.1))
  (fp_line (start 1.1684 -1.5) (end 1.1684 -0.8604) (layer F.Fab) (width 0.1))
  (fp_line (start -1.1684 -0.8604) (end -1.1684 -1.5) (layer F.Fab) (width 0.1))
  (fp_line (start -1.1684 -1.5) (end -0.762 -1.5) (layer F.Fab) (width 0.1))
  (fp_line (start -0.762 -1.5) (end -0.762 -0.8604) (layer F.Fab) (width 0.1))
  (fp_line (start -1.4478 0.8) (end 1.4478 0.8) (layer F.Fab) (width 0.1))
  (fp_line (start 1.4478 0.8) (end 1.4478 -0.8) (layer F.Fab) (width 0.1))
  (fp_line (start 1.4478 -0.8) (end -1.4478 -0.8) (layer F.Fab) (width 0.1))
  (fp_line (start -1.4478 -0.8) (end -1.4478 0.8) (layer F.Fab) (width 0.1))
  (fp_line (start -0.2032 -0.8604) (end -0.2032 -1.5) (layer F.Fab) (width 0.1))
  (fp_line (start -0.2032 -1.5) (end 0.2032 -1.5) (layer F.Fab) (width 0.1))
  (fp_line (start 0.2032 -1.5) (end 0.2032 -0.8604) (layer F.Fab) (width 0.1))
  (fp_line (start -0.762 0.8604) (end -0.762 1.5) (layer F.Fab) (width 0.1))
  (fp_line (start -0.762 1.5) (end -1.1684 1.5) (layer F.Fab) (width 0.1))
  (fp_line (start -1.1684 1.5) (end -1.1684 0.8604) (layer F.Fab) (width 0.1))
  (fp_line (start 1.1684 0.8604) (end 1.1684 1.5) (layer F.Fab) (width 0.1))
  (fp_line (start 1.1684 1.5) (end 0.762 1.5) (layer F.Fab) (width 0.1))
  (fp_line (start 0.762 1.5) (end 0.762 0.8604) (layer F.Fab) (width 0.1))
  (pad 1 smd rect (at 0.9525 -1.27) (size 0.6096 1.27) (layers F.Cu F.Paste F.Mask)
    (solder_mask_margin 0.1016) (clearance 0.2032) (zone_connect 2))
  (pad 2 smd rect (at 0 -1.27) (size 0.6096 1.27) (layers F.Cu F.Paste F.Mask)
    (solder_mask_margin 0.1016) (clearance 0.2032) (zone_connect 2))
  (pad 3 smd rect (at -0.9525 -1.27) (size 0.6096 1.27) (layers F.Cu F.Paste F.Mask)
    (solder_mask_margin 0.1016) (clearance 0.2032) (zone_connect 2))
  (pad 4 smd rect (at -0.9525 1.27) (size 0.6096 1.27) (layers F.Cu F.Paste F.Mask)
    (solder_mask_margin 0.1016) (clearance 0.2032) (zone_connect 2))
  (pad 5 smd rect (at 0.9525 1.27) (size 0.6096 1.27) (layers F.Cu F.Paste F.Mask)
    (solder_mask_margin 0.1016) (clearance 0.2032) (zone_connect 2))
  (model ${KISYS3DMOD}/Package_TO_SOT_SMD.3dshapes/SOT-23-5.wrl
    (at (xyz 0 0 0))
    (scale (xyz 1 1 1))
    (rotate (xyz 0 0 90))
  )
)
