(module SQ276-05856 (layer F.Cu) (tedit 0)
  (fp_text reference REF** (at -7.8425 -0.75 -180) (layer F.SilkS)
    (effects (font (size 1.2 1.2) (thickness 0.15)) (justify left))
  )
  (fp_text value SQ276-05856 (at 0 2) (layer F.Fab) hide
    (effects (font (size 1 1) (thickness 0.15)))
  )
  (fp_poly (pts (xy -4.191 -8.255) (xy -3.429 -8.255) (xy -3.429 -6.5) (xy -4.191 -6.5)) (layer F.Fab) (width 0.02))
  (fp_poly (pts (xy -1.651 -8.255) (xy -0.889 -8.255) (xy -0.889 -6.5) (xy -1.651 -6.5)) (layer F.Fab) (width 0.02))
  (fp_poly (pts (xy 0.889 -8.255) (xy 1.651 -8.255) (xy 1.651 -6.5) (xy 0.889 -6.5)) (layer F.Fab) (width 0.02))
  (fp_poly (pts (xy 3.429 -8.255) (xy 4.191 -8.255) (xy 4.191 -6.5) (xy 3.429 -6.5)) (layer F.Fab) (width 0.02))
  (fp_poly (pts (xy -4.191 6.5) (xy -3.429 6.5) (xy -3.429 8.255) (xy -4.191 8.255)) (layer F.Fab) (width 0.02))
  (fp_poly (pts (xy -1.651 6.5) (xy -0.889 6.5) (xy -0.889 8.255) (xy -1.651 8.255)) (layer F.Fab) (width 0.02))
  (fp_poly (pts (xy 0.889 6.5) (xy 1.651 6.5) (xy 1.651 8.255) (xy 0.889 8.255)) (layer F.Fab) (width 0.02))
  (fp_poly (pts (xy 3.429 6.5) (xy 4.191 6.5) (xy 4.191 8.255) (xy 3.429 8.255)) (layer F.Fab) (width 0.02))
  (fp_line (start -11.59 8.524) (end -11.59 -8.524) (layer Dwgs.User) (width 0.05))
  (fp_line (start -11.59 -8.524) (end 6.5 -8.524) (layer Dwgs.User) (width 0.05))
  (fp_line (start 6.5 -8.524) (end 6.5 8.524) (layer Dwgs.User) (width 0.05))
  (fp_line (start 6.5 8.524) (end -11.59 8.524) (layer Dwgs.User) (width 0.05))
  (fp_line (start -6.35 8) (end 6.35 8) (layer F.SilkS) (width 0.1))
  (fp_line (start 6.35 8) (end 6.35 -8) (layer F.SilkS) (width 0.1))
  (fp_line (start 6.35 -8) (end -6.35 -8) (layer F.SilkS) (width 0.1))
  (fp_line (start -6.35 -8) (end -6.35 2) (layer F.SilkS) (width 0.1))
  (fp_line (start -6.35 -4) (end -9 -4) (layer F.SilkS) (width 0.18))
  (fp_line (start -9 -4) (end -9 -2) (layer F.SilkS) (width 0.18))
  (fp_line (start -9 -2) (end -6.35 -2) (layer F.SilkS) (width 0.18))
  (fp_line (start -6.35 -2) (end -6.35 -4) (layer F.SilkS) (width 0.18))
  (fp_line (start -5.5 4) (end -9 4) (layer F.SilkS) (width 0.18))
  (fp_line (start -9 4) (end -9 2) (layer F.SilkS) (width 0.18))
  (fp_line (start -9 2) (end -5.5 2) (layer F.SilkS) (width 0.18))
  (fp_line (start -5.5 2) (end -5.5 4) (layer F.SilkS) (width 0.18))
  (fp_line (start -9 1.5) (end -11.5 2) (layer F.SilkS) (width 0.18))
  (fp_line (start -11.5 2) (end -11.5 4) (layer F.SilkS) (width 0.18))
  (fp_line (start -11.5 4) (end -9 4.5) (layer F.SilkS) (width 0.18))
  (fp_line (start -9 4.5) (end -9 1.5) (layer F.SilkS) (width 0.18))
  (fp_line (start -9 -4.5) (end -11.5 -4) (layer F.SilkS) (width 0.18))
  (fp_line (start -11.5 -4) (end -11.5 -2) (layer F.SilkS) (width 0.18))
  (fp_line (start -11.5 -2) (end -9 -1.5) (layer F.SilkS) (width 0.18))
  (fp_line (start -9 -1.5) (end -9 -4.5) (layer F.SilkS) (width 0.18))
  (fp_line (start -6.35 4) (end -6.35 8) (layer F.SilkS) (width 0.18))
  (fp_line (start -5.5 0) (end -5.5 5.5) (layer F.SilkS) (width 0.18))
  (fp_line (start -5.5 5.5) (end 5.5 5.5) (layer F.SilkS) (width 0.18))
  (fp_line (start 5.5 5.5) (end 5.5 -5.5) (layer F.SilkS) (width 0.18))
  (fp_line (start 5.5 -5.5) (end -5.5 -5.5) (layer F.SilkS) (width 0.18))
  (fp_line (start -5.5 -5.5) (end -5.5 0) (layer F.SilkS) (width 0.18))
  (fp_line (start -6.5 8) (end -6.5 5) (layer F.CrtYd) (width 0.02))
  (fp_line (start -6.5 5) (end -6.5 4.5) (layer F.CrtYd) (width 0.02))
  (fp_line (start -6.5 4.5) (end -9 4.5) (layer F.CrtYd) (width 0.02))
  (fp_line (start -9 4.5) (end -11.5 4.5) (layer F.CrtYd) (width 0.02))
  (fp_line (start -11.5 4.5) (end -11.5 -4.5) (layer F.CrtYd) (width 0.02))
  (fp_line (start -11.5 -4.5) (end -6.5 -4.5) (layer F.CrtYd) (width 0.02))
  (fp_line (start -6.5 -4.5) (end -6.5 -8) (layer F.CrtYd) (width 0.02))
  (fp_line (start -6.5 -8) (end -4.5 -8) (layer F.CrtYd) (width 0.02))
  (fp_line (start -4.5 -8) (end -4.5 -8.5) (layer F.CrtYd) (width 0.02))
  (fp_line (start -4.5 -8.5) (end 4.5 -8.5) (layer F.CrtYd) (width 0.02))
  (fp_line (start 4.5 -8.5) (end 4.5 -8) (layer F.CrtYd) (width 0.02))
  (fp_line (start 4.5 -8) (end 6.5 -8) (layer F.CrtYd) (width 0.02))
  (fp_line (start 6.5 -8) (end 6.5 8) (layer F.CrtYd) (width 0.02))
  (fp_line (start 6.5 8) (end 4.5 8) (layer F.CrtYd) (width 0.02))
  (fp_line (start 4.5 8) (end 4.5 8.5) (layer F.CrtYd) (width 0.02))
  (fp_line (start 4.5 8.5) (end -4.5 8.5) (layer F.CrtYd) (width 0.02))
  (fp_line (start -4.5 8.5) (end -4.5 8) (layer F.CrtYd) (width 0.02))
  (fp_line (start -4.5 8) (end -5.5 8) (layer F.CrtYd) (width 0.02))
  (fp_line (start -5.5 8) (end -6.5 8) (layer F.CrtYd) (width 0.02))
  (fp_line (start -6.35 8) (end 6.35 8) (layer F.Fab) (width 0.1))
  (fp_line (start 6.35 8) (end 6.35 -8) (layer F.Fab) (width 0.1))
  (fp_line (start 6.35 -8) (end -6.35 -8) (layer F.Fab) (width 0.1))
  (fp_line (start -6.35 -8) (end -6.35 2) (layer F.Fab) (width 0.1))
  (fp_line (start -5.5 4) (end -9 4) (layer F.Fab) (width 0.1))
  (fp_line (start -9 4) (end -9 2) (layer F.Fab) (width 0.1))
  (fp_line (start -9 2) (end -5.5 2) (layer F.Fab) (width 0.1))
  (fp_line (start -5.5 2) (end -5.5 4) (layer F.Fab) (width 0.1))
  (fp_line (start -6.35 -4) (end -9 -4) (layer F.Fab) (width 0.1))
  (fp_line (start -9 -4) (end -9 -2) (layer F.Fab) (width 0.1))
  (fp_line (start -9 -2) (end -6.35 -2) (layer F.Fab) (width 0.1))
  (fp_line (start -6.35 -2) (end -6.35 -4) (layer F.Fab) (width 0.1))
  (fp_line (start -5.5 0) (end -5.5 5.5) (layer F.Fab) (width 0.1))
  (fp_line (start -5.5 5.5) (end 5.5 5.5) (layer F.Fab) (width 0.1))
  (fp_line (start 5.5 5.5) (end 5.5 -5.5) (layer F.Fab) (width 0.1))
  (fp_line (start 5.5 -5.5) (end -5.5 -5.5) (layer F.Fab) (width 0.1))
  (fp_line (start -5.5 -5.5) (end -5.5 0) (layer F.Fab) (width 0.1))
  (fp_line (start -9 1.5) (end -11.5 2) (layer F.Fab) (width 0.1))
  (fp_line (start -11.5 2) (end -11.5 4) (layer F.Fab) (width 0.1))
  (fp_line (start -11.5 4) (end -9 4.5) (layer F.Fab) (width 0.1))
  (fp_line (start -9 4.5) (end -9 1.5) (layer F.Fab) (width 0.1))
  (fp_line (start -9 -4.5) (end -11.5 -4) (layer F.Fab) (width 0.1))
  (fp_line (start -11.5 -4) (end -11.5 -2) (layer F.Fab) (width 0.1))
  (fp_line (start -11.5 -2) (end -9 -1.5) (layer F.Fab) (width 0.1))
  (fp_line (start -9 -1.5) (end -9 -4.5) (layer F.Fab) (width 0.1))
  (fp_line (start -6.35 4) (end -6.35 8) (layer F.Fab) (width 0.1))
  (fp_line (start 3.175 -5.73) (end 3.175 -8.27) (layer F.SilkS) (width 0.02))
  (fp_line (start 3.175 -8.27) (end 4.445 -8.27) (layer F.SilkS) (width 0.02))
  (fp_line (start 4.445 -8.27) (end 4.445 -5.73) (layer F.SilkS) (width 0.02))
  (fp_line (start 4.445 -5.73) (end 3.175 -5.73) (layer F.SilkS) (width 0.02))
  (fp_line (start 0.635 -5.73) (end 0.635 -8.27) (layer F.SilkS) (width 0.02))
  (fp_line (start 0.635 -8.27) (end 1.905 -8.27) (layer F.SilkS) (width 0.02))
  (fp_line (start 1.905 -8.27) (end 1.905 -5.73) (layer F.SilkS) (width 0.02))
  (fp_line (start 1.905 -5.73) (end 0.635 -5.73) (layer F.SilkS) (width 0.02))
  (fp_line (start -1.905 -5.73) (end -1.905 -8.27) (layer F.SilkS) (width 0.02))
  (fp_line (start -1.905 -8.27) (end -0.635 -8.27) (layer F.SilkS) (width 0.02))
  (fp_line (start -0.635 -8.27) (end -0.635 -5.73) (layer F.SilkS) (width 0.02))
  (fp_line (start -0.635 -5.73) (end -1.905 -5.73) (layer F.SilkS) (width 0.02))
  (fp_line (start -4.445 -5.73) (end -4.445 -8.27) (layer F.SilkS) (width 0.02))
  (fp_line (start -4.445 -8.27) (end -3.175 -8.27) (layer F.SilkS) (width 0.02))
  (fp_line (start -3.175 -8.27) (end -3.175 -5.73) (layer F.SilkS) (width 0.02))
  (fp_line (start -3.175 -5.73) (end -4.445 -5.73) (layer F.SilkS) (width 0.02))
  (fp_line (start -4.445 8.27) (end -4.445 5.73) (layer F.SilkS) (width 0.02))
  (fp_line (start -4.445 5.73) (end -3.175 5.73) (layer F.SilkS) (width 0.02))
  (fp_line (start -3.175 5.73) (end -3.175 8.27) (layer F.SilkS) (width 0.02))
  (fp_line (start -3.175 8.27) (end -4.445 8.27) (layer F.SilkS) (width 0.02))
  (fp_line (start -1.905 8.27) (end -1.905 5.73) (layer F.SilkS) (width 0.02))
  (fp_line (start -1.905 5.73) (end -0.635 5.73) (layer F.SilkS) (width 0.02))
  (fp_line (start -0.635 5.73) (end -0.635 8.27) (layer F.SilkS) (width 0.02))
  (fp_line (start -0.635 8.27) (end -1.905 8.27) (layer F.SilkS) (width 0.02))
  (fp_line (start 0.635 8.27) (end 0.635 5.73) (layer F.SilkS) (width 0.02))
  (fp_line (start 0.635 5.73) (end 1.905 5.73) (layer F.SilkS) (width 0.02))
  (fp_line (start 1.905 5.73) (end 1.905 8.27) (layer F.SilkS) (width 0.02))
  (fp_line (start 1.905 8.27) (end 0.635 8.27) (layer F.SilkS) (width 0.02))
  (fp_line (start 3.175 8.27) (end 3.175 5.73) (layer F.SilkS) (width 0.02))
  (fp_line (start 3.175 5.73) (end 4.445 5.73) (layer F.SilkS) (width 0.02))
  (fp_line (start 4.445 5.73) (end 4.445 8.27) (layer F.SilkS) (width 0.02))
  (fp_line (start 4.445 8.27) (end 3.175 8.27) (layer F.SilkS) (width 0.02))
  (pad 1 smd rect (at 3.81 -7) (size 1.27 2.54) (layers F.Cu F.Paste F.Mask)
    (solder_mask_margin 0.1016) (clearance 0.2032) (zone_connect 2))
  (pad 2 smd rect (at 1.27 -7) (size 1.27 2.54) (layers F.Cu F.Paste F.Mask)
    (solder_mask_margin 0.1016) (clearance 0.2032) (zone_connect 2))
  (pad 3 smd rect (at -1.27 -7) (size 1.27 2.54) (layers F.Cu F.Paste F.Mask)
    (solder_mask_margin 0.1016) (clearance 0.2032) (zone_connect 2))
  (pad 4 smd rect (at -3.81 -7) (size 1.27 2.54) (layers F.Cu F.Paste F.Mask)
    (solder_mask_margin 0.1016) (clearance 0.2032) (zone_connect 2))
  (pad 5 smd rect (at -3.81 7) (size 1.27 2.54) (layers F.Cu F.Paste F.Mask)
    (solder_mask_margin 0.1016) (clearance 0.2032) (zone_connect 2))
  (pad 6 smd rect (at -1.27 7) (size 1.27 2.54) (layers F.Cu F.Paste F.Mask)
    (solder_mask_margin 0.1016) (clearance 0.2032) (zone_connect 2))
  (pad 7 smd rect (at 1.27 7) (size 1.27 2.54) (layers F.Cu F.Paste F.Mask)
    (solder_mask_margin 0.1016) (clearance 0.2032) (zone_connect 2))
  (pad 8 smd rect (at 3.81 7) (size 1.27 2.54) (layers F.Cu F.Paste F.Mask)
    (solder_mask_margin 0.1016) (clearance 0.2032) (zone_connect 2))
  (model ${KIPRJMOD}/../Library/Footprints.3dshapes/HCLA_E_11629.step
    (at (xyz 0 0 0))
    (scale (xyz 1 1 1))
    (rotate (xyz 0 0 180))
  )
)
