(module SSOP24_1 (layer F.Cu) (tedit 5E952CA7)
  (attr smd)
  (fp_text reference IC10 (at 0.4572 1.016 -90 unlocked) (layer F.SilkS)
    (effects (font (size 1.033069 1.086612) (thickness 0.1778)))
  )
  (fp_text value L-BC-SSOP24 (at 0.7874 4.3307 -90 unlocked) (layer F.SilkS) hide
    (effects (font (size 1.033069 1.086612) (thickness 0.1778)))
  )
  (fp_line (start -4.2418 1.4986) (end 4.2418 1.4986) (layer F.Fab) (width 0.0762))
  (fp_line (start 0.3048 3.6322) (end 0.3048 2.6924) (layer F.Fab) (width 0.0762))
  (fp_line (start -1.6002 -2.6924) (end -1.6002 -3.6322) (layer F.Fab) (width 0.0762))
  (fp_line (start -0.3048 3.6322) (end -0.3048 2.6924) (layer F.Fab) (width 0.0762))
  (fp_line (start -0.9652 -2.6924) (end -0.9652 -3.6322) (layer F.Fab) (width 0.0762))
  (fp_line (start 2.2606 3.6322) (end 2.2606 2.6924) (layer F.Fab) (width 0.0762))
  (fp_line (start 2.921 3.6322) (end 2.921 2.6924) (layer F.Fab) (width 0.0762))
  (fp_line (start -0.9652 3.6322) (end -0.9652 2.6924) (layer F.Fab) (width 0.0762))
  (fp_line (start -0.3048 -2.6924) (end -0.3048 -3.6322) (layer F.Fab) (width 0.0762))
  (fp_line (start -3.556 -2.6924) (end -3.556 -3.6322) (layer F.Fab) (width 0.0762))
  (fp_line (start -1.6002 3.6322) (end -1.6002 2.6924) (layer F.Fab) (width 0.0762))
  (fp_line (start 0.3048 -2.6924) (end 0.3048 -3.6322) (layer F.Fab) (width 0.0762))
  (fp_line (start -2.2606 3.6322) (end -2.2606 2.6924) (layer F.Fab) (width 0.0762))
  (fp_line (start 0.9652 -2.6924) (end 0.9652 -3.6322) (layer F.Fab) (width 0.0762))
  (fp_line (start -2.921 3.6322) (end -2.921 2.6924) (layer F.Fab) (width 0.0762))
  (fp_line (start 1.6002 -2.6924) (end 1.6002 -3.6322) (layer F.Fab) (width 0.0762))
  (fp_line (start -3.556 3.6322) (end -3.556 2.6924) (layer F.Fab) (width 0.0762))
  (fp_line (start 2.2606 -2.6924) (end 2.2606 -3.6322) (layer F.Fab) (width 0.0762))
  (fp_line (start -4.2418 -2.6924) (end 4.2418 -2.6924) (layer F.Fab) (width 0.0762))
  (fp_line (start 4.2418 2.6924) (end 4.2418 -2.6924) (layer F.Fab) (width 0.0762))
  (fp_line (start 2.921 -2.6924) (end 2.921 -3.6322) (layer F.Fab) (width 0.0762))
  (fp_line (start 3.556 -2.6924) (end 3.556 -3.6322) (layer F.Fab) (width 0.0762))
  (fp_line (start -4.2418 2.6924) (end 4.2418 2.6924) (layer F.Fab) (width 0.0762))
  (fp_line (start 1.6002 3.6322) (end 1.6002 2.6924) (layer F.Fab) (width 0.0762))
  (fp_line (start 3.556 3.6322) (end 3.556 2.6924) (layer F.Fab) (width 0.0762))
  (fp_line (start -2.921 -2.6924) (end -2.921 -3.6322) (layer F.Fab) (width 0.0762))
  (fp_line (start 0.9652 3.6322) (end 0.9652 2.6924) (layer F.Fab) (width 0.0762))
  (fp_line (start -2.2606 -2.6924) (end -2.2606 -3.6322) (layer F.Fab) (width 0.0762))
  (fp_line (start -4.2418 2.6924) (end -4.2418 -2.6924) (layer F.Fab) (width 0.0762))
  (fp_line (start 4.064 2.6924) (end 4.2418 2.6924) (layer F.SilkS) (width 0.1778))
  (fp_line (start 2.2098 1.4986) (end 3.175 1.4986) (layer F.SilkS) (width 0.1778))
  (fp_line (start 4.2418 2.6924) (end 4.2418 2.3622) (layer F.SilkS) (width 0.1778))
  (fp_line (start -3.0988 1.4986) (end -2.794 1.4986) (layer F.SilkS) (width 0.1778))
  (fp_line (start -4.2418 0.6096) (end -4.2418 0.3302) (layer F.SilkS) (width 0.1778))
  (fp_line (start -4.2418 2.6924) (end -4.2418 1.8288) (layer F.SilkS) (width 0.1778))
  (fp_line (start -4.2418 2.6924) (end -4.064 2.6924) (layer F.SilkS) (width 0.1778))
  (fp_line (start -4.2418 -2.6924) (end -4.064 -2.6924) (layer F.SilkS) (width 0.1778))
  (fp_line (start 4.2418 1.0414) (end 4.2418 -2.6924) (layer F.SilkS) (width 0.1778))
  (fp_line (start 4.064 -2.6924) (end 4.2418 -2.6924) (layer F.SilkS) (width 0.1778))
  (fp_line (start -4.2418 -0.3302) (end -4.2418 -2.6924) (layer F.SilkS) (width 0.1778))
  (fp_circle (center -3.3782 2.0828) (end -3.1496 2.0828) (layer F.Fab) (width 0.1))
  (pad 1 smd rect (at -3.556 3.4798) (size 0.4064 2.032) (layers F.Cu F.Paste F.Mask))
  (pad 2 smd rect (at -2.921 3.4798) (size 0.4064 2.032) (layers F.Cu F.Paste F.Mask))
  (pad 3 smd rect (at -2.2606 3.4798) (size 0.4064 2.032) (layers F.Cu F.Paste F.Mask))
  (pad 4 smd rect (at -1.6002 3.4798) (size 0.4064 2.032) (layers F.Cu F.Paste F.Mask))
  (pad 5 smd rect (at -0.9652 3.4798) (size 0.4064 2.032) (layers F.Cu F.Paste F.Mask))
  (pad 6 smd rect (at -0.3048 3.4798) (size 0.4064 2.032) (layers F.Cu F.Paste F.Mask))
  (pad 7 smd rect (at 0.3048 3.4798) (size 0.4064 2.032) (layers F.Cu F.Paste F.Mask))
  (pad 8 smd rect (at 0.9652 3.4798) (size 0.4064 2.032) (layers F.Cu F.Paste F.Mask))
  (pad 9 smd rect (at 1.6002 3.4798) (size 0.4064 2.032) (layers F.Cu F.Paste F.Mask))
  (pad 10 smd rect (at 2.2606 3.4798) (size 0.4064 2.032) (layers F.Cu F.Paste F.Mask))
  (pad 11 smd rect (at 2.921 3.4798) (size 0.4064 2.032) (layers F.Cu F.Paste F.Mask))
  (pad 12 smd rect (at 3.556 3.4798) (size 0.4064 2.032) (layers F.Cu F.Paste F.Mask))
  (pad 13 smd rect (at 3.556 -3.4798) (size 0.4064 2.032) (layers F.Cu F.Paste F.Mask))
  (pad 14 smd rect (at 2.921 -3.4798) (size 0.4064 2.032) (layers F.Cu F.Paste F.Mask))
  (pad 15 smd rect (at 2.2606 -3.4798) (size 0.4064 2.032) (layers F.Cu F.Paste F.Mask))
  (pad 16 smd rect (at 1.6002 -3.4798) (size 0.4064 2.032) (layers F.Cu F.Paste F.Mask))
  (pad 17 smd rect (at 0.9652 -3.4798) (size 0.4064 2.032) (layers F.Cu F.Paste F.Mask))
  (pad 18 smd rect (at 0.3048 -3.4798) (size 0.4064 2.032) (layers F.Cu F.Paste F.Mask))
  (pad 19 smd rect (at -0.3048 -3.4798) (size 0.4064 2.032) (layers F.Cu F.Paste F.Mask))
  (pad 20 smd rect (at -0.9652 -3.4798) (size 0.4064 2.032) (layers F.Cu F.Paste F.Mask))
  (pad 21 smd rect (at -1.6002 -3.4798) (size 0.4064 2.032) (layers F.Cu F.Paste F.Mask))
  (pad 22 smd rect (at -2.2606 -3.4798) (size 0.4064 2.032) (layers F.Cu F.Paste F.Mask))
  (pad 23 smd rect (at -2.921 -3.4798) (size 0.4064 2.032) (layers F.Cu F.Paste F.Mask))
  (pad 24 smd rect (at -3.556 -3.4798) (size 0.4064 2.032) (layers F.Cu F.Paste F.Mask))
  (model ${KISYS3DMOD}/Package_SO.3dshapes/SSOP-24_5.3x8.2mm_P0.65mm.wrl
    (at (xyz 0 0 0))
    (scale (xyz 1 1 1))
    (rotate (xyz 0 0 -90))
  )
)
