(module WE-7427504_ENT-12.7X3_1 (layer F.Cu) (tedit 5ED088D0)
  (attr smd)
  (fp_text reference REF** (at -6 -0.5) (layer F.SilkS)
    (effects (font (size 1.2 1.2) (thickness 0.15)) (justify right bottom))
  )
  (fp_text value WE-7427504_ENT-12.7X3 (at 0 0) (layer F.Fab) hide
    (effects (font (size 1 1) (thickness 0.15)))
  )
  (fp_line (start 5.38 -1.5) (end 6.35 -1.5) (layer F.Fab) (width 0.1))
  (fp_line (start -6.35 1.5) (end -5.37 1.5) (layer F.Fab) (width 0.1))
  (fp_line (start 5.38 -3.175) (end -5.37 -3.175) (layer F.Fab) (width 0.1))
  (fp_line (start 5.38 3.175) (end 5.38 -3.175) (layer F.Fab) (width 0.1))
  (fp_line (start -5.37 3.175) (end 5.38 3.175) (layer F.Fab) (width 0.1))
  (fp_line (start -5.37 -3.175) (end -5.37 3.175) (layer F.Fab) (width 0.1))
  (fp_line (start 5.715 -0.5) (end 5.715 3.175) (layer F.CrtYd) (width 0.02))
  (fp_line (start 7.239 -0.5) (end 5.715 -0.5) (layer F.CrtYd) (width 0.02))
  (fp_line (start 7.239 -2.5) (end 7.239 -0.5) (layer F.CrtYd) (width 0.02))
  (fp_line (start 5.715 -2.5) (end 7.239 -2.5) (layer F.CrtYd) (width 0.02))
  (fp_line (start 5.715 -3.175) (end 5.715 -2.5) (layer F.CrtYd) (width 0.02))
  (fp_line (start -5.715 -3.175) (end 5.715 -3.175) (layer F.CrtYd) (width 0.02))
  (fp_line (start -5.715 0.5) (end -5.715 -3.175) (layer F.CrtYd) (width 0.02))
  (fp_line (start -7.239 0.5) (end -5.715 0.5) (layer F.CrtYd) (width 0.02))
  (fp_line (start -7.239 2.5) (end -7.239 0.5) (layer F.CrtYd) (width 0.02))
  (fp_line (start -5.715 2.5) (end -7.239 2.5) (layer F.CrtYd) (width 0.02))
  (fp_line (start -5.715 3.175) (end -5.715 2.5) (layer F.CrtYd) (width 0.02))
  (fp_line (start 5.715 3.175) (end -5.715 3.175) (layer F.CrtYd) (width 0.02))
  (fp_line (start 5.38 -3.175) (end -5.37 -3.175) (layer F.SilkS) (width 0.18))
  (fp_line (start 5.38 3.175) (end 5.38 -3.175) (layer F.SilkS) (width 0.18))
  (fp_line (start -5.37 3.175) (end 5.38 3.175) (layer F.SilkS) (width 0.18))
  (fp_line (start -5.37 -3.175) (end -5.37 3.175) (layer F.SilkS) (width 0.18))
  (fp_line (start 7.3914 3.265) (end -7.3914 3.265) (layer Dwgs.User) (width 0.05))
  (fp_line (start 7.3914 -3.265) (end 7.3914 3.265) (layer Dwgs.User) (width 0.05))
  (fp_line (start -7.3914 -3.265) (end 7.3914 -3.265) (layer Dwgs.User) (width 0.05))
  (fp_line (start -7.3914 3.265) (end -7.3914 -3.265) (layer Dwgs.User) (width 0.05))
  (fp_arc (start 6.35 -1.5) (end 7.1882 -1.5) (angle 360) (layer B.CrtYd) (width 0.02))
  (fp_arc (start -6.35 1.5) (end -5.5118 1.5) (angle 360) (layer B.CrtYd) (width 0.02))
  (pad 1 thru_hole circle (at -6.35 1.5) (size 1.6764 1.6764) (drill 0.9652) (layers *.Cu *.Mask)
    (solder_mask_margin 0.1016) (clearance 0.1524) (zone_connect 2) (thermal_width 0.2032) (thermal_gap 0.2032))
  (pad 2 thru_hole circle (at 6.35 -1.5) (size 1.6764 1.6764) (drill 0.9652) (layers *.Cu *.Mask)
    (solder_mask_margin 0.1016) (clearance 0.1524) (zone_connect 2) (thermal_width 0.2032) (thermal_gap 0.2032))
  (model ${KIPRJMOD}/../Library/Footprints.3dshapes/7427504_rev1-recenter.stp
    (at (xyz 0 0 0))
    (scale (xyz 1 1 1))
    (rotate (xyz 0 0 0))
  )
)
