(module WURTH_68611214422 (layer F.Cu) (tedit 5ECFEA90)
  (descr "10 Contacts, Pitch 1mm, SMT Connector, ZIF Horizontal Bottom Contact WR-FPC")
  (attr smd)
  (fp_text reference REF** (at 0 -2.376) (layer F.SilkS)
    (effects (font (size 1 1) (thickness 0.15)))
  )
  (fp_text value WURTH_68611214422 (at 2 7.826) (layer F.Fab) hide
    (effects (font (size 1 1) (thickness 0.15)))
  )
  (fp_line (start -8.75 6.8) (end 10.75 6.8) (layer F.CrtYd) (width 0.05))
  (fp_line (start -8.75 6.8) (end -8.75 -1.35) (layer F.CrtYd) (width 0.05))
  (fp_line (start -8.75 -1.35) (end 10.75 -1.35) (layer F.CrtYd) (width 0.05))
  (fp_line (start 10.75 6.8) (end 10.75 -1.35) (layer F.CrtYd) (width 0.05))
  (fp_line (start 7.07 1.12) (end 7.77 1.12) (layer F.SilkS) (width 0.2))
  (fp_line (start 9.499 4.05) (end 9.5 5.45) (layer F.SilkS) (width 0.2))
  (fp_line (start -5.85 1.15) (end -5.15 1.15) (layer F.SilkS) (width 0.2))
  (fp_line (start -7.5 5.45) (end -7.499 4.05) (layer F.SilkS) (width 0.2))
  (fp_line (start -7.73 5.45) (end -7.73 4.05) (layer F.SilkS) (width 0.2))
  (fp_line (start 9.73 5.45) (end 9.73 4.05) (layer F.SilkS) (width 0.2))
  (fp_line (start 10.5 6.55) (end 10.5 5.45) (layer F.SilkS) (width 0.2))
  (fp_line (start -8.5 5.45) (end 10.49 5.44) (layer F.SilkS) (width 0.2))
  (fp_line (start -8.5 6.55) (end -8.5 5.45) (layer F.SilkS) (width 0.2))
  (fp_line (start -8.5 6.55) (end 10.5 6.55) (layer F.SilkS) (width 0.2))
  (fp_line (start -6.11 3.65) (end -6.11 1.15) (layer F.Fab) (width 0.1))
  (fp_line (start 8.11 3.65) (end 8.11 1.15) (layer F.Fab) (width 0.1))
  (fp_line (start 4.375 1.15) (end 4.375 -0.55) (layer F.Fab) (width 0.1))
  (fp_line (start 4.625 1.15) (end 4.625 -0.55) (layer F.Fab) (width 0.1))
  (fp_line (start 4.375 -0.55) (end 4.625 -0.55) (layer F.Fab) (width 0.1))
  (fp_line (start 3.375 1.15) (end 3.375 -0.55) (layer F.Fab) (width 0.1))
  (fp_line (start 3.625 1.15) (end 3.625 -0.55) (layer F.Fab) (width 0.1))
  (fp_line (start 3.375 -0.55) (end 3.625 -0.55) (layer F.Fab) (width 0.1))
  (fp_line (start 2.375 1.15) (end 2.375 -0.55) (layer F.Fab) (width 0.1))
  (fp_line (start 2.625 1.15) (end 2.625 -0.55) (layer F.Fab) (width 0.1))
  (fp_line (start 2.375 -0.55) (end 2.625 -0.55) (layer F.Fab) (width 0.1))
  (fp_line (start 1.375 1.15) (end 1.375 -0.55) (layer F.Fab) (width 0.1))
  (fp_line (start 1.625 1.15) (end 1.625 -0.55) (layer F.Fab) (width 0.1))
  (fp_line (start 1.375 -0.55) (end 1.625 -0.55) (layer F.Fab) (width 0.1))
  (fp_line (start 0.375 1.15) (end 0.375 -0.55) (layer F.Fab) (width 0.1))
  (fp_line (start 0.625 1.15) (end 0.625 -0.55) (layer F.Fab) (width 0.1))
  (fp_line (start 0.375 -0.55) (end 0.625 -0.55) (layer F.Fab) (width 0.1))
  (fp_line (start -0.625 1.15) (end -0.625 -0.55) (layer F.Fab) (width 0.1))
  (fp_line (start -0.375 1.15) (end -0.375 -0.55) (layer F.Fab) (width 0.1))
  (fp_line (start -0.625 -0.55) (end -0.375 -0.55) (layer F.Fab) (width 0.1))
  (fp_line (start -1.625 1.15) (end -1.625 -0.55) (layer F.Fab) (width 0.1))
  (fp_line (start -1.375 1.15) (end -1.375 -0.55) (layer F.Fab) (width 0.1))
  (fp_line (start -1.625 -0.55) (end -1.375 -0.55) (layer F.Fab) (width 0.1))
  (fp_line (start -2.625 1.15) (end -2.625 -0.55) (layer F.Fab) (width 0.1))
  (fp_line (start -2.375 1.15) (end -2.375 -0.55) (layer F.Fab) (width 0.1))
  (fp_line (start -2.625 -0.55) (end -2.375 -0.55) (layer F.Fab) (width 0.1))
  (fp_line (start -3.625 1.15) (end -3.625 -0.55) (layer F.Fab) (width 0.1))
  (fp_line (start -3.375 1.15) (end -3.375 -0.55) (layer F.Fab) (width 0.1))
  (fp_line (start -3.625 -0.55) (end -3.375 -0.55) (layer F.Fab) (width 0.1))
  (fp_line (start -4.375 1.15) (end -4.375 -0.55) (layer F.Fab) (width 0.1))
  (fp_line (start -4.625 -0.55) (end -4.375 -0.55) (layer F.Fab) (width 0.1))
  (fp_line (start -4.625 1.15) (end -4.625 -0.55) (layer F.Fab) (width 0.1))
  (fp_line (start -5.85 3.65) (end -5.85 1.15) (layer F.Fab) (width 0.1))
  (fp_line (start -7.498 3.65) (end -5.85 3.65) (layer F.Fab) (width 0.1))
  (fp_line (start 7.85 3.65) (end 7.85 1.15) (layer F.Fab) (width 0.1))
  (fp_line (start 7.85 3.65) (end 9.498 3.65) (layer F.Fab) (width 0.1))
  (fp_line (start 9.498 1.15) (end 9.5 5.45) (layer F.Fab) (width 0.1))
  (fp_line (start -7.498 1.15) (end 7.498 1.15) (layer F.Fab) (width 0.1))
  (fp_line (start -7.5 5.45) (end -7.498 1.15) (layer F.Fab) (width 0.1))
  (fp_line (start -7.73 1.75) (end -7.5 1.75) (layer F.Fab) (width 0.1))
  (fp_line (start -7.73 5.45) (end -7.73 1.75) (layer F.Fab) (width 0.1))
  (fp_line (start 9.498 1.75) (end 9.73 1.75) (layer F.Fab) (width 0.1))
  (fp_line (start 9.73 5.45) (end 9.73 1.75) (layer F.Fab) (width 0.1))
  (fp_line (start 10.5 6.55) (end 10.5 5.45) (layer F.Fab) (width 0.1))
  (fp_line (start -8.5 5.45) (end 10.5 5.45) (layer F.Fab) (width 0.1))
  (fp_line (start -8.5 6.55) (end -8.5 5.45) (layer F.Fab) (width 0.1))
  (fp_line (start -6.5 6.55) (end 10.5 6.55) (layer F.Fab) (width 0.1))
  (fp_line (start -0.5 0) (end 0 0) (layer Cmts.User) (width 0.05))
  (fp_line (start 0 0) (end 0.5 0) (layer Cmts.User) (width 0.05))
  (fp_line (start 0 0) (end 0 -0.5) (layer Cmts.User) (width 0.05))
  (fp_line (start 0 0.5) (end 0 0) (layer Cmts.User) (width 0.05))
  (fp_line (start 9.1 2.4) (end 9.6 2.4) (layer Cmts.User) (width 0.05))
  (fp_line (start 8.6 2.4) (end 9.1 2.4) (layer Cmts.User) (width 0.05))
  (fp_line (start 9.1 2.9) (end 9.1 2.4) (layer Cmts.User) (width 0.05))
  (fp_line (start 9.1 2.4) (end 9.1 1.9) (layer Cmts.User) (width 0.05))
  (fp_line (start -7.1 2.4) (end -6.6 2.4) (layer Cmts.User) (width 0.05))
  (fp_line (start -7.6 2.4) (end -7.1 2.4) (layer Cmts.User) (width 0.05))
  (fp_line (start -7.1 2.9) (end -7.1 2.4) (layer Cmts.User) (width 0.05))
  (fp_line (start -7.1 2.4) (end -7.1 1.9) (layer Cmts.User) (width 0.05))
  (fp_line (start -8 3.7) (end -6.2 3.7) (layer Cmts.User) (width 0.05))
  (fp_line (start -8 1.1) (end -6.2 1.1) (layer Cmts.User) (width 0.05))
  (fp_line (start 8.2 3.7) (end 10 3.7) (layer Cmts.User) (width 0.05))
  (fp_line (start 6.2 1.1) (end 8 1.1) (layer Cmts.User) (width 0.05))
  (fp_line (start 10 3.7) (end 10 1.1) (layer Cmts.User) (width 0.05))
  (fp_line (start 8.2 3.7) (end 8.2 1.1) (layer Cmts.User) (width 0.05))
  (fp_line (start -6.2 3.7) (end -6.2 1.1) (layer Cmts.User) (width 0.05))
  (fp_line (start -8 3.7) (end -8 1.1) (layer Cmts.User) (width 0.05))
  (fp_line (start 4.2 1.1) (end 4.5 0) (layer Cmts.User) (width 0.05))
  (fp_line (start 4.5 0) (end 4.8 1.1) (layer Cmts.User) (width 0.05))
  (fp_line (start 4.2 1.1) (end 4.2 -1.1) (layer Cmts.User) (width 0.05))
  (fp_line (start 4.2 -1.1) (end 4.8 -1.1) (layer Cmts.User) (width 0.05))
  (fp_line (start 4.8 1.1) (end 4.8 -1.1) (layer Cmts.User) (width 0.05))
  (fp_line (start 4.2 1.1) (end 4.8 1.1) (layer Cmts.User) (width 0.05))
  (fp_line (start 3.2 1.1) (end 3.5 0) (layer Cmts.User) (width 0.05))
  (fp_line (start 3.5 0) (end 3.8 1.1) (layer Cmts.User) (width 0.05))
  (fp_line (start 3.2 1.1) (end 3.2 -1.1) (layer Cmts.User) (width 0.05))
  (fp_line (start 3.2 -1.1) (end 3.8 -1.1) (layer Cmts.User) (width 0.05))
  (fp_line (start 3.8 1.1) (end 3.8 -1.1) (layer Cmts.User) (width 0.05))
  (fp_line (start 3.2 1.1) (end 3.8 1.1) (layer Cmts.User) (width 0.05))
  (fp_line (start 2.2 1.1) (end 2.5 0) (layer Cmts.User) (width 0.05))
  (fp_line (start 2.5 0) (end 2.8 1.1) (layer Cmts.User) (width 0.05))
  (fp_line (start 2.2 1.1) (end 2.2 -1.1) (layer Cmts.User) (width 0.05))
  (fp_line (start 2.2 -1.1) (end 2.8 -1.1) (layer Cmts.User) (width 0.05))
  (fp_line (start 2.8 1.1) (end 2.8 -1.1) (layer Cmts.User) (width 0.05))
  (fp_line (start 2.2 1.1) (end 2.8 1.1) (layer Cmts.User) (width 0.05))
  (fp_line (start 1.2 1.1) (end 1.5 0) (layer Cmts.User) (width 0.05))
  (fp_line (start 1.5 0) (end 1.8 1.1) (layer Cmts.User) (width 0.05))
  (fp_line (start 1.2 1.1) (end 1.2 -1.1) (layer Cmts.User) (width 0.05))
  (fp_line (start 1.2 -1.1) (end 1.8 -1.1) (layer Cmts.User) (width 0.05))
  (fp_line (start 1.8 1.1) (end 1.8 -1.1) (layer Cmts.User) (width 0.05))
  (fp_line (start 1.2 1.1) (end 1.8 1.1) (layer Cmts.User) (width 0.05))
  (fp_line (start 0.2 1.1) (end 0.5 0) (layer Cmts.User) (width 0.05))
  (fp_line (start 0.5 0) (end 0.8 1.1) (layer Cmts.User) (width 0.05))
  (fp_line (start 0.2 1.1) (end 0.2 -1.1) (layer Cmts.User) (width 0.05))
  (fp_line (start 0.2 -1.1) (end 0.8 -1.1) (layer Cmts.User) (width 0.05))
  (fp_line (start 0.8 1.1) (end 0.8 -1.1) (layer Cmts.User) (width 0.05))
  (fp_line (start 0.2 1.1) (end 0.8 1.1) (layer Cmts.User) (width 0.05))
  (fp_line (start -0.8 1.1) (end -0.5 0) (layer Cmts.User) (width 0.05))
  (fp_line (start -0.5 0) (end -0.2 1.1) (layer Cmts.User) (width 0.05))
  (fp_line (start -0.8 1.1) (end -0.8 -1.1) (layer Cmts.User) (width 0.05))
  (fp_line (start -0.8 -1.1) (end -0.2 -1.1) (layer Cmts.User) (width 0.05))
  (fp_line (start -0.2 1.1) (end -0.2 -1.1) (layer Cmts.User) (width 0.05))
  (fp_line (start -0.8 1.1) (end -0.2 1.1) (layer Cmts.User) (width 0.05))
  (fp_line (start -1.8 1.1) (end -1.5 0) (layer Cmts.User) (width 0.05))
  (fp_line (start -1.5 0) (end -1.2 1.1) (layer Cmts.User) (width 0.05))
  (fp_line (start -1.8 1.1) (end -1.8 -1.1) (layer Cmts.User) (width 0.05))
  (fp_line (start -1.8 -1.1) (end -1.2 -1.1) (layer Cmts.User) (width 0.05))
  (fp_line (start -1.2 1.1) (end -1.2 -1.1) (layer Cmts.User) (width 0.05))
  (fp_line (start -1.8 1.1) (end -1.2 1.1) (layer Cmts.User) (width 0.05))
  (fp_line (start -2.8 1.1) (end -2.5 0) (layer Cmts.User) (width 0.05))
  (fp_line (start -2.5 0) (end -2.2 1.1) (layer Cmts.User) (width 0.05))
  (fp_line (start -2.8 1.1) (end -2.8 -1.1) (layer Cmts.User) (width 0.05))
  (fp_line (start -2.8 -1.1) (end -2.2 -1.1) (layer Cmts.User) (width 0.05))
  (fp_line (start -2.2 1.1) (end -2.2 -1.1) (layer Cmts.User) (width 0.05))
  (fp_line (start -2.8 1.1) (end -2.2 1.1) (layer Cmts.User) (width 0.05))
  (fp_line (start -3.8 1.1) (end -3.5 0) (layer Cmts.User) (width 0.05))
  (fp_line (start -3.5 0) (end -3.2 1.1) (layer Cmts.User) (width 0.05))
  (fp_line (start -3.8 1.1) (end -3.8 -1.1) (layer Cmts.User) (width 0.05))
  (fp_line (start -3.8 -1.1) (end -3.2 -1.1) (layer Cmts.User) (width 0.05))
  (fp_line (start -3.2 1.1) (end -3.2 -1.1) (layer Cmts.User) (width 0.05))
  (fp_line (start -3.8 1.1) (end -3.2 1.1) (layer Cmts.User) (width 0.05))
  (fp_line (start -4.8 1.1) (end -4.5 0) (layer Cmts.User) (width 0.05))
  (fp_line (start -4.5 0) (end -4.2 1.1) (layer Cmts.User) (width 0.05))
  (fp_line (start -4.8 1.1) (end -4.8 -1.1) (layer Cmts.User) (width 0.05))
  (fp_line (start -4.8 -1.1) (end -4.2 -1.1) (layer Cmts.User) (width 0.05))
  (fp_line (start -4.2 1.1) (end -4.2 -1.1) (layer Cmts.User) (width 0.05))
  (fp_line (start -4.8 1.1) (end -4.2 1.1) (layer Cmts.User) (width 0.05))
  (fp_circle (center -5.4 -0.8) (end -5.25 -0.8) (layer F.Fab) (width 0.3))
  (fp_circle (center -5.4 -0.8) (end -5.25 -0.8) (layer F.SilkS) (width 0.3))
  (fp_text user 1 (at -4.5 1.781 90) (layer F.SilkS)
    (effects (font (size 1 1) (thickness 0.15)))
  )
  (fp_text user 12 (at 6.5 2.3 90) (layer F.SilkS)
    (effects (font (size 1 1) (thickness 0.15)))
  )
  (fp_line (start 6.625 1.15) (end 6.625 -0.55) (layer F.Fab) (width 0.1))
  (fp_line (start 5.625 1.15) (end 5.625 -0.55) (layer F.Fab) (width 0.1))
  (fp_line (start 6.375 1.15) (end 6.375 -0.55) (layer F.Fab) (width 0.1))
  (fp_line (start 6.375 -0.55) (end 6.625 -0.55) (layer F.Fab) (width 0.1))
  (fp_line (start 5.375 1.15) (end 5.375 -0.55) (layer F.Fab) (width 0.1))
  (fp_line (start 5.375 -0.55) (end 5.625 -0.55) (layer F.Fab) (width 0.1))
  (fp_line (start 6.5 0) (end 6.8 1.1) (layer Cmts.User) (width 0.05))
  (fp_line (start 6.2 1.1) (end 6.5 0) (layer Cmts.User) (width 0.05))
  (fp_line (start 6.2 1.1) (end 6.2 -1.1) (layer Cmts.User) (width 0.05))
  (fp_line (start 6.2 -1.1) (end 6.8 -1.1) (layer Cmts.User) (width 0.05))
  (fp_line (start 6.8 1.1) (end 6.8 -1.1) (layer Cmts.User) (width 0.05))
  (fp_line (start 6.2 1.1) (end 6.8 1.1) (layer Cmts.User) (width 0.05))
  (fp_line (start 5.2 1.1) (end 5.5 0) (layer Cmts.User) (width 0.05))
  (fp_line (start 5.5 0) (end 5.8 1.1) (layer Cmts.User) (width 0.05))
  (fp_line (start 5.8 1.1) (end 5.8 -1.1) (layer Cmts.User) (width 0.05))
  (fp_line (start 5.2 -1.1) (end 5.8 -1.1) (layer Cmts.User) (width 0.05))
  (fp_line (start 5.2 1.1) (end 5.2 -1.1) (layer Cmts.User) (width 0.05))
  (fp_line (start 5.2 1.1) (end 5.8 1.1) (layer Cmts.User) (width 0.05))
  (pad 10 smd rect (at 4.5 0 180) (size 0.6 2.2) (layers F.Cu F.Paste F.Mask))
  (pad 9 smd rect (at 3.5 0 180) (size 0.6 2.2) (layers F.Cu F.Paste F.Mask))
  (pad 8 smd rect (at 2.5 0 180) (size 0.6 2.2) (layers F.Cu F.Paste F.Mask))
  (pad 7 smd rect (at 1.5 0 180) (size 0.6 2.2) (layers F.Cu F.Paste F.Mask))
  (pad 6 smd rect (at 0.5 0 180) (size 0.6 2.2) (layers F.Cu F.Paste F.Mask))
  (pad 5 smd rect (at -0.5 0 180) (size 0.6 2.2) (layers F.Cu F.Paste F.Mask))
  (pad 4 smd rect (at -1.5 0 180) (size 0.6 2.2) (layers F.Cu F.Paste F.Mask))
  (pad 3 smd rect (at -2.5 0 180) (size 0.6 2.2) (layers F.Cu F.Paste F.Mask))
  (pad 2 smd rect (at -3.5 0 180) (size 0.6 2.2) (layers F.Cu F.Paste F.Mask))
  (pad 1 smd rect (at -4.5 0 180) (size 0.6 2.2) (layers F.Cu F.Paste F.Mask))
  (pad P1 smd rect (at -7.1 2.4 180) (size 1.8 2.6) (layers F.Cu F.Paste F.Mask))
  (pad P2 smd rect (at 9.1 2.4 180) (size 1.8 2.6) (layers F.Cu F.Paste F.Mask))
  (pad 12 smd rect (at 6.5 0 180) (size 0.6 2.2) (layers F.Cu F.Paste F.Mask))
  (pad 11 smd rect (at 5.5 0 180) (size 0.6 2.2) (layers F.Cu F.Paste F.Mask))
  (model D:/Dropbox/DESIGNS/MISC/Medtronic_Ventilator/openventilator/Library/Footprints.3dshapes/WURTH_68611214422.stp
    (offset (xyz 1 -3.5 1.5))
    (scale (xyz 1 1 1))
    (rotate (xyz 0 0 0))
  )
)
