(module 811S1-02 (layer F.Cu) (tedit 0)
  (attr smd)
  (fp_text reference REF** (at 0 0) (layer F.SilkS)
    (effects (font (size 1 1) (thickness 0.15)))
  )
  (fp_text value 811S1-02 (at 0 2) (layer F.Fab) hide
    (effects (font (size 1 1) (thickness 0.15)))
  )
  (fp_line (start -1.36 1.36) (end -1.36 -1.36) (layer Dwgs.User) (width 0.05))
  (fp_line (start -1.36 -1.36) (end 3.9 -1.36) (layer Dwgs.User) (width 0.05))
  (fp_line (start 3.9 -1.36) (end 3.9 1.36) (layer Dwgs.User) (width 0.05))
  (fp_line (start 3.9 1.36) (end -1.36 1.36) (layer Dwgs.User) (width 0.05))
  (fp_line (start 3.81 -1.27) (end 3.81 1.27) (layer F.SilkS) (width 0.18))
  (fp_line (start 3.81 1.27) (end -0.635 1.27) (layer F.SilkS) (width 0.18))
  (fp_line (start -0.635 1.27) (end -1.27 0.635) (layer F.SilkS) (width 0.18))
  (fp_line (start -1.27 0.635) (end -1.27 -1.27) (layer F.SilkS) (width 0.18))
  (fp_line (start -1.27 -1.27) (end 3.81 -1.27) (layer F.SilkS) (width 0.18))
  (fp_line (start -1.27 -1.27) (end 3.81 -1.27) (layer F.CrtYd) (width 0.02))
  (fp_line (start 3.81 -1.27) (end 3.81 1.27) (layer F.CrtYd) (width 0.02))
  (fp_line (start 3.81 1.27) (end -1.27 1.27) (layer F.CrtYd) (width 0.02))
  (fp_line (start -1.27 1.27) (end -1.27 -1.27) (layer F.CrtYd) (width 0.02))
  (fp_line (start 1.27 1.27) (end 1.27 -1.27) (layer F.Fab) (width 0.1))
  (fp_line (start 0 1.27) (end -1.27 0) (layer F.Fab) (width 0.1))
  (fp_line (start 3.81 1.27) (end -1.27 1.27) (layer F.Fab) (width 0.1))
  (fp_line (start -1.27 1.27) (end -1.27 -1.27) (layer F.Fab) (width 0.1))
  (fp_line (start -1.27 -1.27) (end 3.81 -1.27) (layer F.Fab) (width 0.1))
  (fp_line (start 3.81 -1.27) (end 3.81 1.27) (layer F.Fab) (width 0.1))
  (pad 1 smd circle (at 0 0) (size 2.032 2.032) (layers F.Cu F.Mask F.Paste)
    (solder_mask_margin 0.1016)
    (zone_connect 2))
  (pad 2 smd circle (at 2.54 0) (size 2.032 2.032) (layers F.Cu F.Mask F.Paste)
    (solder_mask_margin 0.1016)
    (zone_connect 2))
  (model ${KIPRJMOD}/../Library/Footprints.3dshapes/811-S1-002-30-014101.step
    (offset (xyz 0 0 0))
    (scale (xyz 1 1 1))
    (rotate (xyz 0 0 0))
  )
)