(module MEL29M-2 (layer F.Cu) (tedit 0)
  (fp_text reference REF** (at 0 0) (layer F.SilkS) hide
    (effects (font (size 1 1) (thickness 0.15)))
  )
  (fp_text value MEL29M-2 (at 0 2) (layer F.Fab) hide
    (effects (font (size 1 1) (thickness 0.15)))
  )
  (pad ~ thru_hole circle (at 0 0) (size 4.3 4.3) (drill 2.8956 (offset 0 0 )) (layers *.Cu *.Mask)
    (solder_mask_margin 0.1)
    (zone_connect 2))
)