(module PRD.80 (layer F.Cu) (tedit 0)
  (fp_text reference REF** (at 0 0) (layer F.SilkS) hide
    (effects (font (size 1 1) (thickness 0.15)))
  )
  (fp_text value masque_comp (at 0 2) (layer F.Fab) hide
    (effects (font (size 1 1) (thickness 0.15)))
  )
  (fp_line (start -1.34112 1.34112) (end -1.34112 -1.34112) (layer F.CrtYd) (width 0.05))
  (fp_line (start -1.34112 -1.34112) (end 1.34112 -1.34112) (layer F.CrtYd) (width 0.05))
  (fp_line (start 1.34112 -1.34112) (end 1.34112 1.34112) (layer F.CrtYd) (width 0.05))
  (fp_line (start 1.34112 1.34112) (end -1.34112 1.34112) (layer F.CrtYd) (width 0.05))
  (pad ~ smd circle (at 0 0) (size 2.032 2.032) (layers F.Cu F.Mask F.Paste)
    (solder_mask_margin 0.1016)
    (zone_connect 2))
)