(module C_0612_1632Metric_Array4 (layer F.Cu) (tedit 5E94CE59)
  (attr smd)
  (fp_text reference REF** (at -0.4572 -0.7239 -270 unlocked) (layer F.SilkS)
    (effects (font (size 1.033069 1.086612) (thickness 0.127)))
  )
  (fp_text value C_0612_1632Metric_Array4 (at -0.7874 -4.3307 -270 unlocked) (layer F.SilkS) hide
    (effects (font (size 1.033069 1.086612) (thickness 0.127)))
  )
  (fp_line (start 0.9906 -0.5842) (end 0.9906 -0.7874) (layer F.Fab) (width 0.0762))
  (fp_line (start 1.5748 0.5842) (end 1.5748 -0.5842) (layer F.Fab) (width 0.0762))
  (fp_line (start 0.9906 -0.7874) (end 1.397 -0.7874) (layer F.Fab) (width 0.0762))
  (fp_line (start 1.397 -0.5842) (end 1.5748 -0.5842) (layer F.Fab) (width 0.0762))
  (fp_line (start 1.397 -0.5842) (end 1.397 -0.7874) (layer F.Fab) (width 0.0762))
  (fp_line (start -1.397 -0.5842) (end -1.397 -0.7874) (layer F.Fab) (width 0.0762))
  (fp_line (start 0.5842 0.7874) (end 0.5842 0.5842) (layer F.Fab) (width 0.0762))
  (fp_line (start -0.9906 -0.5842) (end -0.5842 -0.5842) (layer F.Fab) (width 0.0762))
  (fp_line (start -1.5748 -0.5842) (end -1.397 -0.5842) (layer F.Fab) (width 0.0762))
  (fp_line (start -0.1778 0.7874) (end -0.1778 0.5842) (layer F.Fab) (width 0.0762))
  (fp_line (start -0.5842 -0.5842) (end -0.5842 -0.7874) (layer F.Fab) (width 0.0762))
  (fp_line (start 0.1778 0.7874) (end 0.5842 0.7874) (layer F.Fab) (width 0.0762))
  (fp_line (start 0.5842 0.5842) (end 0.9906 0.5842) (layer F.Fab) (width 0.0762))
  (fp_line (start 0.9906 0.7874) (end 0.9906 0.5842) (layer F.Fab) (width 0.0762))
  (fp_line (start -0.5842 0.7874) (end -0.1778 0.7874) (layer F.Fab) (width 0.0762))
  (fp_line (start -1.5748 0.5842) (end -1.5748 -0.5842) (layer F.Fab) (width 0.0762))
  (fp_line (start 0.9906 0.7874) (end 1.397 0.7874) (layer F.Fab) (width 0.0762))
  (fp_line (start -0.5842 0.7874) (end -0.5842 0.5842) (layer F.Fab) (width 0.0762))
  (fp_line (start -0.5842 -0.7874) (end -0.1778 -0.7874) (layer F.Fab) (width 0.0762))
  (fp_line (start -0.9906 0.5842) (end -0.5842 0.5842) (layer F.Fab) (width 0.0762))
  (fp_line (start -0.1778 -0.5842) (end -0.1778 -0.7874) (layer F.Fab) (width 0.0762))
  (fp_line (start 1.397 0.7874) (end 1.397 0.5842) (layer F.Fab) (width 0.0762))
  (fp_line (start -0.1778 -0.5842) (end 0.1778 -0.5842) (layer F.Fab) (width 0.0762))
  (fp_line (start 0.1778 0.7874) (end 0.1778 0.5842) (layer F.Fab) (width 0.0762))
  (fp_line (start -1.397 -0.7874) (end -0.9906 -0.7874) (layer F.Fab) (width 0.0762))
  (fp_line (start -0.1778 0.5842) (end 0.1778 0.5842) (layer F.Fab) (width 0.0762))
  (fp_line (start 1.397 0.5842) (end 1.5748 0.5842) (layer F.Fab) (width 0.0762))
  (fp_line (start -0.9906 -0.5842) (end -0.9906 -0.7874) (layer F.Fab) (width 0.0762))
  (fp_line (start -0.9906 0.7874) (end -0.9906 0.5842) (layer F.Fab) (width 0.0762))
  (fp_line (start 0.1778 -0.5842) (end 0.1778 -0.7874) (layer F.Fab) (width 0.0762))
  (fp_line (start -1.397 0.7874) (end -0.9906 0.7874) (layer F.Fab) (width 0.0762))
  (fp_line (start -1.5748 0.5842) (end -1.397 0.5842) (layer F.Fab) (width 0.0762))
  (fp_line (start -1.397 0.7874) (end -1.397 0.5842) (layer F.Fab) (width 0.0762))
  (fp_line (start 0.1778 -0.7874) (end 0.5842 -0.7874) (layer F.Fab) (width 0.0762))
  (fp_line (start 0.5842 -0.5842) (end 0.5842 -0.7874) (layer F.Fab) (width 0.0762))
  (fp_line (start 0.5842 -0.5842) (end 0.9906 -0.5842) (layer F.Fab) (width 0.0762))
  (fp_line (start 1.905 1.5748) (end 1.905 -1.5748) (layer Dwgs.User) (width 0.1778))
  (fp_line (start -1.905 -1.5748) (end 1.905 -1.5748) (layer Dwgs.User) (width 0.1778))
  (fp_line (start -1.905 1.5748) (end 1.905 1.5748) (layer Dwgs.User) (width 0.1778))
  (fp_line (start -1.905 1.5748) (end -1.905 -1.5748) (layer Dwgs.User) (width 0.1778))
  (fp_line (start -1.905 -0.5842) (end -1.905 -1.5748) (layer F.SilkS) (width 0.1778))
  (fp_line (start -0.4572 -1.5748) (end -0.1778 -1.5748) (layer F.SilkS) (width 0.1778))
  (fp_line (start -1.905 1.5748) (end -1.905 0.5842) (layer F.SilkS) (width 0.1778))
  (fp_line (start 0.9906 -1.5748) (end 1.905 -1.5748) (layer F.SilkS) (width 0.1778))
  (fp_line (start 1.905 -1.4732) (end 1.905 -1.5748) (layer F.SilkS) (width 0.1778))
  (fp_line (start -1.905 1.5748) (end 1.905 1.5748) (layer F.SilkS) (width 0.1778))
  (fp_line (start -1.905 -1.5748) (end -1.6764 -1.5748) (layer F.SilkS) (width 0.1778))
  (fp_line (start 1.905 1.5748) (end 1.905 1.4224) (layer F.SilkS) (width 0.1778))
  (pad 1 smd rect (at -1.1938 0.7874) (size 0.5588 0.9144) (layers F.Cu F.Paste F.Mask))
  (pad 2 smd rect (at -0.381 0.7874) (size 0.5588 0.9144) (layers F.Cu F.Paste F.Mask))
  (pad 3 smd rect (at 0.381 0.7874) (size 0.5588 0.9144) (layers F.Cu F.Paste F.Mask))
  (pad 4 smd rect (at 1.1938 0.7874) (size 0.5588 0.9144) (layers F.Cu F.Paste F.Mask))
  (pad 5 smd rect (at 1.1938 -0.7874) (size 0.5588 0.9144) (layers F.Cu F.Paste F.Mask))
  (pad 6 smd rect (at 0.381 -0.7874) (size 0.5588 0.9144) (layers F.Cu F.Paste F.Mask))
  (pad 7 smd rect (at -0.381 -0.7874) (size 0.5588 0.9144) (layers F.Cu F.Paste F.Mask))
  (pad 8 smd rect (at -1.1938 -0.7874) (size 0.5588 0.9144) (layers F.Cu F.Paste F.Mask))
  (model "${KIPRJMOD}/10096315 Blower Driver.pretty/CAPCAF80P160X320X90-8N.stp"
    (at (xyz 0 0 0))
    (scale (xyz 1 1 1))
    (rotate (xyz 0 0 -90))
  )
)
