(module CP_Elec_10x9_TH (layer F.Cu) (tedit 5E94F4C3)
  (attr smd)
  (fp_text reference REF** (at -0.4826 -0.6985 90 unlocked) (layer F.SilkS)
    (effects (font (size 1.033069 1.086612) (thickness 0.127)))
  )
  (fp_text value CP_Elec_10x9_TH (at 3.5433 -0.7874 unlocked) (layer F.SilkS) hide
    (effects (font (size 1.033069 1.086612) (thickness 0.127)))
  )
  (fp_circle (center 0 0) (end 5.08 0) (layer Dwgs.User) (width 0.1778))
  (fp_circle (center 0 0) (end 5.08 0) (layer F.Fab) (width 0.0762))
  (fp_line (start 0 4.7498) (end 0 3.6576) (layer F.SilkS) (width 0.1778))
  (fp_line (start -0.635 4.1148) (end 0.635 4.1148) (layer F.SilkS) (width 0.1778))
  (fp_line (start 0 4.7498) (end 0 3.4798) (layer Dwgs.User) (width 0.1778))
  (fp_line (start -0.635 4.1148) (end 0.635 4.1148) (layer Dwgs.User) (width 0.1778))
  (pad - thru_hole circle (at 0 -2.54) (size 1.6002 1.6002) (drill 0.9652) (layers *.Cu *.Mask))
  (pad + thru_hole rect (at 0 2.54) (size 1.6002 1.6002) (drill 0.9652) (layers *.Cu *.Mask))
  (model ${KISYS3DMOD}/Capacitor_THT.3dshapes/CP_Radial_D10.0mm_P5.00mm.wrl
    (offset (xyz 0 -2.5 0))
    (scale (xyz 1 1 1))
    (rotate (xyz 0 0 -90))
  )
)
