ISO-10303-21;
HEADER;
/****************************************************************
 * Generated by software with PDE/Lib inside                    *
 * PDE/Lib Version 3.2.2, created Thu Mar 23, 2000 at 18:38:49  *
 * International Technegroup Inc. (www.iti-oh.com)              *
 ****************************************************************/
FILE_DESCRIPTION((''),'2;1');
FILE_NAME('CAPC2012X140N.stp','2009-06-30T16:52:06',(''),(''),'Mechanical Desktop 2006','Mechanical Desktop 2006',', , ');
FILE_SCHEMA(('AUTOMOTIVE_DESIGN { 1 2 10303 214 0 1 1 1 }'));
ENDSEC;
DATA;
#8=(NAMED_UNIT(*)PLANE_ANGLE_UNIT()SI_UNIT($,.RADIAN.));
#9=DIMENSIONAL_EXPONENTS(0.0,0.0,0.0,0.0,0.0,0.0,0.0);
#10=PLANE_ANGLE_MEASURE_WITH_UNIT(PLANE_ANGLE_MEASURE(0.017453292500000),#8);
#14=(CONVERSION_BASED_UNIT('DEGREE',#10)NAMED_UNIT(#9)PLANE_ANGLE_UNIT());
#18=(NAMED_UNIT(*)SI_UNIT($,.STERADIAN.)SOLID_ANGLE_UNIT());
#22=(LENGTH_UNIT()NAMED_UNIT(*)SI_UNIT(.MILLI.,.METRE.));
#23=UNCERTAINTY_MEASURE_WITH_UNIT(LENGTH_MEASURE(0.000001000000000),#22,'DISTANCE_ACCURACY_VALUE','');
#28=(GEOMETRIC_REPRESENTATION_CONTEXT(3)GLOBAL_UNCERTAINTY_ASSIGNED_CONTEXT((#23))GLOBAL_UNIT_ASSIGNED_CONTEXT((#14,#18,#22))REPRESENTATION_CONTEXT('None','None'));
#29=APPLICATION_CONTEXT('automotive design');
#30=APPLICATION_PROTOCOL_DEFINITION('DRAFT_INTERNATIONAL_STANDARD','automotive_design',1998,#29);
#31=PRODUCT_CONTEXT('3D Mechanical Parts',#29,'mechanical');
#32=PRODUCT('Product','Product','',(#31));
#33=PRODUCT_RELATED_PRODUCT_CATEGORY('part',$,(#32));
#34=PRODUCT_CATEGORY('part',$);
#35=PERSON('1','Design','Joe',$,$,$);
#36=ORGANIZATION($,'None','None');
#37=PERSON_AND_ORGANIZATION(#35,#36);
#38=PERSON_AND_ORGANIZATION_ROLE('design_owner');
#39=APPLIED_PERSON_AND_ORGANIZATION_ASSIGNMENT(#37,#38,(#32));
#40=PRODUCT_DEFINITION_FORMATION_WITH_SPECIFIED_SOURCE('None','',#32,.BOUGHT.);
#41=PERSON('2','Creator','Joe',$,$,$);
#42=ORGANIZATION($,'None','None');
#43=PERSON_AND_ORGANIZATION(#41,#42);
#44=PERSON_AND_ORGANIZATION_ROLE('creator');
#45=APPLIED_PERSON_AND_ORGANIZATION_ASSIGNMENT(#43,#44,(#40));
#46=PERSON('3','Supplier','Joe',$,$,$);
#47=ORGANIZATION($,'None','None');
#48=PERSON_AND_ORGANIZATION(#46,#47);
#49=PERSON_AND_ORGANIZATION_ROLE('design_supplier');
#50=APPLIED_PERSON_AND_ORGANIZATION_ASSIGNMENT(#48,#49,(#40));
#51=PRODUCT_DEFINITION_CONTEXT('part definition',#29,'design');
#52=PRODUCT_DEFINITION('None','',#40,#51);
#53=PERSON('4','Creator','Joe',$,$,$);
#54=ORGANIZATION($,'None','None');
#55=PERSON_AND_ORGANIZATION(#53,#54);
#56=PERSON_AND_ORGANIZATION_ROLE('creator');
#57=APPLIED_PERSON_AND_ORGANIZATION_ASSIGNMENT(#55,#56,(#52));
#58=CARTESIAN_POINT('NONE',(0.0,0.0,0.0));
#59=DIRECTION('NONE',(0.0,0.0,1.0));
#60=DIRECTION('NONE',(1.0,0.0,0.0));
#61=AXIS2_PLACEMENT_3D('NONE',#58,#59,#60);
#62=SHAPE_REPRESENTATION('SR1',(#61),#28);
#63=PRODUCT_DEFINITION_SHAPE('PDS1','Test Part',#52);
#64=SHAPE_DEFINITION_REPRESENTATION(#63,#62);
#65=CARTESIAN_POINT('',(0.925000000000000,-0.575000000000000,1.200000000000000));
#66=DIRECTION('',(-1.0,0.0,0.0));
#67=DIRECTION('',(0.0,-0.707106781186546,0.707106781186549));
#68=AXIS2_PLACEMENT_3D('',#65,#66,#67);
#69=CYLINDRICAL_SURFACE('',#68,0.100000000000000);
#70=CARTESIAN_POINT('',(0.950000000000000,-0.645710678118655,1.270710678118655));
#71=VERTEX_POINT('',#70);
#72=CARTESIAN_POINT('',(0.550000000000000,-0.645710678118655,1.270710678118655));
#73=VERTEX_POINT('',#72);
#74=CARTESIAN_POINT('',(0.950000000000000,-0.645710678118655,1.270710678118655));
#75=DIRECTION('',(-1.0,0.0,0.0));
#76=VECTOR('',#75,0.400000000000000);
#77=LINE('',#74,#76);
#78=EDGE_CURVE('',#71,#73,#77,.T.);
#79=ORIENTED_EDGE('',*,*,#78,.F.);
#80=CARTESIAN_POINT('',(0.950000000000000,-0.575000000000000,1.300000000000000));
#81=VERTEX_POINT('',#80);
#82=CARTESIAN_POINT('',(0.950000000000000,-0.575000000000000,1.200000000000000));
#83=DIRECTION('',(1.000000000000000,0.0,0.0));
#84=DIRECTION('',(0.0,-0.707106781186546,0.707106781186549));
#85=AXIS2_PLACEMENT_3D('',#82,#83,#84);
#86=CIRCLE('',#85,0.100000000000000);
#87=EDGE_CURVE('',#81,#71,#86,.T.);
#88=ORIENTED_EDGE('',*,*,#87,.F.);
#89=CARTESIAN_POINT('',(0.550000000000000,-0.575000000000000,1.300000000000000));
#90=VERTEX_POINT('',#89);
#91=CARTESIAN_POINT('',(0.950000000000000,-0.575000000000000,1.300000000000000));
#92=DIRECTION('',(-1.0,0.0,0.0));
#93=VECTOR('',#92,0.400000000000000);
#94=LINE('',#91,#93);
#95=EDGE_CURVE('',#81,#90,#94,.T.);
#96=ORIENTED_EDGE('',*,*,#95,.T.);
#97=CARTESIAN_POINT('',(0.550000000000000,-0.575000000000000,1.200000000000000));
#98=DIRECTION('',(1.000000000000000,0.0,0.0));
#99=DIRECTION('',(0.0,-0.707106781186546,0.707106781186549));
#100=AXIS2_PLACEMENT_3D('',#97,#98,#99);
#101=CIRCLE('',#100,0.100000000000000);
#102=EDGE_CURVE('',#90,#73,#101,.T.);
#103=ORIENTED_EDGE('',*,*,#102,.T.);
#104=EDGE_LOOP('',(#79,#88,#96,#103));
#105=FACE_OUTER_BOUND('',#104,.T.);
#106=ADVANCED_FACE('',(#105),#69,.T.);
#107=CARTESIAN_POINT('',(0.950000000000000,0.337500000000001,1.200000000000000));
#108=DIRECTION('',(0.0,-1.0,0.0));
#109=DIRECTION('',(0.707106781186546,0.0,0.707106781186549));
#110=AXIS2_PLACEMENT_3D('',#107,#108,#109);
#111=CYLINDRICAL_SURFACE('',#110,0.100000000000000);
#112=CARTESIAN_POINT('',(1.020710678118655,0.575000000000000,1.270710678118655));
#113=VERTEX_POINT('',#112);
#114=CARTESIAN_POINT('',(1.020710678118655,-0.575000000000000,1.270710678118655));
#115=VERTEX_POINT('',#114);
#116=CARTESIAN_POINT('',(1.020710678118655,0.575000000000000,1.270710678118655));
#117=DIRECTION('',(0.0,-1.0,0.0));
#118=VECTOR('',#117,1.150000000000000);
#119=LINE('',#116,#118);
#120=EDGE_CURVE('',#113,#115,#119,.T.);
#121=ORIENTED_EDGE('',*,*,#120,.F.);
#122=CARTESIAN_POINT('',(0.950000000000000,0.575000000000000,1.300000000000000));
#123=VERTEX_POINT('',#122);
#124=CARTESIAN_POINT('',(0.950000000000000,0.575000000000001,1.200000000000000));
#125=DIRECTION('',(4.440892E-015,1.000000000000000,4.440892E-015));
#126=DIRECTION('',(0.707106781186546,-6.280370E-015,0.707106781186549));
#127=AXIS2_PLACEMENT_3D('',#124,#125,#126);
#128=CIRCLE('',#127,0.100000000000000);
#129=EDGE_CURVE('',#123,#113,#128,.T.);
#130=ORIENTED_EDGE('',*,*,#129,.F.);
#131=CARTESIAN_POINT('',(0.950000000000000,0.575000000000000,1.300000000000000));
#132=DIRECTION('',(0.0,-1.0,0.0));
#133=VECTOR('',#132,1.150000000000000);
#134=LINE('',#131,#133);
#135=EDGE_CURVE('',#123,#81,#134,.T.);
#136=ORIENTED_EDGE('',*,*,#135,.T.);
#137=CARTESIAN_POINT('',(0.950000000000000,-0.575000000000000,1.200000000000000));
#138=DIRECTION('',(0.0,-1.0,0.0));
#139=DIRECTION('',(0.0,0.0,1.0));
#140=AXIS2_PLACEMENT_3D('',#137,#138,#139);
#141=CIRCLE('',#140,0.100000000000000);
#142=EDGE_CURVE('',#81,#115,#141,.F.);
#143=ORIENTED_EDGE('',*,*,#142,.T.);
#144=EDGE_LOOP('',(#121,#130,#136,#143));
#145=FACE_OUTER_BOUND('',#144,.T.);
#146=ADVANCED_FACE('',(#145),#111,.T.);
#147=CARTESIAN_POINT('',(0.675000000000000,0.575000000000000,1.200000000000000));
#148=DIRECTION('',(1.0,0.0,0.0));
#149=DIRECTION('',(0.0,0.707106781186549,0.707106781186546));
#150=AXIS2_PLACEMENT_3D('',#147,#148,#149);
#151=CYLINDRICAL_SURFACE('',#150,0.100000000000000);
#152=CARTESIAN_POINT('',(0.550000000000000,0.645710678118655,1.270710678118655));
#153=VERTEX_POINT('',#152);
#154=CARTESIAN_POINT('',(0.950000000000000,0.645710678118655,1.270710678118655));
#155=VERTEX_POINT('',#154);
#156=CARTESIAN_POINT('',(0.550000000000000,0.645710678118655,1.270710678118655));
#157=DIRECTION('',(1.0,0.0,0.0));
#158=VECTOR('',#157,0.400000000000000);
#159=LINE('',#156,#158);
#160=EDGE_CURVE('',#153,#155,#159,.T.);
#161=ORIENTED_EDGE('',*,*,#160,.F.);
#162=CARTESIAN_POINT('',(0.550000000000000,0.575000000000000,1.300000000000000));
#163=VERTEX_POINT('',#162);
#164=CARTESIAN_POINT('',(0.550000000000000,0.575000000000000,1.200000000000000));
#165=DIRECTION('',(1.000000000000000,0.0,0.0));
#166=DIRECTION('',(0.0,0.707106781186549,0.707106781186546));
#167=AXIS2_PLACEMENT_3D('',#164,#165,#166);
#168=CIRCLE('',#167,0.100000000000000);
#169=EDGE_CURVE('',#153,#163,#168,.T.);
#170=ORIENTED_EDGE('',*,*,#169,.T.);
#171=CARTESIAN_POINT('',(0.550000000000000,0.575000000000000,1.300000000000000));
#172=DIRECTION('',(1.0,0.0,0.0));
#173=VECTOR('',#172,0.400000000000000);
#174=LINE('',#171,#173);
#175=EDGE_CURVE('',#163,#123,#174,.T.);
#176=ORIENTED_EDGE('',*,*,#175,.T.);
#177=CARTESIAN_POINT('',(0.950000000000000,0.575000000000000,1.200000000000000));
#178=DIRECTION('',(1.000000000000000,0.0,0.0));
#179=DIRECTION('',(0.0,0.707106781186549,0.707106781186546));
#180=AXIS2_PLACEMENT_3D('',#177,#178,#179);
#181=CIRCLE('',#180,0.100000000000000);
#182=EDGE_CURVE('',#155,#123,#181,.T.);
#183=ORIENTED_EDGE('',*,*,#182,.F.);
#184=EDGE_LOOP('',(#161,#170,#176,#183));
#185=FACE_OUTER_BOUND('',#184,.T.);
#186=ADVANCED_FACE('',(#185),#151,.T.);
#187=CARTESIAN_POINT('',(0.925000000000000,-0.575000000000000,0.100000000000000));
#188=DIRECTION('',(-1.0,0.0,0.0));
#189=DIRECTION('',(0.0,-0.707106781186546,-0.707106781186549));
#190=AXIS2_PLACEMENT_3D('',#187,#188,#189);
#191=CYLINDRICAL_SURFACE('',#190,0.100000000000000);
#192=CARTESIAN_POINT('',(0.950000000000000,-0.645710678118655,0.029289321881345));
#193=VERTEX_POINT('',#192);
#194=CARTESIAN_POINT('',(0.550000000000000,-0.645710678118655,0.029289321881345));
#195=VERTEX_POINT('',#194);
#196=CARTESIAN_POINT('',(0.950000000000000,-0.645710678118655,0.029289321881345));
#197=DIRECTION('',(-1.0,0.0,0.0));
#198=VECTOR('',#197,0.400000000000000);
#199=LINE('',#196,#198);
#200=EDGE_CURVE('',#193,#195,#199,.T.);
#201=ORIENTED_EDGE('',*,*,#200,.F.);
#202=CARTESIAN_POINT('',(0.950000000000000,-0.675000000000000,0.100000000000000));
#203=VERTEX_POINT('',#202);
#204=CARTESIAN_POINT('',(0.950000000000000,-0.575000000000000,0.100000000000000));
#205=DIRECTION('',(1.0,0.0,0.0));
#206=DIRECTION('',(0.0,-0.707106781186546,-0.707106781186549));
#207=AXIS2_PLACEMENT_3D('',#204,#205,#206);
#208=CIRCLE('',#207,0.100000000000000);
#209=EDGE_CURVE('',#203,#193,#208,.T.);
#210=ORIENTED_EDGE('',*,*,#209,.F.);
#211=CARTESIAN_POINT('',(0.550000000000000,-0.675000000000000,0.100000000000000));
#212=VERTEX_POINT('',#211);
#213=CARTESIAN_POINT('',(0.950000000000000,-0.675000000000000,0.100000000000000));
#214=DIRECTION('',(-1.0,0.0,0.0));
#215=VECTOR('',#214,0.400000000000000);
#216=LINE('',#213,#215);
#217=EDGE_CURVE('',#203,#212,#216,.T.);
#218=ORIENTED_EDGE('',*,*,#217,.T.);
#219=CARTESIAN_POINT('',(0.550000000000000,-0.575000000000000,0.100000000000000));
#220=DIRECTION('',(1.0,0.0,0.0));
#221=DIRECTION('',(0.0,-0.707106781186546,-0.707106781186549));
#222=AXIS2_PLACEMENT_3D('',#219,#220,#221);
#223=CIRCLE('',#222,0.100000000000000);
#224=EDGE_CURVE('',#212,#195,#223,.T.);
#225=ORIENTED_EDGE('',*,*,#224,.T.);
#226=EDGE_LOOP('',(#201,#210,#218,#225));
#227=FACE_OUTER_BOUND('',#226,.T.);
#228=ADVANCED_FACE('',(#227),#191,.T.);
#229=CARTESIAN_POINT('',(0.950000000000000,0.337500000000001,0.100000000000000));
#230=DIRECTION('',(0.0,-1.0,0.0));
#231=DIRECTION('',(0.707106781186546,0.0,-0.707106781186549));
#232=AXIS2_PLACEMENT_3D('',#229,#230,#231);
#233=CYLINDRICAL_SURFACE('',#232,0.100000000000000);
#234=CARTESIAN_POINT('',(1.020710678118655,0.575000000000001,0.029289321881345));
#235=VERTEX_POINT('',#234);
#236=CARTESIAN_POINT('',(1.020710678118655,-0.575000000000000,0.029289321881345));
#237=VERTEX_POINT('',#236);
#238=CARTESIAN_POINT('',(1.020710678118655,0.575000000000001,0.029289321881345));
#239=DIRECTION('',(0.0,-1.0,0.0));
#240=VECTOR('',#239,1.150000000000001);
#241=LINE('',#238,#240);
#242=EDGE_CURVE('',#235,#237,#241,.T.);
#243=ORIENTED_EDGE('',*,*,#242,.F.);
#244=CARTESIAN_POINT('',(1.050000000000000,0.575000000000001,0.100000000000000));
#245=VERTEX_POINT('',#244);
#246=CARTESIAN_POINT('',(0.950000000000000,0.575000000000001,0.100000000000000));
#247=DIRECTION('',(0.0,1.0,0.0));
#248=DIRECTION('',(0.707106781186546,0.0,-0.707106781186549));
#249=AXIS2_PLACEMENT_3D('',#246,#247,#248);
#250=CIRCLE('',#249,0.100000000000000);
#251=EDGE_CURVE('',#245,#235,#250,.T.);
#252=ORIENTED_EDGE('',*,*,#251,.F.);
#253=CARTESIAN_POINT('',(1.050000000000000,-0.575000000000000,0.100000000000000));
#254=VERTEX_POINT('',#253);
#255=CARTESIAN_POINT('',(1.050000000000000,0.575000000000001,0.100000000000000));
#256=DIRECTION('',(0.0,-1.0,0.0));
#257=VECTOR('',#256,1.150000000000001);
#258=LINE('',#255,#257);
#259=EDGE_CURVE('',#245,#254,#258,.T.);
#260=ORIENTED_EDGE('',*,*,#259,.T.);
#261=CARTESIAN_POINT('',(0.950000000000000,-0.575000000000000,0.100000000000000));
#262=DIRECTION('',(0.0,-1.0,0.0));
#263=DIRECTION('',(1.0,0.0,0.0));
#264=AXIS2_PLACEMENT_3D('',#261,#262,#263);
#265=CIRCLE('',#264,0.100000000000000);
#266=EDGE_CURVE('',#254,#237,#265,.F.);
#267=ORIENTED_EDGE('',*,*,#266,.T.);
#268=EDGE_LOOP('',(#243,#252,#260,#267));
#269=FACE_OUTER_BOUND('',#268,.T.);
#270=ADVANCED_FACE('',(#269),#233,.T.);
#271=CARTESIAN_POINT('',(0.675000000000000,0.575000000000001,0.100000000000000));
#272=DIRECTION('',(1.0,0.0,0.0));
#273=DIRECTION('',(0.0,0.707106781186549,-0.707106781186546));
#274=AXIS2_PLACEMENT_3D('',#271,#272,#273);
#275=CYLINDRICAL_SURFACE('',#274,0.100000000000000);
#276=CARTESIAN_POINT('',(0.550000000000000,0.645710678118656,0.029289321881345));
#277=VERTEX_POINT('',#276);
#278=CARTESIAN_POINT('',(0.950000000000000,0.645710678118656,0.029289321881345));
#279=VERTEX_POINT('',#278);
#280=CARTESIAN_POINT('',(0.550000000000000,0.645710678118656,0.029289321881345));
#281=DIRECTION('',(1.0,0.0,0.0));
#282=VECTOR('',#281,0.400000000000000);
#283=LINE('',#280,#282);
#284=EDGE_CURVE('',#277,#279,#283,.T.);
#285=ORIENTED_EDGE('',*,*,#284,.F.);
#286=CARTESIAN_POINT('',(0.550000000000000,0.675000000000001,0.100000000000000));
#287=VERTEX_POINT('',#286);
#288=CARTESIAN_POINT('',(0.550000000000000,0.575000000000001,0.100000000000000));
#289=DIRECTION('',(1.000000000000000,0.0,0.0));
#290=DIRECTION('',(0.0,0.707106781186549,-0.707106781186546));
#291=AXIS2_PLACEMENT_3D('',#288,#289,#290);
#292=CIRCLE('',#291,0.100000000000000);
#293=EDGE_CURVE('',#277,#287,#292,.T.);
#294=ORIENTED_EDGE('',*,*,#293,.T.);
#295=CARTESIAN_POINT('',(0.950000000000000,0.675000000000001,0.100000000000000));
#296=VERTEX_POINT('',#295);
#297=CARTESIAN_POINT('',(0.550000000000000,0.675000000000001,0.100000000000000));
#298=DIRECTION('',(1.0,0.0,0.0));
#299=VECTOR('',#298,0.400000000000000);
#300=LINE('',#297,#299);
#301=EDGE_CURVE('',#287,#296,#300,.T.);
#302=ORIENTED_EDGE('',*,*,#301,.T.);
#303=CARTESIAN_POINT('',(0.950000000000000,0.575000000000001,0.100000000000000));
#304=DIRECTION('',(1.0,0.0,0.0));
#305=DIRECTION('',(0.0,1.0,0.0));
#306=AXIS2_PLACEMENT_3D('',#303,#304,#305);
#307=CIRCLE('',#306,0.100000000000000);
#308=EDGE_CURVE('',#296,#279,#307,.F.);
#309=ORIENTED_EDGE('',*,*,#308,.T.);
#310=EDGE_LOOP('',(#285,#294,#302,#309));
#311=FACE_OUTER_BOUND('',#310,.T.);
#312=ADVANCED_FACE('',(#311),#275,.T.);
#313=CARTESIAN_POINT('',(0.950000000000000,-0.575000000000000,0.0));
#314=DIRECTION('',(0.0,0.0,1.0));
#315=DIRECTION('',(0.707106781186548,-0.707106781186548,0.0));
#316=AXIS2_PLACEMENT_3D('',#313,#314,#315);
#317=CYLINDRICAL_SURFACE('',#316,0.100000000000000);
#318=CARTESIAN_POINT('',(1.020710678118655,-0.645710678118655,0.100000000000000));
#319=VERTEX_POINT('',#318);
#320=CARTESIAN_POINT('',(1.020710678118655,-0.645710678118655,1.200000000000000));
#321=VERTEX_POINT('',#320);
#322=CARTESIAN_POINT('',(1.020710678118655,-0.645710678118655,0.100000000000000));
#323=DIRECTION('',(0.0,0.0,1.0));
#324=VECTOR('',#323,1.100000000000000);
#325=LINE('',#322,#324);
#326=EDGE_CURVE('',#319,#321,#325,.T.);
#327=ORIENTED_EDGE('',*,*,#326,.F.);
#328=CARTESIAN_POINT('',(0.950000000000000,-0.575000000000000,0.100000000000000));
#329=DIRECTION('',(0.0,0.0,-1.000000000000000));
#330=DIRECTION('',(0.707106781186548,-0.707106781186548,0.0));
#331=AXIS2_PLACEMENT_3D('',#328,#329,#330);
#332=CIRCLE('',#331,0.100000000000000);
#333=EDGE_CURVE('',#254,#319,#332,.T.);
#334=ORIENTED_EDGE('',*,*,#333,.F.);
#335=CARTESIAN_POINT('',(1.050000000000000,-0.575000000000000,1.200000000000000));
#336=VERTEX_POINT('',#335);
#337=CARTESIAN_POINT('',(1.050000000000000,-0.575000000000000,0.100000000000000));
#338=DIRECTION('',(0.0,0.0,1.0));
#339=VECTOR('',#338,1.100000000000000);
#340=LINE('',#337,#339);
#341=EDGE_CURVE('',#254,#336,#340,.T.);
#342=ORIENTED_EDGE('',*,*,#341,.T.);
#343=CARTESIAN_POINT('',(0.950000000000000,-0.575000000000000,1.200000000000000));
#344=DIRECTION('',(0.0,0.0,1.0));
#345=DIRECTION('',(1.0,0.0,0.0));
#346=AXIS2_PLACEMENT_3D('',#343,#344,#345);
#347=CIRCLE('',#346,0.100000000000000);
#348=EDGE_CURVE('',#336,#321,#347,.F.);
#349=ORIENTED_EDGE('',*,*,#348,.T.);
#350=EDGE_LOOP('',(#327,#334,#342,#349));
#351=FACE_OUTER_BOUND('',#350,.T.);
#352=ADVANCED_FACE('',(#351),#317,.T.);
#353=CARTESIAN_POINT('',(0.950000000000000,0.575000000000001,0.0));
#354=DIRECTION('',(0.0,0.0,1.0));
#355=DIRECTION('',(0.707106781186544,0.707106781186551,0.0));
#356=AXIS2_PLACEMENT_3D('',#353,#354,#355);
#357=CYLINDRICAL_SURFACE('',#356,0.100000000000000);
#358=CARTESIAN_POINT('',(1.020710678118655,0.645710678118656,0.100000000000000));
#359=VERTEX_POINT('',#358);
#360=CARTESIAN_POINT('',(1.020710678118655,0.645710678118656,1.200000000000000));
#361=VERTEX_POINT('',#360);
#362=CARTESIAN_POINT('',(1.020710678118655,0.645710678118656,0.100000000000000));
#363=DIRECTION('',(0.0,0.0,1.0));
#364=VECTOR('',#363,1.100000000000000);
#365=LINE('',#362,#364);
#366=EDGE_CURVE('',#359,#361,#365,.T.);
#367=ORIENTED_EDGE('',*,*,#366,.F.);
#368=CARTESIAN_POINT('',(0.950000000000000,0.575000000000001,0.100000000000000));
#369=DIRECTION('',(0.0,0.0,-1.000000000000000));
#370=DIRECTION('',(0.707106781186544,0.707106781186551,0.0));
#371=AXIS2_PLACEMENT_3D('',#368,#369,#370);
#372=CIRCLE('',#371,0.100000000000000);
#373=EDGE_CURVE('',#296,#359,#372,.T.);
#374=ORIENTED_EDGE('',*,*,#373,.F.);
#375=CARTESIAN_POINT('',(0.950000000000000,0.675000000000001,1.200000000000000));
#376=VERTEX_POINT('',#375);
#377=CARTESIAN_POINT('',(0.950000000000000,0.675000000000001,0.100000000000000));
#378=DIRECTION('',(0.0,0.0,1.0));
#379=VECTOR('',#378,1.100000000000000);
#380=LINE('',#377,#379);
#381=EDGE_CURVE('',#296,#376,#380,.T.);
#382=ORIENTED_EDGE('',*,*,#381,.T.);
#383=CARTESIAN_POINT('',(0.950000000000000,0.575000000000001,1.200000000000000));
#384=DIRECTION('',(0.0,0.0,1.0));
#385=DIRECTION('',(0.0,1.0,0.0));
#386=AXIS2_PLACEMENT_3D('',#383,#384,#385);
#387=CIRCLE('',#386,0.100000000000000);
#388=EDGE_CURVE('',#376,#361,#387,.F.);
#389=ORIENTED_EDGE('',*,*,#388,.T.);
#390=EDGE_LOOP('',(#367,#374,#382,#389));
#391=FACE_OUTER_BOUND('',#390,.T.);
#392=ADVANCED_FACE('',(#391),#357,.T.);
#393=CARTESIAN_POINT('',(0.550000000000000,0.675000000000001,0.0));
#394=DIRECTION('',(0.0,1.0,0.0));
#395=DIRECTION('',(0.0,0.0,1.0));
#396=AXIS2_PLACEMENT_3D('',#393,#394,#395);
#397=PLANE('',#396);
#398=ORIENTED_EDGE('',*,*,#301,.F.);
#399=CARTESIAN_POINT('',(0.550000000000000,0.675000000000001,1.200000000000000));
#400=VERTEX_POINT('',#399);
#401=CARTESIAN_POINT('',(0.550000000000000,0.675000000000001,0.100000000000000));
#402=DIRECTION('',(0.0,0.0,1.0));
#403=VECTOR('',#402,1.100000000000000);
#404=LINE('',#401,#403);
#405=EDGE_CURVE('',#287,#400,#404,.T.);
#406=ORIENTED_EDGE('',*,*,#405,.T.);
#407=CARTESIAN_POINT('',(0.950000000000000,0.675000000000001,1.200000000000000));
#408=DIRECTION('',(-1.0,0.0,0.0));
#409=VECTOR('',#408,0.400000000000000);
#410=LINE('',#407,#409);
#411=EDGE_CURVE('',#376,#400,#410,.T.);
#412=ORIENTED_EDGE('',*,*,#411,.F.);
#413=ORIENTED_EDGE('',*,*,#381,.F.);
#414=EDGE_LOOP('',(#398,#406,#412,#413));
#415=FACE_OUTER_BOUND('',#414,.T.);
#416=ADVANCED_FACE('',(#415),#397,.T.);
#417=CARTESIAN_POINT('',(0.950000000000000,0.575000000000001,0.0));
#418=DIRECTION('',(0.0,0.0,1.0));
#419=DIRECTION('',(0.707106781186544,0.707106781186551,0.0));
#420=AXIS2_PLACEMENT_3D('',#417,#418,#419);
#421=CYLINDRICAL_SURFACE('',#420,0.100000000000000);
#422=ORIENTED_EDGE('',*,*,#366,.T.);
#423=CARTESIAN_POINT('',(1.050000000000000,0.575000000000001,1.200000000000000));
#424=VERTEX_POINT('',#423);
#425=CARTESIAN_POINT('',(0.950000000000000,0.575000000000001,1.200000000000000));
#426=DIRECTION('',(0.0,0.0,1.0));
#427=DIRECTION('',(0.0,1.0,0.0));
#428=AXIS2_PLACEMENT_3D('',#425,#426,#427);
#429=CIRCLE('',#428,0.100000000000000);
#430=EDGE_CURVE('',#361,#424,#429,.F.);
#431=ORIENTED_EDGE('',*,*,#430,.T.);
#432=CARTESIAN_POINT('',(1.050000000000000,0.575000000000001,1.200000000000000));
#433=DIRECTION('',(0.0,0.0,-1.0));
#434=VECTOR('',#433,1.100000000000000);
#435=LINE('',#432,#434);
#436=EDGE_CURVE('',#424,#245,#435,.T.);
#437=ORIENTED_EDGE('',*,*,#436,.T.);
#438=CARTESIAN_POINT('',(0.950000000000000,0.575000000000001,0.100000000000000));
#439=DIRECTION('',(0.0,0.0,-1.000000000000000));
#440=DIRECTION('',(0.707106781186544,0.707106781186551,0.0));
#441=AXIS2_PLACEMENT_3D('',#438,#439,#440);
#442=CIRCLE('',#441,0.100000000000000);
#443=EDGE_CURVE('',#359,#245,#442,.T.);
#444=ORIENTED_EDGE('',*,*,#443,.F.);
#445=EDGE_LOOP('',(#422,#431,#437,#444));
#446=FACE_OUTER_BOUND('',#445,.T.);
#447=ADVANCED_FACE('',(#446),#421,.T.);
#448=CARTESIAN_POINT('',(0.950000000000000,-0.575000000000000,0.0));
#449=DIRECTION('',(0.0,0.0,1.0));
#450=DIRECTION('',(0.707106781186548,-0.707106781186548,0.0));
#451=AXIS2_PLACEMENT_3D('',#448,#449,#450);
#452=CYLINDRICAL_SURFACE('',#451,0.100000000000000);
#453=ORIENTED_EDGE('',*,*,#326,.T.);
#454=CARTESIAN_POINT('',(0.950000000000000,-0.675000000000000,1.200000000000000));
#455=VERTEX_POINT('',#454);
#456=CARTESIAN_POINT('',(0.950000000000000,-0.575000000000000,1.200000000000000));
#457=DIRECTION('',(0.0,0.0,1.0));
#458=DIRECTION('',(1.0,0.0,0.0));
#459=AXIS2_PLACEMENT_3D('',#456,#457,#458);
#460=CIRCLE('',#459,0.100000000000000);
#461=EDGE_CURVE('',#321,#455,#460,.F.);
#462=ORIENTED_EDGE('',*,*,#461,.T.);
#463=CARTESIAN_POINT('',(0.950000000000000,-0.675000000000000,1.200000000000000));
#464=DIRECTION('',(0.0,0.0,-1.0));
#465=VECTOR('',#464,1.100000000000000);
#466=LINE('',#463,#465);
#467=EDGE_CURVE('',#455,#203,#466,.T.);
#468=ORIENTED_EDGE('',*,*,#467,.T.);
#469=CARTESIAN_POINT('',(0.950000000000000,-0.575000000000000,0.100000000000000));
#470=DIRECTION('',(0.0,0.0,-1.000000000000000));
#471=DIRECTION('',(0.707106781186548,-0.707106781186548,0.0));
#472=AXIS2_PLACEMENT_3D('',#469,#470,#471);
#473=CIRCLE('',#472,0.100000000000000);
#474=EDGE_CURVE('',#319,#203,#473,.T.);
#475=ORIENTED_EDGE('',*,*,#474,.F.);
#476=EDGE_LOOP('',(#453,#462,#468,#475));
#477=FACE_OUTER_BOUND('',#476,.T.);
#478=ADVANCED_FACE('',(#477),#452,.T.);
#479=CARTESIAN_POINT('',(1.050000000000000,0.675000000000001,0.0));
#480=DIRECTION('',(1.0,0.0,0.0));
#481=DIRECTION('',(0.0,0.0,-1.0));
#482=AXIS2_PLACEMENT_3D('',#479,#480,#481);
#483=PLANE('',#482);
#484=ORIENTED_EDGE('',*,*,#436,.F.);
#485=CARTESIAN_POINT('',(1.050000000000000,-0.575000000000000,1.200000000000000));
#486=DIRECTION('',(0.0,1.0,0.0));
#487=VECTOR('',#486,1.150000000000001);
#488=LINE('',#485,#487);
#489=EDGE_CURVE('',#336,#424,#488,.T.);
#490=ORIENTED_EDGE('',*,*,#489,.F.);
#491=ORIENTED_EDGE('',*,*,#341,.F.);
#492=ORIENTED_EDGE('',*,*,#259,.F.);
#493=EDGE_LOOP('',(#484,#490,#491,#492));
#494=FACE_OUTER_BOUND('',#493,.T.);
#495=ADVANCED_FACE('',(#494),#483,.T.);
#496=CARTESIAN_POINT('',(1.050000000000000,-0.675000000000000,0.0));
#497=DIRECTION('',(0.0,-1.0,0.0));
#498=DIRECTION('',(0.0,0.0,-1.0));
#499=AXIS2_PLACEMENT_3D('',#496,#497,#498);
#500=PLANE('',#499);
#501=ORIENTED_EDGE('',*,*,#217,.F.);
#502=ORIENTED_EDGE('',*,*,#467,.F.);
#503=CARTESIAN_POINT('',(0.550000000000000,-0.675000000000000,1.200000000000000));
#504=VERTEX_POINT('',#503);
#505=CARTESIAN_POINT('',(0.550000000000000,-0.675000000000000,1.200000000000000));
#506=DIRECTION('',(1.0,0.0,0.0));
#507=VECTOR('',#506,0.400000000000000);
#508=LINE('',#505,#507);
#509=EDGE_CURVE('',#504,#455,#508,.T.);
#510=ORIENTED_EDGE('',*,*,#509,.F.);
#511=CARTESIAN_POINT('',(0.550000000000000,-0.675000000000000,0.100000000000000));
#512=DIRECTION('',(0.0,0.0,1.0));
#513=VECTOR('',#512,1.100000000000000);
#514=LINE('',#511,#513);
#515=EDGE_CURVE('',#212,#504,#514,.T.);
#516=ORIENTED_EDGE('',*,*,#515,.F.);
#517=EDGE_LOOP('',(#501,#502,#510,#516));
#518=FACE_OUTER_BOUND('',#517,.T.);
#519=ADVANCED_FACE('',(#518),#500,.T.);
#520=CARTESIAN_POINT('',(0.550000000000000,-0.675000000000000,0.0));
#521=DIRECTION('',(-1.0,0.0,0.0));
#522=DIRECTION('',(0.0,0.0,1.0));
#523=AXIS2_PLACEMENT_3D('',#520,#521,#522);
#524=PLANE('',#523);
#525=CARTESIAN_POINT('',(0.550000000000000,0.575000000000001,0.0));
#526=VERTEX_POINT('',#525);
#527=CARTESIAN_POINT('',(0.550000000000000,0.575000000000001,0.100000000000000));
#528=DIRECTION('',(1.000000000000000,0.0,0.0));
#529=DIRECTION('',(0.0,0.707106781186549,-0.707106781186546));
#530=AXIS2_PLACEMENT_3D('',#527,#528,#529);
#531=CIRCLE('',#530,0.100000000000000);
#532=EDGE_CURVE('',#526,#277,#531,.T.);
#533=ORIENTED_EDGE('',*,*,#532,.F.);
#534=CARTESIAN_POINT('',(0.550000000000000,-0.575000000000000,0.0));
#535=VERTEX_POINT('',#534);
#536=CARTESIAN_POINT('',(0.550000000000000,-0.575000000000000,0.0));
#537=DIRECTION('',(0.0,1.0,0.0));
#538=VECTOR('',#537,1.150000000000001);
#539=LINE('',#536,#538);
#540=EDGE_CURVE('',#535,#526,#539,.T.);
#541=ORIENTED_EDGE('',*,*,#540,.F.);
#542=CARTESIAN_POINT('',(0.550000000000000,-0.575000000000000,0.100000000000000));
#543=DIRECTION('',(1.0,0.0,0.0));
#544=DIRECTION('',(0.0,-0.707106781186546,-0.707106781186549));
#545=AXIS2_PLACEMENT_3D('',#542,#543,#544);
#546=CIRCLE('',#545,0.100000000000000);
#547=EDGE_CURVE('',#195,#535,#546,.T.);
#548=ORIENTED_EDGE('',*,*,#547,.F.);
#549=ORIENTED_EDGE('',*,*,#224,.F.);
#550=ORIENTED_EDGE('',*,*,#515,.T.);
#551=CARTESIAN_POINT('',(0.550000000000000,-0.575000000000000,1.200000000000000));
#552=DIRECTION('',(1.000000000000000,0.0,0.0));
#553=DIRECTION('',(0.0,-0.707106781186546,0.707106781186549));
#554=AXIS2_PLACEMENT_3D('',#551,#552,#553);
#555=CIRCLE('',#554,0.100000000000000);
#556=EDGE_CURVE('',#73,#504,#555,.T.);
#557=ORIENTED_EDGE('',*,*,#556,.F.);
#558=ORIENTED_EDGE('',*,*,#102,.F.);
#559=CARTESIAN_POINT('',(0.550000000000000,-0.575000000000000,1.300000000000000));
#560=DIRECTION('',(0.0,1.0,0.0));
#561=VECTOR('',#560,1.150000000000000);
#562=LINE('',#559,#561);
#563=EDGE_CURVE('',#90,#163,#562,.T.);
#564=ORIENTED_EDGE('',*,*,#563,.T.);
#565=ORIENTED_EDGE('',*,*,#169,.F.);
#566=CARTESIAN_POINT('',(0.550000000000000,0.575000000000000,1.200000000000000));
#567=DIRECTION('',(1.000000000000000,0.0,0.0));
#568=DIRECTION('',(0.0,0.707106781186549,0.707106781186546));
#569=AXIS2_PLACEMENT_3D('',#566,#567,#568);
#570=CIRCLE('',#569,0.100000000000000);
#571=EDGE_CURVE('',#400,#153,#570,.T.);
#572=ORIENTED_EDGE('',*,*,#571,.F.);
#573=ORIENTED_EDGE('',*,*,#405,.F.);
#574=ORIENTED_EDGE('',*,*,#293,.F.);
#575=EDGE_LOOP('',(#533,#541,#548,#549,#550,#557,#558,#564,#565,#572,#573,#574));
#576=FACE_OUTER_BOUND('',#575,.T.);
#577=ADVANCED_FACE('',(#576),#524,.T.);
#578=CARTESIAN_POINT('',(0.950000000000000,-0.575000000000000,0.100000000000000));
#579=DIRECTION('',(0.0,0.0,1.0));
#580=DIRECTION('',(1.0,0.0,0.0));
#581=AXIS2_PLACEMENT_3D('',#578,#579,#580);
#582=SPHERICAL_SURFACE('',#581,0.100000000000000);
#583=ORIENTED_EDGE('',*,*,#209,.T.);
#584=CARTESIAN_POINT('',(0.950000000000000,-0.575000000000000,0.0));
#585=VERTEX_POINT('',#584);
#586=CARTESIAN_POINT('',(0.950000000000000,-0.575000000000000,0.100000000000000));
#587=DIRECTION('',(1.0,0.0,0.0));
#588=DIRECTION('',(0.0,-0.707106781186546,-0.707106781186549));
#589=AXIS2_PLACEMENT_3D('',#586,#587,#588);
#590=CIRCLE('',#589,0.100000000000000);
#591=EDGE_CURVE('',#193,#585,#590,.T.);
#592=ORIENTED_EDGE('',*,*,#591,.T.);
#593=CARTESIAN_POINT('',(0.950000000000000,-0.575000000000000,0.100000000000000));
#594=DIRECTION('',(0.0,-1.0,0.0));
#595=DIRECTION('',(1.0,0.0,0.0));
#596=AXIS2_PLACEMENT_3D('',#593,#594,#595);
#597=CIRCLE('',#596,0.100000000000000);
#598=EDGE_CURVE('',#237,#585,#597,.F.);
#599=ORIENTED_EDGE('',*,*,#598,.F.);
#600=ORIENTED_EDGE('',*,*,#266,.F.);
#601=ORIENTED_EDGE('',*,*,#333,.T.);
#602=ORIENTED_EDGE('',*,*,#474,.T.);
#603=EDGE_LOOP('',(#583,#592,#599,#600,#601,#602));
#604=FACE_OUTER_BOUND('',#603,.T.);
#605=ADVANCED_FACE('',(#604),#582,.T.);
#606=CARTESIAN_POINT('',(0.950000000000000,0.575000000000001,0.100000000000000));
#607=DIRECTION('',(0.0,0.0,1.0));
#608=DIRECTION('',(1.0,0.0,0.0));
#609=AXIS2_PLACEMENT_3D('',#606,#607,#608);
#610=SPHERICAL_SURFACE('',#609,0.100000000000000);
#611=ORIENTED_EDGE('',*,*,#251,.T.);
#612=CARTESIAN_POINT('',(0.950000000000000,0.575000000000001,0.0));
#613=VERTEX_POINT('',#612);
#614=CARTESIAN_POINT('',(0.950000000000000,0.575000000000001,0.100000000000000));
#615=DIRECTION('',(0.0,1.0,0.0));
#616=DIRECTION('',(0.707106781186546,0.0,-0.707106781186549));
#617=AXIS2_PLACEMENT_3D('',#614,#615,#616);
#618=CIRCLE('',#617,0.100000000000000);
#619=EDGE_CURVE('',#235,#613,#618,.T.);
#620=ORIENTED_EDGE('',*,*,#619,.T.);
#621=CARTESIAN_POINT('',(0.950000000000000,0.575000000000001,0.100000000000000));
#622=DIRECTION('',(1.0,0.0,0.0));
#623=DIRECTION('',(0.0,1.0,0.0));
#624=AXIS2_PLACEMENT_3D('',#621,#622,#623);
#625=CIRCLE('',#624,0.100000000000000);
#626=EDGE_CURVE('',#279,#613,#625,.F.);
#627=ORIENTED_EDGE('',*,*,#626,.F.);
#628=ORIENTED_EDGE('',*,*,#308,.F.);
#629=ORIENTED_EDGE('',*,*,#373,.T.);
#630=ORIENTED_EDGE('',*,*,#443,.T.);
#631=EDGE_LOOP('',(#611,#620,#627,#628,#629,#630));
#632=FACE_OUTER_BOUND('',#631,.T.);
#633=ADVANCED_FACE('',(#632),#610,.T.);
#634=CARTESIAN_POINT('',(0.675000000000000,0.575000000000001,0.100000000000000));
#635=DIRECTION('',(1.0,0.0,0.0));
#636=DIRECTION('',(0.0,0.707106781186549,-0.707106781186546));
#637=AXIS2_PLACEMENT_3D('',#634,#635,#636);
#638=CYLINDRICAL_SURFACE('',#637,0.100000000000000);
#639=ORIENTED_EDGE('',*,*,#284,.T.);
#640=ORIENTED_EDGE('',*,*,#626,.T.);
#641=CARTESIAN_POINT('',(0.950000000000000,0.575000000000001,0.0));
#642=DIRECTION('',(-1.0,0.0,0.0));
#643=VECTOR('',#642,0.400000000000000);
#644=LINE('',#641,#643);
#645=EDGE_CURVE('',#613,#526,#644,.T.);
#646=ORIENTED_EDGE('',*,*,#645,.T.);
#647=ORIENTED_EDGE('',*,*,#532,.T.);
#648=EDGE_LOOP('',(#639,#640,#646,#647));
#649=FACE_OUTER_BOUND('',#648,.T.);
#650=ADVANCED_FACE('',(#649),#638,.T.);
#651=CARTESIAN_POINT('',(0.950000000000000,0.337500000000001,0.100000000000000));
#652=DIRECTION('',(0.0,-1.0,0.0));
#653=DIRECTION('',(0.707106781186546,0.0,-0.707106781186549));
#654=AXIS2_PLACEMENT_3D('',#651,#652,#653);
#655=CYLINDRICAL_SURFACE('',#654,0.100000000000000);
#656=ORIENTED_EDGE('',*,*,#242,.T.);
#657=ORIENTED_EDGE('',*,*,#598,.T.);
#658=CARTESIAN_POINT('',(0.950000000000000,-0.575000000000000,0.0));
#659=DIRECTION('',(0.0,1.0,0.0));
#660=VECTOR('',#659,1.150000000000001);
#661=LINE('',#658,#660);
#662=EDGE_CURVE('',#585,#613,#661,.T.);
#663=ORIENTED_EDGE('',*,*,#662,.T.);
#664=ORIENTED_EDGE('',*,*,#619,.F.);
#665=EDGE_LOOP('',(#656,#657,#663,#664));
#666=FACE_OUTER_BOUND('',#665,.T.);
#667=ADVANCED_FACE('',(#666),#655,.T.);
#668=CARTESIAN_POINT('',(0.925000000000000,-0.575000000000000,0.100000000000000));
#669=DIRECTION('',(-1.0,0.0,0.0));
#670=DIRECTION('',(0.0,-0.707106781186546,-0.707106781186549));
#671=AXIS2_PLACEMENT_3D('',#668,#669,#670);
#672=CYLINDRICAL_SURFACE('',#671,0.100000000000000);
#673=ORIENTED_EDGE('',*,*,#200,.T.);
#674=ORIENTED_EDGE('',*,*,#547,.T.);
#675=CARTESIAN_POINT('',(0.550000000000000,-0.575000000000000,0.0));
#676=DIRECTION('',(1.0,0.0,0.0));
#677=VECTOR('',#676,0.400000000000000);
#678=LINE('',#675,#677);
#679=EDGE_CURVE('',#535,#585,#678,.T.);
#680=ORIENTED_EDGE('',*,*,#679,.T.);
#681=ORIENTED_EDGE('',*,*,#591,.F.);
#682=EDGE_LOOP('',(#673,#674,#680,#681));
#683=FACE_OUTER_BOUND('',#682,.T.);
#684=ADVANCED_FACE('',(#683),#672,.T.);
#685=CARTESIAN_POINT('',(0.800000000000000,8.881784E-016,0.0));
#686=DIRECTION('',(0.0,0.0,1.0));
#687=DIRECTION('',(1.0,0.0,0.0));
#688=AXIS2_PLACEMENT_3D('',#685,#686,#687);
#689=PLANE('',#688);
#690=ORIENTED_EDGE('',*,*,#645,.F.);
#691=ORIENTED_EDGE('',*,*,#662,.F.);
#692=ORIENTED_EDGE('',*,*,#679,.F.);
#693=ORIENTED_EDGE('',*,*,#540,.T.);
#694=EDGE_LOOP('',(#690,#691,#692,#693));
#695=FACE_OUTER_BOUND('',#694,.T.);
#696=ADVANCED_FACE('',(#695),#689,.F.);
#697=CARTESIAN_POINT('',(0.800000000000000,9.325873E-016,1.300000000000000));
#698=DIRECTION('',(0.0,0.0,1.0));
#699=DIRECTION('',(1.0,0.0,0.0));
#700=AXIS2_PLACEMENT_3D('',#697,#698,#699);
#701=PLANE('',#700);
#702=ORIENTED_EDGE('',*,*,#175,.F.);
#703=ORIENTED_EDGE('',*,*,#563,.F.);
#704=ORIENTED_EDGE('',*,*,#95,.F.);
#705=ORIENTED_EDGE('',*,*,#135,.F.);
#706=EDGE_LOOP('',(#702,#703,#704,#705));
#707=FACE_OUTER_BOUND('',#706,.T.);
#708=ADVANCED_FACE('',(#707),#701,.T.);
#709=CARTESIAN_POINT('',(0.675000000000000,0.575000000000000,1.200000000000000));
#710=DIRECTION('',(1.0,0.0,0.0));
#711=DIRECTION('',(0.0,0.707106781186549,0.707106781186546));
#712=AXIS2_PLACEMENT_3D('',#709,#710,#711);
#713=CYLINDRICAL_SURFACE('',#712,0.100000000000000);
#714=ORIENTED_EDGE('',*,*,#160,.T.);
#715=CARTESIAN_POINT('',(0.950000000000000,0.575000000000000,1.200000000000000));
#716=DIRECTION('',(1.000000000000000,0.0,0.0));
#717=DIRECTION('',(0.0,0.707106781186549,0.707106781186546));
#718=AXIS2_PLACEMENT_3D('',#715,#716,#717);
#719=CIRCLE('',#718,0.100000000000000);
#720=EDGE_CURVE('',#376,#155,#719,.T.);
#721=ORIENTED_EDGE('',*,*,#720,.F.);
#722=ORIENTED_EDGE('',*,*,#411,.T.);
#723=ORIENTED_EDGE('',*,*,#571,.T.);
#724=EDGE_LOOP('',(#714,#721,#722,#723));
#725=FACE_OUTER_BOUND('',#724,.T.);
#726=ADVANCED_FACE('',(#725),#713,.T.);
#727=CARTESIAN_POINT('',(0.950000000000000,0.575000000000001,1.200000000000000));
#728=DIRECTION('',(0.0,0.0,1.0));
#729=DIRECTION('',(1.0,0.0,0.0));
#730=AXIS2_PLACEMENT_3D('',#727,#728,#729);
#731=SPHERICAL_SURFACE('',#730,0.100000000000000);
#732=ORIENTED_EDGE('',*,*,#129,.T.);
#733=CARTESIAN_POINT('',(0.950000000000000,0.575000000000001,1.200000000000000));
#734=DIRECTION('',(4.440892E-015,1.000000000000000,4.440892E-015));
#735=DIRECTION('',(0.707106781186546,-6.280370E-015,0.707106781186549));
#736=AXIS2_PLACEMENT_3D('',#733,#734,#735);
#737=CIRCLE('',#736,0.100000000000000);
#738=EDGE_CURVE('',#113,#424,#737,.T.);
#739=ORIENTED_EDGE('',*,*,#738,.T.);
#740=ORIENTED_EDGE('',*,*,#430,.F.);
#741=ORIENTED_EDGE('',*,*,#388,.F.);
#742=ORIENTED_EDGE('',*,*,#720,.T.);
#743=ORIENTED_EDGE('',*,*,#182,.T.);
#744=EDGE_LOOP('',(#732,#739,#740,#741,#742,#743));
#745=FACE_OUTER_BOUND('',#744,.T.);
#746=ADVANCED_FACE('',(#745),#731,.T.);
#747=CARTESIAN_POINT('',(0.950000000000000,-0.575000000000000,1.200000000000000));
#748=DIRECTION('',(0.0,0.0,1.0));
#749=DIRECTION('',(1.0,0.0,0.0));
#750=AXIS2_PLACEMENT_3D('',#747,#748,#749);
#751=SPHERICAL_SURFACE('',#750,0.100000000000000);
#752=ORIENTED_EDGE('',*,*,#87,.T.);
#753=CARTESIAN_POINT('',(0.950000000000000,-0.575000000000000,1.200000000000000));
#754=DIRECTION('',(1.000000000000000,0.0,0.0));
#755=DIRECTION('',(0.0,-0.707106781186546,0.707106781186549));
#756=AXIS2_PLACEMENT_3D('',#753,#754,#755);
#757=CIRCLE('',#756,0.100000000000000);
#758=EDGE_CURVE('',#71,#455,#757,.T.);
#759=ORIENTED_EDGE('',*,*,#758,.T.);
#760=ORIENTED_EDGE('',*,*,#461,.F.);
#761=ORIENTED_EDGE('',*,*,#348,.F.);
#762=CARTESIAN_POINT('',(0.950000000000000,-0.575000000000000,1.200000000000000));
#763=DIRECTION('',(0.0,-1.0,0.0));
#764=DIRECTION('',(0.0,0.0,1.0));
#765=AXIS2_PLACEMENT_3D('',#762,#763,#764);
#766=CIRCLE('',#765,0.100000000000000);
#767=EDGE_CURVE('',#115,#336,#766,.F.);
#768=ORIENTED_EDGE('',*,*,#767,.F.);
#769=ORIENTED_EDGE('',*,*,#142,.F.);
#770=EDGE_LOOP('',(#752,#759,#760,#761,#768,#769));
#771=FACE_OUTER_BOUND('',#770,.T.);
#772=ADVANCED_FACE('',(#771),#751,.T.);
#773=CARTESIAN_POINT('',(0.950000000000000,0.337500000000001,1.200000000000000));
#774=DIRECTION('',(0.0,-1.0,0.0));
#775=DIRECTION('',(0.707106781186546,0.0,0.707106781186549));
#776=AXIS2_PLACEMENT_3D('',#773,#774,#775);
#777=CYLINDRICAL_SURFACE('',#776,0.100000000000000);
#778=ORIENTED_EDGE('',*,*,#120,.T.);
#779=ORIENTED_EDGE('',*,*,#767,.T.);
#780=ORIENTED_EDGE('',*,*,#489,.T.);
#781=ORIENTED_EDGE('',*,*,#738,.F.);
#782=EDGE_LOOP('',(#778,#779,#780,#781));
#783=FACE_OUTER_BOUND('',#782,.T.);
#784=ADVANCED_FACE('',(#783),#777,.T.);
#785=CARTESIAN_POINT('',(0.925000000000000,-0.575000000000000,1.200000000000000));
#786=DIRECTION('',(-1.0,0.0,0.0));
#787=DIRECTION('',(0.0,-0.707106781186546,0.707106781186549));
#788=AXIS2_PLACEMENT_3D('',#785,#786,#787);
#789=CYLINDRICAL_SURFACE('',#788,0.100000000000000);
#790=ORIENTED_EDGE('',*,*,#78,.T.);
#791=ORIENTED_EDGE('',*,*,#556,.T.);
#792=ORIENTED_EDGE('',*,*,#509,.T.);
#793=ORIENTED_EDGE('',*,*,#758,.F.);
#794=EDGE_LOOP('',(#790,#791,#792,#793));
#795=FACE_OUTER_BOUND('',#794,.T.);
#796=ADVANCED_FACE('',(#795),#789,.T.);
#797=CLOSED_SHELL('',(#106,#146,#186,#228,#270,#312,#352,#392,#416,#447,#478,#495,#519,#577,#605,#633,#650,#667,#684,#696,#708,#726,#746,#772,#784,#796));
#798=MANIFOLD_SOLID_BREP('3C6',#797);
#799=COLOUR_RGB('254',0.866000000000000,0.866000000000000,0.866000000000000);
#800=SURFACE_STYLE_USAGE(.BOTH.,#801);
#801=SURFACE_SIDE_STYLE('NONE',(#802));
#802=SURFACE_STYLE_FILL_AREA(#803);
#803=FILL_AREA_STYLE('NONE',(#804));
#804=FILL_AREA_STYLE_COLOUR('NONE',#799);
#805=PRESENTATION_STYLE_ASSIGNMENT((#800));
#806=STYLED_ITEM('NONE',(#805),#798);
#807=MECHANICAL_DESIGN_GEOMETRIC_PRESENTATION_REPRESENTATION('NONE',(#806,#1246,#1982),#28);
#808=PRESENTATION_LAYER_ASSIGNMENT('Mechanical 14','None',(#798,#1981));
#809=CARTESIAN_POINT('',(0.275000000000000,-0.575000000000000,1.200000000000000));
#810=DIRECTION('',(-1.0,0.0,0.0));
#811=DIRECTION('',(0.0,-0.707106781186546,0.707106781186549));
#812=AXIS2_PLACEMENT_3D('',#809,#810,#811);
#813=CYLINDRICAL_SURFACE('',#812,0.100000000000000);
#814=CARTESIAN_POINT('',(0.550000000000000,-0.645710678118655,1.270710678118655));
#815=VERTEX_POINT('',#814);
#816=CARTESIAN_POINT('',(-0.549999999999999,-0.645710678118655,1.270710678118655));
#817=VERTEX_POINT('',#816);
#818=CARTESIAN_POINT('',(0.550000000000000,-0.645710678118655,1.270710678118655));
#819=DIRECTION('',(-1.0,0.0,0.0));
#820=VECTOR('',#819,1.099999999999999);
#821=LINE('',#818,#820);
#822=EDGE_CURVE('',#815,#817,#821,.T.);
#823=ORIENTED_EDGE('',*,*,#822,.F.);
#824=CARTESIAN_POINT('',(0.550000000000000,-0.575000000000000,1.300000000000000));
#825=VERTEX_POINT('',#824);
#826=CARTESIAN_POINT('',(0.550000000000000,-0.575000000000000,1.200000000000000));
#827=DIRECTION('',(-1.000000000000000,0.0,0.0));
#828=DIRECTION('',(0.0,-0.707106781186546,0.707106781186549));
#829=AXIS2_PLACEMENT_3D('',#826,#827,#828);
#830=CIRCLE('',#829,0.100000000000000);
#831=EDGE_CURVE('',#815,#825,#830,.T.);
#832=ORIENTED_EDGE('',*,*,#831,.T.);
#833=CARTESIAN_POINT('',(-0.549999999999999,-0.575000000000000,1.300000000000000));
#834=VERTEX_POINT('',#833);
#835=CARTESIAN_POINT('',(0.550000000000000,-0.575000000000000,1.300000000000000));
#836=DIRECTION('',(-1.0,0.0,0.0));
#837=VECTOR('',#836,1.099999999999999);
#838=LINE('',#835,#837);
#839=EDGE_CURVE('',#825,#834,#838,.T.);
#840=ORIENTED_EDGE('',*,*,#839,.T.);
#841=CARTESIAN_POINT('',(-0.549999999999999,-0.575000000000000,1.200000000000000));
#842=DIRECTION('',(1.000000000000000,0.0,0.0));
#843=DIRECTION('',(0.0,-0.707106781186546,0.707106781186549));
#844=AXIS2_PLACEMENT_3D('',#841,#842,#843);
#845=CIRCLE('',#844,0.100000000000000);
#846=EDGE_CURVE('',#834,#817,#845,.T.);
#847=ORIENTED_EDGE('',*,*,#846,.T.);
#848=EDGE_LOOP('',(#823,#832,#840,#847));
#849=FACE_OUTER_BOUND('',#848,.T.);
#850=ADVANCED_FACE('',(#849),#813,.T.);
#851=CARTESIAN_POINT('',(-0.274999999999999,0.575000000000000,1.200000000000000));
#852=DIRECTION('',(1.0,0.0,0.0));
#853=DIRECTION('',(0.0,0.707106781186549,0.707106781186546));
#854=AXIS2_PLACEMENT_3D('',#851,#852,#853);
#855=CYLINDRICAL_SURFACE('',#854,0.100000000000000);
#856=CARTESIAN_POINT('',(-0.549999999999999,0.645710678118655,1.270710678118655));
#857=VERTEX_POINT('',#856);
#858=CARTESIAN_POINT('',(0.550000000000000,0.645710678118655,1.270710678118655));
#859=VERTEX_POINT('',#858);
#860=CARTESIAN_POINT('',(-0.549999999999999,0.645710678118655,1.270710678118655));
#861=DIRECTION('',(1.0,0.0,0.0));
#862=VECTOR('',#861,1.099999999999999);
#863=LINE('',#860,#862);
#864=EDGE_CURVE('',#857,#859,#863,.T.);
#865=ORIENTED_EDGE('',*,*,#864,.F.);
#866=CARTESIAN_POINT('',(-0.549999999999999,0.575000000000000,1.300000000000000));
#867=VERTEX_POINT('',#866);
#868=CARTESIAN_POINT('',(-0.549999999999999,0.575000000000000,1.200000000000000));
#869=DIRECTION('',(1.000000000000000,0.0,0.0));
#870=DIRECTION('',(0.0,0.707106781186549,0.707106781186546));
#871=AXIS2_PLACEMENT_3D('',#868,#869,#870);
#872=CIRCLE('',#871,0.100000000000000);
#873=EDGE_CURVE('',#857,#867,#872,.T.);
#874=ORIENTED_EDGE('',*,*,#873,.T.);
#875=CARTESIAN_POINT('',(0.550000000000000,0.575000000000000,1.300000000000000));
#876=VERTEX_POINT('',#875);
#877=CARTESIAN_POINT('',(-0.549999999999999,0.575000000000000,1.300000000000000));
#878=DIRECTION('',(1.0,0.0,0.0));
#879=VECTOR('',#878,1.099999999999999);
#880=LINE('',#877,#879);
#881=EDGE_CURVE('',#867,#876,#880,.T.);
#882=ORIENTED_EDGE('',*,*,#881,.T.);
#883=CARTESIAN_POINT('',(0.550000000000000,0.575000000000000,1.200000000000000));
#884=DIRECTION('',(-1.000000000000000,0.0,0.0));
#885=DIRECTION('',(0.0,0.707106781186549,0.707106781186546));
#886=AXIS2_PLACEMENT_3D('',#883,#884,#885);
#887=CIRCLE('',#886,0.100000000000000);
#888=EDGE_CURVE('',#876,#859,#887,.T.);
#889=ORIENTED_EDGE('',*,*,#888,.T.);
#890=EDGE_LOOP('',(#865,#874,#882,#889));
#891=FACE_OUTER_BOUND('',#890,.T.);
#892=ADVANCED_FACE('',(#891),#855,.T.);
#893=CARTESIAN_POINT('',(-0.274999999999999,0.575000000000001,0.100000000000000));
#894=DIRECTION('',(1.0,0.0,0.0));
#895=DIRECTION('',(0.0,0.707106781186549,-0.707106781186546));
#896=AXIS2_PLACEMENT_3D('',#893,#894,#895);
#897=CYLINDRICAL_SURFACE('',#896,0.100000000000000);
#898=CARTESIAN_POINT('',(-0.549999999999999,0.645710678118656,0.029289321881345));
#899=VERTEX_POINT('',#898);
#900=CARTESIAN_POINT('',(0.550000000000000,0.645710678118656,0.029289321881345));
#901=VERTEX_POINT('',#900);
#902=CARTESIAN_POINT('',(-0.549999999999999,0.645710678118656,0.029289321881345));
#903=DIRECTION('',(1.0,0.0,0.0));
#904=VECTOR('',#903,1.099999999999999);
#905=LINE('',#902,#904);
#906=EDGE_CURVE('',#899,#901,#905,.T.);
#907=ORIENTED_EDGE('',*,*,#906,.F.);
#908=CARTESIAN_POINT('',(-0.549999999999999,0.675000000000001,0.100000000000000));
#909=VERTEX_POINT('',#908);
#910=CARTESIAN_POINT('',(-0.549999999999999,0.575000000000001,0.100000000000000));
#911=DIRECTION('',(1.000000000000000,0.0,0.0));
#912=DIRECTION('',(0.0,0.707106781186549,-0.707106781186546));
#913=AXIS2_PLACEMENT_3D('',#910,#911,#912);
#914=CIRCLE('',#913,0.100000000000000);
#915=EDGE_CURVE('',#899,#909,#914,.T.);
#916=ORIENTED_EDGE('',*,*,#915,.T.);
#917=CARTESIAN_POINT('',(0.550000000000000,0.675000000000001,0.100000000000000));
#918=VERTEX_POINT('',#917);
#919=CARTESIAN_POINT('',(-0.549999999999999,0.675000000000001,0.100000000000000));
#920=DIRECTION('',(1.0,0.0,0.0));
#921=VECTOR('',#920,1.099999999999999);
#922=LINE('',#919,#921);
#923=EDGE_CURVE('',#909,#918,#922,.T.);
#924=ORIENTED_EDGE('',*,*,#923,.T.);
#925=CARTESIAN_POINT('',(0.550000000000000,0.575000000000001,0.100000000000000));
#926=DIRECTION('',(-1.000000000000000,0.0,0.0));
#927=DIRECTION('',(0.0,0.707106781186549,-0.707106781186546));
#928=AXIS2_PLACEMENT_3D('',#925,#926,#927);
#929=CIRCLE('',#928,0.100000000000000);
#930=EDGE_CURVE('',#918,#901,#929,.T.);
#931=ORIENTED_EDGE('',*,*,#930,.T.);
#932=EDGE_LOOP('',(#907,#916,#924,#931));
#933=FACE_OUTER_BOUND('',#932,.T.);
#934=ADVANCED_FACE('',(#933),#897,.T.);
#935=CARTESIAN_POINT('',(0.275000000000000,-0.575000000000000,0.100000000000000));
#936=DIRECTION('',(-1.0,0.0,0.0));
#937=DIRECTION('',(0.0,-0.707106781186546,-0.707106781186549));
#938=AXIS2_PLACEMENT_3D('',#935,#936,#937);
#939=CYLINDRICAL_SURFACE('',#938,0.100000000000000);
#940=CARTESIAN_POINT('',(0.550000000000000,-0.645710678118655,0.029289321881345));
#941=VERTEX_POINT('',#940);
#942=CARTESIAN_POINT('',(-0.549999999999999,-0.645710678118655,0.029289321881345));
#943=VERTEX_POINT('',#942);
#944=CARTESIAN_POINT('',(0.550000000000000,-0.645710678118655,0.029289321881345));
#945=DIRECTION('',(-1.0,0.0,0.0));
#946=VECTOR('',#945,1.099999999999999);
#947=LINE('',#944,#946);
#948=EDGE_CURVE('',#941,#943,#947,.T.);
#949=ORIENTED_EDGE('',*,*,#948,.F.);
#950=CARTESIAN_POINT('',(0.550000000000000,-0.675000000000000,0.100000000000000));
#951=VERTEX_POINT('',#950);
#952=CARTESIAN_POINT('',(0.550000000000000,-0.575000000000000,0.100000000000000));
#953=DIRECTION('',(-1.0,0.0,0.0));
#954=DIRECTION('',(0.0,-0.707106781186546,-0.707106781186549));
#955=AXIS2_PLACEMENT_3D('',#952,#953,#954);
#956=CIRCLE('',#955,0.100000000000000);
#957=EDGE_CURVE('',#941,#951,#956,.T.);
#958=ORIENTED_EDGE('',*,*,#957,.T.);
#959=CARTESIAN_POINT('',(-0.549999999999999,-0.675000000000000,0.100000000000000));
#960=VERTEX_POINT('',#959);
#961=CARTESIAN_POINT('',(0.550000000000000,-0.675000000000000,0.100000000000000));
#962=DIRECTION('',(-1.0,0.0,0.0));
#963=VECTOR('',#962,1.099999999999999);
#964=LINE('',#961,#963);
#965=EDGE_CURVE('',#951,#960,#964,.T.);
#966=ORIENTED_EDGE('',*,*,#965,.T.);
#967=CARTESIAN_POINT('',(-0.549999999999999,-0.575000000000000,0.100000000000000));
#968=DIRECTION('',(1.0,0.0,0.0));
#969=DIRECTION('',(0.0,-0.707106781186546,-0.707106781186549));
#970=AXIS2_PLACEMENT_3D('',#967,#968,#969);
#971=CIRCLE('',#970,0.100000000000000);
#972=EDGE_CURVE('',#960,#943,#971,.T.);
#973=ORIENTED_EDGE('',*,*,#972,.T.);
#974=EDGE_LOOP('',(#949,#958,#966,#973));
#975=FACE_OUTER_BOUND('',#974,.T.);
#976=ADVANCED_FACE('',(#975),#939,.T.);
#977=CARTESIAN_POINT('',(0.550000000000000,-0.675000000000000,0.0));
#978=DIRECTION('',(0.0,-1.0,0.0));
#979=DIRECTION('',(0.0,0.0,-1.0));
#980=AXIS2_PLACEMENT_3D('',#977,#978,#979);
#981=PLANE('',#980);
#982=ORIENTED_EDGE('',*,*,#965,.F.);
#983=CARTESIAN_POINT('',(0.550000000000000,-0.675000000000000,1.200000000000000));
#984=VERTEX_POINT('',#983);
#985=CARTESIAN_POINT('',(0.550000000000000,-0.675000000000000,0.100000000000000));
#986=DIRECTION('',(0.0,0.0,1.0));
#987=VECTOR('',#986,1.100000000000000);
#988=LINE('',#985,#987);
#989=EDGE_CURVE('',#951,#984,#988,.T.);
#990=ORIENTED_EDGE('',*,*,#989,.T.);
#991=CARTESIAN_POINT('',(-0.549999999999999,-0.675000000000000,1.200000000000000));
#992=VERTEX_POINT('',#991);
#993=CARTESIAN_POINT('',(-0.549999999999999,-0.675000000000000,1.200000000000000));
#994=DIRECTION('',(1.0,0.0,0.0));
#995=VECTOR('',#994,1.099999999999999);
#996=LINE('',#993,#995);
#997=EDGE_CURVE('',#992,#984,#996,.T.);
#998=ORIENTED_EDGE('',*,*,#997,.F.);
#999=CARTESIAN_POINT('',(-0.549999999999999,-0.675000000000000,0.100000000000000));
#1000=DIRECTION('',(0.0,0.0,1.0));
#1001=VECTOR('',#1000,1.100000000000000);
#1002=LINE('',#999,#1001);
#1003=EDGE_CURVE('',#960,#992,#1002,.T.);
#1004=ORIENTED_EDGE('',*,*,#1003,.F.);
#1005=EDGE_LOOP('',(#982,#990,#998,#1004));
#1006=FACE_OUTER_BOUND('',#1005,.T.);
#1007=ADVANCED_FACE('',(#1006),#981,.T.);
#1008=CARTESIAN_POINT('',(-0.549999999999999,-0.675000000000000,0.0));
#1009=DIRECTION('',(-1.0,0.0,0.0));
#1010=DIRECTION('',(0.0,0.0,1.0));
#1011=AXIS2_PLACEMENT_3D('',#1008,#1009,#1010);
#1012=PLANE('',#1011);
#1013=ORIENTED_EDGE('',*,*,#972,.F.);
#1014=ORIENTED_EDGE('',*,*,#1003,.T.);
#1015=CARTESIAN_POINT('',(-0.549999999999999,-0.575000000000000,1.200000000000000));
#1016=DIRECTION('',(1.000000000000000,0.0,0.0));
#1017=DIRECTION('',(0.0,-0.707106781186546,0.707106781186549));
#1018=AXIS2_PLACEMENT_3D('',#1015,#1016,#1017);
#1019=CIRCLE('',#1018,0.100000000000000);
#1020=EDGE_CURVE('',#817,#992,#1019,.T.);
#1021=ORIENTED_EDGE('',*,*,#1020,.F.);
#1022=ORIENTED_EDGE('',*,*,#846,.F.);
#1023=CARTESIAN_POINT('',(-0.549999999999999,-0.575000000000000,1.300000000000000));
#1024=DIRECTION('',(0.0,1.0,0.0));
#1025=VECTOR('',#1024,1.150000000000000);
#1026=LINE('',#1023,#1025);
#1027=EDGE_CURVE('',#834,#867,#1026,.T.);
#1028=ORIENTED_EDGE('',*,*,#1027,.T.);
#1029=ORIENTED_EDGE('',*,*,#873,.F.);
#1030=CARTESIAN_POINT('',(-0.549999999999999,0.675000000000001,1.200000000000000));
#1031=VERTEX_POINT('',#1030);
#1032=CARTESIAN_POINT('',(-0.549999999999999,0.575000000000000,1.200000000000000));
#1033=DIRECTION('',(1.000000000000000,0.0,0.0));
#1034=DIRECTION('',(0.0,0.707106781186549,0.707106781186546));
#1035=AXIS2_PLACEMENT_3D('',#1032,#1033,#1034);
#1036=CIRCLE('',#1035,0.100000000000000);
#1037=EDGE_CURVE('',#1031,#857,#1036,.T.);
#1038=ORIENTED_EDGE('',*,*,#1037,.F.);
#1039=CARTESIAN_POINT('',(-0.549999999999999,0.675000000000001,0.100000000000000));
#1040=DIRECTION('',(0.0,0.0,1.0));
#1041=VECTOR('',#1040,1.100000000000000);
#1042=LINE('',#1039,#1041);
#1043=EDGE_CURVE('',#909,#1031,#1042,.T.);
#1044=ORIENTED_EDGE('',*,*,#1043,.F.);
#1045=ORIENTED_EDGE('',*,*,#915,.F.);
#1046=CARTESIAN_POINT('',(-0.549999999999999,0.575000000000001,0.0));
#1047=VERTEX_POINT('',#1046);
#1048=CARTESIAN_POINT('',(-0.549999999999999,0.575000000000001,0.100000000000000));
#1049=DIRECTION('',(1.000000000000000,0.0,0.0));
#1050=DIRECTION('',(0.0,0.707106781186549,-0.707106781186546));
#1051=AXIS2_PLACEMENT_3D('',#1048,#1049,#1050);
#1052=CIRCLE('',#1051,0.100000000000000);
#1053=EDGE_CURVE('',#1047,#899,#1052,.T.);
#1054=ORIENTED_EDGE('',*,*,#1053,.F.);
#1055=CARTESIAN_POINT('',(-0.549999999999999,-0.575000000000000,0.0));
#1056=VERTEX_POINT('',#1055);
#1057=CARTESIAN_POINT('',(-0.549999999999999,-0.575000000000000,0.0));
#1058=DIRECTION('',(0.0,1.0,0.0));
#1059=VECTOR('',#1058,1.150000000000001);
#1060=LINE('',#1057,#1059);
#1061=EDGE_CURVE('',#1056,#1047,#1060,.T.);
#1062=ORIENTED_EDGE('',*,*,#1061,.F.);
#1063=CARTESIAN_POINT('',(-0.549999999999999,-0.575000000000000,0.100000000000000));
#1064=DIRECTION('',(1.0,0.0,0.0));
#1065=DIRECTION('',(0.0,-0.707106781186546,-0.707106781186549));
#1066=AXIS2_PLACEMENT_3D('',#1063,#1064,#1065);
#1067=CIRCLE('',#1066,0.100000000000000);
#1068=EDGE_CURVE('',#943,#1056,#1067,.T.);
#1069=ORIENTED_EDGE('',*,*,#1068,.F.);
#1070=EDGE_LOOP('',(#1013,#1014,#1021,#1022,#1028,#1029,#1038,#1044,#1045,#1054,#1062,#1069));
#1071=FACE_OUTER_BOUND('',#1070,.T.);
#1072=ADVANCED_FACE('',(#1071),#1012,.T.);
#1073=CARTESIAN_POINT('',(-0.549999999999999,0.675000000000001,0.0));
#1074=DIRECTION('',(0.0,1.0,0.0));
#1075=DIRECTION('',(0.0,0.0,1.0));
#1076=AXIS2_PLACEMENT_3D('',#1073,#1074,#1075);
#1077=PLANE('',#1076);
#1078=ORIENTED_EDGE('',*,*,#923,.F.);
#1079=ORIENTED_EDGE('',*,*,#1043,.T.);
#1080=CARTESIAN_POINT('',(0.550000000000000,0.675000000000001,1.200000000000000));
#1081=VERTEX_POINT('',#1080);
#1082=CARTESIAN_POINT('',(0.550000000000000,0.675000000000001,1.200000000000000));
#1083=DIRECTION('',(-1.0,0.0,0.0));
#1084=VECTOR('',#1083,1.099999999999999);
#1085=LINE('',#1082,#1084);
#1086=EDGE_CURVE('',#1081,#1031,#1085,.T.);
#1087=ORIENTED_EDGE('',*,*,#1086,.F.);
#1088=CARTESIAN_POINT('',(0.550000000000000,0.675000000000001,0.100000000000000));
#1089=DIRECTION('',(0.0,0.0,1.0));
#1090=VECTOR('',#1089,1.100000000000000);
#1091=LINE('',#1088,#1090);
#1092=EDGE_CURVE('',#918,#1081,#1091,.T.);
#1093=ORIENTED_EDGE('',*,*,#1092,.F.);
#1094=EDGE_LOOP('',(#1078,#1079,#1087,#1093));
#1095=FACE_OUTER_BOUND('',#1094,.T.);
#1096=ADVANCED_FACE('',(#1095),#1077,.T.);
#1097=CARTESIAN_POINT('',(0.550000000000000,0.675000000000001,0.0));
#1098=DIRECTION('',(1.0,0.0,0.0));
#1099=DIRECTION('',(0.0,0.0,-1.0));
#1100=AXIS2_PLACEMENT_3D('',#1097,#1098,#1099);
#1101=PLANE('',#1100);
#1102=CARTESIAN_POINT('',(0.550000000000000,-0.575000000000000,0.0));
#1103=VERTEX_POINT('',#1102);
#1104=CARTESIAN_POINT('',(0.550000000000000,-0.575000000000000,0.100000000000000));
#1105=DIRECTION('',(-1.0,0.0,0.0));
#1106=DIRECTION('',(0.0,-0.707106781186546,-0.707106781186549));
#1107=AXIS2_PLACEMENT_3D('',#1104,#1105,#1106);
#1108=CIRCLE('',#1107,0.100000000000000);
#1109=EDGE_CURVE('',#1103,#941,#1108,.T.);
#1110=ORIENTED_EDGE('',*,*,#1109,.F.);
#1111=CARTESIAN_POINT('',(0.550000000000000,0.575000000000001,0.0));
#1112=VERTEX_POINT('',#1111);
#1113=CARTESIAN_POINT('',(0.550000000000000,0.575000000000001,0.0));
#1114=DIRECTION('',(0.0,-1.0,0.0));
#1115=VECTOR('',#1114,1.150000000000001);
#1116=LINE('',#1113,#1115);
#1117=EDGE_CURVE('',#1112,#1103,#1116,.T.);
#1118=ORIENTED_EDGE('',*,*,#1117,.F.);
#1119=CARTESIAN_POINT('',(0.550000000000000,0.575000000000001,0.100000000000000));
#1120=DIRECTION('',(-1.000000000000000,0.0,0.0));
#1121=DIRECTION('',(0.0,0.707106781186549,-0.707106781186546));
#1122=AXIS2_PLACEMENT_3D('',#1119,#1120,#1121);
#1123=CIRCLE('',#1122,0.100000000000000);
#1124=EDGE_CURVE('',#901,#1112,#1123,.T.);
#1125=ORIENTED_EDGE('',*,*,#1124,.F.);
#1126=ORIENTED_EDGE('',*,*,#930,.F.);
#1127=ORIENTED_EDGE('',*,*,#1092,.T.);
#1128=CARTESIAN_POINT('',(0.550000000000000,0.575000000000000,1.200000000000000));
#1129=DIRECTION('',(-1.000000000000000,0.0,0.0));
#1130=DIRECTION('',(0.0,0.707106781186549,0.707106781186546));
#1131=AXIS2_PLACEMENT_3D('',#1128,#1129,#1130);
#1132=CIRCLE('',#1131,0.100000000000000);
#1133=EDGE_CURVE('',#859,#1081,#1132,.T.);
#1134=ORIENTED_EDGE('',*,*,#1133,.F.);
#1135=ORIENTED_EDGE('',*,*,#888,.F.);
#1136=CARTESIAN_POINT('',(0.550000000000000,0.575000000000000,1.300000000000000));
#1137=DIRECTION('',(0.0,-1.0,0.0));
#1138=VECTOR('',#1137,1.150000000000000);
#1139=LINE('',#1136,#1138);
#1140=EDGE_CURVE('',#876,#825,#1139,.T.);
#1141=ORIENTED_EDGE('',*,*,#1140,.T.);
#1142=ORIENTED_EDGE('',*,*,#831,.F.);
#1143=CARTESIAN_POINT('',(0.550000000000000,-0.575000000000000,1.200000000000000));
#1144=DIRECTION('',(-1.000000000000000,0.0,0.0));
#1145=DIRECTION('',(0.0,-0.707106781186546,0.707106781186549));
#1146=AXIS2_PLACEMENT_3D('',#1143,#1144,#1145);
#1147=CIRCLE('',#1146,0.100000000000000);
#1148=EDGE_CURVE('',#984,#815,#1147,.T.);
#1149=ORIENTED_EDGE('',*,*,#1148,.F.);
#1150=ORIENTED_EDGE('',*,*,#989,.F.);
#1151=ORIENTED_EDGE('',*,*,#957,.F.);
#1152=EDGE_LOOP('',(#1110,#1118,#1125,#1126,#1127,#1134,#1135,#1141,#1142,#1149,#1150,#1151));
#1153=FACE_OUTER_BOUND('',#1152,.T.);
#1154=ADVANCED_FACE('',(#1153),#1101,.T.);
#1155=CARTESIAN_POINT('',(0.275000000000000,-0.575000000000000,0.100000000000000));
#1156=DIRECTION('',(-1.0,0.0,0.0));
#1157=DIRECTION('',(0.0,-0.707106781186546,-0.707106781186549));
#1158=AXIS2_PLACEMENT_3D('',#1155,#1156,#1157);
#1159=CYLINDRICAL_SURFACE('',#1158,0.100000000000000);
#1160=ORIENTED_EDGE('',*,*,#948,.T.);
#1161=ORIENTED_EDGE('',*,*,#1068,.T.);
#1162=CARTESIAN_POINT('',(-0.549999999999999,-0.575000000000000,0.0));
#1163=DIRECTION('',(1.0,0.0,0.0));
#1164=VECTOR('',#1163,1.099999999999999);
#1165=LINE('',#1162,#1164);
#1166=EDGE_CURVE('',#1056,#1103,#1165,.T.);
#1167=ORIENTED_EDGE('',*,*,#1166,.T.);
#1168=ORIENTED_EDGE('',*,*,#1109,.T.);
#1169=EDGE_LOOP('',(#1160,#1161,#1167,#1168));
#1170=FACE_OUTER_BOUND('',#1169,.T.);
#1171=ADVANCED_FACE('',(#1170),#1159,.T.);
#1172=CARTESIAN_POINT('',(-0.274999999999999,0.575000000000001,0.100000000000000));
#1173=DIRECTION('',(1.0,0.0,0.0));
#1174=DIRECTION('',(0.0,0.707106781186549,-0.707106781186546));
#1175=AXIS2_PLACEMENT_3D('',#1172,#1173,#1174);
#1176=CYLINDRICAL_SURFACE('',#1175,0.100000000000000);
#1177=ORIENTED_EDGE('',*,*,#906,.T.);
#1178=ORIENTED_EDGE('',*,*,#1124,.T.);
#1179=CARTESIAN_POINT('',(0.550000000000000,0.575000000000001,0.0));
#1180=DIRECTION('',(-1.0,0.0,0.0));
#1181=VECTOR('',#1180,1.099999999999999);
#1182=LINE('',#1179,#1181);
#1183=EDGE_CURVE('',#1112,#1047,#1182,.T.);
#1184=ORIENTED_EDGE('',*,*,#1183,.T.);
#1185=ORIENTED_EDGE('',*,*,#1053,.T.);
#1186=EDGE_LOOP('',(#1177,#1178,#1184,#1185));
#1187=FACE_OUTER_BOUND('',#1186,.T.);
#1188=ADVANCED_FACE('',(#1187),#1176,.T.);
#1189=CARTESIAN_POINT('',(8.881784E-016,8.881784E-016,0.0));
#1190=DIRECTION('',(0.0,0.0,1.0));
#1191=DIRECTION('',(1.0,0.0,0.0));
#1192=AXIS2_PLACEMENT_3D('',#1189,#1190,#1191);
#1193=PLANE('',#1192);
#1194=ORIENTED_EDGE('',*,*,#1166,.F.);
#1195=ORIENTED_EDGE('',*,*,#1061,.T.);
#1196=ORIENTED_EDGE('',*,*,#1183,.F.);
#1197=ORIENTED_EDGE('',*,*,#1117,.T.);
#1198=EDGE_LOOP('',(#1194,#1195,#1196,#1197));
#1199=FACE_OUTER_BOUND('',#1198,.T.);
#1200=ADVANCED_FACE('',(#1199),#1193,.F.);
#1201=CARTESIAN_POINT('',(8.881784E-016,9.325873E-016,1.300000000000000));
#1202=DIRECTION('',(0.0,0.0,1.0));
#1203=DIRECTION('',(1.0,0.0,0.0));
#1204=AXIS2_PLACEMENT_3D('',#1201,#1202,#1203);
#1205=PLANE('',#1204);
#1206=ORIENTED_EDGE('',*,*,#881,.F.);
#1207=ORIENTED_EDGE('',*,*,#1027,.F.);
#1208=ORIENTED_EDGE('',*,*,#839,.F.);
#1209=ORIENTED_EDGE('',*,*,#1140,.F.);
#1210=EDGE_LOOP('',(#1206,#1207,#1208,#1209));
#1211=FACE_OUTER_BOUND('',#1210,.T.);
#1212=ADVANCED_FACE('',(#1211),#1205,.T.);
#1213=CARTESIAN_POINT('',(-0.274999999999999,0.575000000000000,1.200000000000000));
#1214=DIRECTION('',(1.0,0.0,0.0));
#1215=DIRECTION('',(0.0,0.707106781186549,0.707106781186546));
#1216=AXIS2_PLACEMENT_3D('',#1213,#1214,#1215);
#1217=CYLINDRICAL_SURFACE('',#1216,0.100000000000000);
#1218=ORIENTED_EDGE('',*,*,#864,.T.);
#1219=ORIENTED_EDGE('',*,*,#1133,.T.);
#1220=ORIENTED_EDGE('',*,*,#1086,.T.);
#1221=ORIENTED_EDGE('',*,*,#1037,.T.);
#1222=EDGE_LOOP('',(#1218,#1219,#1220,#1221));
#1223=FACE_OUTER_BOUND('',#1222,.T.);
#1224=ADVANCED_FACE('',(#1223),#1217,.T.);
#1225=CARTESIAN_POINT('',(0.275000000000000,-0.575000000000000,1.200000000000000));
#1226=DIRECTION('',(-1.0,0.0,0.0));
#1227=DIRECTION('',(0.0,-0.707106781186546,0.707106781186549));
#1228=AXIS2_PLACEMENT_3D('',#1225,#1226,#1227);
#1229=CYLINDRICAL_SURFACE('',#1228,0.100000000000000);
#1230=ORIENTED_EDGE('',*,*,#822,.T.);
#1231=ORIENTED_EDGE('',*,*,#1020,.T.);
#1232=ORIENTED_EDGE('',*,*,#997,.T.);
#1233=ORIENTED_EDGE('',*,*,#1148,.T.);
#1234=EDGE_LOOP('',(#1230,#1231,#1232,#1233));
#1235=FACE_OUTER_BOUND('',#1234,.T.);
#1236=ADVANCED_FACE('',(#1235),#1229,.T.);
#1237=CLOSED_SHELL('',(#850,#892,#934,#976,#1007,#1072,#1096,#1154,#1171,#1188,#1200,#1212,#1224,#1236));
#1238=MANIFOLD_SOLID_BREP('3C5',#1237);
#1239=COLOUR_RGB('35',0.500000000000000,0.375000000000000,0.250000000000000);
#1240=SURFACE_STYLE_USAGE(.BOTH.,#1241);
#1241=SURFACE_SIDE_STYLE('NONE',(#1242));
#1242=SURFACE_STYLE_FILL_AREA(#1243);
#1243=FILL_AREA_STYLE('NONE',(#1244));
#1244=FILL_AREA_STYLE_COLOUR('NONE',#1239);
#1245=PRESENTATION_STYLE_ASSIGNMENT((#1240));
#1246=STYLED_ITEM('NONE',(#1245),#1238);
#1247=PRESENTATION_LAYER_ASSIGNMENT('3D','None',(#1238));
#1248=CARTESIAN_POINT('',(-0.925000000000000,0.575000000000000,0.100000000000000));
#1249=DIRECTION('',(1.0,8.881784E-016,0.0));
#1250=DIRECTION('',(0.0,0.707106781186546,-0.707106781186549));
#1251=AXIS2_PLACEMENT_3D('',#1248,#1249,#1250);
#1252=CYLINDRICAL_SURFACE('',#1251,0.100000000000000);
#1253=CARTESIAN_POINT('',(-0.949999999999999,0.645710678118655,0.029289321881345));
#1254=VERTEX_POINT('',#1253);
#1255=CARTESIAN_POINT('',(-0.549999999999999,0.645710678118655,0.029289321881345));
#1256=VERTEX_POINT('',#1255);
#1257=CARTESIAN_POINT('',(-0.949999999999999,0.645710678118655,0.029289321881345));
#1258=DIRECTION('',(1.0,0.0,0.0));
#1259=VECTOR('',#1258,0.400000000000000);
#1260=LINE('',#1257,#1259);
#1261=EDGE_CURVE('',#1254,#1256,#1260,.T.);
#1262=ORIENTED_EDGE('',*,*,#1261,.F.);
#1263=CARTESIAN_POINT('',(-0.949999999999999,0.675000000000000,0.100000000000000));
#1264=VERTEX_POINT('',#1263);
#1265=CARTESIAN_POINT('',(-0.949999999999999,0.575000000000000,0.100000000000000));
#1266=DIRECTION('',(-1.0,0.0,0.0));
#1267=DIRECTION('',(0.0,0.707106781186546,-0.707106781186549));
#1268=AXIS2_PLACEMENT_3D('',#1265,#1266,#1267);
#1269=CIRCLE('',#1268,0.100000000000000);
#1270=EDGE_CURVE('',#1264,#1254,#1269,.T.);
#1271=ORIENTED_EDGE('',*,*,#1270,.F.);
#1272=CARTESIAN_POINT('',(-0.549999999999999,0.675000000000001,0.100000000000000));
#1273=VERTEX_POINT('',#1272);
#1274=CARTESIAN_POINT('',(-0.949999999999999,0.675000000000000,0.100000000000000));
#1275=DIRECTION('',(1.0,0.0,0.0));
#1276=VECTOR('',#1275,0.400000000000000);
#1277=LINE('',#1274,#1276);
#1278=EDGE_CURVE('',#1264,#1273,#1277,.T.);
#1279=ORIENTED_EDGE('',*,*,#1278,.T.);
#1280=CARTESIAN_POINT('',(-0.549999999999999,0.575000000000001,0.100000000000000));
#1281=DIRECTION('',(-1.0,0.0,0.0));
#1282=DIRECTION('',(0.0,0.707106781186546,-0.707106781186549));
#1283=AXIS2_PLACEMENT_3D('',#1280,#1281,#1282);
#1284=CIRCLE('',#1283,0.100000000000000);
#1285=EDGE_CURVE('',#1273,#1256,#1284,.T.);
#1286=ORIENTED_EDGE('',*,*,#1285,.T.);
#1287=EDGE_LOOP('',(#1262,#1271,#1279,#1286));
#1288=FACE_OUTER_BOUND('',#1287,.T.);
#1289=ADVANCED_FACE('',(#1288),#1252,.T.);
#1290=CARTESIAN_POINT('',(-0.949999999999999,-0.337499999999999,0.100000000000000));
#1291=DIRECTION('',(0.0,1.0,0.0));
#1292=DIRECTION('',(-0.707106781186546,0.0,-0.707106781186549));
#1293=AXIS2_PLACEMENT_3D('',#1290,#1291,#1292);
#1294=CYLINDRICAL_SURFACE('',#1293,0.100000000000000);
#1295=CARTESIAN_POINT('',(-1.020710678118654,-0.575000000000000,0.029289321881345));
#1296=VERTEX_POINT('',#1295);
#1297=CARTESIAN_POINT('',(-1.020710678118654,0.575000000000000,0.029289321881345));
#1298=VERTEX_POINT('',#1297);
#1299=CARTESIAN_POINT('',(-1.020710678118654,-0.575000000000000,0.029289321881345));
#1300=DIRECTION('',(0.0,1.0,0.0));
#1301=VECTOR('',#1300,1.150000000000000);
#1302=LINE('',#1299,#1301);
#1303=EDGE_CURVE('',#1296,#1298,#1302,.T.);
#1304=ORIENTED_EDGE('',*,*,#1303,.F.);
#1305=CARTESIAN_POINT('',(-1.049999999999999,-0.575000000000000,0.100000000000000));
#1306=VERTEX_POINT('',#1305);
#1307=CARTESIAN_POINT('',(-0.949999999999999,-0.575000000000000,0.100000000000000));
#1308=DIRECTION('',(0.0,-1.0,0.0));
#1309=DIRECTION('',(-0.707106781186546,0.0,-0.707106781186549));
#1310=AXIS2_PLACEMENT_3D('',#1307,#1308,#1309);
#1311=CIRCLE('',#1310,0.100000000000000);
#1312=EDGE_CURVE('',#1306,#1296,#1311,.T.);
#1313=ORIENTED_EDGE('',*,*,#1312,.F.);
#1314=CARTESIAN_POINT('',(-1.049999999999999,0.575000000000000,0.100000000000000));
#1315=VERTEX_POINT('',#1314);
#1316=CARTESIAN_POINT('',(-1.049999999999999,-0.575000000000000,0.100000000000000));
#1317=DIRECTION('',(0.0,1.0,0.0));
#1318=VECTOR('',#1317,1.150000000000000);
#1319=LINE('',#1316,#1318);
#1320=EDGE_CURVE('',#1306,#1315,#1319,.T.);
#1321=ORIENTED_EDGE('',*,*,#1320,.T.);
#1322=CARTESIAN_POINT('',(-0.949999999999999,0.575000000000000,0.100000000000000));
#1323=DIRECTION('',(0.0,1.0,0.0));
#1324=DIRECTION('',(-1.0,0.0,0.0));
#1325=AXIS2_PLACEMENT_3D('',#1322,#1323,#1324);
#1326=CIRCLE('',#1325,0.100000000000000);
#1327=EDGE_CURVE('',#1315,#1298,#1326,.F.);
#1328=ORIENTED_EDGE('',*,*,#1327,.T.);
#1329=EDGE_LOOP('',(#1304,#1313,#1321,#1328));
#1330=FACE_OUTER_BOUND('',#1329,.T.);
#1331=ADVANCED_FACE('',(#1330),#1294,.T.);
#1332=CARTESIAN_POINT('',(-0.675000000000000,-0.575000000000000,0.100000000000000));
#1333=DIRECTION('',(-1.0,0.0,0.0));
#1334=DIRECTION('',(0.0,-0.707106781186546,-0.707106781186549));
#1335=AXIS2_PLACEMENT_3D('',#1332,#1333,#1334);
#1336=CYLINDRICAL_SURFACE('',#1335,0.100000000000000);
#1337=CARTESIAN_POINT('',(-0.549999999999999,-0.645710678118655,0.029289321881345));
#1338=VERTEX_POINT('',#1337);
#1339=CARTESIAN_POINT('',(-0.949999999999999,-0.645710678118655,0.029289321881345));
#1340=VERTEX_POINT('',#1339);
#1341=CARTESIAN_POINT('',(-0.549999999999999,-0.645710678118655,0.029289321881345));
#1342=DIRECTION('',(-1.0,0.0,0.0));
#1343=VECTOR('',#1342,0.400000000000000);
#1344=LINE('',#1341,#1343);
#1345=EDGE_CURVE('',#1338,#1340,#1344,.T.);
#1346=ORIENTED_EDGE('',*,*,#1345,.F.);
#1347=CARTESIAN_POINT('',(-0.549999999999999,-0.675000000000000,0.100000000000000));
#1348=VERTEX_POINT('',#1347);
#1349=CARTESIAN_POINT('',(-0.549999999999999,-0.575000000000000,0.100000000000000));
#1350=DIRECTION('',(-1.0,0.0,0.0));
#1351=DIRECTION('',(0.0,-0.707106781186546,-0.707106781186549));
#1352=AXIS2_PLACEMENT_3D('',#1349,#1350,#1351);
#1353=CIRCLE('',#1352,0.100000000000000);
#1354=EDGE_CURVE('',#1338,#1348,#1353,.T.);
#1355=ORIENTED_EDGE('',*,*,#1354,.T.);
#1356=CARTESIAN_POINT('',(-0.949999999999999,-0.675000000000000,0.100000000000000));
#1357=VERTEX_POINT('',#1356);
#1358=CARTESIAN_POINT('',(-0.549999999999999,-0.675000000000000,0.100000000000000));
#1359=DIRECTION('',(-1.0,0.0,0.0));
#1360=VECTOR('',#1359,0.400000000000000);
#1361=LINE('',#1358,#1360);
#1362=EDGE_CURVE('',#1348,#1357,#1361,.T.);
#1363=ORIENTED_EDGE('',*,*,#1362,.T.);
#1364=CARTESIAN_POINT('',(-0.949999999999999,-0.575000000000000,0.100000000000000));
#1365=DIRECTION('',(-1.0,0.0,0.0));
#1366=DIRECTION('',(0.0,-0.707106781186546,-0.707106781186549));
#1367=AXIS2_PLACEMENT_3D('',#1364,#1365,#1366);
#1368=CIRCLE('',#1367,0.100000000000000);
#1369=EDGE_CURVE('',#1340,#1357,#1368,.T.);
#1370=ORIENTED_EDGE('',*,*,#1369,.F.);
#1371=EDGE_LOOP('',(#1346,#1355,#1363,#1370));
#1372=FACE_OUTER_BOUND('',#1371,.T.);
#1373=ADVANCED_FACE('',(#1372),#1336,.T.);
#1374=CARTESIAN_POINT('',(-0.925000000000000,0.575000000000000,1.200000000000000));
#1375=DIRECTION('',(1.0,8.881784E-016,0.0));
#1376=DIRECTION('',(0.0,0.707106781186546,0.707106781186549));
#1377=AXIS2_PLACEMENT_3D('',#1374,#1375,#1376);
#1378=CYLINDRICAL_SURFACE('',#1377,0.100000000000000);
#1379=CARTESIAN_POINT('',(-0.949999999999999,0.645710678118655,1.270710678118655));
#1380=VERTEX_POINT('',#1379);
#1381=CARTESIAN_POINT('',(-0.549999999999999,0.645710678118655,1.270710678118655));
#1382=VERTEX_POINT('',#1381);
#1383=CARTESIAN_POINT('',(-0.949999999999999,0.645710678118655,1.270710678118655));
#1384=DIRECTION('',(1.0,0.0,0.0));
#1385=VECTOR('',#1384,0.400000000000000);
#1386=LINE('',#1383,#1385);
#1387=EDGE_CURVE('',#1380,#1382,#1386,.T.);
#1388=ORIENTED_EDGE('',*,*,#1387,.F.);
#1389=CARTESIAN_POINT('',(-0.949999999999999,0.575000000000000,1.300000000000000));
#1390=VERTEX_POINT('',#1389);
#1391=CARTESIAN_POINT('',(-0.949999999999999,0.575000000000000,1.200000000000000));
#1392=DIRECTION('',(-1.000000000000000,0.0,0.0));
#1393=DIRECTION('',(0.0,0.707106781186546,0.707106781186549));
#1394=AXIS2_PLACEMENT_3D('',#1391,#1392,#1393);
#1395=CIRCLE('',#1394,0.100000000000000);
#1396=EDGE_CURVE('',#1390,#1380,#1395,.T.);
#1397=ORIENTED_EDGE('',*,*,#1396,.F.);
#1398=CARTESIAN_POINT('',(-0.549999999999999,0.575000000000001,1.300000000000000));
#1399=VERTEX_POINT('',#1398);
#1400=CARTESIAN_POINT('',(-0.949999999999999,0.575000000000000,1.300000000000000));
#1401=DIRECTION('',(1.0,0.0,0.0));
#1402=VECTOR('',#1401,0.400000000000000);
#1403=LINE('',#1400,#1402);
#1404=EDGE_CURVE('',#1390,#1399,#1403,.T.);
#1405=ORIENTED_EDGE('',*,*,#1404,.T.);
#1406=CARTESIAN_POINT('',(-0.549999999999999,0.575000000000001,1.200000000000000));
#1407=DIRECTION('',(-1.000000000000000,0.0,0.0));
#1408=DIRECTION('',(0.0,0.707106781186546,0.707106781186549));
#1409=AXIS2_PLACEMENT_3D('',#1406,#1407,#1408);
#1410=CIRCLE('',#1409,0.100000000000000);
#1411=EDGE_CURVE('',#1399,#1382,#1410,.T.);
#1412=ORIENTED_EDGE('',*,*,#1411,.T.);
#1413=EDGE_LOOP('',(#1388,#1397,#1405,#1412));
#1414=FACE_OUTER_BOUND('',#1413,.T.);
#1415=ADVANCED_FACE('',(#1414),#1378,.T.);
#1416=CARTESIAN_POINT('',(-0.949999999999999,-0.337499999999999,1.200000000000000));
#1417=DIRECTION('',(0.0,1.0,0.0));
#1418=DIRECTION('',(-0.707106781186546,0.0,0.707106781186549));
#1419=AXIS2_PLACEMENT_3D('',#1416,#1417,#1418);
#1420=CYLINDRICAL_SURFACE('',#1419,0.100000000000000);
#1421=CARTESIAN_POINT('',(-1.020710678118654,-0.575000000000000,1.270710678118655));
#1422=VERTEX_POINT('',#1421);
#1423=CARTESIAN_POINT('',(-1.020710678118654,0.575000000000000,1.270710678118655));
#1424=VERTEX_POINT('',#1423);
#1425=CARTESIAN_POINT('',(-1.020710678118654,-0.575000000000000,1.270710678118655));
#1426=DIRECTION('',(0.0,1.0,0.0));
#1427=VECTOR('',#1426,1.150000000000000);
#1428=LINE('',#1425,#1427);
#1429=EDGE_CURVE('',#1422,#1424,#1428,.T.);
#1430=ORIENTED_EDGE('',*,*,#1429,.F.);
#1431=CARTESIAN_POINT('',(-0.949999999999999,-0.575000000000000,1.300000000000000));
#1432=VERTEX_POINT('',#1431);
#1433=CARTESIAN_POINT('',(-0.949999999999999,-0.575000000000000,1.200000000000000));
#1434=DIRECTION('',(0.0,-1.000000000000000,0.0));
#1435=DIRECTION('',(-0.707106781186546,0.0,0.707106781186549));
#1436=AXIS2_PLACEMENT_3D('',#1433,#1434,#1435);
#1437=CIRCLE('',#1436,0.100000000000000);
#1438=EDGE_CURVE('',#1432,#1422,#1437,.T.);
#1439=ORIENTED_EDGE('',*,*,#1438,.F.);
#1440=CARTESIAN_POINT('',(-0.949999999999999,-0.575000000000000,1.300000000000000));
#1441=DIRECTION('',(0.0,1.0,0.0));
#1442=VECTOR('',#1441,1.150000000000000);
#1443=LINE('',#1440,#1442);
#1444=EDGE_CURVE('',#1432,#1390,#1443,.T.);
#1445=ORIENTED_EDGE('',*,*,#1444,.T.);
#1446=CARTESIAN_POINT('',(-0.949999999999999,0.575000000000000,1.200000000000000));
#1447=DIRECTION('',(0.0,1.0,0.0));
#1448=DIRECTION('',(0.0,0.0,1.0));
#1449=AXIS2_PLACEMENT_3D('',#1446,#1447,#1448);
#1450=CIRCLE('',#1449,0.100000000000000);
#1451=EDGE_CURVE('',#1390,#1424,#1450,.F.);
#1452=ORIENTED_EDGE('',*,*,#1451,.T.);
#1453=EDGE_LOOP('',(#1430,#1439,#1445,#1452));
#1454=FACE_OUTER_BOUND('',#1453,.T.);
#1455=ADVANCED_FACE('',(#1454),#1420,.T.);
#1456=CARTESIAN_POINT('',(-0.675000000000000,-0.575000000000000,1.200000000000000));
#1457=DIRECTION('',(-1.0,0.0,0.0));
#1458=DIRECTION('',(0.0,-0.707106781186546,0.707106781186549));
#1459=AXIS2_PLACEMENT_3D('',#1456,#1457,#1458);
#1460=CYLINDRICAL_SURFACE('',#1459,0.100000000000000);
#1461=CARTESIAN_POINT('',(-0.549999999999999,-0.645710678118655,1.270710678118655));
#1462=VERTEX_POINT('',#1461);
#1463=CARTESIAN_POINT('',(-0.949999999999999,-0.645710678118655,1.270710678118655));
#1464=VERTEX_POINT('',#1463);
#1465=CARTESIAN_POINT('',(-0.549999999999999,-0.645710678118655,1.270710678118655));
#1466=DIRECTION('',(-1.0,0.0,0.0));
#1467=VECTOR('',#1466,0.400000000000000);
#1468=LINE('',#1465,#1467);
#1469=EDGE_CURVE('',#1462,#1464,#1468,.T.);
#1470=ORIENTED_EDGE('',*,*,#1469,.F.);
#1471=CARTESIAN_POINT('',(-0.549999999999999,-0.575000000000000,1.300000000000000));
#1472=VERTEX_POINT('',#1471);
#1473=CARTESIAN_POINT('',(-0.549999999999999,-0.575000000000000,1.200000000000000));
#1474=DIRECTION('',(-1.000000000000000,0.0,0.0));
#1475=DIRECTION('',(0.0,-0.707106781186546,0.707106781186549));
#1476=AXIS2_PLACEMENT_3D('',#1473,#1474,#1475);
#1477=CIRCLE('',#1476,0.100000000000000);
#1478=EDGE_CURVE('',#1462,#1472,#1477,.T.);
#1479=ORIENTED_EDGE('',*,*,#1478,.T.);
#1480=CARTESIAN_POINT('',(-0.549999999999999,-0.575000000000000,1.300000000000000));
#1481=DIRECTION('',(-1.0,0.0,0.0));
#1482=VECTOR('',#1481,0.400000000000000);
#1483=LINE('',#1480,#1482);
#1484=EDGE_CURVE('',#1472,#1432,#1483,.T.);
#1485=ORIENTED_EDGE('',*,*,#1484,.T.);
#1486=CARTESIAN_POINT('',(-0.949999999999999,-0.575000000000000,1.200000000000000));
#1487=DIRECTION('',(-1.0,0.0,0.0));
#1488=DIRECTION('',(0.0,0.0,1.0));
#1489=AXIS2_PLACEMENT_3D('',#1486,#1487,#1488);
#1490=CIRCLE('',#1489,0.100000000000000);
#1491=EDGE_CURVE('',#1432,#1464,#1490,.F.);
#1492=ORIENTED_EDGE('',*,*,#1491,.T.);
#1493=EDGE_LOOP('',(#1470,#1479,#1485,#1492));
#1494=FACE_OUTER_BOUND('',#1493,.T.);
#1495=ADVANCED_FACE('',(#1494),#1460,.T.);
#1496=CARTESIAN_POINT('',(-0.949999999999999,0.575000000000000,0.0));
#1497=DIRECTION('',(0.0,0.0,1.0));
#1498=DIRECTION('',(-0.707106781186548,0.707106781186548,0.0));
#1499=AXIS2_PLACEMENT_3D('',#1496,#1497,#1498);
#1500=CYLINDRICAL_SURFACE('',#1499,0.100000000000000);
#1501=CARTESIAN_POINT('',(-1.020710678118654,0.645710678118655,0.100000000000000));
#1502=VERTEX_POINT('',#1501);
#1503=CARTESIAN_POINT('',(-1.020710678118654,0.645710678118655,1.200000000000000));
#1504=VERTEX_POINT('',#1503);
#1505=CARTESIAN_POINT('',(-1.020710678118654,0.645710678118655,0.100000000000000));
#1506=DIRECTION('',(0.0,0.0,1.0));
#1507=VECTOR('',#1506,1.100000000000000);
#1508=LINE('',#1505,#1507);
#1509=EDGE_CURVE('',#1502,#1504,#1508,.T.);
#1510=ORIENTED_EDGE('',*,*,#1509,.F.);
#1511=CARTESIAN_POINT('',(-0.949999999999999,0.575000000000000,0.100000000000000));
#1512=DIRECTION('',(0.0,0.0,-1.0));
#1513=DIRECTION('',(0.0,1.0,0.0));
#1514=AXIS2_PLACEMENT_3D('',#1511,#1512,#1513);
#1515=CIRCLE('',#1514,0.100000000000000);
#1516=EDGE_CURVE('',#1502,#1315,#1515,.F.);
#1517=ORIENTED_EDGE('',*,*,#1516,.T.);
#1518=CARTESIAN_POINT('',(-1.049999999999999,0.575000000000000,1.200000000000000));
#1519=VERTEX_POINT('',#1518);
#1520=CARTESIAN_POINT('',(-1.049999999999999,0.575000000000000,0.100000000000000));
#1521=DIRECTION('',(0.0,0.0,1.0));
#1522=VECTOR('',#1521,1.100000000000000);
#1523=LINE('',#1520,#1522);
#1524=EDGE_CURVE('',#1315,#1519,#1523,.T.);
#1525=ORIENTED_EDGE('',*,*,#1524,.T.);
#1526=CARTESIAN_POINT('',(-0.949999999999999,0.575000000000000,1.200000000000000));
#1527=DIRECTION('',(0.0,0.0,1.000000000000000));
#1528=DIRECTION('',(-0.707106781186548,0.707106781186548,0.0));
#1529=AXIS2_PLACEMENT_3D('',#1526,#1527,#1528);
#1530=CIRCLE('',#1529,0.100000000000000);
#1531=EDGE_CURVE('',#1504,#1519,#1530,.T.);
#1532=ORIENTED_EDGE('',*,*,#1531,.F.);
#1533=EDGE_LOOP('',(#1510,#1517,#1525,#1532));
#1534=FACE_OUTER_BOUND('',#1533,.T.);
#1535=ADVANCED_FACE('',(#1534),#1500,.T.);
#1536=CARTESIAN_POINT('',(-0.949999999999999,-0.575000000000000,0.0));
#1537=DIRECTION('',(0.0,0.0,1.0));
#1538=DIRECTION('',(-0.707106781186548,-0.707106781186548,0.0));
#1539=AXIS2_PLACEMENT_3D('',#1536,#1537,#1538);
#1540=CYLINDRICAL_SURFACE('',#1539,0.100000000000000);
#1541=CARTESIAN_POINT('',(-1.020710678118654,-0.645710678118655,0.100000000000000));
#1542=VERTEX_POINT('',#1541);
#1543=CARTESIAN_POINT('',(-1.020710678118654,-0.645710678118655,1.200000000000000));
#1544=VERTEX_POINT('',#1543);
#1545=CARTESIAN_POINT('',(-1.020710678118654,-0.645710678118655,0.100000000000000));
#1546=DIRECTION('',(0.0,0.0,1.0));
#1547=VECTOR('',#1546,1.100000000000000);
#1548=LINE('',#1545,#1547);
#1549=EDGE_CURVE('',#1542,#1544,#1548,.T.);
#1550=ORIENTED_EDGE('',*,*,#1549,.F.);
#1551=CARTESIAN_POINT('',(-0.949999999999999,-0.575000000000000,0.100000000000000));
#1552=DIRECTION('',(0.0,0.0,-1.0));
#1553=DIRECTION('',(-1.0,0.0,0.0));
#1554=AXIS2_PLACEMENT_3D('',#1551,#1552,#1553);
#1555=CIRCLE('',#1554,0.100000000000000);
#1556=EDGE_CURVE('',#1542,#1357,#1555,.F.);
#1557=ORIENTED_EDGE('',*,*,#1556,.T.);
#1558=CARTESIAN_POINT('',(-0.949999999999999,-0.675000000000000,1.200000000000000));
#1559=VERTEX_POINT('',#1558);
#1560=CARTESIAN_POINT('',(-0.949999999999999,-0.675000000000000,0.100000000000000));
#1561=DIRECTION('',(0.0,0.0,1.0));
#1562=VECTOR('',#1561,1.100000000000000);
#1563=LINE('',#1560,#1562);
#1564=EDGE_CURVE('',#1357,#1559,#1563,.T.);
#1565=ORIENTED_EDGE('',*,*,#1564,.T.);
#1566=CARTESIAN_POINT('',(-0.949999999999999,-0.575000000000000,1.200000000000000));
#1567=DIRECTION('',(0.0,0.0,1.000000000000000));
#1568=DIRECTION('',(-0.707106781186548,-0.707106781186548,0.0));
#1569=AXIS2_PLACEMENT_3D('',#1566,#1567,#1568);
#1570=CIRCLE('',#1569,0.100000000000000);
#1571=EDGE_CURVE('',#1544,#1559,#1570,.T.);
#1572=ORIENTED_EDGE('',*,*,#1571,.F.);
#1573=EDGE_LOOP('',(#1550,#1557,#1565,#1572));
#1574=FACE_OUTER_BOUND('',#1573,.T.);
#1575=ADVANCED_FACE('',(#1574),#1540,.T.);
#1576=CARTESIAN_POINT('',(-0.549999999999999,-0.675000000000000,0.0));
#1577=DIRECTION('',(0.0,-1.0,0.0));
#1578=DIRECTION('',(0.0,0.0,-1.0));
#1579=AXIS2_PLACEMENT_3D('',#1576,#1577,#1578);
#1580=PLANE('',#1579);
#1581=CARTESIAN_POINT('',(-0.549999999999999,-0.675000000000000,1.200000000000000));
#1582=VERTEX_POINT('',#1581);
#1583=CARTESIAN_POINT('',(-0.949999999999999,-0.675000000000000,1.200000000000000));
#1584=DIRECTION('',(1.0,0.0,0.0));
#1585=VECTOR('',#1584,0.400000000000000);
#1586=LINE('',#1583,#1585);
#1587=EDGE_CURVE('',#1559,#1582,#1586,.T.);
#1588=ORIENTED_EDGE('',*,*,#1587,.F.);
#1589=ORIENTED_EDGE('',*,*,#1564,.F.);
#1590=ORIENTED_EDGE('',*,*,#1362,.F.);
#1591=CARTESIAN_POINT('',(-0.549999999999999,-0.675000000000000,0.100000000000000));
#1592=DIRECTION('',(0.0,0.0,1.0));
#1593=VECTOR('',#1592,1.100000000000000);
#1594=LINE('',#1591,#1593);
#1595=EDGE_CURVE('',#1348,#1582,#1594,.T.);
#1596=ORIENTED_EDGE('',*,*,#1595,.T.);
#1597=EDGE_LOOP('',(#1588,#1589,#1590,#1596));
#1598=FACE_OUTER_BOUND('',#1597,.T.);
#1599=ADVANCED_FACE('',(#1598),#1580,.T.);
#1600=CARTESIAN_POINT('',(-0.949999999999999,-0.575000000000000,0.0));
#1601=DIRECTION('',(0.0,0.0,1.0));
#1602=DIRECTION('',(-0.707106781186548,-0.707106781186548,0.0));
#1603=AXIS2_PLACEMENT_3D('',#1600,#1601,#1602);
#1604=CYLINDRICAL_SURFACE('',#1603,0.100000000000000);
#1605=ORIENTED_EDGE('',*,*,#1549,.T.);
#1606=CARTESIAN_POINT('',(-1.049999999999999,-0.575000000000000,1.200000000000000));
#1607=VERTEX_POINT('',#1606);
#1608=CARTESIAN_POINT('',(-0.949999999999999,-0.575000000000000,1.200000000000000));
#1609=DIRECTION('',(0.0,0.0,1.000000000000000));
#1610=DIRECTION('',(-0.707106781186548,-0.707106781186548,0.0));
#1611=AXIS2_PLACEMENT_3D('',#1608,#1609,#1610);
#1612=CIRCLE('',#1611,0.100000000000000);
#1613=EDGE_CURVE('',#1607,#1544,#1612,.T.);
#1614=ORIENTED_EDGE('',*,*,#1613,.F.);
#1615=CARTESIAN_POINT('',(-1.049999999999999,-0.575000000000000,1.200000000000000));
#1616=DIRECTION('',(0.0,0.0,-1.0));
#1617=VECTOR('',#1616,1.100000000000000);
#1618=LINE('',#1615,#1617);
#1619=EDGE_CURVE('',#1607,#1306,#1618,.T.);
#1620=ORIENTED_EDGE('',*,*,#1619,.T.);
#1621=CARTESIAN_POINT('',(-0.949999999999999,-0.575000000000000,0.100000000000000));
#1622=DIRECTION('',(0.0,0.0,-1.0));
#1623=DIRECTION('',(-1.0,0.0,0.0));
#1624=AXIS2_PLACEMENT_3D('',#1621,#1622,#1623);
#1625=CIRCLE('',#1624,0.100000000000000);
#1626=EDGE_CURVE('',#1306,#1542,#1625,.F.);
#1627=ORIENTED_EDGE('',*,*,#1626,.T.);
#1628=EDGE_LOOP('',(#1605,#1614,#1620,#1627));
#1629=FACE_OUTER_BOUND('',#1628,.T.);
#1630=ADVANCED_FACE('',(#1629),#1604,.T.);
#1631=CARTESIAN_POINT('',(-1.049999999999999,-0.675000000000000,0.0));
#1632=DIRECTION('',(-1.0,0.0,0.0));
#1633=DIRECTION('',(0.0,0.0,1.0));
#1634=AXIS2_PLACEMENT_3D('',#1631,#1632,#1633);
#1635=PLANE('',#1634);
#1636=ORIENTED_EDGE('',*,*,#1619,.F.);
#1637=CARTESIAN_POINT('',(-1.049999999999999,0.575000000000000,1.200000000000000));
#1638=DIRECTION('',(0.0,-1.0,0.0));
#1639=VECTOR('',#1638,1.150000000000000);
#1640=LINE('',#1637,#1639);
#1641=EDGE_CURVE('',#1519,#1607,#1640,.T.);
#1642=ORIENTED_EDGE('',*,*,#1641,.F.);
#1643=ORIENTED_EDGE('',*,*,#1524,.F.);
#1644=ORIENTED_EDGE('',*,*,#1320,.F.);
#1645=EDGE_LOOP('',(#1636,#1642,#1643,#1644));
#1646=FACE_OUTER_BOUND('',#1645,.T.);
#1647=ADVANCED_FACE('',(#1646),#1635,.T.);
#1648=CARTESIAN_POINT('',(-0.949999999999999,0.575000000000000,0.0));
#1649=DIRECTION('',(0.0,0.0,1.0));
#1650=DIRECTION('',(-0.707106781186548,0.707106781186548,0.0));
#1651=AXIS2_PLACEMENT_3D('',#1648,#1649,#1650);
#1652=CYLINDRICAL_SURFACE('',#1651,0.100000000000000);
#1653=ORIENTED_EDGE('',*,*,#1509,.T.);
#1654=CARTESIAN_POINT('',(-0.949999999999999,0.675000000000000,1.200000000000000));
#1655=VERTEX_POINT('',#1654);
#1656=CARTESIAN_POINT('',(-0.949999999999999,0.575000000000000,1.200000000000000));
#1657=DIRECTION('',(0.0,0.0,1.000000000000000));
#1658=DIRECTION('',(-0.707106781186548,0.707106781186548,0.0));
#1659=AXIS2_PLACEMENT_3D('',#1656,#1657,#1658);
#1660=CIRCLE('',#1659,0.100000000000000);
#1661=EDGE_CURVE('',#1655,#1504,#1660,.T.);
#1662=ORIENTED_EDGE('',*,*,#1661,.F.);
#1663=CARTESIAN_POINT('',(-0.949999999999999,0.675000000000000,1.200000000000000));
#1664=DIRECTION('',(0.0,0.0,-1.0));
#1665=VECTOR('',#1664,1.100000000000000);
#1666=LINE('',#1663,#1665);
#1667=EDGE_CURVE('',#1655,#1264,#1666,.T.);
#1668=ORIENTED_EDGE('',*,*,#1667,.T.);
#1669=CARTESIAN_POINT('',(-0.949999999999999,0.575000000000000,0.100000000000000));
#1670=DIRECTION('',(0.0,0.0,-1.0));
#1671=DIRECTION('',(0.0,1.0,0.0));
#1672=AXIS2_PLACEMENT_3D('',#1669,#1670,#1671);
#1673=CIRCLE('',#1672,0.100000000000000);
#1674=EDGE_CURVE('',#1264,#1502,#1673,.F.);
#1675=ORIENTED_EDGE('',*,*,#1674,.T.);
#1676=EDGE_LOOP('',(#1653,#1662,#1668,#1675));
#1677=FACE_OUTER_BOUND('',#1676,.T.);
#1678=ADVANCED_FACE('',(#1677),#1652,.T.);
#1679=CARTESIAN_POINT('',(-1.049999999999999,0.675000000000000,0.0));
#1680=DIRECTION('',(0.0,1.0,0.0));
#1681=DIRECTION('',(0.0,0.0,1.0));
#1682=AXIS2_PLACEMENT_3D('',#1679,#1680,#1681);
#1683=PLANE('',#1682);
#1684=CARTESIAN_POINT('',(-0.549999999999999,0.675000000000001,1.200000000000000));
#1685=VERTEX_POINT('',#1684);
#1686=CARTESIAN_POINT('',(-0.549999999999999,0.675000000000001,1.200000000000000));
#1687=DIRECTION('',(-1.0,0.0,0.0));
#1688=VECTOR('',#1687,0.400000000000000);
#1689=LINE('',#1686,#1688);
#1690=EDGE_CURVE('',#1685,#1655,#1689,.T.);
#1691=ORIENTED_EDGE('',*,*,#1690,.F.);
#1692=CARTESIAN_POINT('',(-0.549999999999999,0.675000000000001,0.100000000000000));
#1693=DIRECTION('',(0.0,0.0,1.0));
#1694=VECTOR('',#1693,1.100000000000000);
#1695=LINE('',#1692,#1694);
#1696=EDGE_CURVE('',#1273,#1685,#1695,.T.);
#1697=ORIENTED_EDGE('',*,*,#1696,.F.);
#1698=ORIENTED_EDGE('',*,*,#1278,.F.);
#1699=ORIENTED_EDGE('',*,*,#1667,.F.);
#1700=EDGE_LOOP('',(#1691,#1697,#1698,#1699));
#1701=FACE_OUTER_BOUND('',#1700,.T.);
#1702=ADVANCED_FACE('',(#1701),#1683,.T.);
#1703=CARTESIAN_POINT('',(-0.549999999999999,0.675000000000001,0.0));
#1704=DIRECTION('',(1.0,0.0,0.0));
#1705=DIRECTION('',(0.0,0.0,-1.0));
#1706=AXIS2_PLACEMENT_3D('',#1703,#1704,#1705);
#1707=PLANE('',#1706);
#1708=CARTESIAN_POINT('',(-0.549999999999999,-0.575000000000000,1.200000000000000));
#1709=DIRECTION('',(-1.000000000000000,0.0,0.0));
#1710=DIRECTION('',(0.0,-0.707106781186546,0.707106781186549));
#1711=AXIS2_PLACEMENT_3D('',#1708,#1709,#1710);
#1712=CIRCLE('',#1711,0.100000000000000);
#1713=EDGE_CURVE('',#1582,#1462,#1712,.T.);
#1714=ORIENTED_EDGE('',*,*,#1713,.F.);
#1715=ORIENTED_EDGE('',*,*,#1595,.F.);
#1716=ORIENTED_EDGE('',*,*,#1354,.F.);
#1717=CARTESIAN_POINT('',(-0.549999999999999,-0.575000000000000,0.0));
#1718=VERTEX_POINT('',#1717);
#1719=CARTESIAN_POINT('',(-0.549999999999999,-0.575000000000000,0.100000000000000));
#1720=DIRECTION('',(-1.0,0.0,0.0));
#1721=DIRECTION('',(0.0,-0.707106781186546,-0.707106781186549));
#1722=AXIS2_PLACEMENT_3D('',#1719,#1720,#1721);
#1723=CIRCLE('',#1722,0.100000000000000);
#1724=EDGE_CURVE('',#1718,#1338,#1723,.T.);
#1725=ORIENTED_EDGE('',*,*,#1724,.F.);
#1726=CARTESIAN_POINT('',(-0.549999999999999,0.575000000000001,0.0));
#1727=VERTEX_POINT('',#1726);
#1728=CARTESIAN_POINT('',(-0.549999999999999,0.575000000000001,0.0));
#1729=DIRECTION('',(0.0,-1.0,0.0));
#1730=VECTOR('',#1729,1.150000000000001);
#1731=LINE('',#1728,#1730);
#1732=EDGE_CURVE('',#1727,#1718,#1731,.T.);
#1733=ORIENTED_EDGE('',*,*,#1732,.F.);
#1734=CARTESIAN_POINT('',(-0.549999999999999,0.575000000000001,0.100000000000000));
#1735=DIRECTION('',(-1.0,0.0,0.0));
#1736=DIRECTION('',(0.0,0.707106781186546,-0.707106781186549));
#1737=AXIS2_PLACEMENT_3D('',#1734,#1735,#1736);
#1738=CIRCLE('',#1737,0.100000000000000);
#1739=EDGE_CURVE('',#1256,#1727,#1738,.T.);
#1740=ORIENTED_EDGE('',*,*,#1739,.F.);
#1741=ORIENTED_EDGE('',*,*,#1285,.F.);
#1742=ORIENTED_EDGE('',*,*,#1696,.T.);
#1743=CARTESIAN_POINT('',(-0.549999999999999,0.575000000000001,1.200000000000000));
#1744=DIRECTION('',(-1.000000000000000,0.0,0.0));
#1745=DIRECTION('',(0.0,0.707106781186546,0.707106781186549));
#1746=AXIS2_PLACEMENT_3D('',#1743,#1744,#1745);
#1747=CIRCLE('',#1746,0.100000000000000);
#1748=EDGE_CURVE('',#1382,#1685,#1747,.T.);
#1749=ORIENTED_EDGE('',*,*,#1748,.F.);
#1750=ORIENTED_EDGE('',*,*,#1411,.F.);
#1751=CARTESIAN_POINT('',(-0.549999999999999,0.575000000000001,1.300000000000000));
#1752=DIRECTION('',(0.0,-1.0,0.0));
#1753=VECTOR('',#1752,1.150000000000001);
#1754=LINE('',#1751,#1753);
#1755=EDGE_CURVE('',#1399,#1472,#1754,.T.);
#1756=ORIENTED_EDGE('',*,*,#1755,.T.);
#1757=ORIENTED_EDGE('',*,*,#1478,.F.);
#1758=EDGE_LOOP('',(#1714,#1715,#1716,#1725,#1733,#1740,#1741,#1742,#1749,#1750,#1756,#1757));
#1759=FACE_OUTER_BOUND('',#1758,.T.);
#1760=ADVANCED_FACE('',(#1759),#1707,.T.);
#1761=CARTESIAN_POINT('',(-0.800000000000000,9.325873E-016,1.300000000000000));
#1762=DIRECTION('',(0.0,0.0,1.0));
#1763=DIRECTION('',(1.0,0.0,0.0));
#1764=AXIS2_PLACEMENT_3D('',#1761,#1762,#1763);
#1765=PLANE('',#1764);
#1766=ORIENTED_EDGE('',*,*,#1484,.F.);
#1767=ORIENTED_EDGE('',*,*,#1755,.F.);
#1768=ORIENTED_EDGE('',*,*,#1404,.F.);
#1769=ORIENTED_EDGE('',*,*,#1444,.F.);
#1770=EDGE_LOOP('',(#1766,#1767,#1768,#1769));
#1771=FACE_OUTER_BOUND('',#1770,.T.);
#1772=ADVANCED_FACE('',(#1771),#1765,.T.);
#1773=CARTESIAN_POINT('',(-0.675000000000000,-0.575000000000000,1.200000000000000));
#1774=DIRECTION('',(-1.0,0.0,0.0));
#1775=DIRECTION('',(0.0,-0.707106781186546,0.707106781186549));
#1776=AXIS2_PLACEMENT_3D('',#1773,#1774,#1775);
#1777=CYLINDRICAL_SURFACE('',#1776,0.100000000000000);
#1778=ORIENTED_EDGE('',*,*,#1469,.T.);
#1779=CARTESIAN_POINT('',(-0.949999999999999,-0.575000000000000,1.200000000000000));
#1780=DIRECTION('',(-1.0,0.0,0.0));
#1781=DIRECTION('',(0.0,0.0,1.0));
#1782=AXIS2_PLACEMENT_3D('',#1779,#1780,#1781);
#1783=CIRCLE('',#1782,0.100000000000000);
#1784=EDGE_CURVE('',#1464,#1559,#1783,.F.);
#1785=ORIENTED_EDGE('',*,*,#1784,.T.);
#1786=ORIENTED_EDGE('',*,*,#1587,.T.);
#1787=ORIENTED_EDGE('',*,*,#1713,.T.);
#1788=EDGE_LOOP('',(#1778,#1785,#1786,#1787));
#1789=FACE_OUTER_BOUND('',#1788,.T.);
#1790=ADVANCED_FACE('',(#1789),#1777,.T.);
#1791=CARTESIAN_POINT('',(-0.949999999999999,-0.575000000000000,1.200000000000000));
#1792=DIRECTION('',(0.0,0.0,1.0));
#1793=DIRECTION('',(1.0,0.0,0.0));
#1794=AXIS2_PLACEMENT_3D('',#1791,#1792,#1793);
#1795=SPHERICAL_SURFACE('',#1794,0.100000000000000);
#1796=ORIENTED_EDGE('',*,*,#1613,.T.);
#1797=ORIENTED_EDGE('',*,*,#1571,.T.);
#1798=ORIENTED_EDGE('',*,*,#1784,.F.);
#1799=ORIENTED_EDGE('',*,*,#1491,.F.);
#1800=ORIENTED_EDGE('',*,*,#1438,.T.);
#1801=CARTESIAN_POINT('',(-0.949999999999999,-0.575000000000000,1.200000000000000));
#1802=DIRECTION('',(0.0,-1.000000000000000,0.0));
#1803=DIRECTION('',(-0.707106781186546,0.0,0.707106781186549));
#1804=AXIS2_PLACEMENT_3D('',#1801,#1802,#1803);
#1805=CIRCLE('',#1804,0.100000000000000);
#1806=EDGE_CURVE('',#1422,#1607,#1805,.T.);
#1807=ORIENTED_EDGE('',*,*,#1806,.T.);
#1808=EDGE_LOOP('',(#1796,#1797,#1798,#1799,#1800,#1807));
#1809=FACE_OUTER_BOUND('',#1808,.T.);
#1810=ADVANCED_FACE('',(#1809),#1795,.T.);
#1811=CARTESIAN_POINT('',(-0.949999999999999,-0.337499999999999,1.200000000000000));
#1812=DIRECTION('',(0.0,1.0,0.0));
#1813=DIRECTION('',(-0.707106781186546,0.0,0.707106781186549));
#1814=AXIS2_PLACEMENT_3D('',#1811,#1812,#1813);
#1815=CYLINDRICAL_SURFACE('',#1814,0.100000000000000);
#1816=ORIENTED_EDGE('',*,*,#1429,.T.);
#1817=CARTESIAN_POINT('',(-0.949999999999999,0.575000000000000,1.200000000000000));
#1818=DIRECTION('',(0.0,1.0,0.0));
#1819=DIRECTION('',(0.0,0.0,1.0));
#1820=AXIS2_PLACEMENT_3D('',#1817,#1818,#1819);
#1821=CIRCLE('',#1820,0.100000000000000);
#1822=EDGE_CURVE('',#1424,#1519,#1821,.F.);
#1823=ORIENTED_EDGE('',*,*,#1822,.T.);
#1824=ORIENTED_EDGE('',*,*,#1641,.T.);
#1825=ORIENTED_EDGE('',*,*,#1806,.F.);
#1826=EDGE_LOOP('',(#1816,#1823,#1824,#1825));
#1827=FACE_OUTER_BOUND('',#1826,.T.);
#1828=ADVANCED_FACE('',(#1827),#1815,.T.);
#1829=CARTESIAN_POINT('',(-0.949999999999999,0.575000000000000,1.200000000000000));
#1830=DIRECTION('',(0.0,0.0,1.0));
#1831=DIRECTION('',(1.0,0.0,0.0));
#1832=AXIS2_PLACEMENT_3D('',#1829,#1830,#1831);
#1833=SPHERICAL_SURFACE('',#1832,0.100000000000000);
#1834=ORIENTED_EDGE('',*,*,#1661,.T.);
#1835=ORIENTED_EDGE('',*,*,#1531,.T.);
#1836=ORIENTED_EDGE('',*,*,#1822,.F.);
#1837=ORIENTED_EDGE('',*,*,#1451,.F.);
#1838=ORIENTED_EDGE('',*,*,#1396,.T.);
#1839=CARTESIAN_POINT('',(-0.949999999999999,0.575000000000000,1.200000000000000));
#1840=DIRECTION('',(-1.000000000000000,0.0,0.0));
#1841=DIRECTION('',(0.0,0.707106781186546,0.707106781186549));
#1842=AXIS2_PLACEMENT_3D('',#1839,#1840,#1841);
#1843=CIRCLE('',#1842,0.100000000000000);
#1844=EDGE_CURVE('',#1380,#1655,#1843,.T.);
#1845=ORIENTED_EDGE('',*,*,#1844,.T.);
#1846=EDGE_LOOP('',(#1834,#1835,#1836,#1837,#1838,#1845));
#1847=FACE_OUTER_BOUND('',#1846,.T.);
#1848=ADVANCED_FACE('',(#1847),#1833,.T.);
#1849=CARTESIAN_POINT('',(-0.925000000000000,0.575000000000000,1.200000000000000));
#1850=DIRECTION('',(1.0,8.881784E-016,0.0));
#1851=DIRECTION('',(0.0,0.707106781186546,0.707106781186549));
#1852=AXIS2_PLACEMENT_3D('',#1849,#1850,#1851);
#1853=CYLINDRICAL_SURFACE('',#1852,0.100000000000000);
#1854=ORIENTED_EDGE('',*,*,#1387,.T.);
#1855=ORIENTED_EDGE('',*,*,#1748,.T.);
#1856=ORIENTED_EDGE('',*,*,#1690,.T.);
#1857=ORIENTED_EDGE('',*,*,#1844,.F.);
#1858=EDGE_LOOP('',(#1854,#1855,#1856,#1857));
#1859=FACE_OUTER_BOUND('',#1858,.T.);
#1860=ADVANCED_FACE('',(#1859),#1853,.T.);
#1861=CARTESIAN_POINT('',(-0.949999999999999,0.575000000000000,0.100000000000000));
#1862=DIRECTION('',(0.0,0.0,1.0));
#1863=DIRECTION('',(1.0,0.0,0.0));
#1864=AXIS2_PLACEMENT_3D('',#1861,#1862,#1863);
#1865=SPHERICAL_SURFACE('',#1864,0.100000000000000);
#1866=ORIENTED_EDGE('',*,*,#1270,.T.);
#1867=CARTESIAN_POINT('',(-0.949999999999999,0.575000000000000,0.0));
#1868=VERTEX_POINT('',#1867);
#1869=CARTESIAN_POINT('',(-0.949999999999999,0.575000000000000,0.100000000000000));
#1870=DIRECTION('',(-1.0,0.0,0.0));
#1871=DIRECTION('',(0.0,0.707106781186546,-0.707106781186549));
#1872=AXIS2_PLACEMENT_3D('',#1869,#1870,#1871);
#1873=CIRCLE('',#1872,0.100000000000000);
#1874=EDGE_CURVE('',#1254,#1868,#1873,.T.);
#1875=ORIENTED_EDGE('',*,*,#1874,.T.);
#1876=CARTESIAN_POINT('',(-0.949999999999999,0.575000000000000,0.100000000000000));
#1877=DIRECTION('',(0.0,1.0,0.0));
#1878=DIRECTION('',(-1.0,0.0,0.0));
#1879=AXIS2_PLACEMENT_3D('',#1876,#1877,#1878);
#1880=CIRCLE('',#1879,0.100000000000000);
#1881=EDGE_CURVE('',#1298,#1868,#1880,.F.);
#1882=ORIENTED_EDGE('',*,*,#1881,.F.);
#1883=ORIENTED_EDGE('',*,*,#1327,.F.);
#1884=ORIENTED_EDGE('',*,*,#1516,.F.);
#1885=ORIENTED_EDGE('',*,*,#1674,.F.);
#1886=EDGE_LOOP('',(#1866,#1875,#1882,#1883,#1884,#1885));
#1887=FACE_OUTER_BOUND('',#1886,.T.);
#1888=ADVANCED_FACE('',(#1887),#1865,.T.);
#1889=CARTESIAN_POINT('',(-0.949999999999999,-0.575000000000000,0.100000000000000));
#1890=DIRECTION('',(0.0,0.0,1.0));
#1891=DIRECTION('',(1.0,0.0,0.0));
#1892=AXIS2_PLACEMENT_3D('',#1889,#1890,#1891);
#1893=SPHERICAL_SURFACE('',#1892,0.100000000000000);
#1894=CARTESIAN_POINT('',(-0.949999999999999,-0.575000000000000,0.0));
#1895=VERTEX_POINT('',#1894);
#1896=CARTESIAN_POINT('',(-0.949999999999999,-0.575000000000000,0.100000000000000));
#1897=DIRECTION('',(-1.0,0.0,0.0));
#1898=DIRECTION('',(0.0,-0.707106781186546,-0.707106781186549));
#1899=AXIS2_PLACEMENT_3D('',#1896,#1897,#1898);
#1900=CIRCLE('',#1899,0.100000000000000);
#1901=EDGE_CURVE('',#1895,#1340,#1900,.T.);
#1902=ORIENTED_EDGE('',*,*,#1901,.T.);
#1903=ORIENTED_EDGE('',*,*,#1369,.T.);
#1904=ORIENTED_EDGE('',*,*,#1556,.F.);
#1905=ORIENTED_EDGE('',*,*,#1626,.F.);
#1906=ORIENTED_EDGE('',*,*,#1312,.T.);
#1907=CARTESIAN_POINT('',(-0.949999999999999,-0.575000000000000,0.100000000000000));
#1908=DIRECTION('',(0.0,-1.0,0.0));
#1909=DIRECTION('',(-0.707106781186546,0.0,-0.707106781186549));
#1910=AXIS2_PLACEMENT_3D('',#1907,#1908,#1909);
#1911=CIRCLE('',#1910,0.100000000000000);
#1912=EDGE_CURVE('',#1296,#1895,#1911,.T.);
#1913=ORIENTED_EDGE('',*,*,#1912,.T.);
#1914=EDGE_LOOP('',(#1902,#1903,#1904,#1905,#1906,#1913));
#1915=FACE_OUTER_BOUND('',#1914,.T.);
#1916=ADVANCED_FACE('',(#1915),#1893,.T.);
#1917=CARTESIAN_POINT('',(-0.675000000000000,-0.575000000000000,0.100000000000000));
#1918=DIRECTION('',(-1.0,0.0,0.0));
#1919=DIRECTION('',(0.0,-0.707106781186546,-0.707106781186549));
#1920=AXIS2_PLACEMENT_3D('',#1917,#1918,#1919);
#1921=CYLINDRICAL_SURFACE('',#1920,0.100000000000000);
#1922=ORIENTED_EDGE('',*,*,#1345,.T.);
#1923=ORIENTED_EDGE('',*,*,#1901,.F.);
#1924=CARTESIAN_POINT('',(-0.949999999999999,-0.575000000000000,0.0));
#1925=DIRECTION('',(1.0,0.0,0.0));
#1926=VECTOR('',#1925,0.400000000000000);
#1927=LINE('',#1924,#1926);
#1928=EDGE_CURVE('',#1895,#1718,#1927,.T.);
#1929=ORIENTED_EDGE('',*,*,#1928,.T.);
#1930=ORIENTED_EDGE('',*,*,#1724,.T.);
#1931=EDGE_LOOP('',(#1922,#1923,#1929,#1930));
#1932=FACE_OUTER_BOUND('',#1931,.T.);
#1933=ADVANCED_FACE('',(#1932),#1921,.T.);
#1934=CARTESIAN_POINT('',(-0.949999999999999,-0.337499999999999,0.100000000000000));
#1935=DIRECTION('',(0.0,1.0,0.0));
#1936=DIRECTION('',(-0.707106781186546,0.0,-0.707106781186549));
#1937=AXIS2_PLACEMENT_3D('',#1934,#1935,#1936);
#1938=CYLINDRICAL_SURFACE('',#1937,0.100000000000000);
#1939=ORIENTED_EDGE('',*,*,#1303,.T.);
#1940=ORIENTED_EDGE('',*,*,#1881,.T.);
#1941=CARTESIAN_POINT('',(-0.949999999999999,0.575000000000000,0.0));
#1942=DIRECTION('',(0.0,-1.0,0.0));
#1943=VECTOR('',#1942,1.150000000000000);
#1944=LINE('',#1941,#1943);
#1945=EDGE_CURVE('',#1868,#1895,#1944,.T.);
#1946=ORIENTED_EDGE('',*,*,#1945,.T.);
#1947=ORIENTED_EDGE('',*,*,#1912,.F.);
#1948=EDGE_LOOP('',(#1939,#1940,#1946,#1947));
#1949=FACE_OUTER_BOUND('',#1948,.T.);
#1950=ADVANCED_FACE('',(#1949),#1938,.T.);
#1951=CARTESIAN_POINT('',(-0.925000000000000,0.575000000000000,0.100000000000000));
#1952=DIRECTION('',(1.0,8.881784E-016,0.0));
#1953=DIRECTION('',(0.0,0.707106781186546,-0.707106781186549));
#1954=AXIS2_PLACEMENT_3D('',#1951,#1952,#1953);
#1955=CYLINDRICAL_SURFACE('',#1954,0.100000000000000);
#1956=ORIENTED_EDGE('',*,*,#1261,.T.);
#1957=ORIENTED_EDGE('',*,*,#1739,.T.);
#1958=CARTESIAN_POINT('',(-0.549999999999999,0.575000000000001,0.0));
#1959=DIRECTION('',(-1.0,0.0,0.0));
#1960=VECTOR('',#1959,0.400000000000000);
#1961=LINE('',#1958,#1960);
#1962=EDGE_CURVE('',#1727,#1868,#1961,.T.);
#1963=ORIENTED_EDGE('',*,*,#1962,.T.);
#1964=ORIENTED_EDGE('',*,*,#1874,.F.);
#1965=EDGE_LOOP('',(#1956,#1957,#1963,#1964));
#1966=FACE_OUTER_BOUND('',#1965,.T.);
#1967=ADVANCED_FACE('',(#1966),#1955,.T.);
#1968=CARTESIAN_POINT('',(-0.800000000000000,8.881784E-016,0.0));
#1969=DIRECTION('',(0.0,0.0,1.0));
#1970=DIRECTION('',(1.0,0.0,0.0));
#1971=AXIS2_PLACEMENT_3D('',#1968,#1969,#1970);
#1972=PLANE('',#1971);
#1973=ORIENTED_EDGE('',*,*,#1928,.F.);
#1974=ORIENTED_EDGE('',*,*,#1945,.F.);
#1975=ORIENTED_EDGE('',*,*,#1962,.F.);
#1976=ORIENTED_EDGE('',*,*,#1732,.T.);
#1977=EDGE_LOOP('',(#1973,#1974,#1975,#1976));
#1978=FACE_OUTER_BOUND('',#1977,.T.);
#1979=ADVANCED_FACE('',(#1978),#1972,.F.);
#1980=CLOSED_SHELL('',(#1289,#1331,#1373,#1415,#1455,#1495,#1535,#1575,#1599,#1630,#1647,#1678,#1702,#1760,#1772,#1790,#1810,#1828,#1848,#1860,#1888,#1916,#1933,#1950,#1967,#1979));
#1981=MANIFOLD_SOLID_BREP('3C4',#1980);
#1982=STYLED_ITEM('NONE',(#805),#1981);
#1983=ADVANCED_BREP_SHAPE_REPRESENTATION('ABSR1',(#798,#1238,#1981),#28);
#1984=SHAPE_REPRESENTATION_RELATIONSHIP('SRRPL1','',#1983,#62);
ENDSEC;
END-ISO-10303-21;
