ISO-10303-21;
HEADER;
/****************************************************************
 * Generated by software with PDElib inside                    *
 * PDElib Version v51a, created Fri 09/10/2010                  *
 * ITI Transcendata (http://www.transcendata.com/)              *
 ****************************************************************/
FILE_DESCRIPTION((''),'2;1');
FILE_NAME('CAPC1709X100N.stp','2013-12-16T15:18:10',(''),(''),'Mechanical Desktop 2011','Mechanical Desktop 2011',', , ');
FILE_SCHEMA(('AUTOMOTIVE_DESIGN { 1 2 10303 214 1 1 1 1 }'));
ENDSEC;
DATA;
#10=(NAMED_UNIT(*)PLANE_ANGLE_UNIT()SI_UNIT($,.RADIAN.));
#11=DIMENSIONAL_EXPONENTS(0.0,0.0,0.0,0.0,0.0,0.0,0.0);
#12=PLANE_ANGLE_MEASURE_WITH_UNIT(PLANE_ANGLE_MEASURE(0.0174532925),#10);
#16=(CONVERSION_BASED_UNIT('DEGREE',#12)NAMED_UNIT(#11)PLANE_ANGLE_UNIT());
#20=(NAMED_UNIT(*)SI_UNIT($,.STERADIAN.)SOLID_ANGLE_UNIT());
#24=(LENGTH_UNIT()NAMED_UNIT(*)SI_UNIT(.MILLI.,.METRE.));
#26=UNCERTAINTY_MEASURE_WITH_UNIT(LENGTH_MEASURE(0.000001),#24,'DISTANCE_ACCURACY_VALUE','');
#28=(GEOMETRIC_REPRESENTATION_CONTEXT(3)GLOBAL_UNCERTAINTY_ASSIGNED_CONTEXT((#26))GLOBAL_UNIT_ASSIGNED_CONTEXT((#16,#20,#24))REPRESENTATION_CONTEXT('','3D'));
#29=APPLICATION_CONTEXT('automotive design');
#30=APPLICATION_PROTOCOL_DEFINITION('INTERNATIONAL_STANDARD','automotive_design',1998,#29);
#31=PRODUCT_CONTEXT('3D Mechanical Parts',#29,'mechanical');
#32=PRODUCT('Product','Product','',(#31));
#33=PRODUCT_RELATED_PRODUCT_CATEGORY('part',$,(#32));
#34=PRODUCT_CATEGORY('part',$);
#35=PERSON('1','Design','Joe',$,$,$);
#36=ORGANIZATION($,'None','None');
#37=PERSON_AND_ORGANIZATION(#35,#36);
#38=PERSON_AND_ORGANIZATION_ROLE('design_owner');
#39=APPLIED_PERSON_AND_ORGANIZATION_ASSIGNMENT(#37,#38,(#32));
#40=PRODUCT_DEFINITION_FORMATION_WITH_SPECIFIED_SOURCE('None','',#32,.BOUGHT.);
#41=PERSON('2','Creator','Joe',$,$,$);
#42=ORGANIZATION($,'None','None');
#43=PERSON_AND_ORGANIZATION(#41,#42);
#44=PERSON_AND_ORGANIZATION_ROLE('creator');
#45=APPLIED_PERSON_AND_ORGANIZATION_ASSIGNMENT(#43,#44,(#40));
#46=PERSON('3','Supplier','Joe',$,$,$);
#47=ORGANIZATION($,'None','None');
#48=PERSON_AND_ORGANIZATION(#46,#47);
#49=PERSON_AND_ORGANIZATION_ROLE('design_supplier');
#50=APPLIED_PERSON_AND_ORGANIZATION_ASSIGNMENT(#48,#49,(#40));
#51=PRODUCT_DEFINITION_CONTEXT('part definition',#29,'design');
#52=PRODUCT_DEFINITION('None','',#40,#51);
#53=PERSON('4','Creator','Joe',$,$,$);
#54=ORGANIZATION($,'None','None');
#55=PERSON_AND_ORGANIZATION(#53,#54);
#56=PERSON_AND_ORGANIZATION_ROLE('creator');
#57=APPLIED_PERSON_AND_ORGANIZATION_ASSIGNMENT(#55,#56,(#52));
#58=CARTESIAN_POINT('NONE',(0.0,0.0,0.0));
#59=DIRECTION('NONE',(0.0,0.0,1.0));
#60=DIRECTION('NONE',(1.0,0.0,0.0));
#61=AXIS2_PLACEMENT_3D('NONE',#58,#59,#60);
#62=SHAPE_REPRESENTATION('SR1',(#61),#28);
#63=PRODUCT_DEFINITION_SHAPE('PDS1','Test Part',#52);
#64=SHAPE_DEFINITION_REPRESENTATION(#63,#62);
#65=CARTESIAN_POINT('',(0.8,-0.4,0.1));
#66=DIRECTION('',(0.0,0.0,1.0));
#67=DIRECTION('',(1.0,0.0,0.0));
#68=AXIS2_PLACEMENT_3D('',#65,#66,#67);
#69=SPHERICAL_SURFACE('',#68,0.1);
#70=CARTESIAN_POINT('',(0.8,-0.4,0.0));
#71=VERTEX_POINT('',#70);
#72=CARTESIAN_POINT('',(0.9,-0.4,0.1));
#73=VERTEX_POINT('',#72);
#74=CARTESIAN_POINT('',(0.8,-0.4,0.1));
#75=DIRECTION('',(0.0,-1.0,0.0));
#76=DIRECTION('',(0.707106781186547,0.0,-0.707106781186548));
#77=AXIS2_PLACEMENT_3D('',#74,#75,#76);
#78=CIRCLE('',#77,0.1);
#79=EDGE_CURVE('',#71,#73,#78,.T.);
#80=ORIENTED_EDGE('',*,*,#79,.T.);
#81=CARTESIAN_POINT('',(0.8,-0.5,0.1));
#82=VERTEX_POINT('',#81);
#83=CARTESIAN_POINT('',(0.8,-0.4,0.1));
#84=DIRECTION('',(0.0,0.0,-1.0));
#85=DIRECTION('',(0.0,-1.0,0.0));
#86=AXIS2_PLACEMENT_3D('',#83,#84,#85);
#87=CIRCLE('',#86,0.1);
#88=EDGE_CURVE('',#82,#73,#87,.F.);
#89=ORIENTED_EDGE('',*,*,#88,.F.);
#90=CARTESIAN_POINT('',(0.8,-0.4,0.1));
#91=DIRECTION('',(1.0,0.0,0.0));
#92=DIRECTION('',(0.0,-0.707106781186548,-0.707106781186547));
#93=AXIS2_PLACEMENT_3D('',#90,#91,#92);
#94=CIRCLE('',#93,0.1);
#95=EDGE_CURVE('',#82,#71,#94,.T.);
#96=ORIENTED_EDGE('',*,*,#95,.T.);
#97=EDGE_LOOP('',(#80,#89,#96));
#98=FACE_OUTER_BOUND('',#97,.T.);
#99=ADVANCED_FACE('',(#98),#69,.T.);
#100=CARTESIAN_POINT('',(0.8,0.4,0.1));
#101=DIRECTION('',(0.0,0.0,1.0));
#102=DIRECTION('',(1.0,0.0,0.0));
#103=AXIS2_PLACEMENT_3D('',#100,#101,#102);
#104=SPHERICAL_SURFACE('',#103,0.1);
#105=CARTESIAN_POINT('',(0.8,0.4,0.0));
#106=VERTEX_POINT('',#105);
#107=CARTESIAN_POINT('',(0.8,0.5,0.1));
#108=VERTEX_POINT('',#107);
#109=CARTESIAN_POINT('',(0.8,0.4,0.1));
#110=DIRECTION('',(1.0,-1.110223E-015,1.110223E-015));
#111=DIRECTION('',(1.570092E-015,0.707106781186548,-0.707106781186547));
#112=AXIS2_PLACEMENT_3D('',#109,#110,#111);
#113=CIRCLE('',#112,0.1);
#114=EDGE_CURVE('',#106,#108,#113,.T.);
#115=ORIENTED_EDGE('',*,*,#114,.T.);
#116=CARTESIAN_POINT('',(0.9,0.4,0.1));
#117=VERTEX_POINT('',#116);
#118=CARTESIAN_POINT('',(0.8,0.4,0.1));
#119=DIRECTION('',(0.0,0.0,-1.0));
#120=DIRECTION('',(1.0,0.0,0.0));
#121=AXIS2_PLACEMENT_3D('',#118,#119,#120);
#122=CIRCLE('',#121,0.1);
#123=EDGE_CURVE('',#117,#108,#122,.F.);
#124=ORIENTED_EDGE('',*,*,#123,.F.);
#125=CARTESIAN_POINT('',(0.8,0.4,0.1));
#126=DIRECTION('',(0.0,1.0,0.0));
#127=DIRECTION('',(0.707106781186547,0.0,-0.707106781186548));
#128=AXIS2_PLACEMENT_3D('',#125,#126,#127);
#129=CIRCLE('',#128,0.1);
#130=EDGE_CURVE('',#117,#106,#129,.T.);
#131=ORIENTED_EDGE('',*,*,#130,.T.);
#132=EDGE_LOOP('',(#115,#124,#131));
#133=FACE_OUTER_BOUND('',#132,.T.);
#134=ADVANCED_FACE('',(#133),#104,.T.);
#135=CARTESIAN_POINT('',(0.8,-0.4,0.9));
#136=DIRECTION('',(0.0,0.0,1.0));
#137=DIRECTION('',(1.0,0.0,0.0));
#138=AXIS2_PLACEMENT_3D('',#135,#136,#137);
#139=SPHERICAL_SURFACE('',#138,0.1);
#140=CARTESIAN_POINT('',(0.8,-0.5,0.9));
#141=VERTEX_POINT('',#140);
#142=CARTESIAN_POINT('',(0.9,-0.4,0.9));
#143=VERTEX_POINT('',#142);
#144=CARTESIAN_POINT('',(0.8,-0.4,0.9));
#145=DIRECTION('',(0.0,0.0,1.0));
#146=DIRECTION('',(0.707106781186547,-0.707106781186548,0.0));
#147=AXIS2_PLACEMENT_3D('',#144,#145,#146);
#148=CIRCLE('',#147,0.1);
#149=EDGE_CURVE('',#141,#143,#148,.T.);
#150=ORIENTED_EDGE('',*,*,#149,.T.);
#151=CARTESIAN_POINT('',(0.8,-0.4,1.0));
#152=VERTEX_POINT('',#151);
#153=CARTESIAN_POINT('',(0.8,-0.4,0.9));
#154=DIRECTION('',(0.0,-1.0,0.0));
#155=DIRECTION('',(0.0,0.0,1.0));
#156=AXIS2_PLACEMENT_3D('',#153,#154,#155);
#157=CIRCLE('',#156,0.1);
#158=EDGE_CURVE('',#152,#143,#157,.F.);
#159=ORIENTED_EDGE('',*,*,#158,.F.);
#160=CARTESIAN_POINT('',(0.8,-0.4,0.9));
#161=DIRECTION('',(1.0,-1.110223E-015,1.110223E-015));
#162=DIRECTION('',(-1.570092E-015,-0.707106781186548,0.707106781186547));
#163=AXIS2_PLACEMENT_3D('',#160,#161,#162);
#164=CIRCLE('',#163,0.1);
#165=EDGE_CURVE('',#152,#141,#164,.T.);
#166=ORIENTED_EDGE('',*,*,#165,.T.);
#167=EDGE_LOOP('',(#150,#159,#166));
#168=FACE_OUTER_BOUND('',#167,.T.);
#169=ADVANCED_FACE('',(#168),#139,.T.);
#170=CARTESIAN_POINT('',(0.8,0.4,0.9));
#171=DIRECTION('',(0.0,0.0,1.0));
#172=DIRECTION('',(1.0,0.0,0.0));
#173=AXIS2_PLACEMENT_3D('',#170,#171,#172);
#174=SPHERICAL_SURFACE('',#173,0.1);
#175=CARTESIAN_POINT('',(0.8,0.5,0.9));
#176=VERTEX_POINT('',#175);
#177=CARTESIAN_POINT('',(0.8,0.4,1.0));
#178=VERTEX_POINT('',#177);
#179=CARTESIAN_POINT('',(0.8,0.4,0.9));
#180=DIRECTION('',(1.0,1.110223E-015,1.110223E-015));
#181=DIRECTION('',(-1.570092E-015,0.707106781186548,0.707106781186547));
#182=AXIS2_PLACEMENT_3D('',#179,#180,#181);
#183=CIRCLE('',#182,0.1);
#184=EDGE_CURVE('',#176,#178,#183,.T.);
#185=ORIENTED_EDGE('',*,*,#184,.T.);
#186=CARTESIAN_POINT('',(0.9,0.4,0.9));
#187=VERTEX_POINT('',#186);
#188=CARTESIAN_POINT('',(0.8,0.4,0.9));
#189=DIRECTION('',(0.0,1.0,0.0));
#190=DIRECTION('',(1.0,0.0,0.0));
#191=AXIS2_PLACEMENT_3D('',#188,#189,#190);
#192=CIRCLE('',#191,0.1);
#193=EDGE_CURVE('',#187,#178,#192,.F.);
#194=ORIENTED_EDGE('',*,*,#193,.F.);
#195=CARTESIAN_POINT('',(0.8,0.4,0.9));
#196=DIRECTION('',(0.0,0.0,1.0));
#197=DIRECTION('',(0.707106781186547,0.707106781186548,0.0));
#198=AXIS2_PLACEMENT_3D('',#195,#196,#197);
#199=CIRCLE('',#198,0.1);
#200=EDGE_CURVE('',#187,#176,#199,.T.);
#201=ORIENTED_EDGE('',*,*,#200,.T.);
#202=EDGE_LOOP('',(#185,#194,#201));
#203=FACE_OUTER_BOUND('',#202,.T.);
#204=ADVANCED_FACE('',(#203),#174,.T.);
#205=CARTESIAN_POINT('',(0.8,0.25,0.9));
#206=DIRECTION('',(0.0,-1.0,0.0));
#207=DIRECTION('',(0.707106781186548,0.0,0.707106781186547));
#208=AXIS2_PLACEMENT_3D('',#205,#206,#207);
#209=CYLINDRICAL_SURFACE('',#208,0.1);
#210=ORIENTED_EDGE('',*,*,#158,.T.);
#211=CARTESIAN_POINT('',(0.9,-0.4,0.9));
#212=DIRECTION('',(0.0,1.0,0.0));
#213=VECTOR('',#212,0.8);
#214=LINE('',#211,#213);
#215=EDGE_CURVE('',#143,#187,#214,.T.);
#216=ORIENTED_EDGE('',*,*,#215,.T.);
#217=ORIENTED_EDGE('',*,*,#193,.T.);
#218=CARTESIAN_POINT('',(0.8,0.4,1.0));
#219=DIRECTION('',(0.0,-1.0,0.0));
#220=VECTOR('',#219,0.8);
#221=LINE('',#218,#220);
#222=EDGE_CURVE('',#178,#152,#221,.T.);
#223=ORIENTED_EDGE('',*,*,#222,.T.);
#224=EDGE_LOOP('',(#210,#216,#217,#223));
#225=FACE_OUTER_BOUND('',#224,.T.);
#226=ADVANCED_FACE('',(#225),#209,.T.);
#227=CARTESIAN_POINT('',(0.8,0.4,0.0));
#228=DIRECTION('',(0.0,0.0,1.0));
#229=DIRECTION('',(0.707106781186547,0.707106781186548,0.0));
#230=AXIS2_PLACEMENT_3D('',#227,#228,#229);
#231=CYLINDRICAL_SURFACE('',#230,0.1);
#232=ORIENTED_EDGE('',*,*,#200,.F.);
#233=CARTESIAN_POINT('',(0.9,0.4,0.9));
#234=DIRECTION('',(0.0,0.0,-1.0));
#235=VECTOR('',#234,0.8);
#236=LINE('',#233,#235);
#237=EDGE_CURVE('',#187,#117,#236,.T.);
#238=ORIENTED_EDGE('',*,*,#237,.T.);
#239=ORIENTED_EDGE('',*,*,#123,.T.);
#240=CARTESIAN_POINT('',(0.8,0.5,0.1));
#241=DIRECTION('',(0.0,0.0,1.0));
#242=VECTOR('',#241,0.8);
#243=LINE('',#240,#242);
#244=EDGE_CURVE('',#108,#176,#243,.T.);
#245=ORIENTED_EDGE('',*,*,#244,.T.);
#246=EDGE_LOOP('',(#232,#238,#239,#245));
#247=FACE_OUTER_BOUND('',#246,.T.);
#248=ADVANCED_FACE('',(#247),#231,.T.);
#249=CARTESIAN_POINT('',(0.675,0.4,0.9));
#250=DIRECTION('',(1.0,0.0,0.0));
#251=DIRECTION('',(0.0,0.707106781186548,0.707106781186547));
#252=AXIS2_PLACEMENT_3D('',#249,#250,#251);
#253=CYLINDRICAL_SURFACE('',#252,0.1);
#254=CARTESIAN_POINT('',(0.6,0.5,0.9));
#255=VERTEX_POINT('',#254);
#256=CARTESIAN_POINT('',(0.6,0.4,1.0));
#257=VERTEX_POINT('',#256);
#258=CARTESIAN_POINT('',(0.6,0.4,0.9));
#259=DIRECTION('',(1.0,0.0,0.0));
#260=DIRECTION('',(0.0,0.707106781186548,0.707106781186547));
#261=AXIS2_PLACEMENT_3D('',#258,#259,#260);
#262=CIRCLE('',#261,0.1);
#263=EDGE_CURVE('',#255,#257,#262,.T.);
#264=ORIENTED_EDGE('',*,*,#263,.T.);
#265=CARTESIAN_POINT('',(0.6,0.4,1.0));
#266=DIRECTION('',(1.0,0.0,0.0));
#267=VECTOR('',#266,0.2);
#268=LINE('',#265,#267);
#269=EDGE_CURVE('',#257,#178,#268,.T.);
#270=ORIENTED_EDGE('',*,*,#269,.T.);
#271=ORIENTED_EDGE('',*,*,#184,.F.);
#272=CARTESIAN_POINT('',(0.8,0.5,0.9));
#273=DIRECTION('',(-1.0,0.0,0.0));
#274=VECTOR('',#273,0.2);
#275=LINE('',#272,#274);
#276=EDGE_CURVE('',#176,#255,#275,.T.);
#277=ORIENTED_EDGE('',*,*,#276,.T.);
#278=EDGE_LOOP('',(#264,#270,#271,#277));
#279=FACE_OUTER_BOUND('',#278,.T.);
#280=ADVANCED_FACE('',(#279),#253,.T.);
#281=CARTESIAN_POINT('',(0.8,-0.4,0.0));
#282=DIRECTION('',(0.0,0.0,1.0));
#283=DIRECTION('',(0.707106781186547,-0.707106781186548,0.0));
#284=AXIS2_PLACEMENT_3D('',#281,#282,#283);
#285=CYLINDRICAL_SURFACE('',#284,0.1);
#286=ORIENTED_EDGE('',*,*,#149,.F.);
#287=CARTESIAN_POINT('',(0.8,-0.5,0.9));
#288=DIRECTION('',(0.0,0.0,-1.0));
#289=VECTOR('',#288,0.8);
#290=LINE('',#287,#289);
#291=EDGE_CURVE('',#141,#82,#290,.T.);
#292=ORIENTED_EDGE('',*,*,#291,.T.);
#293=ORIENTED_EDGE('',*,*,#88,.T.);
#294=CARTESIAN_POINT('',(0.9,-0.4,0.1));
#295=DIRECTION('',(0.0,0.0,1.0));
#296=VECTOR('',#295,0.8);
#297=LINE('',#294,#296);
#298=EDGE_CURVE('',#73,#143,#297,.T.);
#299=ORIENTED_EDGE('',*,*,#298,.T.);
#300=EDGE_LOOP('',(#286,#292,#293,#299));
#301=FACE_OUTER_BOUND('',#300,.T.);
#302=ADVANCED_FACE('',(#301),#285,.T.);
#303=CARTESIAN_POINT('',(0.825,-0.4,0.9));
#304=DIRECTION('',(-1.0,0.0,0.0));
#305=DIRECTION('',(0.0,-0.707106781186548,0.707106781186547));
#306=AXIS2_PLACEMENT_3D('',#303,#304,#305);
#307=CYLINDRICAL_SURFACE('',#306,0.1);
#308=CARTESIAN_POINT('',(0.6,-0.4,1.0));
#309=VERTEX_POINT('',#308);
#310=CARTESIAN_POINT('',(0.6,-0.5,0.9));
#311=VERTEX_POINT('',#310);
#312=CARTESIAN_POINT('',(0.6,-0.4,0.9));
#313=DIRECTION('',(1.0,0.0,0.0));
#314=DIRECTION('',(0.0,-0.707106781186548,0.707106781186547));
#315=AXIS2_PLACEMENT_3D('',#312,#313,#314);
#316=CIRCLE('',#315,0.1);
#317=EDGE_CURVE('',#309,#311,#316,.T.);
#318=ORIENTED_EDGE('',*,*,#317,.T.);
#319=CARTESIAN_POINT('',(0.6,-0.5,0.9));
#320=DIRECTION('',(1.0,0.0,0.0));
#321=VECTOR('',#320,0.2);
#322=LINE('',#319,#321);
#323=EDGE_CURVE('',#311,#141,#322,.T.);
#324=ORIENTED_EDGE('',*,*,#323,.T.);
#325=ORIENTED_EDGE('',*,*,#165,.F.);
#326=CARTESIAN_POINT('',(0.8,-0.4,1.0));
#327=DIRECTION('',(-1.0,0.0,0.0));
#328=VECTOR('',#327,0.2);
#329=LINE('',#326,#328);
#330=EDGE_CURVE('',#152,#309,#329,.T.);
#331=ORIENTED_EDGE('',*,*,#330,.T.);
#332=EDGE_LOOP('',(#318,#324,#325,#331));
#333=FACE_OUTER_BOUND('',#332,.T.);
#334=ADVANCED_FACE('',(#333),#307,.T.);
#335=CARTESIAN_POINT('',(0.675,0.4,0.1));
#336=DIRECTION('',(1.0,0.0,0.0));
#337=DIRECTION('',(0.0,0.707106781186548,-0.707106781186547));
#338=AXIS2_PLACEMENT_3D('',#335,#336,#337);
#339=CYLINDRICAL_SURFACE('',#338,0.1);
#340=CARTESIAN_POINT('',(0.6,0.4,0.0));
#341=VERTEX_POINT('',#340);
#342=CARTESIAN_POINT('',(0.6,0.5,0.1));
#343=VERTEX_POINT('',#342);
#344=CARTESIAN_POINT('',(0.6,0.4,0.1));
#345=DIRECTION('',(1.0,0.0,0.0));
#346=DIRECTION('',(0.0,0.707106781186548,-0.707106781186547));
#347=AXIS2_PLACEMENT_3D('',#344,#345,#346);
#348=CIRCLE('',#347,0.1);
#349=EDGE_CURVE('',#341,#343,#348,.T.);
#350=ORIENTED_EDGE('',*,*,#349,.T.);
#351=CARTESIAN_POINT('',(0.6,0.5,0.1));
#352=DIRECTION('',(1.0,0.0,0.0));
#353=VECTOR('',#352,0.2);
#354=LINE('',#351,#353);
#355=EDGE_CURVE('',#343,#108,#354,.T.);
#356=ORIENTED_EDGE('',*,*,#355,.T.);
#357=ORIENTED_EDGE('',*,*,#114,.F.);
#358=CARTESIAN_POINT('',(0.8,0.4,0.0));
#359=DIRECTION('',(-1.0,0.0,0.0));
#360=VECTOR('',#359,0.2);
#361=LINE('',#358,#360);
#362=EDGE_CURVE('',#106,#341,#361,.T.);
#363=ORIENTED_EDGE('',*,*,#362,.T.);
#364=EDGE_LOOP('',(#350,#356,#357,#363));
#365=FACE_OUTER_BOUND('',#364,.T.);
#366=ADVANCED_FACE('',(#365),#339,.T.);
#367=CARTESIAN_POINT('',(0.8,0.25,0.1));
#368=DIRECTION('',(0.0,-1.0,0.0));
#369=DIRECTION('',(0.707106781186547,0.0,-0.707106781186548));
#370=AXIS2_PLACEMENT_3D('',#367,#368,#369);
#371=CYLINDRICAL_SURFACE('',#370,0.1);
#372=ORIENTED_EDGE('',*,*,#79,.F.);
#373=CARTESIAN_POINT('',(0.8,-0.4,0.0));
#374=DIRECTION('',(0.0,1.0,0.0));
#375=VECTOR('',#374,0.8);
#376=LINE('',#373,#375);
#377=EDGE_CURVE('',#71,#106,#376,.T.);
#378=ORIENTED_EDGE('',*,*,#377,.T.);
#379=ORIENTED_EDGE('',*,*,#130,.F.);
#380=CARTESIAN_POINT('',(0.9,0.4,0.1));
#381=DIRECTION('',(0.0,-1.0,0.0));
#382=VECTOR('',#381,0.8);
#383=LINE('',#380,#382);
#384=EDGE_CURVE('',#117,#73,#383,.T.);
#385=ORIENTED_EDGE('',*,*,#384,.T.);
#386=EDGE_LOOP('',(#372,#378,#379,#385));
#387=FACE_OUTER_BOUND('',#386,.T.);
#388=ADVANCED_FACE('',(#387),#371,.T.);
#389=CARTESIAN_POINT('',(0.825,-0.4,0.1));
#390=DIRECTION('',(-1.0,0.0,0.0));
#391=DIRECTION('',(0.0,-0.707106781186548,-0.707106781186547));
#392=AXIS2_PLACEMENT_3D('',#389,#390,#391);
#393=CYLINDRICAL_SURFACE('',#392,0.1);
#394=CARTESIAN_POINT('',(0.6,-0.5,0.1));
#395=VERTEX_POINT('',#394);
#396=CARTESIAN_POINT('',(0.6,-0.4,0.0));
#397=VERTEX_POINT('',#396);
#398=CARTESIAN_POINT('',(0.6,-0.4,0.1));
#399=DIRECTION('',(1.0,0.0,0.0));
#400=DIRECTION('',(0.0,-0.707106781186548,-0.707106781186547));
#401=AXIS2_PLACEMENT_3D('',#398,#399,#400);
#402=CIRCLE('',#401,0.1);
#403=EDGE_CURVE('',#395,#397,#402,.T.);
#404=ORIENTED_EDGE('',*,*,#403,.T.);
#405=CARTESIAN_POINT('',(0.6,-0.4,0.0));
#406=DIRECTION('',(1.0,0.0,0.0));
#407=VECTOR('',#406,0.2);
#408=LINE('',#405,#407);
#409=EDGE_CURVE('',#397,#71,#408,.T.);
#410=ORIENTED_EDGE('',*,*,#409,.T.);
#411=ORIENTED_EDGE('',*,*,#95,.F.);
#412=CARTESIAN_POINT('',(0.8,-0.5,0.1));
#413=DIRECTION('',(-1.0,0.0,0.0));
#414=VECTOR('',#413,0.2);
#415=LINE('',#412,#414);
#416=EDGE_CURVE('',#82,#395,#415,.T.);
#417=ORIENTED_EDGE('',*,*,#416,.T.);
#418=EDGE_LOOP('',(#404,#410,#411,#417));
#419=FACE_OUTER_BOUND('',#418,.T.);
#420=ADVANCED_FACE('',(#419),#393,.T.);
#421=CARTESIAN_POINT('',(0.75,-1.649807E-018,1.0));
#422=DIRECTION('',(0.0,0.0,1.0));
#423=DIRECTION('',(1.0,0.0,0.0));
#424=AXIS2_PLACEMENT_3D('',#421,#422,#423);
#425=PLANE('',#424);
#426=ORIENTED_EDGE('',*,*,#330,.F.);
#427=ORIENTED_EDGE('',*,*,#222,.F.);
#428=ORIENTED_EDGE('',*,*,#269,.F.);
#429=CARTESIAN_POINT('',(0.6,-0.4,1.0));
#430=DIRECTION('',(0.0,1.0,0.0));
#431=VECTOR('',#430,0.8);
#432=LINE('',#429,#431);
#433=EDGE_CURVE('',#309,#257,#432,.T.);
#434=ORIENTED_EDGE('',*,*,#433,.F.);
#435=EDGE_LOOP('',(#426,#427,#428,#434));
#436=FACE_OUTER_BOUND('',#435,.T.);
#437=ADVANCED_FACE('',(#436),#425,.T.);
#438=CARTESIAN_POINT('',(0.6,0.5,0.0));
#439=DIRECTION('',(0.0,1.0,0.0));
#440=DIRECTION('',(0.0,0.0,1.0));
#441=AXIS2_PLACEMENT_3D('',#438,#439,#440);
#442=PLANE('',#441);
#443=ORIENTED_EDGE('',*,*,#276,.F.);
#444=ORIENTED_EDGE('',*,*,#244,.F.);
#445=ORIENTED_EDGE('',*,*,#355,.F.);
#446=CARTESIAN_POINT('',(0.6,0.5,0.1));
#447=DIRECTION('',(0.0,0.0,1.0));
#448=VECTOR('',#447,0.8);
#449=LINE('',#446,#448);
#450=EDGE_CURVE('',#343,#255,#449,.T.);
#451=ORIENTED_EDGE('',*,*,#450,.T.);
#452=EDGE_LOOP('',(#443,#444,#445,#451));
#453=FACE_OUTER_BOUND('',#452,.T.);
#454=ADVANCED_FACE('',(#453),#442,.T.);
#455=CARTESIAN_POINT('',(0.9,0.5,0.0));
#456=DIRECTION('',(1.0,0.0,0.0));
#457=DIRECTION('',(0.0,0.0,-1.0));
#458=AXIS2_PLACEMENT_3D('',#455,#456,#457);
#459=PLANE('',#458);
#460=ORIENTED_EDGE('',*,*,#215,.F.);
#461=ORIENTED_EDGE('',*,*,#298,.F.);
#462=ORIENTED_EDGE('',*,*,#384,.F.);
#463=ORIENTED_EDGE('',*,*,#237,.F.);
#464=EDGE_LOOP('',(#460,#461,#462,#463));
#465=FACE_OUTER_BOUND('',#464,.T.);
#466=ADVANCED_FACE('',(#465),#459,.T.);
#467=CARTESIAN_POINT('',(0.9,-0.5,0.0));
#468=DIRECTION('',(0.0,-1.0,0.0));
#469=DIRECTION('',(0.0,0.0,-1.0));
#470=AXIS2_PLACEMENT_3D('',#467,#468,#469);
#471=PLANE('',#470);
#472=ORIENTED_EDGE('',*,*,#323,.F.);
#473=CARTESIAN_POINT('',(0.6,-0.5,0.1));
#474=DIRECTION('',(0.0,0.0,1.0));
#475=VECTOR('',#474,0.8);
#476=LINE('',#473,#475);
#477=EDGE_CURVE('',#395,#311,#476,.T.);
#478=ORIENTED_EDGE('',*,*,#477,.F.);
#479=ORIENTED_EDGE('',*,*,#416,.F.);
#480=ORIENTED_EDGE('',*,*,#291,.F.);
#481=EDGE_LOOP('',(#472,#478,#479,#480));
#482=FACE_OUTER_BOUND('',#481,.T.);
#483=ADVANCED_FACE('',(#482),#471,.T.);
#484=CARTESIAN_POINT('',(0.6,-0.5,0.0));
#485=DIRECTION('',(-1.0,0.0,0.0));
#486=DIRECTION('',(0.0,0.0,1.0));
#487=AXIS2_PLACEMENT_3D('',#484,#485,#486);
#488=PLANE('',#487);
#489=ORIENTED_EDGE('',*,*,#317,.F.);
#490=ORIENTED_EDGE('',*,*,#433,.T.);
#491=ORIENTED_EDGE('',*,*,#263,.F.);
#492=ORIENTED_EDGE('',*,*,#450,.F.);
#493=ORIENTED_EDGE('',*,*,#349,.F.);
#494=CARTESIAN_POINT('',(0.6,-0.4,0.0));
#495=DIRECTION('',(0.0,1.0,0.0));
#496=VECTOR('',#495,0.8);
#497=LINE('',#494,#496);
#498=EDGE_CURVE('',#397,#341,#497,.T.);
#499=ORIENTED_EDGE('',*,*,#498,.F.);
#500=ORIENTED_EDGE('',*,*,#403,.F.);
#501=ORIENTED_EDGE('',*,*,#477,.T.);
#502=EDGE_LOOP('',(#489,#490,#491,#492,#493,#499,#500,#501));
#503=FACE_OUTER_BOUND('',#502,.T.);
#504=ADVANCED_FACE('',(#503),#488,.T.);
#505=CARTESIAN_POINT('',(0.75,1.649807E-018,0.0));
#506=DIRECTION('',(0.0,0.0,1.0));
#507=DIRECTION('',(1.0,0.0,0.0));
#508=AXIS2_PLACEMENT_3D('',#505,#506,#507);
#509=PLANE('',#508);
#510=ORIENTED_EDGE('',*,*,#409,.F.);
#511=ORIENTED_EDGE('',*,*,#498,.T.);
#512=ORIENTED_EDGE('',*,*,#362,.F.);
#513=ORIENTED_EDGE('',*,*,#377,.F.);
#514=EDGE_LOOP('',(#510,#511,#512,#513));
#515=FACE_OUTER_BOUND('',#514,.T.);
#516=ADVANCED_FACE('',(#515),#509,.F.);
#517=CLOSED_SHELL('',(#99,#134,#169,#204,#226,#248,#280,#302,#334,#366,#388,#420,#437,#454,#466,#483,#504,#516));
#518=MANIFOLD_SOLID_BREP('4BB',#517);
#519=COLOUR_RGB('254',0.866,0.866,0.866);
#520=SURFACE_STYLE_USAGE(.BOTH.,#521);
#521=SURFACE_SIDE_STYLE('NONE',(#522));
#522=SURFACE_STYLE_FILL_AREA(#523);
#523=FILL_AREA_STYLE('NONE',(#524));
#524=FILL_AREA_STYLE_COLOUR('NONE',#519);
#525=PRESENTATION_STYLE_ASSIGNMENT((#520));
#526=STYLED_ITEM('NONE',(#525),#518);
#527=MECHANICAL_DESIGN_GEOMETRIC_PRESENTATION_REPRESENTATION('NONE',(#526,#826,#1281),#28);
#528=PRESENTATION_LAYER_ASSIGNMENT('3D','None',(#518,#818,#1280));
#529=CARTESIAN_POINT('',(0.3,-0.4,0.1));
#530=DIRECTION('',(-1.0,0.0,0.0));
#531=DIRECTION('',(0.0,-0.707106781186548,-0.707106781186547));
#532=AXIS2_PLACEMENT_3D('',#529,#530,#531);
#533=CYLINDRICAL_SURFACE('',#532,0.1);
#534=CARTESIAN_POINT('',(-0.6,-0.5,0.1));
#535=VERTEX_POINT('',#534);
#536=CARTESIAN_POINT('',(-0.6,-0.4,0.0));
#537=VERTEX_POINT('',#536);
#538=CARTESIAN_POINT('',(-0.6,-0.4,0.1));
#539=DIRECTION('',(1.0,0.0,0.0));
#540=DIRECTION('',(0.0,-0.707106781186548,-0.707106781186547));
#541=AXIS2_PLACEMENT_3D('',#538,#539,#540);
#542=CIRCLE('',#541,0.1);
#543=EDGE_CURVE('',#535,#537,#542,.T.);
#544=ORIENTED_EDGE('',*,*,#543,.T.);
#545=CARTESIAN_POINT('',(0.6,-0.4,0.0));
#546=VERTEX_POINT('',#545);
#547=CARTESIAN_POINT('',(-0.6,-0.4,0.0));
#548=DIRECTION('',(1.0,0.0,0.0));
#549=VECTOR('',#548,1.2);
#550=LINE('',#547,#549);
#551=EDGE_CURVE('',#537,#546,#550,.T.);
#552=ORIENTED_EDGE('',*,*,#551,.T.);
#553=CARTESIAN_POINT('',(0.6,-0.5,0.1));
#554=VERTEX_POINT('',#553);
#555=CARTESIAN_POINT('',(0.6,-0.4,0.1));
#556=DIRECTION('',(-1.0,0.0,0.0));
#557=DIRECTION('',(0.0,-0.707106781186548,-0.707106781186547));
#558=AXIS2_PLACEMENT_3D('',#555,#556,#557);
#559=CIRCLE('',#558,0.1);
#560=EDGE_CURVE('',#546,#554,#559,.T.);
#561=ORIENTED_EDGE('',*,*,#560,.T.);
#562=CARTESIAN_POINT('',(0.6,-0.5,0.1));
#563=DIRECTION('',(-1.0,0.0,0.0));
#564=VECTOR('',#563,1.2);
#565=LINE('',#562,#564);
#566=EDGE_CURVE('',#554,#535,#565,.T.);
#567=ORIENTED_EDGE('',*,*,#566,.T.);
#568=EDGE_LOOP('',(#544,#552,#561,#567));
#569=FACE_OUTER_BOUND('',#568,.T.);
#570=ADVANCED_FACE('',(#569),#533,.T.);
#571=CARTESIAN_POINT('',(0.6,0.5,0.0));
#572=DIRECTION('',(1.0,0.0,0.0));
#573=DIRECTION('',(0.0,0.0,-1.0));
#574=AXIS2_PLACEMENT_3D('',#571,#572,#573);
#575=PLANE('',#574);
#576=ORIENTED_EDGE('',*,*,#560,.F.);
#577=CARTESIAN_POINT('',(0.6,0.4,0.0));
#578=VERTEX_POINT('',#577);
#579=CARTESIAN_POINT('',(0.6,0.4,0.0));
#580=DIRECTION('',(0.0,-1.0,0.0));
#581=VECTOR('',#580,0.8);
#582=LINE('',#579,#581);
#583=EDGE_CURVE('',#578,#546,#582,.T.);
#584=ORIENTED_EDGE('',*,*,#583,.F.);
#585=CARTESIAN_POINT('',(0.6,0.5,0.1));
#586=VERTEX_POINT('',#585);
#587=CARTESIAN_POINT('',(0.6,0.4,0.1));
#588=DIRECTION('',(-1.0,0.0,0.0));
#589=DIRECTION('',(0.0,0.707106781186548,-0.707106781186547));
#590=AXIS2_PLACEMENT_3D('',#587,#588,#589);
#591=CIRCLE('',#590,0.1);
#592=EDGE_CURVE('',#586,#578,#591,.T.);
#593=ORIENTED_EDGE('',*,*,#592,.F.);
#594=CARTESIAN_POINT('',(0.6,0.5,0.9));
#595=VERTEX_POINT('',#594);
#596=CARTESIAN_POINT('',(0.6,0.5,0.1));
#597=DIRECTION('',(0.0,0.0,1.0));
#598=VECTOR('',#597,0.8);
#599=LINE('',#596,#598);
#600=EDGE_CURVE('',#586,#595,#599,.T.);
#601=ORIENTED_EDGE('',*,*,#600,.T.);
#602=CARTESIAN_POINT('',(0.6,0.4,1.0));
#603=VERTEX_POINT('',#602);
#604=CARTESIAN_POINT('',(0.6,0.4,0.9));
#605=DIRECTION('',(-1.0,0.0,0.0));
#606=DIRECTION('',(0.0,0.707106781186548,0.707106781186547));
#607=AXIS2_PLACEMENT_3D('',#604,#605,#606);
#608=CIRCLE('',#607,0.1);
#609=EDGE_CURVE('',#603,#595,#608,.T.);
#610=ORIENTED_EDGE('',*,*,#609,.F.);
#611=CARTESIAN_POINT('',(0.6,-0.4,1.0));
#612=VERTEX_POINT('',#611);
#613=CARTESIAN_POINT('',(0.6,0.4,1.0));
#614=DIRECTION('',(0.0,-1.0,0.0));
#615=VECTOR('',#614,0.8);
#616=LINE('',#613,#615);
#617=EDGE_CURVE('',#603,#612,#616,.T.);
#618=ORIENTED_EDGE('',*,*,#617,.T.);
#619=CARTESIAN_POINT('',(0.6,-0.5,0.9));
#620=VERTEX_POINT('',#619);
#621=CARTESIAN_POINT('',(0.6,-0.4,0.9));
#622=DIRECTION('',(-1.0,0.0,0.0));
#623=DIRECTION('',(0.0,-0.707106781186548,0.707106781186547));
#624=AXIS2_PLACEMENT_3D('',#621,#622,#623);
#625=CIRCLE('',#624,0.1);
#626=EDGE_CURVE('',#620,#612,#625,.T.);
#627=ORIENTED_EDGE('',*,*,#626,.F.);
#628=CARTESIAN_POINT('',(0.6,-0.5,0.1));
#629=DIRECTION('',(0.0,0.0,1.0));
#630=VECTOR('',#629,0.8);
#631=LINE('',#628,#630);
#632=EDGE_CURVE('',#554,#620,#631,.T.);
#633=ORIENTED_EDGE('',*,*,#632,.F.);
#634=EDGE_LOOP('',(#576,#584,#593,#601,#610,#618,#627,#633));
#635=FACE_OUTER_BOUND('',#634,.T.);
#636=ADVANCED_FACE('',(#635),#575,.T.);
#637=CARTESIAN_POINT('',(-2.775558E-017,3.693097E-017,0.0));
#638=DIRECTION('',(0.0,0.0,1.0));
#639=DIRECTION('',(1.0,0.0,0.0));
#640=AXIS2_PLACEMENT_3D('',#637,#638,#639);
#641=PLANE('',#640);
#642=ORIENTED_EDGE('',*,*,#551,.F.);
#643=CARTESIAN_POINT('',(-0.6,0.4,0.0));
#644=VERTEX_POINT('',#643);
#645=CARTESIAN_POINT('',(-0.6,-0.4,0.0));
#646=DIRECTION('',(0.0,1.0,0.0));
#647=VECTOR('',#646,0.8);
#648=LINE('',#645,#647);
#649=EDGE_CURVE('',#537,#644,#648,.T.);
#650=ORIENTED_EDGE('',*,*,#649,.T.);
#651=CARTESIAN_POINT('',(0.6,0.4,0.0));
#652=DIRECTION('',(-1.0,0.0,0.0));
#653=VECTOR('',#652,1.2);
#654=LINE('',#651,#653);
#655=EDGE_CURVE('',#578,#644,#654,.T.);
#656=ORIENTED_EDGE('',*,*,#655,.F.);
#657=ORIENTED_EDGE('',*,*,#583,.T.);
#658=EDGE_LOOP('',(#642,#650,#656,#657));
#659=FACE_OUTER_BOUND('',#658,.T.);
#660=ADVANCED_FACE('',(#659),#641,.F.);
#661=CARTESIAN_POINT('',(-0.3,0.4,0.1));
#662=DIRECTION('',(1.0,0.0,0.0));
#663=DIRECTION('',(0.0,0.707106781186548,-0.707106781186547));
#664=AXIS2_PLACEMENT_3D('',#661,#662,#663);
#665=CYLINDRICAL_SURFACE('',#664,0.1);
#666=ORIENTED_EDGE('',*,*,#592,.T.);
#667=ORIENTED_EDGE('',*,*,#655,.T.);
#668=CARTESIAN_POINT('',(-0.6,0.5,0.1));
#669=VERTEX_POINT('',#668);
#670=CARTESIAN_POINT('',(-0.6,0.4,0.1));
#671=DIRECTION('',(1.0,0.0,0.0));
#672=DIRECTION('',(0.0,0.707106781186548,-0.707106781186547));
#673=AXIS2_PLACEMENT_3D('',#670,#671,#672);
#674=CIRCLE('',#673,0.1);
#675=EDGE_CURVE('',#644,#669,#674,.T.);
#676=ORIENTED_EDGE('',*,*,#675,.T.);
#677=CARTESIAN_POINT('',(-0.6,0.5,0.1));
#678=DIRECTION('',(1.0,0.0,0.0));
#679=VECTOR('',#678,1.2);
#680=LINE('',#677,#679);
#681=EDGE_CURVE('',#669,#586,#680,.T.);
#682=ORIENTED_EDGE('',*,*,#681,.T.);
#683=EDGE_LOOP('',(#666,#667,#676,#682));
#684=FACE_OUTER_BOUND('',#683,.T.);
#685=ADVANCED_FACE('',(#684),#665,.T.);
#686=CARTESIAN_POINT('',(0.3,-0.4,0.9));
#687=DIRECTION('',(-1.0,0.0,0.0));
#688=DIRECTION('',(0.0,-0.707106781186548,0.707106781186547));
#689=AXIS2_PLACEMENT_3D('',#686,#687,#688);
#690=CYLINDRICAL_SURFACE('',#689,0.1);
#691=CARTESIAN_POINT('',(-0.6,-0.4,1.0));
#692=VERTEX_POINT('',#691);
#693=CARTESIAN_POINT('',(-0.6,-0.5,0.9));
#694=VERTEX_POINT('',#693);
#695=CARTESIAN_POINT('',(-0.6,-0.4,0.9));
#696=DIRECTION('',(1.0,0.0,0.0));
#697=DIRECTION('',(0.0,-0.707106781186548,0.707106781186547));
#698=AXIS2_PLACEMENT_3D('',#695,#696,#697);
#699=CIRCLE('',#698,0.1);
#700=EDGE_CURVE('',#692,#694,#699,.T.);
#701=ORIENTED_EDGE('',*,*,#700,.T.);
#702=CARTESIAN_POINT('',(-0.6,-0.5,0.9));
#703=DIRECTION('',(1.0,0.0,0.0));
#704=VECTOR('',#703,1.2);
#705=LINE('',#702,#704);
#706=EDGE_CURVE('',#694,#620,#705,.T.);
#707=ORIENTED_EDGE('',*,*,#706,.T.);
#708=ORIENTED_EDGE('',*,*,#626,.T.);
#709=CARTESIAN_POINT('',(0.6,-0.4,1.0));
#710=DIRECTION('',(-1.0,0.0,0.0));
#711=VECTOR('',#710,1.2);
#712=LINE('',#709,#711);
#713=EDGE_CURVE('',#612,#692,#712,.T.);
#714=ORIENTED_EDGE('',*,*,#713,.T.);
#715=EDGE_LOOP('',(#701,#707,#708,#714));
#716=FACE_OUTER_BOUND('',#715,.T.);
#717=ADVANCED_FACE('',(#716),#690,.T.);
#718=CARTESIAN_POINT('',(-0.6,-0.5,0.0));
#719=DIRECTION('',(-1.0,0.0,0.0));
#720=DIRECTION('',(0.0,0.0,1.0));
#721=AXIS2_PLACEMENT_3D('',#718,#719,#720);
#722=PLANE('',#721);
#723=ORIENTED_EDGE('',*,*,#543,.F.);
#724=CARTESIAN_POINT('',(-0.6,-0.5,0.1));
#725=DIRECTION('',(0.0,0.0,1.0));
#726=VECTOR('',#725,0.8);
#727=LINE('',#724,#726);
#728=EDGE_CURVE('',#535,#694,#727,.T.);
#729=ORIENTED_EDGE('',*,*,#728,.T.);
#730=ORIENTED_EDGE('',*,*,#700,.F.);
#731=CARTESIAN_POINT('',(-0.6,0.4,1.0));
#732=VERTEX_POINT('',#731);
#733=CARTESIAN_POINT('',(-0.6,-0.4,1.0));
#734=DIRECTION('',(0.0,1.0,0.0));
#735=VECTOR('',#734,0.8);
#736=LINE('',#733,#735);
#737=EDGE_CURVE('',#692,#732,#736,.T.);
#738=ORIENTED_EDGE('',*,*,#737,.T.);
#739=CARTESIAN_POINT('',(-0.6,0.5,0.9));
#740=VERTEX_POINT('',#739);
#741=CARTESIAN_POINT('',(-0.6,0.4,0.9));
#742=DIRECTION('',(1.0,0.0,0.0));
#743=DIRECTION('',(0.0,0.707106781186548,0.707106781186547));
#744=AXIS2_PLACEMENT_3D('',#741,#742,#743);
#745=CIRCLE('',#744,0.1);
#746=EDGE_CURVE('',#740,#732,#745,.T.);
#747=ORIENTED_EDGE('',*,*,#746,.F.);
#748=CARTESIAN_POINT('',(-0.6,0.5,0.1));
#749=DIRECTION('',(0.0,0.0,1.0));
#750=VECTOR('',#749,0.8);
#751=LINE('',#748,#750);
#752=EDGE_CURVE('',#669,#740,#751,.T.);
#753=ORIENTED_EDGE('',*,*,#752,.F.);
#754=ORIENTED_EDGE('',*,*,#675,.F.);
#755=ORIENTED_EDGE('',*,*,#649,.F.);
#756=EDGE_LOOP('',(#723,#729,#730,#738,#747,#753,#754,#755));
#757=FACE_OUTER_BOUND('',#756,.T.);
#758=ADVANCED_FACE('',(#757),#722,.T.);
#759=CARTESIAN_POINT('',(-2.775558E-017,1.858018E-017,1.0));
#760=DIRECTION('',(0.0,0.0,1.0));
#761=DIRECTION('',(1.0,0.0,0.0));
#762=AXIS2_PLACEMENT_3D('',#759,#760,#761);
#763=PLANE('',#762);
#764=ORIENTED_EDGE('',*,*,#713,.F.);
#765=ORIENTED_EDGE('',*,*,#617,.F.);
#766=CARTESIAN_POINT('',(-0.6,0.4,1.0));
#767=DIRECTION('',(1.0,0.0,0.0));
#768=VECTOR('',#767,1.2);
#769=LINE('',#766,#768);
#770=EDGE_CURVE('',#732,#603,#769,.T.);
#771=ORIENTED_EDGE('',*,*,#770,.F.);
#772=ORIENTED_EDGE('',*,*,#737,.F.);
#773=EDGE_LOOP('',(#764,#765,#771,#772));
#774=FACE_OUTER_BOUND('',#773,.T.);
#775=ADVANCED_FACE('',(#774),#763,.T.);
#776=CARTESIAN_POINT('',(-0.3,0.4,0.9));
#777=DIRECTION('',(1.0,0.0,0.0));
#778=DIRECTION('',(0.0,0.707106781186548,0.707106781186547));
#779=AXIS2_PLACEMENT_3D('',#776,#777,#778);
#780=CYLINDRICAL_SURFACE('',#779,0.1);
#781=ORIENTED_EDGE('',*,*,#609,.T.);
#782=CARTESIAN_POINT('',(0.6,0.5,0.9));
#783=DIRECTION('',(-1.0,0.0,0.0));
#784=VECTOR('',#783,1.2);
#785=LINE('',#782,#784);
#786=EDGE_CURVE('',#595,#740,#785,.T.);
#787=ORIENTED_EDGE('',*,*,#786,.T.);
#788=ORIENTED_EDGE('',*,*,#746,.T.);
#789=ORIENTED_EDGE('',*,*,#770,.T.);
#790=EDGE_LOOP('',(#781,#787,#788,#789));
#791=FACE_OUTER_BOUND('',#790,.T.);
#792=ADVANCED_FACE('',(#791),#780,.T.);
#793=CARTESIAN_POINT('',(0.6,-0.5,0.0));
#794=DIRECTION('',(0.0,-1.0,0.0));
#795=DIRECTION('',(0.0,0.0,-1.0));
#796=AXIS2_PLACEMENT_3D('',#793,#794,#795);
#797=PLANE('',#796);
#798=ORIENTED_EDGE('',*,*,#566,.F.);
#799=ORIENTED_EDGE('',*,*,#632,.T.);
#800=ORIENTED_EDGE('',*,*,#706,.F.);
#801=ORIENTED_EDGE('',*,*,#728,.F.);
#802=EDGE_LOOP('',(#798,#799,#800,#801));
#803=FACE_OUTER_BOUND('',#802,.T.);
#804=ADVANCED_FACE('',(#803),#797,.T.);
#805=CARTESIAN_POINT('',(-0.6,0.5,0.0));
#806=DIRECTION('',(0.0,1.0,0.0));
#807=DIRECTION('',(0.0,0.0,1.0));
#808=AXIS2_PLACEMENT_3D('',#805,#806,#807);
#809=PLANE('',#808);
#810=ORIENTED_EDGE('',*,*,#681,.F.);
#811=ORIENTED_EDGE('',*,*,#752,.T.);
#812=ORIENTED_EDGE('',*,*,#786,.F.);
#813=ORIENTED_EDGE('',*,*,#600,.F.);
#814=EDGE_LOOP('',(#810,#811,#812,#813));
#815=FACE_OUTER_BOUND('',#814,.T.);
#816=ADVANCED_FACE('',(#815),#809,.T.);
#817=CLOSED_SHELL('',(#570,#636,#660,#685,#717,#758,#775,#792,#804,#816));
#818=MANIFOLD_SOLID_BREP('4B7',#817);
#819=COLOUR_RGB('35',0.5,0.375,0.25);
#820=SURFACE_STYLE_USAGE(.BOTH.,#821);
#821=SURFACE_SIDE_STYLE('NONE',(#822));
#822=SURFACE_STYLE_FILL_AREA(#823);
#823=FILL_AREA_STYLE('NONE',(#824));
#824=FILL_AREA_STYLE_COLOUR('NONE',#819);
#825=PRESENTATION_STYLE_ASSIGNMENT((#820));
#826=STYLED_ITEM('NONE',(#825),#818);
#827=CARTESIAN_POINT('',(-0.8,0.4,0.1));
#828=DIRECTION('',(0.0,0.0,1.0));
#829=DIRECTION('',(1.0,0.0,0.0));
#830=AXIS2_PLACEMENT_3D('',#827,#828,#829);
#831=SPHERICAL_SURFACE('',#830,0.1);
#832=CARTESIAN_POINT('',(-0.8,0.5,0.1));
#833=VERTEX_POINT('',#832);
#834=CARTESIAN_POINT('',(-0.8,0.4,0.0));
#835=VERTEX_POINT('',#834);
#836=CARTESIAN_POINT('',(-0.8,0.4,0.1));
#837=DIRECTION('',(-1.0,0.0,0.0));
#838=DIRECTION('',(0.0,0.707106781186548,-0.707106781186547));
#839=AXIS2_PLACEMENT_3D('',#836,#837,#838);
#840=CIRCLE('',#839,0.1);
#841=EDGE_CURVE('',#833,#835,#840,.T.);
#842=ORIENTED_EDGE('',*,*,#841,.T.);
#843=CARTESIAN_POINT('',(-0.9,0.4,0.1));
#844=VERTEX_POINT('',#843);
#845=CARTESIAN_POINT('',(-0.8,0.4,0.1));
#846=DIRECTION('',(0.0,1.0,0.0));
#847=DIRECTION('',(-1.0,0.0,0.0));
#848=AXIS2_PLACEMENT_3D('',#845,#846,#847);
#849=CIRCLE('',#848,0.1);
#850=EDGE_CURVE('',#844,#835,#849,.F.);
#851=ORIENTED_EDGE('',*,*,#850,.F.);
#852=CARTESIAN_POINT('',(-0.8,0.4,0.1));
#853=DIRECTION('',(0.0,0.0,-1.0));
#854=DIRECTION('',(0.0,1.0,0.0));
#855=AXIS2_PLACEMENT_3D('',#852,#853,#854);
#856=CIRCLE('',#855,0.1);
#857=EDGE_CURVE('',#833,#844,#856,.F.);
#858=ORIENTED_EDGE('',*,*,#857,.F.);
#859=EDGE_LOOP('',(#842,#851,#858));
#860=FACE_OUTER_BOUND('',#859,.T.);
#861=ADVANCED_FACE('',(#860),#831,.T.);
#862=CARTESIAN_POINT('',(-0.8,0.4,0.9));
#863=DIRECTION('',(0.0,0.0,1.0));
#864=DIRECTION('',(1.0,0.0,0.0));
#865=AXIS2_PLACEMENT_3D('',#862,#863,#864);
#866=SPHERICAL_SURFACE('',#865,0.1);
#867=CARTESIAN_POINT('',(-0.8,0.5,0.9));
#868=VERTEX_POINT('',#867);
#869=CARTESIAN_POINT('',(-0.9,0.4,0.9));
#870=VERTEX_POINT('',#869);
#871=CARTESIAN_POINT('',(-0.8,0.4,0.9));
#872=DIRECTION('',(0.0,0.0,1.0));
#873=DIRECTION('',(-0.707106781186547,0.707106781186548,0.0));
#874=AXIS2_PLACEMENT_3D('',#871,#872,#873);
#875=CIRCLE('',#874,0.1);
#876=EDGE_CURVE('',#868,#870,#875,.T.);
#877=ORIENTED_EDGE('',*,*,#876,.T.);
#878=CARTESIAN_POINT('',(-0.8,0.4,1.0));
#879=VERTEX_POINT('',#878);
#880=CARTESIAN_POINT('',(-0.8,0.4,0.9));
#881=DIRECTION('',(0.0,1.0,0.0));
#882=DIRECTION('',(0.0,0.0,1.0));
#883=AXIS2_PLACEMENT_3D('',#880,#881,#882);
#884=CIRCLE('',#883,0.1);
#885=EDGE_CURVE('',#879,#870,#884,.F.);
#886=ORIENTED_EDGE('',*,*,#885,.F.);
#887=CARTESIAN_POINT('',(-0.8,0.4,0.9));
#888=DIRECTION('',(-1.0,0.0,0.0));
#889=DIRECTION('',(0.0,0.707106781186548,0.707106781186547));
#890=AXIS2_PLACEMENT_3D('',#887,#888,#889);
#891=CIRCLE('',#890,0.1);
#892=EDGE_CURVE('',#879,#868,#891,.T.);
#893=ORIENTED_EDGE('',*,*,#892,.T.);
#894=EDGE_LOOP('',(#877,#886,#893));
#895=FACE_OUTER_BOUND('',#894,.T.);
#896=ADVANCED_FACE('',(#895),#866,.T.);
#897=CARTESIAN_POINT('',(-0.8,-0.4,0.1));
#898=DIRECTION('',(0.0,0.0,1.0));
#899=DIRECTION('',(1.0,0.0,0.0));
#900=AXIS2_PLACEMENT_3D('',#897,#898,#899);
#901=SPHERICAL_SURFACE('',#900,0.1);
#902=CARTESIAN_POINT('',(-0.8,-0.4,0.0));
#903=VERTEX_POINT('',#902);
#904=CARTESIAN_POINT('',(-0.8,-0.5,0.1));
#905=VERTEX_POINT('',#904);
#906=CARTESIAN_POINT('',(-0.8,-0.4,0.1));
#907=DIRECTION('',(-1.0,1.110223E-015,1.110223E-015));
#908=DIRECTION('',(-1.570092E-015,-0.707106781186548,-0.707106781186547));
#909=AXIS2_PLACEMENT_3D('',#906,#907,#908);
#910=CIRCLE('',#909,0.1);
#911=EDGE_CURVE('',#903,#905,#910,.T.);
#912=ORIENTED_EDGE('',*,*,#911,.T.);
#913=CARTESIAN_POINT('',(-0.9,-0.4,0.1));
#914=VERTEX_POINT('',#913);
#915=CARTESIAN_POINT('',(-0.8,-0.4,0.1));
#916=DIRECTION('',(0.0,0.0,-1.0));
#917=DIRECTION('',(-1.0,0.0,0.0));
#918=AXIS2_PLACEMENT_3D('',#915,#916,#917);
#919=CIRCLE('',#918,0.1);
#920=EDGE_CURVE('',#914,#905,#919,.F.);
#921=ORIENTED_EDGE('',*,*,#920,.F.);
#922=CARTESIAN_POINT('',(-0.8,-0.4,0.1));
#923=DIRECTION('',(0.0,-1.0,0.0));
#924=DIRECTION('',(-0.707106781186547,0.0,-0.707106781186548));
#925=AXIS2_PLACEMENT_3D('',#922,#923,#924);
#926=CIRCLE('',#925,0.1);
#927=EDGE_CURVE('',#914,#903,#926,.T.);
#928=ORIENTED_EDGE('',*,*,#927,.T.);
#929=EDGE_LOOP('',(#912,#921,#928));
#930=FACE_OUTER_BOUND('',#929,.T.);
#931=ADVANCED_FACE('',(#930),#901,.T.);
#932=CARTESIAN_POINT('',(-0.8,-0.4,0.9));
#933=DIRECTION('',(0.0,0.0,1.0));
#934=DIRECTION('',(1.0,0.0,0.0));
#935=AXIS2_PLACEMENT_3D('',#932,#933,#934);
#936=SPHERICAL_SURFACE('',#935,0.1);
#937=CARTESIAN_POINT('',(-0.9,-0.4,0.9));
#938=VERTEX_POINT('',#937);
#939=CARTESIAN_POINT('',(-0.8,-0.5,0.9));
#940=VERTEX_POINT('',#939);
#941=CARTESIAN_POINT('',(-0.8,-0.4,0.9));
#942=DIRECTION('',(0.0,0.0,1.0));
#943=DIRECTION('',(-0.707106781186547,-0.707106781186548,0.0));
#944=AXIS2_PLACEMENT_3D('',#941,#942,#943);
#945=CIRCLE('',#944,0.1);
#946=EDGE_CURVE('',#938,#940,#945,.T.);
#947=ORIENTED_EDGE('',*,*,#946,.T.);
#948=CARTESIAN_POINT('',(-0.8,-0.4,1.0));
#949=VERTEX_POINT('',#948);
#950=CARTESIAN_POINT('',(-0.8,-0.4,0.9));
#951=DIRECTION('',(-1.0,0.0,0.0));
#952=DIRECTION('',(0.0,0.0,1.0));
#953=AXIS2_PLACEMENT_3D('',#950,#951,#952);
#954=CIRCLE('',#953,0.1);
#955=EDGE_CURVE('',#949,#940,#954,.F.);
#956=ORIENTED_EDGE('',*,*,#955,.F.);
#957=CARTESIAN_POINT('',(-0.8,-0.4,0.9));
#958=DIRECTION('',(0.0,-1.0,0.0));
#959=DIRECTION('',(-0.707106781186548,0.0,0.707106781186548));
#960=AXIS2_PLACEMENT_3D('',#957,#958,#959);
#961=CIRCLE('',#960,0.1);
#962=EDGE_CURVE('',#949,#938,#961,.T.);
#963=ORIENTED_EDGE('',*,*,#962,.T.);
#964=EDGE_LOOP('',(#947,#956,#963));
#965=FACE_OUTER_BOUND('',#964,.T.);
#966=ADVANCED_FACE('',(#965),#936,.T.);
#967=CARTESIAN_POINT('',(-0.675,-0.4,0.9));
#968=DIRECTION('',(-1.0,0.0,0.0));
#969=DIRECTION('',(0.0,-0.707106781186548,0.707106781186547));
#970=AXIS2_PLACEMENT_3D('',#967,#968,#969);
#971=CYLINDRICAL_SURFACE('',#970,0.1);
#972=CARTESIAN_POINT('',(-0.6,-0.5,0.9));
#973=VERTEX_POINT('',#972);
#974=CARTESIAN_POINT('',(-0.6,-0.4,1.0));
#975=VERTEX_POINT('',#974);
#976=CARTESIAN_POINT('',(-0.6,-0.4,0.9));
#977=DIRECTION('',(-1.0,0.0,0.0));
#978=DIRECTION('',(0.0,-0.707106781186548,0.707106781186547));
#979=AXIS2_PLACEMENT_3D('',#976,#977,#978);
#980=CIRCLE('',#979,0.1);
#981=EDGE_CURVE('',#973,#975,#980,.T.);
#982=ORIENTED_EDGE('',*,*,#981,.T.);
#983=CARTESIAN_POINT('',(-0.6,-0.4,1.0));
#984=DIRECTION('',(-1.0,0.0,0.0));
#985=VECTOR('',#984,0.2);
#986=LINE('',#983,#985);
#987=EDGE_CURVE('',#975,#949,#986,.T.);
#988=ORIENTED_EDGE('',*,*,#987,.T.);
#989=ORIENTED_EDGE('',*,*,#955,.T.);
#990=CARTESIAN_POINT('',(-0.8,-0.5,0.9));
#991=DIRECTION('',(1.0,0.0,0.0));
#992=VECTOR('',#991,0.2);
#993=LINE('',#990,#992);
#994=EDGE_CURVE('',#940,#973,#993,.T.);
#995=ORIENTED_EDGE('',*,*,#994,.T.);
#996=EDGE_LOOP('',(#982,#988,#989,#995));
#997=FACE_OUTER_BOUND('',#996,.T.);
#998=ADVANCED_FACE('',(#997),#971,.T.);
#999=CARTESIAN_POINT('',(-0.8,-0.4,0.0));
#1000=DIRECTION('',(0.0,0.0,1.0));
#1001=DIRECTION('',(-0.707106781186547,-0.707106781186548,0.0));
#1002=AXIS2_PLACEMENT_3D('',#999,#1000,#1001);
#1003=CYLINDRICAL_SURFACE('',#1002,0.1);
#1004=ORIENTED_EDGE('',*,*,#946,.F.);
#1005=CARTESIAN_POINT('',(-0.9,-0.4,0.9));
#1006=DIRECTION('',(0.0,0.0,-1.0));
#1007=VECTOR('',#1006,0.8);
#1008=LINE('',#1005,#1007);
#1009=EDGE_CURVE('',#938,#914,#1008,.T.);
#1010=ORIENTED_EDGE('',*,*,#1009,.T.);
#1011=ORIENTED_EDGE('',*,*,#920,.T.);
#1012=CARTESIAN_POINT('',(-0.8,-0.5,0.1));
#1013=DIRECTION('',(0.0,0.0,1.0));
#1014=VECTOR('',#1013,0.8);
#1015=LINE('',#1012,#1014);
#1016=EDGE_CURVE('',#905,#940,#1015,.T.);
#1017=ORIENTED_EDGE('',*,*,#1016,.T.);
#1018=EDGE_LOOP('',(#1004,#1010,#1011,#1017));
#1019=FACE_OUTER_BOUND('',#1018,.T.);
#1020=ADVANCED_FACE('',(#1019),#1003,.T.);
#1021=CARTESIAN_POINT('',(-0.8,-0.25,0.9));
#1022=DIRECTION('',(0.0,1.0,0.0));
#1023=DIRECTION('',(-0.707106781186548,0.0,0.707106781186548));
#1024=AXIS2_PLACEMENT_3D('',#1021,#1022,#1023);
#1025=CYLINDRICAL_SURFACE('',#1024,0.1);
#1026=ORIENTED_EDGE('',*,*,#885,.T.);
#1027=CARTESIAN_POINT('',(-0.9,0.4,0.9));
#1028=DIRECTION('',(0.0,-1.0,0.0));
#1029=VECTOR('',#1028,0.8);
#1030=LINE('',#1027,#1029);
#1031=EDGE_CURVE('',#870,#938,#1030,.T.);
#1032=ORIENTED_EDGE('',*,*,#1031,.T.);
#1033=ORIENTED_EDGE('',*,*,#962,.F.);
#1034=CARTESIAN_POINT('',(-0.8,-0.4,1.0));
#1035=DIRECTION('',(0.0,1.0,0.0));
#1036=VECTOR('',#1035,0.8);
#1037=LINE('',#1034,#1036);
#1038=EDGE_CURVE('',#949,#879,#1037,.T.);
#1039=ORIENTED_EDGE('',*,*,#1038,.T.);
#1040=EDGE_LOOP('',(#1026,#1032,#1033,#1039));
#1041=FACE_OUTER_BOUND('',#1040,.T.);
#1042=ADVANCED_FACE('',(#1041),#1025,.T.);
#1043=CARTESIAN_POINT('',(-0.675,-0.4,0.1));
#1044=DIRECTION('',(-1.0,0.0,0.0));
#1045=DIRECTION('',(0.0,-0.707106781186548,-0.707106781186547));
#1046=AXIS2_PLACEMENT_3D('',#1043,#1044,#1045);
#1047=CYLINDRICAL_SURFACE('',#1046,0.1);
#1048=CARTESIAN_POINT('',(-0.6,-0.4,0.0));
#1049=VERTEX_POINT('',#1048);
#1050=CARTESIAN_POINT('',(-0.6,-0.5,0.1));
#1051=VERTEX_POINT('',#1050);
#1052=CARTESIAN_POINT('',(-0.6,-0.4,0.1));
#1053=DIRECTION('',(-1.0,0.0,0.0));
#1054=DIRECTION('',(0.0,-0.707106781186548,-0.707106781186547));
#1055=AXIS2_PLACEMENT_3D('',#1052,#1053,#1054);
#1056=CIRCLE('',#1055,0.1);
#1057=EDGE_CURVE('',#1049,#1051,#1056,.T.);
#1058=ORIENTED_EDGE('',*,*,#1057,.T.);
#1059=CARTESIAN_POINT('',(-0.6,-0.5,0.1));
#1060=DIRECTION('',(-1.0,0.0,0.0));
#1061=VECTOR('',#1060,0.2);
#1062=LINE('',#1059,#1061);
#1063=EDGE_CURVE('',#1051,#905,#1062,.T.);
#1064=ORIENTED_EDGE('',*,*,#1063,.T.);
#1065=ORIENTED_EDGE('',*,*,#911,.F.);
#1066=CARTESIAN_POINT('',(-0.8,-0.4,0.0));
#1067=DIRECTION('',(1.0,0.0,0.0));
#1068=VECTOR('',#1067,0.2);
#1069=LINE('',#1066,#1068);
#1070=EDGE_CURVE('',#903,#1049,#1069,.T.);
#1071=ORIENTED_EDGE('',*,*,#1070,.T.);
#1072=EDGE_LOOP('',(#1058,#1064,#1065,#1071));
#1073=FACE_OUTER_BOUND('',#1072,.T.);
#1074=ADVANCED_FACE('',(#1073),#1047,.T.);
#1075=CARTESIAN_POINT('',(-0.8,-0.25,0.1));
#1076=DIRECTION('',(0.0,1.0,0.0));
#1077=DIRECTION('',(-0.707106781186547,0.0,-0.707106781186548));
#1078=AXIS2_PLACEMENT_3D('',#1075,#1076,#1077);
#1079=CYLINDRICAL_SURFACE('',#1078,0.1);
#1080=ORIENTED_EDGE('',*,*,#850,.T.);
#1081=CARTESIAN_POINT('',(-0.8,0.4,0.0));
#1082=DIRECTION('',(0.0,-1.0,0.0));
#1083=VECTOR('',#1082,0.8);
#1084=LINE('',#1081,#1083);
#1085=EDGE_CURVE('',#835,#903,#1084,.T.);
#1086=ORIENTED_EDGE('',*,*,#1085,.T.);
#1087=ORIENTED_EDGE('',*,*,#927,.F.);
#1088=CARTESIAN_POINT('',(-0.9,-0.4,0.1));
#1089=DIRECTION('',(0.0,1.0,0.0));
#1090=VECTOR('',#1089,0.8);
#1091=LINE('',#1088,#1090);
#1092=EDGE_CURVE('',#914,#844,#1091,.T.);
#1093=ORIENTED_EDGE('',*,*,#1092,.T.);
#1094=EDGE_LOOP('',(#1080,#1086,#1087,#1093));
#1095=FACE_OUTER_BOUND('',#1094,.T.);
#1096=ADVANCED_FACE('',(#1095),#1079,.T.);
#1097=CARTESIAN_POINT('',(-0.8,0.4,0.0));
#1098=DIRECTION('',(0.0,0.0,1.0));
#1099=DIRECTION('',(-0.707106781186547,0.707106781186548,0.0));
#1100=AXIS2_PLACEMENT_3D('',#1097,#1098,#1099);
#1101=CYLINDRICAL_SURFACE('',#1100,0.1);
#1102=ORIENTED_EDGE('',*,*,#876,.F.);
#1103=CARTESIAN_POINT('',(-0.8,0.5,0.9));
#1104=DIRECTION('',(0.0,0.0,-1.0));
#1105=VECTOR('',#1104,0.8);
#1106=LINE('',#1103,#1105);
#1107=EDGE_CURVE('',#868,#833,#1106,.T.);
#1108=ORIENTED_EDGE('',*,*,#1107,.T.);
#1109=ORIENTED_EDGE('',*,*,#857,.T.);
#1110=CARTESIAN_POINT('',(-0.9,0.4,0.1));
#1111=DIRECTION('',(0.0,0.0,1.0));
#1112=VECTOR('',#1111,0.8);
#1113=LINE('',#1110,#1112);
#1114=EDGE_CURVE('',#844,#870,#1113,.T.);
#1115=ORIENTED_EDGE('',*,*,#1114,.T.);
#1116=EDGE_LOOP('',(#1102,#1108,#1109,#1115));
#1117=FACE_OUTER_BOUND('',#1116,.T.);
#1118=ADVANCED_FACE('',(#1117),#1101,.T.);
#1119=CARTESIAN_POINT('',(-0.825,0.4,0.9));
#1120=DIRECTION('',(1.0,0.0,0.0));
#1121=DIRECTION('',(0.0,0.707106781186548,0.707106781186547));
#1122=AXIS2_PLACEMENT_3D('',#1119,#1120,#1121);
#1123=CYLINDRICAL_SURFACE('',#1122,0.1);
#1124=CARTESIAN_POINT('',(-0.6,0.4,1.0));
#1125=VERTEX_POINT('',#1124);
#1126=CARTESIAN_POINT('',(-0.6,0.5,0.9));
#1127=VERTEX_POINT('',#1126);
#1128=CARTESIAN_POINT('',(-0.6,0.4,0.9));
#1129=DIRECTION('',(-1.0,0.0,0.0));
#1130=DIRECTION('',(0.0,0.707106781186548,0.707106781186547));
#1131=AXIS2_PLACEMENT_3D('',#1128,#1129,#1130);
#1132=CIRCLE('',#1131,0.1);
#1133=EDGE_CURVE('',#1125,#1127,#1132,.T.);
#1134=ORIENTED_EDGE('',*,*,#1133,.T.);
#1135=CARTESIAN_POINT('',(-0.6,0.5,0.9));
#1136=DIRECTION('',(-1.0,0.0,0.0));
#1137=VECTOR('',#1136,0.2);
#1138=LINE('',#1135,#1137);
#1139=EDGE_CURVE('',#1127,#868,#1138,.T.);
#1140=ORIENTED_EDGE('',*,*,#1139,.T.);
#1141=ORIENTED_EDGE('',*,*,#892,.F.);
#1142=CARTESIAN_POINT('',(-0.8,0.4,1.0));
#1143=DIRECTION('',(1.0,0.0,0.0));
#1144=VECTOR('',#1143,0.2);
#1145=LINE('',#1142,#1144);
#1146=EDGE_CURVE('',#879,#1125,#1145,.T.);
#1147=ORIENTED_EDGE('',*,*,#1146,.T.);
#1148=EDGE_LOOP('',(#1134,#1140,#1141,#1147));
#1149=FACE_OUTER_BOUND('',#1148,.T.);
#1150=ADVANCED_FACE('',(#1149),#1123,.T.);
#1151=CARTESIAN_POINT('',(-0.825,0.4,0.1));
#1152=DIRECTION('',(1.0,0.0,0.0));
#1153=DIRECTION('',(0.0,0.707106781186548,-0.707106781186547));
#1154=AXIS2_PLACEMENT_3D('',#1151,#1152,#1153);
#1155=CYLINDRICAL_SURFACE('',#1154,0.1);
#1156=CARTESIAN_POINT('',(-0.6,0.5,0.1));
#1157=VERTEX_POINT('',#1156);
#1158=CARTESIAN_POINT('',(-0.6,0.4,0.0));
#1159=VERTEX_POINT('',#1158);
#1160=CARTESIAN_POINT('',(-0.6,0.4,0.1));
#1161=DIRECTION('',(-1.0,0.0,0.0));
#1162=DIRECTION('',(0.0,0.707106781186548,-0.707106781186547));
#1163=AXIS2_PLACEMENT_3D('',#1160,#1161,#1162);
#1164=CIRCLE('',#1163,0.1);
#1165=EDGE_CURVE('',#1157,#1159,#1164,.T.);
#1166=ORIENTED_EDGE('',*,*,#1165,.T.);
#1167=CARTESIAN_POINT('',(-0.6,0.4,0.0));
#1168=DIRECTION('',(-1.0,0.0,0.0));
#1169=VECTOR('',#1168,0.2);
#1170=LINE('',#1167,#1169);
#1171=EDGE_CURVE('',#1159,#835,#1170,.T.);
#1172=ORIENTED_EDGE('',*,*,#1171,.T.);
#1173=ORIENTED_EDGE('',*,*,#841,.F.);
#1174=CARTESIAN_POINT('',(-0.8,0.5,0.1));
#1175=DIRECTION('',(1.0,0.0,0.0));
#1176=VECTOR('',#1175,0.2);
#1177=LINE('',#1174,#1176);
#1178=EDGE_CURVE('',#833,#1157,#1177,.T.);
#1179=ORIENTED_EDGE('',*,*,#1178,.T.);
#1180=EDGE_LOOP('',(#1166,#1172,#1173,#1179));
#1181=FACE_OUTER_BOUND('',#1180,.T.);
#1182=ADVANCED_FACE('',(#1181),#1155,.T.);
#1183=CARTESIAN_POINT('',(-0.6,-0.5,0.0));
#1184=DIRECTION('',(0.0,-1.0,0.0));
#1185=DIRECTION('',(0.0,0.0,-1.0));
#1186=AXIS2_PLACEMENT_3D('',#1183,#1184,#1185);
#1187=PLANE('',#1186);
#1188=ORIENTED_EDGE('',*,*,#994,.F.);
#1189=ORIENTED_EDGE('',*,*,#1016,.F.);
#1190=ORIENTED_EDGE('',*,*,#1063,.F.);
#1191=CARTESIAN_POINT('',(-0.6,-0.5,0.1));
#1192=DIRECTION('',(0.0,0.0,1.0));
#1193=VECTOR('',#1192,0.8);
#1194=LINE('',#1191,#1193);
#1195=EDGE_CURVE('',#1051,#973,#1194,.T.);
#1196=ORIENTED_EDGE('',*,*,#1195,.T.);
#1197=EDGE_LOOP('',(#1188,#1189,#1190,#1196));
#1198=FACE_OUTER_BOUND('',#1197,.T.);
#1199=ADVANCED_FACE('',(#1198),#1187,.T.);
#1200=CARTESIAN_POINT('',(-0.75,1.649807E-018,0.0));
#1201=DIRECTION('',(0.0,0.0,1.0));
#1202=DIRECTION('',(1.0,0.0,0.0));
#1203=AXIS2_PLACEMENT_3D('',#1200,#1201,#1202);
#1204=PLANE('',#1203);
#1205=ORIENTED_EDGE('',*,*,#1070,.F.);
#1206=ORIENTED_EDGE('',*,*,#1085,.F.);
#1207=ORIENTED_EDGE('',*,*,#1171,.F.);
#1208=CARTESIAN_POINT('',(-0.6,0.4,0.0));
#1209=DIRECTION('',(0.0,-1.0,0.0));
#1210=VECTOR('',#1209,0.8);
#1211=LINE('',#1208,#1210);
#1212=EDGE_CURVE('',#1159,#1049,#1211,.T.);
#1213=ORIENTED_EDGE('',*,*,#1212,.T.);
#1214=EDGE_LOOP('',(#1205,#1206,#1207,#1213));
#1215=FACE_OUTER_BOUND('',#1214,.T.);
#1216=ADVANCED_FACE('',(#1215),#1204,.F.);
#1217=CARTESIAN_POINT('',(-0.9,-0.5,0.0));
#1218=DIRECTION('',(-1.0,0.0,0.0));
#1219=DIRECTION('',(0.0,0.0,1.0));
#1220=AXIS2_PLACEMENT_3D('',#1217,#1218,#1219);
#1221=PLANE('',#1220);
#1222=ORIENTED_EDGE('',*,*,#1009,.F.);
#1223=ORIENTED_EDGE('',*,*,#1031,.F.);
#1224=ORIENTED_EDGE('',*,*,#1114,.F.);
#1225=ORIENTED_EDGE('',*,*,#1092,.F.);
#1226=EDGE_LOOP('',(#1222,#1223,#1224,#1225));
#1227=FACE_OUTER_BOUND('',#1226,.T.);
#1228=ADVANCED_FACE('',(#1227),#1221,.T.);
#1229=CARTESIAN_POINT('',(-0.6,0.5,0.0));
#1230=DIRECTION('',(1.0,0.0,0.0));
#1231=DIRECTION('',(0.0,0.0,-1.0));
#1232=AXIS2_PLACEMENT_3D('',#1229,#1230,#1231);
#1233=PLANE('',#1232);
#1234=ORIENTED_EDGE('',*,*,#981,.F.);
#1235=ORIENTED_EDGE('',*,*,#1195,.F.);
#1236=ORIENTED_EDGE('',*,*,#1057,.F.);
#1237=ORIENTED_EDGE('',*,*,#1212,.F.);
#1238=ORIENTED_EDGE('',*,*,#1165,.F.);
#1239=CARTESIAN_POINT('',(-0.6,0.5,0.1));
#1240=DIRECTION('',(0.0,0.0,1.0));
#1241=VECTOR('',#1240,0.8);
#1242=LINE('',#1239,#1241);
#1243=EDGE_CURVE('',#1157,#1127,#1242,.T.);
#1244=ORIENTED_EDGE('',*,*,#1243,.T.);
#1245=ORIENTED_EDGE('',*,*,#1133,.F.);
#1246=CARTESIAN_POINT('',(-0.6,0.4,1.0));
#1247=DIRECTION('',(0.0,-1.0,0.0));
#1248=VECTOR('',#1247,0.8);
#1249=LINE('',#1246,#1248);
#1250=EDGE_CURVE('',#1125,#975,#1249,.T.);
#1251=ORIENTED_EDGE('',*,*,#1250,.T.);
#1252=EDGE_LOOP('',(#1234,#1235,#1236,#1237,#1238,#1244,#1245,#1251));
#1253=FACE_OUTER_BOUND('',#1252,.T.);
#1254=ADVANCED_FACE('',(#1253),#1233,.T.);
#1255=CARTESIAN_POINT('',(-0.9,0.5,0.0));
#1256=DIRECTION('',(0.0,1.0,0.0));
#1257=DIRECTION('',(0.0,0.0,1.0));
#1258=AXIS2_PLACEMENT_3D('',#1255,#1256,#1257);
#1259=PLANE('',#1258);
#1260=ORIENTED_EDGE('',*,*,#1139,.F.);
#1261=ORIENTED_EDGE('',*,*,#1243,.F.);
#1262=ORIENTED_EDGE('',*,*,#1178,.F.);
#1263=ORIENTED_EDGE('',*,*,#1107,.F.);
#1264=EDGE_LOOP('',(#1260,#1261,#1262,#1263));
#1265=FACE_OUTER_BOUND('',#1264,.T.);
#1266=ADVANCED_FACE('',(#1265),#1259,.T.);
#1267=CARTESIAN_POINT('',(-0.75,-1.649807E-018,1.0));
#1268=DIRECTION('',(0.0,0.0,1.0));
#1269=DIRECTION('',(1.0,0.0,0.0));
#1270=AXIS2_PLACEMENT_3D('',#1267,#1268,#1269);
#1271=PLANE('',#1270);
#1272=ORIENTED_EDGE('',*,*,#987,.F.);
#1273=ORIENTED_EDGE('',*,*,#1250,.F.);
#1274=ORIENTED_EDGE('',*,*,#1146,.F.);
#1275=ORIENTED_EDGE('',*,*,#1038,.F.);
#1276=EDGE_LOOP('',(#1272,#1273,#1274,#1275));
#1277=FACE_OUTER_BOUND('',#1276,.T.);
#1278=ADVANCED_FACE('',(#1277),#1271,.T.);
#1279=CLOSED_SHELL('',(#861,#896,#931,#966,#998,#1020,#1042,#1074,#1096,#1118,#1150,#1182,#1199,#1216,#1228,#1254,#1266,#1278));
#1280=MANIFOLD_SOLID_BREP('4B3',#1279);
#1281=STYLED_ITEM('NONE',(#525),#1280);
#1282=ADVANCED_BREP_SHAPE_REPRESENTATION('ABSR1',(#518,#818,#1280),#28);
#1283=SHAPE_REPRESENTATION_RELATIONSHIP('SRRPL1','',#1282,#62);
ENDSEC;
END-ISO-10303-21;
