ISO-10303-21;
HEADER;
/* Generated by software containing ST-Developer
 * from STEP Tools, Inc. (www.steptools.com) 
 */

FILE_DESCRIPTION(
/* description */ (''),
/* implementation_level */ '2;1');

FILE_NAME(
/* name */ 
'C:\\Users\\huesof\\Downloads\\medtronic-pb560-ventilator-system-file-
set-2\\Electronic PCBAs\\GR106769_CPU_PCBA\\3D_Model\\GR106769B00\\cap
ot 2 capteurs P phase 2 - recenter.stp',
/* time_stamp */ '2020-04-19T14:33:31-04:00',
/* author */ ('huesof'),
/* organization */ (''),
/* preprocessor_version */ 'ST-DEVELOPER v18',
/* originating_system */ 'Autodesk Inventor 2020',
/* authorisation */ '');

FILE_SCHEMA (('AUTOMOTIVE_DESIGN { 1 0 10303 214 3 1 1 }'));
ENDSEC;

DATA;
#10=MECHANICAL_DESIGN_GEOMETRIC_PRESENTATION_REPRESENTATION('',(#18,#19,
#20),#1307);
#11=GEOMETRICALLY_BOUNDED_WIREFRAME_SHAPE_REPRESENTATION('',(#12),#1306);
#12=GEOMETRIC_CURVE_SET('Sketch1',(#16,#17));
#13=SHAPE_REPRESENTATION_RELATIONSHIP('SRR','None',#1314,#15);
#14=SHAPE_REPRESENTATION_RELATIONSHIP('SRR','None',#1314,#11);
#15=ADVANCED_BREP_SHAPE_REPRESENTATION('',(#21),#1306);
#16=POLYLINE('',(#1300,#1301));
#17=POLYLINE('',(#1302,#1303));
#18=STYLED_ITEM('',(#1323),#21);
#19=STYLED_ITEM('',(#1324),#16);
#20=STYLED_ITEM('',(#1324),#17);
#21=MANIFOLD_SOLID_BREP('Solid1',#812);
#22=CYLINDRICAL_SURFACE('',#860,4.);
#23=CYLINDRICAL_SURFACE('',#875,2.);
#24=FACE_BOUND('',#78,.T.);
#25=FACE_BOUND('',#86,.T.);
#26=CIRCLE('',#840,2.);
#27=CIRCLE('',#847,4.);
#28=CIRCLE('',#849,2.);
#29=CIRCLE('',#850,2.);
#30=CIRCLE('',#855,4.);
#31=FACE_OUTER_BOUND('',#70,.T.);
#32=FACE_OUTER_BOUND('',#71,.T.);
#33=FACE_OUTER_BOUND('',#72,.T.);
#34=FACE_OUTER_BOUND('',#73,.T.);
#35=FACE_OUTER_BOUND('',#74,.T.);
#36=FACE_OUTER_BOUND('',#75,.T.);
#37=FACE_OUTER_BOUND('',#76,.T.);
#38=FACE_OUTER_BOUND('',#77,.T.);
#39=FACE_OUTER_BOUND('',#79,.T.);
#40=FACE_OUTER_BOUND('',#80,.T.);
#41=FACE_OUTER_BOUND('',#81,.T.);
#42=FACE_OUTER_BOUND('',#82,.T.);
#43=FACE_OUTER_BOUND('',#83,.T.);
#44=FACE_OUTER_BOUND('',#84,.T.);
#45=FACE_OUTER_BOUND('',#85,.T.);
#46=FACE_OUTER_BOUND('',#87,.T.);
#47=FACE_OUTER_BOUND('',#88,.T.);
#48=FACE_OUTER_BOUND('',#89,.T.);
#49=FACE_OUTER_BOUND('',#90,.T.);
#50=FACE_OUTER_BOUND('',#91,.T.);
#51=FACE_OUTER_BOUND('',#92,.T.);
#52=FACE_OUTER_BOUND('',#93,.T.);
#53=FACE_OUTER_BOUND('',#94,.T.);
#54=FACE_OUTER_BOUND('',#95,.T.);
#55=FACE_OUTER_BOUND('',#96,.T.);
#56=FACE_OUTER_BOUND('',#97,.T.);
#57=FACE_OUTER_BOUND('',#98,.T.);
#58=FACE_OUTER_BOUND('',#99,.T.);
#59=FACE_OUTER_BOUND('',#100,.T.);
#60=FACE_OUTER_BOUND('',#101,.T.);
#61=FACE_OUTER_BOUND('',#102,.T.);
#62=FACE_OUTER_BOUND('',#103,.T.);
#63=FACE_OUTER_BOUND('',#104,.T.);
#64=FACE_OUTER_BOUND('',#105,.T.);
#65=FACE_OUTER_BOUND('',#106,.T.);
#66=FACE_OUTER_BOUND('',#107,.T.);
#67=FACE_OUTER_BOUND('',#108,.T.);
#68=FACE_OUTER_BOUND('',#109,.T.);
#69=FACE_OUTER_BOUND('',#110,.T.);
#70=EDGE_LOOP('',(#512,#513,#514,#515));
#71=EDGE_LOOP('',(#516,#517,#518,#519));
#72=EDGE_LOOP('',(#520,#521,#522,#523));
#73=EDGE_LOOP('',(#524,#525,#526,#527));
#74=EDGE_LOOP('',(#528,#529,#530,#531));
#75=EDGE_LOOP('',(#532,#533,#534,#535));
#76=EDGE_LOOP('',(#536,#537,#538,#539));
#77=EDGE_LOOP('',(#540,#541,#542,#543,#544,#545,#546,#547,#548,#549,#550,
#551));
#78=EDGE_LOOP('',(#552));
#79=EDGE_LOOP('',(#553,#554,#555,#556,#557,#558,#559,#560,#561,#562,#563,
#564,#565,#566,#567,#568,#569,#570,#571,#572));
#80=EDGE_LOOP('',(#573,#574,#575,#576));
#81=EDGE_LOOP('',(#577,#578,#579,#580,#581,#582,#583,#584,#585,#586,#587,
#588,#589,#590,#591,#592,#593,#594,#595,#596));
#82=EDGE_LOOP('',(#597,#598,#599,#600));
#83=EDGE_LOOP('',(#601,#602,#603,#604));
#84=EDGE_LOOP('',(#605,#606,#607,#608,#609,#610,#611,#612));
#85=EDGE_LOOP('',(#613,#614,#615,#616));
#86=EDGE_LOOP('',(#617,#618));
#87=EDGE_LOOP('',(#619,#620,#621,#622));
#88=EDGE_LOOP('',(#623,#624,#625,#626,#627,#628,#629,#630,#631,#632,#633,
#634));
#89=EDGE_LOOP('',(#635,#636,#637,#638));
#90=EDGE_LOOP('',(#639,#640,#641,#642,#643,#644,#645,#646));
#91=EDGE_LOOP('',(#647,#648,#649,#650));
#92=EDGE_LOOP('',(#651,#652,#653,#654,#655,#656,#657,#658,#659,#660,#661,
#662));
#93=EDGE_LOOP('',(#663,#664,#665,#666));
#94=EDGE_LOOP('',(#667,#668,#669,#670));
#95=EDGE_LOOP('',(#671,#672,#673,#674));
#96=EDGE_LOOP('',(#675,#676,#677,#678));
#97=EDGE_LOOP('',(#679,#680,#681,#682));
#98=EDGE_LOOP('',(#683,#684,#685,#686));
#99=EDGE_LOOP('',(#687,#688,#689,#690));
#100=EDGE_LOOP('',(#691,#692,#693,#694));
#101=EDGE_LOOP('',(#695,#696,#697,#698));
#102=EDGE_LOOP('',(#699,#700,#701,#702));
#103=EDGE_LOOP('',(#703,#704,#705,#706));
#104=EDGE_LOOP('',(#707,#708,#709,#710));
#105=EDGE_LOOP('',(#711,#712,#713,#714));
#106=EDGE_LOOP('',(#715,#716,#717,#718));
#107=EDGE_LOOP('',(#719,#720,#721,#722));
#108=EDGE_LOOP('',(#723,#724,#725,#726));
#109=EDGE_LOOP('',(#727,#728,#729,#730));
#110=EDGE_LOOP('',(#731,#732,#733,#734,#735));
#111=LINE('',#1077,#218);
#112=LINE('',#1079,#219);
#113=LINE('',#1081,#220);
#114=LINE('',#1082,#221);
#115=LINE('',#1086,#222);
#116=LINE('',#1088,#223);
#117=LINE('',#1090,#224);
#118=LINE('',#1091,#225);
#119=LINE('',#1095,#226);
#120=LINE('',#1097,#227);
#121=LINE('',#1099,#228);
#122=LINE('',#1100,#229);
#123=LINE('',#1104,#230);
#124=LINE('',#1106,#231);
#125=LINE('',#1108,#232);
#126=LINE('',#1109,#233);
#127=LINE('',#1113,#234);
#128=LINE('',#1115,#235);
#129=LINE('',#1117,#236);
#130=LINE('',#1118,#237);
#131=LINE('',#1122,#238);
#132=LINE('',#1124,#239);
#133=LINE('',#1126,#240);
#134=LINE('',#1127,#241);
#135=LINE('',#1131,#242);
#136=LINE('',#1133,#243);
#137=LINE('',#1135,#244);
#138=LINE('',#1136,#245);
#139=LINE('',#1140,#246);
#140=LINE('',#1142,#247);
#141=LINE('',#1144,#248);
#142=LINE('',#1146,#249);
#143=LINE('',#1148,#250);
#144=LINE('',#1150,#251);
#145=LINE('',#1152,#252);
#146=LINE('',#1154,#253);
#147=LINE('',#1156,#254);
#148=LINE('',#1158,#255);
#149=LINE('',#1160,#256);
#150=LINE('',#1161,#257);
#151=LINE('',#1167,#258);
#152=LINE('',#1169,#259);
#153=LINE('',#1171,#260);
#154=LINE('',#1172,#261);
#155=LINE('',#1173,#262);
#156=LINE('',#1174,#263);
#157=LINE('',#1176,#264);
#158=LINE('',#1178,#265);
#159=LINE('',#1179,#266);
#160=LINE('',#1181,#267);
#161=LINE('',#1183,#268);
#162=LINE('',#1184,#269);
#163=LINE('',#1185,#270);
#164=LINE('',#1186,#271);
#165=LINE('',#1189,#272);
#166=LINE('',#1191,#273);
#167=LINE('',#1192,#274);
#168=LINE('',#1195,#275);
#169=LINE('',#1196,#276);
#170=LINE('',#1197,#277);
#171=LINE('',#1199,#278);
#172=LINE('',#1201,#279);
#173=LINE('',#1202,#280);
#174=LINE('',#1204,#281);
#175=LINE('',#1206,#282);
#176=LINE('',#1207,#283);
#177=LINE('',#1208,#284);
#178=LINE('',#1210,#285);
#179=LINE('',#1212,#286);
#180=LINE('',#1214,#287);
#181=LINE('',#1215,#288);
#182=LINE('',#1217,#289);
#183=LINE('',#1223,#290);
#184=LINE('',#1224,#291);
#185=LINE('',#1226,#292);
#186=LINE('',#1227,#293);
#187=LINE('',#1234,#294);
#188=LINE('',#1237,#295);
#189=LINE('',#1239,#296);
#190=LINE('',#1240,#297);
#191=LINE('',#1242,#298);
#192=LINE('',#1244,#299);
#193=LINE('',#1245,#300);
#194=LINE('',#1246,#301);
#195=LINE('',#1250,#302);
#196=LINE('',#1254,#303);
#197=LINE('',#1255,#304);
#198=LINE('',#1257,#305);
#199=LINE('',#1260,#306);
#200=LINE('',#1262,#307);
#201=LINE('',#1263,#308);
#202=LINE('',#1265,#309);
#203=LINE('',#1267,#310);
#204=LINE('',#1268,#311);
#205=LINE('',#1269,#312);
#206=LINE('',#1270,#313);
#207=LINE('',#1274,#314);
#208=LINE('',#1275,#315);
#209=LINE('',#1279,#316);
#210=LINE('',#1281,#317);
#211=LINE('',#1284,#318);
#212=LINE('',#1286,#319);
#213=LINE('',#1289,#320);
#214=LINE('',#1291,#321);
#215=LINE('',#1294,#322);
#216=LINE('',#1296,#323);
#217=LINE('',#1299,#324);
#218=VECTOR('',#880,14.);
#219=VECTOR('',#881,0.5);
#220=VECTOR('',#882,14.);
#221=VECTOR('',#883,0.5);
#222=VECTOR('',#886,1.34999999999998);
#223=VECTOR('',#887,0.5);
#224=VECTOR('',#888,1.34999999999998);
#225=VECTOR('',#889,0.5);
#226=VECTOR('',#892,1.35);
#227=VECTOR('',#893,0.5);
#228=VECTOR('',#894,1.35);
#229=VECTOR('',#895,0.5);
#230=VECTOR('',#898,14.);
#231=VECTOR('',#899,0.500000000000007);
#232=VECTOR('',#900,14.);
#233=VECTOR('',#901,0.500000000000003);
#234=VECTOR('',#904,1.35);
#235=VECTOR('',#905,0.500000000000007);
#236=VECTOR('',#906,1.35);
#237=VECTOR('',#907,0.499999999999998);
#238=VECTOR('',#910,1.34999999999997);
#239=VECTOR('',#911,0.500000000000012);
#240=VECTOR('',#912,1.34999999999997);
#241=VECTOR('',#913,0.500000000000003);
#242=VECTOR('',#916,0.500000000000016);
#243=VECTOR('',#917,6.);
#244=VECTOR('',#918,0.499999999999998);
#245=VECTOR('',#919,6.);
#246=VECTOR('',#922,18.7);
#247=VECTOR('',#923,0.5);
#248=VECTOR('',#924,0.100000000000016);
#249=VECTOR('',#925,39.);
#250=VECTOR('',#926,0.100000000000016);
#251=VECTOR('',#927,0.499999999999998);
#252=VECTOR('',#928,18.7);
#253=VECTOR('',#929,0.500000000000003);
#254=VECTOR('',#930,0.100000000000007);
#255=VECTOR('',#931,39.);
#256=VECTOR('',#932,0.0999999999999979);
#257=VECTOR('',#933,0.499999999999998);
#258=VECTOR('',#938,0.499999999999989);
#259=VECTOR('',#939,14.);
#260=VECTOR('',#940,19.9);
#261=VECTOR('',#941,14.);
#262=VECTOR('',#942,13.5);
#263=VECTOR('',#943,13.5);
#264=VECTOR('',#944,2.);
#265=VECTOR('',#945,1.00000000000001);
#266=VECTOR('',#946,2.);
#267=VECTOR('',#947,2.);
#268=VECTOR('',#948,1.00000000000001);
#269=VECTOR('',#949,2.);
#270=VECTOR('',#950,13.5);
#271=VECTOR('',#951,13.5);
#272=VECTOR('',#954,39.);
#273=VECTOR('',#955,14.);
#274=VECTOR('',#956,39.);
#275=VECTOR('',#959,0.499999999999989);
#276=VECTOR('',#960,13.5);
#277=VECTOR('',#961,13.5);
#278=VECTOR('',#962,2.);
#279=VECTOR('',#963,1.00000000000001);
#280=VECTOR('',#964,2.);
#281=VECTOR('',#965,2.);
#282=VECTOR('',#966,0.999999999999996);
#283=VECTOR('',#967,2.);
#284=VECTOR('',#968,13.5);
#285=VECTOR('',#969,13.5);
#286=VECTOR('',#970,0.499999999999998);
#287=VECTOR('',#971,14.);
#288=VECTOR('',#972,19.9);
#289=VECTOR('',#975,39.);
#290=VECTOR('',#982,3.3);
#291=VECTOR('',#983,39.);
#292=VECTOR('',#984,25.);
#293=VECTOR('',#985,3.3);
#294=VECTOR('',#994,13.5);
#295=VECTOR('',#997,2.);
#296=VECTOR('',#998,1.00000000000001);
#297=VECTOR('',#999,2.);
#298=VECTOR('',#1000,2.);
#299=VECTOR('',#1001,1.00000000000001);
#300=VECTOR('',#1002,2.);
#301=VECTOR('',#1003,13.5);
#302=VECTOR('',#1008,3.3);
#303=VECTOR('',#1011,3.3);
#304=VECTOR('',#1012,25.);
#305=VECTOR('',#1015,0.499999999999998);
#306=VECTOR('',#1018,2.);
#307=VECTOR('',#1019,0.999999999999996);
#308=VECTOR('',#1020,2.);
#309=VECTOR('',#1021,2.);
#310=VECTOR('',#1022,1.00000000000001);
#311=VECTOR('',#1023,2.);
#312=VECTOR('',#1024,13.5);
#313=VECTOR('',#1025,13.5);
#314=VECTOR('',#1032,0.500000000000016);
#315=VECTOR('',#1033,0.500000000000016);
#316=VECTOR('',#1040,0.500000000000012);
#317=VECTOR('',#1043,0.500000000000012);
#318=VECTOR('',#1048,0.500000000000007);
#319=VECTOR('',#1051,0.500000000000007);
#320=VECTOR('',#1056,0.5);
#321=VECTOR('',#1059,0.5);
#322=VECTOR('',#1064,0.5);
#323=VECTOR('',#1067,0.5);
#324=VECTOR('',#1072,2.);
#325=VERTEX_POINT('',#1075);
#326=VERTEX_POINT('',#1076);
#327=VERTEX_POINT('',#1078);
#328=VERTEX_POINT('',#1080);
#329=VERTEX_POINT('',#1084);
#330=VERTEX_POINT('',#1085);
#331=VERTEX_POINT('',#1087);
#332=VERTEX_POINT('',#1089);
#333=VERTEX_POINT('',#1093);
#334=VERTEX_POINT('',#1094);
#335=VERTEX_POINT('',#1096);
#336=VERTEX_POINT('',#1098);
#337=VERTEX_POINT('',#1102);
#338=VERTEX_POINT('',#1103);
#339=VERTEX_POINT('',#1105);
#340=VERTEX_POINT('',#1107);
#341=VERTEX_POINT('',#1111);
#342=VERTEX_POINT('',#1112);
#343=VERTEX_POINT('',#1114);
#344=VERTEX_POINT('',#1116);
#345=VERTEX_POINT('',#1120);
#346=VERTEX_POINT('',#1121);
#347=VERTEX_POINT('',#1123);
#348=VERTEX_POINT('',#1125);
#349=VERTEX_POINT('',#1129);
#350=VERTEX_POINT('',#1130);
#351=VERTEX_POINT('',#1132);
#352=VERTEX_POINT('',#1134);
#353=VERTEX_POINT('',#1138);
#354=VERTEX_POINT('',#1139);
#355=VERTEX_POINT('',#1141);
#356=VERTEX_POINT('',#1143);
#357=VERTEX_POINT('',#1145);
#358=VERTEX_POINT('',#1147);
#359=VERTEX_POINT('',#1149);
#360=VERTEX_POINT('',#1151);
#361=VERTEX_POINT('',#1153);
#362=VERTEX_POINT('',#1155);
#363=VERTEX_POINT('',#1157);
#364=VERTEX_POINT('',#1159);
#365=VERTEX_POINT('',#1162);
#366=VERTEX_POINT('',#1165);
#367=VERTEX_POINT('',#1166);
#368=VERTEX_POINT('',#1168);
#369=VERTEX_POINT('',#1170);
#370=VERTEX_POINT('',#1175);
#371=VERTEX_POINT('',#1177);
#372=VERTEX_POINT('',#1180);
#373=VERTEX_POINT('',#1182);
#374=VERTEX_POINT('',#1188);
#375=VERTEX_POINT('',#1190);
#376=VERTEX_POINT('',#1194);
#377=VERTEX_POINT('',#1198);
#378=VERTEX_POINT('',#1200);
#379=VERTEX_POINT('',#1203);
#380=VERTEX_POINT('',#1205);
#381=VERTEX_POINT('',#1209);
#382=VERTEX_POINT('',#1211);
#383=VERTEX_POINT('',#1213);
#384=VERTEX_POINT('',#1220);
#385=VERTEX_POINT('',#1221);
#386=VERTEX_POINT('',#1225);
#387=VERTEX_POINT('',#1229);
#388=VERTEX_POINT('',#1230);
#389=VERTEX_POINT('',#1236);
#390=VERTEX_POINT('',#1238);
#391=VERTEX_POINT('',#1241);
#392=VERTEX_POINT('',#1243);
#393=VERTEX_POINT('',#1249);
#394=VERTEX_POINT('',#1251);
#395=VERTEX_POINT('',#1253);
#396=VERTEX_POINT('',#1259);
#397=VERTEX_POINT('',#1261);
#398=VERTEX_POINT('',#1264);
#399=VERTEX_POINT('',#1266);
#400=EDGE_CURVE('',#325,#326,#111,.T.);
#401=EDGE_CURVE('',#327,#325,#112,.T.);
#402=EDGE_CURVE('',#328,#327,#113,.T.);
#403=EDGE_CURVE('',#326,#328,#114,.T.);
#404=EDGE_CURVE('',#329,#330,#115,.T.);
#405=EDGE_CURVE('',#331,#329,#116,.T.);
#406=EDGE_CURVE('',#332,#331,#117,.T.);
#407=EDGE_CURVE('',#330,#332,#118,.T.);
#408=EDGE_CURVE('',#333,#334,#119,.T.);
#409=EDGE_CURVE('',#335,#333,#120,.T.);
#410=EDGE_CURVE('',#336,#335,#121,.T.);
#411=EDGE_CURVE('',#334,#336,#122,.T.);
#412=EDGE_CURVE('',#337,#338,#123,.T.);
#413=EDGE_CURVE('',#339,#337,#124,.T.);
#414=EDGE_CURVE('',#340,#339,#125,.T.);
#415=EDGE_CURVE('',#338,#340,#126,.T.);
#416=EDGE_CURVE('',#341,#342,#127,.T.);
#417=EDGE_CURVE('',#343,#341,#128,.T.);
#418=EDGE_CURVE('',#344,#343,#129,.T.);
#419=EDGE_CURVE('',#342,#344,#130,.T.);
#420=EDGE_CURVE('',#345,#346,#131,.T.);
#421=EDGE_CURVE('',#347,#345,#132,.T.);
#422=EDGE_CURVE('',#348,#347,#133,.T.);
#423=EDGE_CURVE('',#346,#348,#134,.T.);
#424=EDGE_CURVE('',#349,#350,#135,.T.);
#425=EDGE_CURVE('',#351,#349,#136,.T.);
#426=EDGE_CURVE('',#352,#351,#137,.T.);
#427=EDGE_CURVE('',#350,#352,#138,.T.);
#428=EDGE_CURVE('',#353,#354,#139,.T.);
#429=EDGE_CURVE('',#354,#355,#140,.T.);
#430=EDGE_CURVE('',#356,#355,#141,.T.);
#431=EDGE_CURVE('',#356,#357,#142,.T.);
#432=EDGE_CURVE('',#358,#357,#143,.T.);
#433=EDGE_CURVE('',#358,#359,#144,.T.);
#434=EDGE_CURVE('',#359,#360,#145,.T.);
#435=EDGE_CURVE('',#360,#361,#146,.T.);
#436=EDGE_CURVE('',#362,#361,#147,.T.);
#437=EDGE_CURVE('',#362,#363,#148,.T.);
#438=EDGE_CURVE('',#364,#363,#149,.T.);
#439=EDGE_CURVE('',#364,#353,#150,.T.);
#440=EDGE_CURVE('',#365,#365,#26,.T.);
#441=EDGE_CURVE('',#366,#367,#151,.T.);
#442=EDGE_CURVE('',#368,#367,#152,.T.);
#443=EDGE_CURVE('',#369,#368,#153,.T.);
#444=EDGE_CURVE('',#369,#352,#154,.T.);
#445=EDGE_CURVE('',#362,#351,#155,.T.);
#446=EDGE_CURVE('',#361,#348,#156,.T.);
#447=EDGE_CURVE('',#370,#347,#157,.T.);
#448=EDGE_CURVE('',#371,#370,#158,.T.);
#449=EDGE_CURVE('',#371,#340,#159,.T.);
#450=EDGE_CURVE('',#372,#339,#160,.T.);
#451=EDGE_CURVE('',#373,#372,#161,.T.);
#452=EDGE_CURVE('',#373,#341,#162,.T.);
#453=EDGE_CURVE('',#358,#342,#163,.T.);
#454=EDGE_CURVE('',#357,#366,#164,.T.);
#455=EDGE_CURVE('',#367,#374,#165,.T.);
#456=EDGE_CURVE('',#375,#374,#166,.T.);
#457=EDGE_CURVE('',#368,#375,#167,.T.);
#458=EDGE_CURVE('',#374,#376,#168,.T.);
#459=EDGE_CURVE('',#356,#376,#169,.T.);
#460=EDGE_CURVE('',#355,#332,#170,.T.);
#461=EDGE_CURVE('',#377,#331,#171,.T.);
#462=EDGE_CURVE('',#378,#377,#172,.T.);
#463=EDGE_CURVE('',#378,#325,#173,.T.);
#464=EDGE_CURVE('',#379,#326,#174,.T.);
#465=EDGE_CURVE('',#380,#379,#175,.T.);
#466=EDGE_CURVE('',#380,#333,#176,.T.);
#467=EDGE_CURVE('',#364,#334,#177,.T.);
#468=EDGE_CURVE('',#363,#381,#178,.T.);
#469=EDGE_CURVE('',#381,#382,#179,.T.);
#470=EDGE_CURVE('',#383,#382,#180,.T.);
#471=EDGE_CURVE('',#375,#383,#181,.T.);
#472=EDGE_CURVE('',#376,#366,#182,.T.);
#473=EDGE_CURVE('',#384,#385,#27,.T.);
#474=EDGE_CURVE('',#350,#384,#183,.T.);
#475=EDGE_CURVE('',#383,#369,#184,.T.);
#476=EDGE_CURVE('',#382,#386,#185,.T.);
#477=EDGE_CURVE('',#385,#386,#186,.T.);
#478=EDGE_CURVE('',#387,#388,#28,.T.);
#479=EDGE_CURVE('',#388,#387,#29,.T.);
#480=EDGE_CURVE('',#359,#344,#187,.T.);
#481=EDGE_CURVE('',#389,#343,#188,.T.);
#482=EDGE_CURVE('',#390,#389,#189,.T.);
#483=EDGE_CURVE('',#390,#337,#190,.T.);
#484=EDGE_CURVE('',#391,#338,#191,.T.);
#485=EDGE_CURVE('',#392,#391,#192,.T.);
#486=EDGE_CURVE('',#392,#345,#193,.T.);
#487=EDGE_CURVE('',#360,#346,#194,.T.);
#488=EDGE_CURVE('',#349,#393,#195,.T.);
#489=EDGE_CURVE('',#393,#394,#30,.T.);
#490=EDGE_CURVE('',#394,#395,#196,.T.);
#491=EDGE_CURVE('',#395,#381,#197,.T.);
#492=EDGE_CURVE('',#386,#395,#198,.T.);
#493=EDGE_CURVE('',#396,#335,#199,.T.);
#494=EDGE_CURVE('',#397,#396,#200,.T.);
#495=EDGE_CURVE('',#397,#328,#201,.T.);
#496=EDGE_CURVE('',#398,#327,#202,.T.);
#497=EDGE_CURVE('',#399,#398,#203,.T.);
#498=EDGE_CURVE('',#399,#329,#204,.T.);
#499=EDGE_CURVE('',#354,#330,#205,.T.);
#500=EDGE_CURVE('',#353,#336,#206,.T.);
#501=EDGE_CURVE('',#393,#384,#207,.T.);
#502=EDGE_CURVE('',#394,#385,#208,.T.);
#503=EDGE_CURVE('',#370,#392,#209,.T.);
#504=EDGE_CURVE('',#391,#371,#210,.T.);
#505=EDGE_CURVE('',#372,#390,#211,.T.);
#506=EDGE_CURVE('',#389,#373,#212,.T.);
#507=EDGE_CURVE('',#396,#380,#213,.T.);
#508=EDGE_CURVE('',#379,#397,#214,.T.);
#509=EDGE_CURVE('',#398,#378,#215,.T.);
#510=EDGE_CURVE('',#377,#399,#216,.T.);
#511=EDGE_CURVE('',#365,#388,#217,.T.);
#512=ORIENTED_EDGE('',*,*,#400,.F.);
#513=ORIENTED_EDGE('',*,*,#401,.F.);
#514=ORIENTED_EDGE('',*,*,#402,.F.);
#515=ORIENTED_EDGE('',*,*,#403,.F.);
#516=ORIENTED_EDGE('',*,*,#404,.F.);
#517=ORIENTED_EDGE('',*,*,#405,.F.);
#518=ORIENTED_EDGE('',*,*,#406,.F.);
#519=ORIENTED_EDGE('',*,*,#407,.F.);
#520=ORIENTED_EDGE('',*,*,#408,.F.);
#521=ORIENTED_EDGE('',*,*,#409,.F.);
#522=ORIENTED_EDGE('',*,*,#410,.F.);
#523=ORIENTED_EDGE('',*,*,#411,.F.);
#524=ORIENTED_EDGE('',*,*,#412,.F.);
#525=ORIENTED_EDGE('',*,*,#413,.F.);
#526=ORIENTED_EDGE('',*,*,#414,.F.);
#527=ORIENTED_EDGE('',*,*,#415,.F.);
#528=ORIENTED_EDGE('',*,*,#416,.F.);
#529=ORIENTED_EDGE('',*,*,#417,.F.);
#530=ORIENTED_EDGE('',*,*,#418,.F.);
#531=ORIENTED_EDGE('',*,*,#419,.F.);
#532=ORIENTED_EDGE('',*,*,#420,.F.);
#533=ORIENTED_EDGE('',*,*,#421,.F.);
#534=ORIENTED_EDGE('',*,*,#422,.F.);
#535=ORIENTED_EDGE('',*,*,#423,.F.);
#536=ORIENTED_EDGE('',*,*,#424,.F.);
#537=ORIENTED_EDGE('',*,*,#425,.F.);
#538=ORIENTED_EDGE('',*,*,#426,.F.);
#539=ORIENTED_EDGE('',*,*,#427,.F.);
#540=ORIENTED_EDGE('',*,*,#428,.T.);
#541=ORIENTED_EDGE('',*,*,#429,.T.);
#542=ORIENTED_EDGE('',*,*,#430,.F.);
#543=ORIENTED_EDGE('',*,*,#431,.T.);
#544=ORIENTED_EDGE('',*,*,#432,.F.);
#545=ORIENTED_EDGE('',*,*,#433,.T.);
#546=ORIENTED_EDGE('',*,*,#434,.T.);
#547=ORIENTED_EDGE('',*,*,#435,.T.);
#548=ORIENTED_EDGE('',*,*,#436,.F.);
#549=ORIENTED_EDGE('',*,*,#437,.T.);
#550=ORIENTED_EDGE('',*,*,#438,.F.);
#551=ORIENTED_EDGE('',*,*,#439,.T.);
#552=ORIENTED_EDGE('',*,*,#440,.F.);
#553=ORIENTED_EDGE('',*,*,#441,.T.);
#554=ORIENTED_EDGE('',*,*,#442,.F.);
#555=ORIENTED_EDGE('',*,*,#443,.F.);
#556=ORIENTED_EDGE('',*,*,#444,.T.);
#557=ORIENTED_EDGE('',*,*,#426,.T.);
#558=ORIENTED_EDGE('',*,*,#445,.F.);
#559=ORIENTED_EDGE('',*,*,#436,.T.);
#560=ORIENTED_EDGE('',*,*,#446,.T.);
#561=ORIENTED_EDGE('',*,*,#422,.T.);
#562=ORIENTED_EDGE('',*,*,#447,.F.);
#563=ORIENTED_EDGE('',*,*,#448,.F.);
#564=ORIENTED_EDGE('',*,*,#449,.T.);
#565=ORIENTED_EDGE('',*,*,#414,.T.);
#566=ORIENTED_EDGE('',*,*,#450,.F.);
#567=ORIENTED_EDGE('',*,*,#451,.F.);
#568=ORIENTED_EDGE('',*,*,#452,.T.);
#569=ORIENTED_EDGE('',*,*,#416,.T.);
#570=ORIENTED_EDGE('',*,*,#453,.F.);
#571=ORIENTED_EDGE('',*,*,#432,.T.);
#572=ORIENTED_EDGE('',*,*,#454,.T.);
#573=ORIENTED_EDGE('',*,*,#455,.T.);
#574=ORIENTED_EDGE('',*,*,#456,.F.);
#575=ORIENTED_EDGE('',*,*,#457,.F.);
#576=ORIENTED_EDGE('',*,*,#442,.T.);
#577=ORIENTED_EDGE('',*,*,#458,.T.);
#578=ORIENTED_EDGE('',*,*,#459,.F.);
#579=ORIENTED_EDGE('',*,*,#430,.T.);
#580=ORIENTED_EDGE('',*,*,#460,.T.);
#581=ORIENTED_EDGE('',*,*,#406,.T.);
#582=ORIENTED_EDGE('',*,*,#461,.F.);
#583=ORIENTED_EDGE('',*,*,#462,.F.);
#584=ORIENTED_EDGE('',*,*,#463,.T.);
#585=ORIENTED_EDGE('',*,*,#400,.T.);
#586=ORIENTED_EDGE('',*,*,#464,.F.);
#587=ORIENTED_EDGE('',*,*,#465,.F.);
#588=ORIENTED_EDGE('',*,*,#466,.T.);
#589=ORIENTED_EDGE('',*,*,#408,.T.);
#590=ORIENTED_EDGE('',*,*,#467,.F.);
#591=ORIENTED_EDGE('',*,*,#438,.T.);
#592=ORIENTED_EDGE('',*,*,#468,.T.);
#593=ORIENTED_EDGE('',*,*,#469,.T.);
#594=ORIENTED_EDGE('',*,*,#470,.F.);
#595=ORIENTED_EDGE('',*,*,#471,.F.);
#596=ORIENTED_EDGE('',*,*,#456,.T.);
#597=ORIENTED_EDGE('',*,*,#472,.T.);
#598=ORIENTED_EDGE('',*,*,#454,.F.);
#599=ORIENTED_EDGE('',*,*,#431,.F.);
#600=ORIENTED_EDGE('',*,*,#459,.T.);
#601=ORIENTED_EDGE('',*,*,#441,.F.);
#602=ORIENTED_EDGE('',*,*,#472,.F.);
#603=ORIENTED_EDGE('',*,*,#458,.F.);
#604=ORIENTED_EDGE('',*,*,#455,.F.);
#605=ORIENTED_EDGE('',*,*,#473,.F.);
#606=ORIENTED_EDGE('',*,*,#474,.F.);
#607=ORIENTED_EDGE('',*,*,#427,.T.);
#608=ORIENTED_EDGE('',*,*,#444,.F.);
#609=ORIENTED_EDGE('',*,*,#475,.F.);
#610=ORIENTED_EDGE('',*,*,#470,.T.);
#611=ORIENTED_EDGE('',*,*,#476,.T.);
#612=ORIENTED_EDGE('',*,*,#477,.F.);
#613=ORIENTED_EDGE('',*,*,#443,.T.);
#614=ORIENTED_EDGE('',*,*,#457,.T.);
#615=ORIENTED_EDGE('',*,*,#471,.T.);
#616=ORIENTED_EDGE('',*,*,#475,.T.);
#617=ORIENTED_EDGE('',*,*,#478,.F.);
#618=ORIENTED_EDGE('',*,*,#479,.F.);
#619=ORIENTED_EDGE('',*,*,#419,.T.);
#620=ORIENTED_EDGE('',*,*,#480,.F.);
#621=ORIENTED_EDGE('',*,*,#433,.F.);
#622=ORIENTED_EDGE('',*,*,#453,.T.);
#623=ORIENTED_EDGE('',*,*,#418,.T.);
#624=ORIENTED_EDGE('',*,*,#481,.F.);
#625=ORIENTED_EDGE('',*,*,#482,.F.);
#626=ORIENTED_EDGE('',*,*,#483,.T.);
#627=ORIENTED_EDGE('',*,*,#412,.T.);
#628=ORIENTED_EDGE('',*,*,#484,.F.);
#629=ORIENTED_EDGE('',*,*,#485,.F.);
#630=ORIENTED_EDGE('',*,*,#486,.T.);
#631=ORIENTED_EDGE('',*,*,#420,.T.);
#632=ORIENTED_EDGE('',*,*,#487,.F.);
#633=ORIENTED_EDGE('',*,*,#434,.F.);
#634=ORIENTED_EDGE('',*,*,#480,.T.);
#635=ORIENTED_EDGE('',*,*,#423,.T.);
#636=ORIENTED_EDGE('',*,*,#446,.F.);
#637=ORIENTED_EDGE('',*,*,#435,.F.);
#638=ORIENTED_EDGE('',*,*,#487,.T.);
#639=ORIENTED_EDGE('',*,*,#425,.T.);
#640=ORIENTED_EDGE('',*,*,#488,.T.);
#641=ORIENTED_EDGE('',*,*,#489,.T.);
#642=ORIENTED_EDGE('',*,*,#490,.T.);
#643=ORIENTED_EDGE('',*,*,#491,.T.);
#644=ORIENTED_EDGE('',*,*,#468,.F.);
#645=ORIENTED_EDGE('',*,*,#437,.F.);
#646=ORIENTED_EDGE('',*,*,#445,.T.);
#647=ORIENTED_EDGE('',*,*,#492,.F.);
#648=ORIENTED_EDGE('',*,*,#476,.F.);
#649=ORIENTED_EDGE('',*,*,#469,.F.);
#650=ORIENTED_EDGE('',*,*,#491,.F.);
#651=ORIENTED_EDGE('',*,*,#410,.T.);
#652=ORIENTED_EDGE('',*,*,#493,.F.);
#653=ORIENTED_EDGE('',*,*,#494,.F.);
#654=ORIENTED_EDGE('',*,*,#495,.T.);
#655=ORIENTED_EDGE('',*,*,#402,.T.);
#656=ORIENTED_EDGE('',*,*,#496,.F.);
#657=ORIENTED_EDGE('',*,*,#497,.F.);
#658=ORIENTED_EDGE('',*,*,#498,.T.);
#659=ORIENTED_EDGE('',*,*,#404,.T.);
#660=ORIENTED_EDGE('',*,*,#499,.F.);
#661=ORIENTED_EDGE('',*,*,#428,.F.);
#662=ORIENTED_EDGE('',*,*,#500,.T.);
#663=ORIENTED_EDGE('',*,*,#407,.T.);
#664=ORIENTED_EDGE('',*,*,#460,.F.);
#665=ORIENTED_EDGE('',*,*,#429,.F.);
#666=ORIENTED_EDGE('',*,*,#499,.T.);
#667=ORIENTED_EDGE('',*,*,#411,.T.);
#668=ORIENTED_EDGE('',*,*,#500,.F.);
#669=ORIENTED_EDGE('',*,*,#439,.F.);
#670=ORIENTED_EDGE('',*,*,#467,.T.);
#671=ORIENTED_EDGE('',*,*,#501,.T.);
#672=ORIENTED_EDGE('',*,*,#473,.T.);
#673=ORIENTED_EDGE('',*,*,#502,.F.);
#674=ORIENTED_EDGE('',*,*,#489,.F.);
#675=ORIENTED_EDGE('',*,*,#424,.T.);
#676=ORIENTED_EDGE('',*,*,#474,.T.);
#677=ORIENTED_EDGE('',*,*,#501,.F.);
#678=ORIENTED_EDGE('',*,*,#488,.F.);
#679=ORIENTED_EDGE('',*,*,#502,.T.);
#680=ORIENTED_EDGE('',*,*,#477,.T.);
#681=ORIENTED_EDGE('',*,*,#492,.T.);
#682=ORIENTED_EDGE('',*,*,#490,.F.);
#683=ORIENTED_EDGE('',*,*,#421,.T.);
#684=ORIENTED_EDGE('',*,*,#486,.F.);
#685=ORIENTED_EDGE('',*,*,#503,.F.);
#686=ORIENTED_EDGE('',*,*,#447,.T.);
#687=ORIENTED_EDGE('',*,*,#415,.T.);
#688=ORIENTED_EDGE('',*,*,#449,.F.);
#689=ORIENTED_EDGE('',*,*,#504,.F.);
#690=ORIENTED_EDGE('',*,*,#484,.T.);
#691=ORIENTED_EDGE('',*,*,#448,.T.);
#692=ORIENTED_EDGE('',*,*,#503,.T.);
#693=ORIENTED_EDGE('',*,*,#485,.T.);
#694=ORIENTED_EDGE('',*,*,#504,.T.);
#695=ORIENTED_EDGE('',*,*,#413,.T.);
#696=ORIENTED_EDGE('',*,*,#483,.F.);
#697=ORIENTED_EDGE('',*,*,#505,.F.);
#698=ORIENTED_EDGE('',*,*,#450,.T.);
#699=ORIENTED_EDGE('',*,*,#417,.T.);
#700=ORIENTED_EDGE('',*,*,#452,.F.);
#701=ORIENTED_EDGE('',*,*,#506,.F.);
#702=ORIENTED_EDGE('',*,*,#481,.T.);
#703=ORIENTED_EDGE('',*,*,#451,.T.);
#704=ORIENTED_EDGE('',*,*,#505,.T.);
#705=ORIENTED_EDGE('',*,*,#482,.T.);
#706=ORIENTED_EDGE('',*,*,#506,.T.);
#707=ORIENTED_EDGE('',*,*,#409,.T.);
#708=ORIENTED_EDGE('',*,*,#466,.F.);
#709=ORIENTED_EDGE('',*,*,#507,.F.);
#710=ORIENTED_EDGE('',*,*,#493,.T.);
#711=ORIENTED_EDGE('',*,*,#403,.T.);
#712=ORIENTED_EDGE('',*,*,#495,.F.);
#713=ORIENTED_EDGE('',*,*,#508,.F.);
#714=ORIENTED_EDGE('',*,*,#464,.T.);
#715=ORIENTED_EDGE('',*,*,#494,.T.);
#716=ORIENTED_EDGE('',*,*,#507,.T.);
#717=ORIENTED_EDGE('',*,*,#465,.T.);
#718=ORIENTED_EDGE('',*,*,#508,.T.);
#719=ORIENTED_EDGE('',*,*,#401,.T.);
#720=ORIENTED_EDGE('',*,*,#463,.F.);
#721=ORIENTED_EDGE('',*,*,#509,.F.);
#722=ORIENTED_EDGE('',*,*,#496,.T.);
#723=ORIENTED_EDGE('',*,*,#405,.T.);
#724=ORIENTED_EDGE('',*,*,#498,.F.);
#725=ORIENTED_EDGE('',*,*,#510,.F.);
#726=ORIENTED_EDGE('',*,*,#461,.T.);
#727=ORIENTED_EDGE('',*,*,#497,.T.);
#728=ORIENTED_EDGE('',*,*,#509,.T.);
#729=ORIENTED_EDGE('',*,*,#462,.T.);
#730=ORIENTED_EDGE('',*,*,#510,.T.);
#731=ORIENTED_EDGE('',*,*,#440,.T.);
#732=ORIENTED_EDGE('',*,*,#511,.T.);
#733=ORIENTED_EDGE('',*,*,#479,.T.);
#734=ORIENTED_EDGE('',*,*,#478,.T.);
#735=ORIENTED_EDGE('',*,*,#511,.F.);
#736=PLANE('',#832);
#737=PLANE('',#833);
#738=PLANE('',#834);
#739=PLANE('',#835);
#740=PLANE('',#836);
#741=PLANE('',#837);
#742=PLANE('',#838);
#743=PLANE('',#839);
#744=PLANE('',#841);
#745=PLANE('',#842);
#746=PLANE('',#843);
#747=PLANE('',#844);
#748=PLANE('',#845);
#749=PLANE('',#846);
#750=PLANE('',#848);
#751=PLANE('',#851);
#752=PLANE('',#852);
#753=PLANE('',#853);
#754=PLANE('',#854);
#755=PLANE('',#856);
#756=PLANE('',#857);
#757=PLANE('',#858);
#758=PLANE('',#859);
#759=PLANE('',#861);
#760=PLANE('',#862);
#761=PLANE('',#863);
#762=PLANE('',#864);
#763=PLANE('',#865);
#764=PLANE('',#866);
#765=PLANE('',#867);
#766=PLANE('',#868);
#767=PLANE('',#869);
#768=PLANE('',#870);
#769=PLANE('',#871);
#770=PLANE('',#872);
#771=PLANE('',#873);
#772=PLANE('',#874);
#773=ADVANCED_FACE('',(#31),#736,.T.);
#774=ADVANCED_FACE('',(#32),#737,.T.);
#775=ADVANCED_FACE('',(#33),#738,.T.);
#776=ADVANCED_FACE('',(#34),#739,.T.);
#777=ADVANCED_FACE('',(#35),#740,.T.);
#778=ADVANCED_FACE('',(#36),#741,.T.);
#779=ADVANCED_FACE('',(#37),#742,.T.);
#780=ADVANCED_FACE('',(#38,#24),#743,.T.);
#781=ADVANCED_FACE('',(#39),#744,.F.);
#782=ADVANCED_FACE('',(#40),#745,.F.);
#783=ADVANCED_FACE('',(#41),#746,.F.);
#784=ADVANCED_FACE('',(#42),#747,.F.);
#785=ADVANCED_FACE('',(#43),#748,.T.);
#786=ADVANCED_FACE('',(#44),#749,.F.);
#787=ADVANCED_FACE('',(#45,#25),#750,.F.);
#788=ADVANCED_FACE('',(#46),#751,.F.);
#789=ADVANCED_FACE('',(#47),#752,.F.);
#790=ADVANCED_FACE('',(#48),#753,.F.);
#791=ADVANCED_FACE('',(#49),#754,.F.);
#792=ADVANCED_FACE('',(#50),#755,.T.);
#793=ADVANCED_FACE('',(#51),#756,.F.);
#794=ADVANCED_FACE('',(#52),#757,.F.);
#795=ADVANCED_FACE('',(#53),#758,.F.);
#796=ADVANCED_FACE('',(#54),#22,.F.);
#797=ADVANCED_FACE('',(#55),#759,.F.);
#798=ADVANCED_FACE('',(#56),#760,.F.);
#799=ADVANCED_FACE('',(#57),#761,.F.);
#800=ADVANCED_FACE('',(#58),#762,.F.);
#801=ADVANCED_FACE('',(#59),#763,.F.);
#802=ADVANCED_FACE('',(#60),#764,.F.);
#803=ADVANCED_FACE('',(#61),#765,.F.);
#804=ADVANCED_FACE('',(#62),#766,.F.);
#805=ADVANCED_FACE('',(#63),#767,.F.);
#806=ADVANCED_FACE('',(#64),#768,.F.);
#807=ADVANCED_FACE('',(#65),#769,.F.);
#808=ADVANCED_FACE('',(#66),#770,.F.);
#809=ADVANCED_FACE('',(#67),#771,.F.);
#810=ADVANCED_FACE('',(#68),#772,.T.);
#811=ADVANCED_FACE('',(#69),#23,.F.);
#812=CLOSED_SHELL('',(#773,#774,#775,#776,#777,#778,#779,#780,#781,#782,
#783,#784,#785,#786,#787,#788,#789,#790,#791,#792,#793,#794,#795,#796,#797,
#798,#799,#800,#801,#802,#803,#804,#805,#806,#807,#808,#809,#810,#811));
#813=DERIVED_UNIT_ELEMENT(#815,1.);
#814=DERIVED_UNIT_ELEMENT(#1309,3.);
#815=(
MASS_UNIT()
NAMED_UNIT(*)
SI_UNIT($,.GRAM.)
);
#816=DERIVED_UNIT((#813,#814));
#817=MEASURE_REPRESENTATION_ITEM('density measure',
POSITIVE_RATIO_MEASURE(2.8),#816);
#818=PROPERTY_DEFINITION_REPRESENTATION(#823,#820);
#819=PROPERTY_DEFINITION_REPRESENTATION(#824,#821);
#820=REPRESENTATION('material name',(#822),#1306);
#821=REPRESENTATION('density',(#817),#1306);
#822=DESCRIPTIVE_REPRESENTATION_ITEM('airox|Aluminium',
'airox|Aluminium');
#823=PROPERTY_DEFINITION('material property','material name',#1316);
#824=PROPERTY_DEFINITION('material property','density of part',#1316);
#825=DATE_TIME_ROLE('creation_date');
#826=APPLIED_DATE_AND_TIME_ASSIGNMENT(#827,#825,(#1316));
#827=DATE_AND_TIME(#828,#829);
#828=CALENDAR_DATE(2006,27,3);
#829=LOCAL_TIME(11,47,33.,#830);
#830=COORDINATED_UNIVERSAL_TIME_OFFSET(0,0,.BEHIND.);
#831=AXIS2_PLACEMENT_3D('placement',#1073,#876,#877);
#832=AXIS2_PLACEMENT_3D('',#1074,#878,#879);
#833=AXIS2_PLACEMENT_3D('',#1083,#884,#885);
#834=AXIS2_PLACEMENT_3D('',#1092,#890,#891);
#835=AXIS2_PLACEMENT_3D('',#1101,#896,#897);
#836=AXIS2_PLACEMENT_3D('',#1110,#902,#903);
#837=AXIS2_PLACEMENT_3D('',#1119,#908,#909);
#838=AXIS2_PLACEMENT_3D('',#1128,#914,#915);
#839=AXIS2_PLACEMENT_3D('',#1137,#920,#921);
#840=AXIS2_PLACEMENT_3D('',#1163,#934,#935);
#841=AXIS2_PLACEMENT_3D('',#1164,#936,#937);
#842=AXIS2_PLACEMENT_3D('',#1187,#952,#953);
#843=AXIS2_PLACEMENT_3D('',#1193,#957,#958);
#844=AXIS2_PLACEMENT_3D('',#1216,#973,#974);
#845=AXIS2_PLACEMENT_3D('',#1218,#976,#977);
#846=AXIS2_PLACEMENT_3D('',#1219,#978,#979);
#847=AXIS2_PLACEMENT_3D('',#1222,#980,#981);
#848=AXIS2_PLACEMENT_3D('',#1228,#986,#987);
#849=AXIS2_PLACEMENT_3D('',#1231,#988,#989);
#850=AXIS2_PLACEMENT_3D('',#1232,#990,#991);
#851=AXIS2_PLACEMENT_3D('',#1233,#992,#993);
#852=AXIS2_PLACEMENT_3D('',#1235,#995,#996);
#853=AXIS2_PLACEMENT_3D('',#1247,#1004,#1005);
#854=AXIS2_PLACEMENT_3D('',#1248,#1006,#1007);
#855=AXIS2_PLACEMENT_3D('',#1252,#1009,#1010);
#856=AXIS2_PLACEMENT_3D('',#1256,#1013,#1014);
#857=AXIS2_PLACEMENT_3D('',#1258,#1016,#1017);
#858=AXIS2_PLACEMENT_3D('',#1271,#1026,#1027);
#859=AXIS2_PLACEMENT_3D('',#1272,#1028,#1029);
#860=AXIS2_PLACEMENT_3D('',#1273,#1030,#1031);
#861=AXIS2_PLACEMENT_3D('',#1276,#1034,#1035);
#862=AXIS2_PLACEMENT_3D('',#1277,#1036,#1037);
#863=AXIS2_PLACEMENT_3D('',#1278,#1038,#1039);
#864=AXIS2_PLACEMENT_3D('',#1280,#1041,#1042);
#865=AXIS2_PLACEMENT_3D('',#1282,#1044,#1045);
#866=AXIS2_PLACEMENT_3D('',#1283,#1046,#1047);
#867=AXIS2_PLACEMENT_3D('',#1285,#1049,#1050);
#868=AXIS2_PLACEMENT_3D('',#1287,#1052,#1053);
#869=AXIS2_PLACEMENT_3D('',#1288,#1054,#1055);
#870=AXIS2_PLACEMENT_3D('',#1290,#1057,#1058);
#871=AXIS2_PLACEMENT_3D('',#1292,#1060,#1061);
#872=AXIS2_PLACEMENT_3D('',#1293,#1062,#1063);
#873=AXIS2_PLACEMENT_3D('',#1295,#1065,#1066);
#874=AXIS2_PLACEMENT_3D('',#1297,#1068,#1069);
#875=AXIS2_PLACEMENT_3D('',#1298,#1070,#1071);
#876=DIRECTION('axis',(0.,0.,1.));
#877=DIRECTION('refdir',(1.,0.,0.));
#878=DIRECTION('center_axis',(0.,0.,-1.));
#879=DIRECTION('ref_axis',(1.,-1.22464679914735E-16,0.));
#880=DIRECTION('',(-1.,-1.94741898549595E-16,0.));
#881=DIRECTION('',(1.22464679914735E-16,1.,0.));
#882=DIRECTION('',(1.,1.94741898549595E-16,0.));
#883=DIRECTION('',(-1.22464679914735E-16,-1.,0.));
#884=DIRECTION('center_axis',(0.,0.,-1.));
#885=DIRECTION('ref_axis',(1.,-1.22464679914735E-16,0.));
#886=DIRECTION('',(1.,-1.22464679914735E-16,0.));
#887=DIRECTION('',(-1.22464679914735E-16,-1.,0.));
#888=DIRECTION('',(-1.,1.22464679914735E-16,0.));
#889=DIRECTION('',(1.22464679914735E-16,1.,0.));
#890=DIRECTION('center_axis',(0.,0.,-1.));
#891=DIRECTION('ref_axis',(1.,-1.22464679914735E-16,0.));
#892=DIRECTION('',(-1.,1.22464679914735E-16,0.));
#893=DIRECTION('',(1.22464679914735E-16,1.,0.));
#894=DIRECTION('',(1.,-1.22464679914735E-16,0.));
#895=DIRECTION('',(-1.22464679914735E-16,-1.,0.));
#896=DIRECTION('center_axis',(0.,0.,-1.));
#897=DIRECTION('ref_axis',(1.,-1.22464679914735E-16,0.));
#898=DIRECTION('',(-1.,-1.94741898549595E-16,0.));
#899=DIRECTION('',(1.22464679914735E-16,1.,0.));
#900=DIRECTION('',(1.,5.11948477013926E-16,0.));
#901=DIRECTION('',(-1.22464679914735E-16,-1.,0.));
#902=DIRECTION('center_axis',(0.,0.,-1.));
#903=DIRECTION('ref_axis',(1.,-1.22464679914735E-16,0.));
#904=DIRECTION('',(1.,-1.22464679914735E-16,0.));
#905=DIRECTION('',(-1.22464679914735E-16,-1.,0.));
#906=DIRECTION('',(-1.,1.22464679914735E-16,0.));
#907=DIRECTION('',(1.22464679914735E-16,1.,0.));
#908=DIRECTION('center_axis',(0.,0.,-1.));
#909=DIRECTION('ref_axis',(1.,-1.22464679914735E-16,0.));
#910=DIRECTION('',(-1.,1.22464679914735E-16,0.));
#911=DIRECTION('',(1.22464679914735E-16,1.,0.));
#912=DIRECTION('',(1.,-1.22464679914735E-16,0.));
#913=DIRECTION('',(-1.22464679914735E-16,-1.,0.));
#914=DIRECTION('center_axis',(0.,0.,-1.));
#915=DIRECTION('ref_axis',(1.,-1.22464679914735E-16,0.));
#916=DIRECTION('',(-1.,1.22464679914735E-16,0.));
#917=DIRECTION('',(1.22464679914735E-16,1.,0.));
#918=DIRECTION('',(1.,-1.22464679914735E-16,0.));
#919=DIRECTION('',(-1.22464679914735E-16,-1.,0.));
#920=DIRECTION('center_axis',(0.,0.,-1.));
#921=DIRECTION('ref_axis',(1.,-1.22464679914735E-16,0.));
#922=DIRECTION('',(1.,1.15016180967651E-16,0.));
#923=DIRECTION('',(1.22464679914735E-16,1.,0.));
#924=DIRECTION('',(-1.,1.22464679914735E-16,0.));
#925=DIRECTION('',(-1.22464679914735E-16,-1.,0.));
#926=DIRECTION('',(1.,-1.22464679914735E-16,0.));
#927=DIRECTION('',(1.22464679914735E-16,1.,0.));
#928=DIRECTION('',(-1.,-1.15016180967651E-16,0.));
#929=DIRECTION('',(-1.22464679914735E-16,-1.,0.));
#930=DIRECTION('',(1.,-1.22464679914735E-16,0.));
#931=DIRECTION('',(-1.0527337641863E-16,1.,0.));
#932=DIRECTION('',(-1.,1.22464679914735E-16,0.));
#933=DIRECTION('',(-1.22464679914735E-16,-1.,0.));
#934=DIRECTION('center_axis',(0.,0.,-1.));
#935=DIRECTION('ref_axis',(1.,-1.22464679914735E-16,0.));
#936=DIRECTION('center_axis',(1.22464679914735E-16,1.,0.));
#937=DIRECTION('ref_axis',(0.,0.,-1.));
#938=DIRECTION('',(1.,-1.22464679914735E-16,0.));
#939=DIRECTION('',(0.,0.,-1.));
#940=DIRECTION('',(1.,3.23856134004926E-16,0.));
#941=DIRECTION('',(0.,0.,-1.));
#942=DIRECTION('',(0.,0.,-1.));
#943=DIRECTION('',(0.,0.,-1.));
#944=DIRECTION('',(0.,0.,1.));
#945=DIRECTION('',(-1.,1.22464679914735E-16,0.));
#946=DIRECTION('',(0.,0.,1.));
#947=DIRECTION('',(0.,0.,1.));
#948=DIRECTION('',(-1.,1.22464679914735E-16,0.));
#949=DIRECTION('',(0.,0.,1.));
#950=DIRECTION('',(0.,0.,-1.));
#951=DIRECTION('',(0.,0.,-1.));
#952=DIRECTION('center_axis',(-1.,1.22464679914735E-16,0.));
#953=DIRECTION('ref_axis',(0.,0.,-1.));
#954=DIRECTION('',(1.22464679914735E-16,1.,0.));
#955=DIRECTION('',(0.,0.,-1.));
#956=DIRECTION('',(1.22464679914735E-16,1.,0.));
#957=DIRECTION('center_axis',(-1.22464679914735E-16,-1.,0.));
#958=DIRECTION('ref_axis',(0.,0.,1.));
#959=DIRECTION('',(-1.,1.22464679914735E-16,0.));
#960=DIRECTION('',(0.,0.,-1.));
#961=DIRECTION('',(0.,0.,-1.));
#962=DIRECTION('',(0.,0.,1.));
#963=DIRECTION('',(1.,-2.34291072916504E-15,0.));
#964=DIRECTION('',(0.,0.,1.));
#965=DIRECTION('',(0.,0.,1.));
#966=DIRECTION('',(1.,-1.22464679914735E-16,0.));
#967=DIRECTION('',(0.,0.,1.));
#968=DIRECTION('',(0.,0.,-1.));
#969=DIRECTION('',(0.,0.,-1.));
#970=DIRECTION('',(-1.,1.22464679914735E-16,0.));
#971=DIRECTION('',(0.,0.,-1.));
#972=DIRECTION('',(-1.,-2.1227593052501E-16,0.));
#973=DIRECTION('center_axis',(1.,-1.22464679914735E-16,0.));
#974=DIRECTION('ref_axis',(0.,0.,1.));
#975=DIRECTION('',(-1.22464679914735E-16,-1.,0.));
#976=DIRECTION('center_axis',(0.,0.,-1.));
#977=DIRECTION('ref_axis',(1.,-1.22464679914735E-16,0.));
#978=DIRECTION('center_axis',(1.,5.54556765957064E-17,0.));
#979=DIRECTION('ref_axis',(0.,0.,1.));
#980=DIRECTION('center_axis',(-1.,-6.43193870118727E-17,0.));
#981=DIRECTION('ref_axis',(6.43193870118727E-17,-1.,0.));
#982=DIRECTION('',(0.,0.,1.));
#983=DIRECTION('',(1.0527337641863E-16,-1.,0.));
#984=DIRECTION('',(2.32806687965315E-16,-1.,0.));
#985=DIRECTION('',(0.,0.,-1.));
#986=DIRECTION('center_axis',(0.,0.,-1.));
#987=DIRECTION('ref_axis',(1.,-1.22464679914735E-16,0.));
#988=DIRECTION('center_axis',(0.,0.,1.));
#989=DIRECTION('ref_axis',(-1.,1.22464679914735E-16,0.));
#990=DIRECTION('center_axis',(0.,0.,1.));
#991=DIRECTION('ref_axis',(-1.,1.22464679914735E-16,0.));
#992=DIRECTION('center_axis',(-1.,1.22464679914735E-16,0.));
#993=DIRECTION('ref_axis',(0.,0.,-1.));
#994=DIRECTION('',(0.,0.,-1.));
#995=DIRECTION('center_axis',(2.48599165213994E-16,-1.,0.));
#996=DIRECTION('ref_axis',(0.,0.,1.));
#997=DIRECTION('',(0.,0.,1.));
#998=DIRECTION('',(1.,-1.22464679914735E-16,0.));
#999=DIRECTION('',(0.,0.,1.));
#1000=DIRECTION('',(0.,0.,1.));
#1001=DIRECTION('',(1.,-1.22464679914735E-16,0.));
#1002=DIRECTION('',(0.,0.,1.));
#1003=DIRECTION('',(0.,0.,-1.));
#1004=DIRECTION('center_axis',(1.,-1.22464679914735E-16,0.));
#1005=DIRECTION('ref_axis',(0.,0.,1.));
#1006=DIRECTION('center_axis',(-1.,-5.54556765957064E-17,0.));
#1007=DIRECTION('ref_axis',(0.,0.,-1.));
#1008=DIRECTION('',(0.,0.,1.));
#1009=DIRECTION('center_axis',(-1.,-5.54556765957064E-17,0.));
#1010=DIRECTION('ref_axis',(5.54556765957064E-17,-1.,0.));
#1011=DIRECTION('',(0.,0.,-1.));
#1012=DIRECTION('',(-2.32806687965315E-16,1.,0.));
#1013=DIRECTION('center_axis',(0.,0.,-1.));
#1014=DIRECTION('ref_axis',(1.,-1.22464679914735E-16,0.));
#1015=DIRECTION('',(1.,-1.22464679914735E-16,0.));
#1016=DIRECTION('center_axis',(-1.55833203931811E-16,1.,0.));
#1017=DIRECTION('ref_axis',(0.,0.,-1.));
#1018=DIRECTION('',(0.,0.,1.));
#1019=DIRECTION('',(-1.,1.22464679914735E-16,0.));
#1020=DIRECTION('',(0.,0.,1.));
#1021=DIRECTION('',(0.,0.,1.));
#1022=DIRECTION('',(-1.,2.34291072916504E-15,0.));
#1023=DIRECTION('',(0.,0.,1.));
#1024=DIRECTION('',(0.,0.,-1.));
#1025=DIRECTION('',(0.,0.,-1.));
#1026=DIRECTION('center_axis',(-1.,1.22464679914735E-16,0.));
#1027=DIRECTION('ref_axis',(0.,0.,-1.));
#1028=DIRECTION('center_axis',(1.,-1.22464679914735E-16,0.));
#1029=DIRECTION('ref_axis',(0.,0.,1.));
#1030=DIRECTION('center_axis',(-1.,-6.43193870118727E-17,0.));
#1031=DIRECTION('ref_axis',(6.43193870118727E-17,-1.,0.));
#1032=DIRECTION('',(-1.,1.22464679914735E-16,0.));
#1033=DIRECTION('',(-1.,1.22464679914735E-16,0.));
#1034=DIRECTION('center_axis',(6.43193870118727E-17,-1.,0.));
#1035=DIRECTION('ref_axis',(0.,0.,1.));
#1036=DIRECTION('center_axis',(-6.43193870118727E-17,1.,0.));
#1037=DIRECTION('ref_axis',(0.,0.,-1.));
#1038=DIRECTION('center_axis',(1.,-1.22464679914735E-16,0.));
#1039=DIRECTION('ref_axis',(0.,0.,1.));
#1040=DIRECTION('',(1.22464679914735E-16,1.,0.));
#1041=DIRECTION('center_axis',(-1.,1.22464679914735E-16,0.));
#1042=DIRECTION('ref_axis',(0.,0.,-1.));
#1043=DIRECTION('',(-1.22464679914735E-16,-1.,0.));
#1044=DIRECTION('center_axis',(0.,0.,1.));
#1045=DIRECTION('ref_axis',(-1.,1.22464679914735E-16,0.));
#1046=DIRECTION('center_axis',(1.,-1.22464679914735E-16,0.));
#1047=DIRECTION('ref_axis',(0.,0.,1.));
#1048=DIRECTION('',(1.22464679914735E-16,1.,0.));
#1049=DIRECTION('center_axis',(-1.,1.22464679914735E-16,0.));
#1050=DIRECTION('ref_axis',(0.,0.,-1.));
#1051=DIRECTION('',(-1.22464679914735E-16,-1.,0.));
#1052=DIRECTION('center_axis',(0.,0.,1.));
#1053=DIRECTION('ref_axis',(-1.,1.22464679914735E-16,0.));
#1054=DIRECTION('center_axis',(1.,-1.22464679914735E-16,0.));
#1055=DIRECTION('ref_axis',(0.,0.,1.));
#1056=DIRECTION('',(1.22464679914735E-16,1.,0.));
#1057=DIRECTION('center_axis',(-1.,1.22464679914735E-16,0.));
#1058=DIRECTION('ref_axis',(0.,0.,-1.));
#1059=DIRECTION('',(-1.22464679914735E-16,-1.,0.));
#1060=DIRECTION('center_axis',(0.,0.,1.));
#1061=DIRECTION('ref_axis',(-1.,1.22464679914735E-16,0.));
#1062=DIRECTION('center_axis',(1.,-1.22464679914735E-16,0.));
#1063=DIRECTION('ref_axis',(0.,0.,1.));
#1064=DIRECTION('',(1.22464679914735E-16,1.,0.));
#1065=DIRECTION('center_axis',(-1.,1.22464679914735E-16,0.));
#1066=DIRECTION('ref_axis',(0.,0.,-1.));
#1067=DIRECTION('',(-1.22464679914735E-16,-1.,0.));
#1068=DIRECTION('center_axis',(0.,0.,-1.));
#1069=DIRECTION('ref_axis',(1.,-1.22464679914735E-16,0.));
#1070=DIRECTION('center_axis',(0.,0.,1.));
#1071=DIRECTION('ref_axis',(-1.,1.22464679914735E-16,0.));
#1072=DIRECTION('',(0.,0.,1.));
#1073=CARTESIAN_POINT('',(0.,0.,0.));
#1074=CARTESIAN_POINT('Origin',(-9.35028109043069,19.0001054733316,0.));
#1075=CARTESIAN_POINT('',(6.99971890956932,19.5001054733316,0.));
#1076=CARTESIAN_POINT('',(-7.00028109043069,19.5001054733316,0.));
#1077=CARTESIAN_POINT('',(6.99971890956932,19.5001054733316,0.));
#1078=CARTESIAN_POINT('',(6.99971890956932,19.0001054733316,0.));
#1079=CARTESIAN_POINT('',(6.99971890956932,19.0001054733316,0.));
#1080=CARTESIAN_POINT('',(-7.00028109043069,19.0001054733316,0.));
#1081=CARTESIAN_POINT('',(-7.00028109043069,19.0001054733316,0.));
#1082=CARTESIAN_POINT('',(-7.00028109043069,19.5001054733316,0.));
#1083=CARTESIAN_POINT('Origin',(-9.35028109043069,19.0001054733316,0.));
#1084=CARTESIAN_POINT('',(7.99971890956933,19.0001054733316,0.));
#1085=CARTESIAN_POINT('',(9.34971890956931,19.0001054733316,0.));
#1086=CARTESIAN_POINT('',(7.99971890956933,19.0001054733316,0.));
#1087=CARTESIAN_POINT('',(7.99971890956933,19.5001054733316,0.));
#1088=CARTESIAN_POINT('',(7.99971890956933,19.5001054733316,0.));
#1089=CARTESIAN_POINT('',(9.34971890956931,19.5001054733316,0.));
#1090=CARTESIAN_POINT('',(9.34971890956931,19.5001054733316,0.));
#1091=CARTESIAN_POINT('',(9.34971890956931,19.0001054733316,0.));
#1092=CARTESIAN_POINT('Origin',(-9.35028109043069,19.0001054733316,0.));
#1093=CARTESIAN_POINT('',(-8.00028109043069,19.5001054733316,0.));
#1094=CARTESIAN_POINT('',(-9.35028109043069,19.5001054733316,0.));
#1095=CARTESIAN_POINT('',(-8.00028109043069,19.5001054733316,0.));
#1096=CARTESIAN_POINT('',(-8.00028109043069,19.0001054733316,0.));
#1097=CARTESIAN_POINT('',(-8.00028109043069,19.0001054733316,0.));
#1098=CARTESIAN_POINT('',(-9.35028109043069,19.0001054733316,0.));
#1099=CARTESIAN_POINT('',(-9.35028109043069,19.0001054733316,0.));
#1100=CARTESIAN_POINT('',(-9.35028109043069,19.5001054733316,0.));
#1101=CARTESIAN_POINT('Origin',(-9.35028109043068,-19.4998945266684,0.));
#1102=CARTESIAN_POINT('',(6.99971890956929,-18.9998945266684,0.));
#1103=CARTESIAN_POINT('',(-7.0002810904307,-18.9998945266684,0.));
#1104=CARTESIAN_POINT('',(6.99971890956929,-18.9998945266684,0.));
#1105=CARTESIAN_POINT('',(6.99971890956929,-19.4998945266684,0.));
#1106=CARTESIAN_POINT('',(6.99971890956929,-19.4998945266684,0.));
#1107=CARTESIAN_POINT('',(-7.0002810904307,-19.4998945266684,0.));
#1108=CARTESIAN_POINT('',(-7.0002810904307,-19.4998945266684,0.));
#1109=CARTESIAN_POINT('',(-7.0002810904307,-18.9998945266684,0.));
#1110=CARTESIAN_POINT('Origin',(-9.35028109043068,-19.4998945266684,0.));
#1111=CARTESIAN_POINT('',(7.9997189095693,-19.4998945266684,0.));
#1112=CARTESIAN_POINT('',(9.3497189095693,-19.4998945266684,0.));
#1113=CARTESIAN_POINT('',(7.9997189095693,-19.4998945266684,0.));
#1114=CARTESIAN_POINT('',(7.9997189095693,-18.9998945266684,0.));
#1115=CARTESIAN_POINT('',(7.9997189095693,-18.9998945266684,0.));
#1116=CARTESIAN_POINT('',(9.3497189095693,-18.9998945266684,0.));
#1117=CARTESIAN_POINT('',(9.3497189095693,-18.9998945266684,0.));
#1118=CARTESIAN_POINT('',(9.3497189095693,-19.4998945266684,0.));
#1119=CARTESIAN_POINT('Origin',(-9.35028109043068,-19.4998945266684,0.));
#1120=CARTESIAN_POINT('',(-8.00028109043071,-18.9998945266684,0.));
#1121=CARTESIAN_POINT('',(-9.35028109043068,-18.9998945266684,0.));
#1122=CARTESIAN_POINT('',(-8.00028109043071,-18.9998945266684,0.));
#1123=CARTESIAN_POINT('',(-8.00028109043071,-19.4998945266684,0.));
#1124=CARTESIAN_POINT('',(-8.00028109043071,-19.4998945266684,0.));
#1125=CARTESIAN_POINT('',(-9.35028109043068,-19.4998945266684,0.));
#1126=CARTESIAN_POINT('',(-9.35028109043068,-19.4998945266684,0.));
#1127=CARTESIAN_POINT('',(-9.35028109043068,-18.9998945266684,0.));
#1128=CARTESIAN_POINT('Origin',(-9.95028109043069,-19.4998945266684,0.));
#1129=CARTESIAN_POINT('',(-9.45028109043069,-13.4998945266684,0.));
#1130=CARTESIAN_POINT('',(-9.9502810904307,-13.4998945266684,0.));
#1131=CARTESIAN_POINT('',(-9.45028109043069,-13.4998945266684,0.));
#1132=CARTESIAN_POINT('',(-9.45028109043069,-19.4998945266684,0.));
#1133=CARTESIAN_POINT('',(-9.45028109043069,-19.4998945266684,0.));
#1134=CARTESIAN_POINT('',(-9.95028109043069,-19.4998945266684,0.));
#1135=CARTESIAN_POINT('',(-9.95028109043069,-19.4998945266684,0.));
#1136=CARTESIAN_POINT('',(-9.95028109043069,-13.4998945266684,0.));
#1137=CARTESIAN_POINT('Origin',(-9.95028109043069,-19.4998945266684,13.5));
#1138=CARTESIAN_POINT('',(-9.35028109043069,19.0001054733316,13.5));
#1139=CARTESIAN_POINT('',(9.34971890956931,19.0001054733316,13.5));
#1140=CARTESIAN_POINT('',(-9.35028109043069,19.0001054733316,13.5));
#1141=CARTESIAN_POINT('',(9.34971890956931,19.5001054733316,13.5));
#1142=CARTESIAN_POINT('',(9.34971890956931,19.0001054733316,13.5));
#1143=CARTESIAN_POINT('',(9.44971890956932,19.5001054733316,13.5));
#1144=CARTESIAN_POINT('',(9.44971890956932,19.5001054733316,13.5));
#1145=CARTESIAN_POINT('',(9.44971890956932,-19.4998945266684,13.5));
#1146=CARTESIAN_POINT('',(9.44971890956932,19.5001054733316,13.5));
#1147=CARTESIAN_POINT('',(9.3497189095693,-19.4998945266684,13.5));
#1148=CARTESIAN_POINT('',(9.3497189095693,-19.4998945266684,13.5));
#1149=CARTESIAN_POINT('',(9.3497189095693,-18.9998945266684,13.5));
#1150=CARTESIAN_POINT('',(9.3497189095693,-19.4998945266684,13.5));
#1151=CARTESIAN_POINT('',(-9.35028109043068,-18.9998945266684,13.5));
#1152=CARTESIAN_POINT('',(9.3497189095693,-18.9998945266684,13.5));
#1153=CARTESIAN_POINT('',(-9.35028109043068,-19.4998945266684,13.5));
#1154=CARTESIAN_POINT('',(-9.35028109043068,-18.9998945266684,13.5));
#1155=CARTESIAN_POINT('',(-9.45028109043069,-19.4998945266684,13.5));
#1156=CARTESIAN_POINT('',(-9.45028109043069,-19.4998945266684,13.5));
#1157=CARTESIAN_POINT('',(-9.45028109043069,19.5001054733316,13.5));
#1158=CARTESIAN_POINT('',(-9.45028109043069,-19.4998945266684,13.5));
#1159=CARTESIAN_POINT('',(-9.35028109043069,19.5001054733316,13.5));
#1160=CARTESIAN_POINT('',(-9.35028109043069,19.5001054733316,13.5));
#1161=CARTESIAN_POINT('',(-9.35028109043069,19.5001054733316,13.5));
#1162=CARTESIAN_POINT('',(2.09971890957276,8.98433659238687,13.5));
#1163=CARTESIAN_POINT('Origin',(0.0997189095727624,8.98433659238687,13.5));
#1164=CARTESIAN_POINT('Origin',(9.94971890956931,-19.4998945266684,13.5));
#1165=CARTESIAN_POINT('',(9.44971890956932,-19.4998945266684,0.));
#1166=CARTESIAN_POINT('',(9.94971890956931,-19.4998945266684,0.));
#1167=CARTESIAN_POINT('',(9.44971890956932,-19.4998945266684,0.));
#1168=CARTESIAN_POINT('',(9.94971890956931,-19.4998945266684,14.));
#1169=CARTESIAN_POINT('',(9.94971890956931,-19.4998945266684,14.));
#1170=CARTESIAN_POINT('',(-9.95028109043069,-19.4998945266684,14.));
#1171=CARTESIAN_POINT('',(-9.95028109043069,-19.4998945266684,14.));
#1172=CARTESIAN_POINT('',(-9.95028109043069,-19.4998945266684,14.));
#1173=CARTESIAN_POINT('',(-9.45028109043069,-19.4998945266684,13.5));
#1174=CARTESIAN_POINT('',(-9.35028109043068,-19.4998945266684,13.5));
#1175=CARTESIAN_POINT('',(-8.00028109043071,-19.4998945266684,-2.));
#1176=CARTESIAN_POINT('',(-8.00028109043071,-19.4998945266684,-2.));
#1177=CARTESIAN_POINT('',(-7.0002810904307,-19.4998945266684,-2.));
#1178=CARTESIAN_POINT('',(-7.0002810904307,-19.4998945266684,-2.));
#1179=CARTESIAN_POINT('',(-7.0002810904307,-19.4998945266684,-2.));
#1180=CARTESIAN_POINT('',(6.99971890956929,-19.4998945266684,-2.));
#1181=CARTESIAN_POINT('',(6.99971890956929,-19.4998945266684,-2.));
#1182=CARTESIAN_POINT('',(7.9997189095693,-19.4998945266684,-2.));
#1183=CARTESIAN_POINT('',(7.9997189095693,-19.4998945266684,-2.));
#1184=CARTESIAN_POINT('',(7.9997189095693,-19.4998945266684,-2.));
#1185=CARTESIAN_POINT('',(9.3497189095693,-19.4998945266684,13.5));
#1186=CARTESIAN_POINT('',(9.44971890956932,-19.4998945266684,13.5));
#1187=CARTESIAN_POINT('Origin',(9.94971890956931,-19.4998945266684,13.5));
#1188=CARTESIAN_POINT('',(9.94971890956931,19.5001054733316,0.));
#1189=CARTESIAN_POINT('',(9.94971890956931,-19.4998945266684,0.));
#1190=CARTESIAN_POINT('',(9.94971890956931,19.5001054733316,14.));
#1191=CARTESIAN_POINT('',(9.94971890956931,19.5001054733316,14.));
#1192=CARTESIAN_POINT('',(9.94971890956931,-19.4998945266684,14.));
#1193=CARTESIAN_POINT('Origin',(9.94971890956931,19.5001054733316,13.5));
#1194=CARTESIAN_POINT('',(9.44971890956932,19.5001054733316,0.));
#1195=CARTESIAN_POINT('',(9.94971890956931,19.5001054733316,0.));
#1196=CARTESIAN_POINT('',(9.44971890956932,19.5001054733316,13.5));
#1197=CARTESIAN_POINT('',(9.34971890956931,19.5001054733316,13.5));
#1198=CARTESIAN_POINT('',(7.99971890956933,19.5001054733316,-2.));
#1199=CARTESIAN_POINT('',(7.99971890956933,19.5001054733316,-2.));
#1200=CARTESIAN_POINT('',(6.99971890956932,19.5001054733316,-2.));
#1201=CARTESIAN_POINT('',(6.99971890956932,19.5001054733316,-2.));
#1202=CARTESIAN_POINT('',(6.99971890956932,19.5001054733316,-2.));
#1203=CARTESIAN_POINT('',(-7.00028109043069,19.5001054733316,-2.));
#1204=CARTESIAN_POINT('',(-7.00028109043069,19.5001054733316,-2.));
#1205=CARTESIAN_POINT('',(-8.00028109043069,19.5001054733316,-2.));
#1206=CARTESIAN_POINT('',(-8.00028109043069,19.5001054733316,-2.));
#1207=CARTESIAN_POINT('',(-8.00028109043069,19.5001054733316,-2.));
#1208=CARTESIAN_POINT('',(-9.35028109043069,19.5001054733316,13.5));
#1209=CARTESIAN_POINT('',(-9.45028109043069,19.5001054733316,0.));
#1210=CARTESIAN_POINT('',(-9.45028109043069,19.5001054733316,13.5));
#1211=CARTESIAN_POINT('',(-9.95028109043069,19.5001054733316,0.));
#1212=CARTESIAN_POINT('',(-9.45028109043069,19.5001054733316,0.));
#1213=CARTESIAN_POINT('',(-9.9502810904307,19.5001054733316,14.));
#1214=CARTESIAN_POINT('',(-9.9502810904307,19.5001054733316,14.));
#1215=CARTESIAN_POINT('',(9.94971890956931,19.5001054733316,14.));
#1216=CARTESIAN_POINT('Origin',(9.44971890956932,-19.4998945266684,13.5));
#1217=CARTESIAN_POINT('',(9.44971890956932,19.5001054733316,0.));
#1218=CARTESIAN_POINT('Origin',(9.44971890956932,-19.4998945266684,0.));
#1219=CARTESIAN_POINT('Origin',(-9.95028109043069,-19.4998945266684,14.));
#1220=CARTESIAN_POINT('',(-9.9502810904307,-13.4998945266684,3.3));
#1221=CARTESIAN_POINT('',(-9.9502810904307,-5.49989452666839,3.3));
#1222=CARTESIAN_POINT('Origin',(-9.9502810904307,-9.49989452666838,3.3));
#1223=CARTESIAN_POINT('',(-9.9502810904307,-13.4998945266684,0.));
#1224=CARTESIAN_POINT('',(-9.9502810904307,19.5001054733316,14.));
#1225=CARTESIAN_POINT('',(-9.95028109043069,-5.49989452666838,0.));
#1226=CARTESIAN_POINT('',(-9.95028109043069,19.5001054733316,0.));
#1227=CARTESIAN_POINT('',(-9.9502810904307,-5.49989452666839,3.3));
#1228=CARTESIAN_POINT('Origin',(-9.95028109043069,-19.4998945266684,14.));
#1229=CARTESIAN_POINT('',(-1.90028109042724,8.98433659238687,14.));
#1230=CARTESIAN_POINT('',(2.09971890957276,8.98433659238687,14.));
#1231=CARTESIAN_POINT('Origin',(0.0997189095727624,8.98433659238687,14.));
#1232=CARTESIAN_POINT('Origin',(0.0997189095727624,8.98433659238687,14.));
#1233=CARTESIAN_POINT('Origin',(9.3497189095693,-19.4998945266684,13.5));
#1234=CARTESIAN_POINT('',(9.3497189095693,-18.9998945266684,13.5));
#1235=CARTESIAN_POINT('Origin',(9.3497189095693,-18.9998945266684,13.5));
#1236=CARTESIAN_POINT('',(7.9997189095693,-18.9998945266684,-2.));
#1237=CARTESIAN_POINT('',(7.9997189095693,-18.9998945266684,-2.));
#1238=CARTESIAN_POINT('',(6.99971890956929,-18.9998945266684,-2.));
#1239=CARTESIAN_POINT('',(6.99971890956929,-18.9998945266684,-2.));
#1240=CARTESIAN_POINT('',(6.99971890956929,-18.9998945266684,-2.));
#1241=CARTESIAN_POINT('',(-7.0002810904307,-18.9998945266684,-2.));
#1242=CARTESIAN_POINT('',(-7.0002810904307,-18.9998945266684,-2.));
#1243=CARTESIAN_POINT('',(-8.00028109043071,-18.9998945266684,-2.));
#1244=CARTESIAN_POINT('',(-8.00028109043071,-18.9998945266684,-2.));
#1245=CARTESIAN_POINT('',(-8.00028109043071,-18.9998945266684,-2.));
#1246=CARTESIAN_POINT('',(-9.35028109043068,-18.9998945266684,13.5));
#1247=CARTESIAN_POINT('Origin',(-9.35028109043068,-19.4998945266684,13.5));
#1248=CARTESIAN_POINT('Origin',(-9.45028109043069,-19.4998945266684,13.5));
#1249=CARTESIAN_POINT('',(-9.45028109043069,-13.4998945266684,3.3));
#1250=CARTESIAN_POINT('',(-9.45028109043069,-13.4998945266684,0.));
#1251=CARTESIAN_POINT('',(-9.45028109043069,-5.49989452666839,3.3));
#1252=CARTESIAN_POINT('Origin',(-9.45028109043069,-9.49989452666838,3.3));
#1253=CARTESIAN_POINT('',(-9.45028109043069,-5.49989452666839,0.));
#1254=CARTESIAN_POINT('',(-9.45028109043069,-5.49989452666839,3.3));
#1255=CARTESIAN_POINT('',(-9.45028109043069,-5.49989452666839,0.));
#1256=CARTESIAN_POINT('Origin',(-9.95028109043069,-19.4998945266684,0.));
#1257=CARTESIAN_POINT('',(-9.95028109043069,-5.49989452666839,0.));
#1258=CARTESIAN_POINT('Origin',(9.34971890956931,19.0001054733316,13.5));
#1259=CARTESIAN_POINT('',(-8.00028109043069,19.0001054733316,-2.));
#1260=CARTESIAN_POINT('',(-8.00028109043069,19.0001054733316,-2.));
#1261=CARTESIAN_POINT('',(-7.00028109043069,19.0001054733316,-2.));
#1262=CARTESIAN_POINT('',(-7.00028109043069,19.0001054733316,-2.));
#1263=CARTESIAN_POINT('',(-7.00028109043069,19.0001054733316,-2.));
#1264=CARTESIAN_POINT('',(6.99971890956932,19.0001054733316,-2.));
#1265=CARTESIAN_POINT('',(6.99971890956932,19.0001054733316,-2.));
#1266=CARTESIAN_POINT('',(7.99971890956933,19.0001054733316,-2.));
#1267=CARTESIAN_POINT('',(7.99971890956933,19.0001054733316,-2.));
#1268=CARTESIAN_POINT('',(7.99971890956933,19.0001054733316,-2.));
#1269=CARTESIAN_POINT('',(9.34971890956931,19.0001054733316,13.5));
#1270=CARTESIAN_POINT('',(-9.35028109043069,19.0001054733316,13.5));
#1271=CARTESIAN_POINT('Origin',(9.34971890956931,19.0001054733316,13.5));
#1272=CARTESIAN_POINT('Origin',(-9.35028109043069,19.0001054733316,13.5));
#1273=CARTESIAN_POINT('Origin',(0.0497189095692973,-9.49989452666838,3.3));
#1274=CARTESIAN_POINT('',(-9.45028109043069,-13.4998945266684,3.3));
#1275=CARTESIAN_POINT('',(-9.45028109043069,-5.49989452666839,3.3));
#1276=CARTESIAN_POINT('Origin',(0.0497189095692968,-13.4998945266684,0.));
#1277=CARTESIAN_POINT('Origin',(0.0497189095692978,-5.49989452666838,0.));
#1278=CARTESIAN_POINT('Origin',(-8.00028109043071,-19.4998945266684,-2.));
#1279=CARTESIAN_POINT('',(-8.00028109043071,-19.4998945266684,-2.));
#1280=CARTESIAN_POINT('Origin',(-7.0002810904307,-19.4998945266684,-2.));
#1281=CARTESIAN_POINT('',(-7.0002810904307,-18.9998945266684,-2.));
#1282=CARTESIAN_POINT('Origin',(-7.0002810904307,-19.4998945266684,-2.));
#1283=CARTESIAN_POINT('Origin',(6.99971890956929,-19.4998945266684,-2.));
#1284=CARTESIAN_POINT('',(6.99971890956929,-19.4998945266684,-2.));
#1285=CARTESIAN_POINT('Origin',(7.9997189095693,-19.4998945266684,-2.));
#1286=CARTESIAN_POINT('',(7.9997189095693,-18.9998945266684,-2.));
#1287=CARTESIAN_POINT('Origin',(7.9997189095693,-19.4998945266684,-2.));
#1288=CARTESIAN_POINT('Origin',(-8.00028109043069,19.0001054733316,-2.));
#1289=CARTESIAN_POINT('',(-8.00028109043069,19.0001054733316,-2.));
#1290=CARTESIAN_POINT('Origin',(-7.00028109043069,19.0001054733316,-2.));
#1291=CARTESIAN_POINT('',(-7.00028109043069,19.5001054733316,-2.));
#1292=CARTESIAN_POINT('Origin',(-7.00028109043069,19.0001054733316,-2.));
#1293=CARTESIAN_POINT('Origin',(6.99971890956932,19.0001054733316,-2.));
#1294=CARTESIAN_POINT('',(6.99971890956932,19.0001054733316,-2.));
#1295=CARTESIAN_POINT('Origin',(7.99971890956933,19.0001054733316,-2.));
#1296=CARTESIAN_POINT('',(7.99971890956933,19.5001054733316,-2.));
#1297=CARTESIAN_POINT('Origin',(6.99971890956932,19.0001054733316,-2.));
#1298=CARTESIAN_POINT('Origin',(0.0997189095727624,8.98433659238687,12.));
#1299=CARTESIAN_POINT('',(2.09971890957276,8.98433659238687,12.));
#1300=CARTESIAN_POINT('polyline point',(-78.0922810904307,-14.7638945266684,
0.));
#1301=CARTESIAN_POINT('polyline point',(-64.0922810904307,-14.7638945266684,
0.));
#1302=CARTESIAN_POINT('polyline point',(-81.0422810904307,24.2361054733316,
0.));
#1303=CARTESIAN_POINT('polyline point',(-81.0422810904307,-14.7638945266684,
0.));
#1304=UNCERTAINTY_MEASURE_WITH_UNIT(LENGTH_MEASURE(0.01),#1308,
'DISTANCE_ACCURACY_VALUE',
'Maximum model space distance between geometric entities at asserted c
onnectivities');
#1305=UNCERTAINTY_MEASURE_WITH_UNIT(LENGTH_MEASURE(0.01),#1308,
'DISTANCE_ACCURACY_VALUE',
'Maximum model space distance between geometric entities at asserted c
onnectivities');
#1306=(
GEOMETRIC_REPRESENTATION_CONTEXT(3)
GLOBAL_UNCERTAINTY_ASSIGNED_CONTEXT((#1304))
GLOBAL_UNIT_ASSIGNED_CONTEXT((#1308,#1310,#1311))
REPRESENTATION_CONTEXT('','3D')
);
#1307=(
GEOMETRIC_REPRESENTATION_CONTEXT(3)
GLOBAL_UNCERTAINTY_ASSIGNED_CONTEXT((#1305))
GLOBAL_UNIT_ASSIGNED_CONTEXT((#1308,#1310,#1311))
REPRESENTATION_CONTEXT('','3D')
);
#1308=(
LENGTH_UNIT()
NAMED_UNIT(*)
SI_UNIT(.MILLI.,.METRE.)
);
#1309=(
LENGTH_UNIT()
NAMED_UNIT(*)
SI_UNIT(.CENTI.,.METRE.)
);
#1310=(
NAMED_UNIT(*)
PLANE_ANGLE_UNIT()
SI_UNIT($,.RADIAN.)
);
#1311=(
NAMED_UNIT(*)
SI_UNIT($,.STERADIAN.)
SOLID_ANGLE_UNIT()
);
#1312=SHAPE_DEFINITION_REPRESENTATION(#1313,#1314);
#1313=PRODUCT_DEFINITION_SHAPE('',$,#1316);
#1314=SHAPE_REPRESENTATION('',(#831),#1306);
#1315=PRODUCT_DEFINITION_CONTEXT('part definition',#1320,'design');
#1316=PRODUCT_DEFINITION('capot 2 capteurs P phase 2 - recenter',
'capot 2 capteurs P phase 2 - recenter',#1317,#1315);
#1317=PRODUCT_DEFINITION_FORMATION('',$,#1322);
#1318=PRODUCT_RELATED_PRODUCT_CATEGORY(
'capot 2 capteurs P phase 2 - recenter',
'capot 2 capteurs P phase 2 - recenter',(#1322));
#1319=APPLICATION_PROTOCOL_DEFINITION('international standard',
'automotive_design',2009,#1320);
#1320=APPLICATION_CONTEXT(
'Core Data for Automotive Mechanical Design Process');
#1321=PRODUCT_CONTEXT('part definition',#1320,'mechanical');
#1322=PRODUCT('capot 2 capteurs P phase 2 - recenter',
'capot 2 capteurs P phase 2 - recenter',$,(#1321));
#1323=PRESENTATION_STYLE_ASSIGNMENT((#1325));
#1324=PRESENTATION_STYLE_ASSIGNMENT((#1326));
#1325=SURFACE_STYLE_USAGE(.BOTH.,#1329);
#1326=SURFACE_STYLE_USAGE(.BOTH.,#1330);
#1327=SURFACE_STYLE_RENDERING_WITH_PROPERTIES($,#1337,(#1328));
#1328=SURFACE_STYLE_TRANSPARENT(0.);
#1329=SURFACE_SIDE_STYLE('',(#1331,#1327));
#1330=SURFACE_SIDE_STYLE('',(#1332));
#1331=SURFACE_STYLE_FILL_AREA(#1333);
#1332=SURFACE_STYLE_FILL_AREA(#1334);
#1333=FILL_AREA_STYLE('',(#1335));
#1334=FILL_AREA_STYLE('',(#1336));
#1335=FILL_AREA_STYLE_COLOUR('',#1337);
#1336=FILL_AREA_STYLE_COLOUR('',#1338);
#1337=COLOUR_RGB('',0.556862745098039,0.576470588235294,0.611764705882353);
#1338=COLOUR_RGB('',1.,1.,0.);
ENDSEC;
END-ISO-10303-21;
