ISO-10303-21;
HEADER;
/* Generated by software containing ST-Developer
 * from STEP Tools, Inc. (www.steptools.com) 
 */

FILE_DESCRIPTION(
/* description */ (''),
/* implementation_level */ '2;1');

FILE_NAME(
/* name */ 
'C:\\Users\\huesof\\Downloads\\medtronic-pb560-ventilator-system-file-
set-2\\Electronic PCBAs\\GR106769_CPU_PCBA\\3D_Model\\GR106769B00\\iso
lant adh\X\E9sif capot capteur.stp',
/* time_stamp */ '2020-04-22T09:36:49-04:00',
/* author */ ('huesof'),
/* organization */ (''),
/* preprocessor_version */ 'ST-DEVELOPER v18',
/* originating_system */ 'Autodesk Inventor 2020',
/* authorisation */ '');

FILE_SCHEMA (('AUTOMOTIVE_DESIGN { 1 0 10303 214 3 1 1 }'));
ENDSEC;

DATA;
#10=MECHANICAL_DESIGN_GEOMETRIC_PRESENTATION_REPRESENTATION('',(#13),#321);
#11=SHAPE_REPRESENTATION_RELATIONSHIP('SRR','None',#328,#12);
#12=ADVANCED_BREP_SHAPE_REPRESENTATION('',(#14),#320);
#13=STYLED_ITEM('',(#337),#14);
#14=MANIFOLD_SOLID_BREP('Solid1',#191);
#15=FACE_OUTER_BOUND('',#25,.T.);
#16=FACE_OUTER_BOUND('',#26,.T.);
#17=FACE_OUTER_BOUND('',#27,.T.);
#18=FACE_OUTER_BOUND('',#28,.T.);
#19=FACE_OUTER_BOUND('',#29,.T.);
#20=FACE_OUTER_BOUND('',#30,.T.);
#21=FACE_OUTER_BOUND('',#31,.T.);
#22=FACE_OUTER_BOUND('',#32,.T.);
#23=FACE_OUTER_BOUND('',#33,.T.);
#24=FACE_OUTER_BOUND('',#34,.T.);
#25=EDGE_LOOP('',(#123,#124,#125,#126));
#26=EDGE_LOOP('',(#127,#128,#129,#130));
#27=EDGE_LOOP('',(#131,#132,#133,#134));
#28=EDGE_LOOP('',(#135,#136,#137,#138));
#29=EDGE_LOOP('',(#139,#140,#141,#142));
#30=EDGE_LOOP('',(#143,#144,#145,#146));
#31=EDGE_LOOP('',(#147,#148,#149,#150));
#32=EDGE_LOOP('',(#151,#152,#153,#154));
#33=EDGE_LOOP('',(#155,#156,#157,#158,#159,#160,#161,#162));
#34=EDGE_LOOP('',(#163,#164,#165,#166,#167,#168,#169,#170));
#35=LINE('',#271,#59);
#36=LINE('',#273,#60);
#37=LINE('',#275,#61);
#38=LINE('',#276,#62);
#39=LINE('',#279,#63);
#40=LINE('',#281,#64);
#41=LINE('',#282,#65);
#42=LINE('',#285,#66);
#43=LINE('',#287,#67);
#44=LINE('',#288,#68);
#45=LINE('',#291,#69);
#46=LINE('',#293,#70);
#47=LINE('',#294,#71);
#48=LINE('',#297,#72);
#49=LINE('',#299,#73);
#50=LINE('',#300,#74);
#51=LINE('',#303,#75);
#52=LINE('',#305,#76);
#53=LINE('',#306,#77);
#54=LINE('',#309,#78);
#55=LINE('',#311,#79);
#56=LINE('',#312,#80);
#57=LINE('',#314,#81);
#58=LINE('',#315,#82);
#59=VECTOR('',#225,0.300000000000009);
#60=VECTOR('',#226,12.4999999999999);
#61=VECTOR('',#227,0.300000000000009);
#62=VECTOR('',#228,12.4999999999999);
#63=VECTOR('',#231,12.4999999999999);
#64=VECTOR('',#232,12.4999999999999);
#65=VECTOR('',#233,12.4999999999999);
#66=VECTOR('',#236,0.5);
#67=VECTOR('',#237,12.4999999999999);
#68=VECTOR('',#238,0.5);
#69=VECTOR('',#241,12.4999999999999);
#70=VECTOR('',#242,12.4999999999998);
#71=VECTOR('',#243,12.4999999999999);
#72=VECTOR('',#246,0.299999999999994);
#73=VECTOR('',#247,12.4999999999998);
#74=VECTOR('',#248,0.299999999999994);
#75=VECTOR('',#251,12.7999999999999);
#76=VECTOR('',#252,12.5);
#77=VECTOR('',#253,12.7999999999999);
#78=VECTOR('',#256,1.10000000000001);
#79=VECTOR('',#257,12.5);
#80=VECTOR('',#258,1.1);
#81=VECTOR('',#261,12.7999999999999);
#82=VECTOR('',#262,12.7999999999999);
#83=VERTEX_POINT('',#269);
#84=VERTEX_POINT('',#270);
#85=VERTEX_POINT('',#272);
#86=VERTEX_POINT('',#274);
#87=VERTEX_POINT('',#278);
#88=VERTEX_POINT('',#280);
#89=VERTEX_POINT('',#284);
#90=VERTEX_POINT('',#286);
#91=VERTEX_POINT('',#290);
#92=VERTEX_POINT('',#292);
#93=VERTEX_POINT('',#296);
#94=VERTEX_POINT('',#298);
#95=VERTEX_POINT('',#302);
#96=VERTEX_POINT('',#304);
#97=VERTEX_POINT('',#308);
#98=VERTEX_POINT('',#310);
#99=EDGE_CURVE('',#83,#84,#35,.T.);
#100=EDGE_CURVE('',#85,#84,#36,.T.);
#101=EDGE_CURVE('',#86,#85,#37,.T.);
#102=EDGE_CURVE('',#86,#83,#38,.T.);
#103=EDGE_CURVE('',#84,#87,#39,.T.);
#104=EDGE_CURVE('',#88,#87,#40,.T.);
#105=EDGE_CURVE('',#85,#88,#41,.T.);
#106=EDGE_CURVE('',#87,#89,#42,.T.);
#107=EDGE_CURVE('',#90,#89,#43,.T.);
#108=EDGE_CURVE('',#88,#90,#44,.T.);
#109=EDGE_CURVE('',#89,#91,#45,.T.);
#110=EDGE_CURVE('',#92,#91,#46,.T.);
#111=EDGE_CURVE('',#90,#92,#47,.T.);
#112=EDGE_CURVE('',#91,#93,#48,.T.);
#113=EDGE_CURVE('',#94,#93,#49,.T.);
#114=EDGE_CURVE('',#92,#94,#50,.T.);
#115=EDGE_CURVE('',#93,#95,#51,.T.);
#116=EDGE_CURVE('',#96,#95,#52,.T.);
#117=EDGE_CURVE('',#94,#96,#53,.T.);
#118=EDGE_CURVE('',#95,#97,#54,.T.);
#119=EDGE_CURVE('',#98,#97,#55,.T.);
#120=EDGE_CURVE('',#96,#98,#56,.T.);
#121=EDGE_CURVE('',#97,#83,#57,.T.);
#122=EDGE_CURVE('',#98,#86,#58,.T.);
#123=ORIENTED_EDGE('',*,*,#99,.T.);
#124=ORIENTED_EDGE('',*,*,#100,.F.);
#125=ORIENTED_EDGE('',*,*,#101,.F.);
#126=ORIENTED_EDGE('',*,*,#102,.T.);
#127=ORIENTED_EDGE('',*,*,#103,.T.);
#128=ORIENTED_EDGE('',*,*,#104,.F.);
#129=ORIENTED_EDGE('',*,*,#105,.F.);
#130=ORIENTED_EDGE('',*,*,#100,.T.);
#131=ORIENTED_EDGE('',*,*,#106,.T.);
#132=ORIENTED_EDGE('',*,*,#107,.F.);
#133=ORIENTED_EDGE('',*,*,#108,.F.);
#134=ORIENTED_EDGE('',*,*,#104,.T.);
#135=ORIENTED_EDGE('',*,*,#109,.T.);
#136=ORIENTED_EDGE('',*,*,#110,.F.);
#137=ORIENTED_EDGE('',*,*,#111,.F.);
#138=ORIENTED_EDGE('',*,*,#107,.T.);
#139=ORIENTED_EDGE('',*,*,#112,.T.);
#140=ORIENTED_EDGE('',*,*,#113,.F.);
#141=ORIENTED_EDGE('',*,*,#114,.F.);
#142=ORIENTED_EDGE('',*,*,#110,.T.);
#143=ORIENTED_EDGE('',*,*,#115,.T.);
#144=ORIENTED_EDGE('',*,*,#116,.F.);
#145=ORIENTED_EDGE('',*,*,#117,.F.);
#146=ORIENTED_EDGE('',*,*,#113,.T.);
#147=ORIENTED_EDGE('',*,*,#118,.T.);
#148=ORIENTED_EDGE('',*,*,#119,.F.);
#149=ORIENTED_EDGE('',*,*,#120,.F.);
#150=ORIENTED_EDGE('',*,*,#116,.T.);
#151=ORIENTED_EDGE('',*,*,#121,.T.);
#152=ORIENTED_EDGE('',*,*,#102,.F.);
#153=ORIENTED_EDGE('',*,*,#122,.F.);
#154=ORIENTED_EDGE('',*,*,#119,.T.);
#155=ORIENTED_EDGE('',*,*,#101,.T.);
#156=ORIENTED_EDGE('',*,*,#105,.T.);
#157=ORIENTED_EDGE('',*,*,#108,.T.);
#158=ORIENTED_EDGE('',*,*,#111,.T.);
#159=ORIENTED_EDGE('',*,*,#114,.T.);
#160=ORIENTED_EDGE('',*,*,#117,.T.);
#161=ORIENTED_EDGE('',*,*,#120,.T.);
#162=ORIENTED_EDGE('',*,*,#122,.T.);
#163=ORIENTED_EDGE('',*,*,#99,.F.);
#164=ORIENTED_EDGE('',*,*,#121,.F.);
#165=ORIENTED_EDGE('',*,*,#118,.F.);
#166=ORIENTED_EDGE('',*,*,#115,.F.);
#167=ORIENTED_EDGE('',*,*,#112,.F.);
#168=ORIENTED_EDGE('',*,*,#109,.F.);
#169=ORIENTED_EDGE('',*,*,#106,.F.);
#170=ORIENTED_EDGE('',*,*,#103,.F.);
#171=PLANE('',#211);
#172=PLANE('',#212);
#173=PLANE('',#213);
#174=PLANE('',#214);
#175=PLANE('',#215);
#176=PLANE('',#216);
#177=PLANE('',#217);
#178=PLANE('',#218);
#179=PLANE('',#219);
#180=PLANE('',#220);
#181=ADVANCED_FACE('',(#15),#171,.F.);
#182=ADVANCED_FACE('',(#16),#172,.F.);
#183=ADVANCED_FACE('',(#17),#173,.F.);
#184=ADVANCED_FACE('',(#18),#174,.F.);
#185=ADVANCED_FACE('',(#19),#175,.F.);
#186=ADVANCED_FACE('',(#20),#176,.F.);
#187=ADVANCED_FACE('',(#21),#177,.F.);
#188=ADVANCED_FACE('',(#22),#178,.F.);
#189=ADVANCED_FACE('',(#23),#179,.T.);
#190=ADVANCED_FACE('',(#24),#180,.F.);
#191=CLOSED_SHELL('',(#181,#182,#183,#184,#185,#186,#187,#188,#189,#190));
#192=DERIVED_UNIT_ELEMENT(#194,1.);
#193=DERIVED_UNIT_ELEMENT(#323,3.);
#194=(
MASS_UNIT()
NAMED_UNIT(*)
SI_UNIT($,.GRAM.)
);
#195=DERIVED_UNIT((#192,#193));
#196=MEASURE_REPRESENTATION_ITEM('density measure',
POSITIVE_RATIO_MEASURE(1.),#195);
#197=PROPERTY_DEFINITION_REPRESENTATION(#202,#199);
#198=PROPERTY_DEFINITION_REPRESENTATION(#203,#200);
#199=REPRESENTATION('material name',(#201),#320);
#200=REPRESENTATION('density',(#196),#320);
#201=DESCRIPTIVE_REPRESENTATION_ITEM('Generic','Generic');
#202=PROPERTY_DEFINITION('material property','material name',#330);
#203=PROPERTY_DEFINITION('material property','density of part',#330);
#204=DATE_TIME_ROLE('creation_date');
#205=APPLIED_DATE_AND_TIME_ASSIGNMENT(#206,#204,(#330));
#206=DATE_AND_TIME(#207,#208);
#207=CALENDAR_DATE(2008,15,9);
#208=LOCAL_TIME(13,10,32.,#209);
#209=COORDINATED_UNIVERSAL_TIME_OFFSET(0,0,.BEHIND.);
#210=AXIS2_PLACEMENT_3D('placement',#267,#221,#222);
#211=AXIS2_PLACEMENT_3D('',#268,#223,#224);
#212=AXIS2_PLACEMENT_3D('',#277,#229,#230);
#213=AXIS2_PLACEMENT_3D('',#283,#234,#235);
#214=AXIS2_PLACEMENT_3D('',#289,#239,#240);
#215=AXIS2_PLACEMENT_3D('',#295,#244,#245);
#216=AXIS2_PLACEMENT_3D('',#301,#249,#250);
#217=AXIS2_PLACEMENT_3D('',#307,#254,#255);
#218=AXIS2_PLACEMENT_3D('',#313,#259,#260);
#219=AXIS2_PLACEMENT_3D('',#316,#263,#264);
#220=AXIS2_PLACEMENT_3D('',#317,#265,#266);
#221=DIRECTION('axis',(0.,0.,1.));
#222=DIRECTION('refdir',(1.,0.,0.));
#223=DIRECTION('center_axis',(2.13476623988628E-15,1.,1.0026701691146E-15));
#224=DIRECTION('ref_axis',(0.,-1.0026701691146E-15,1.));
#225=DIRECTION('',(1.,0.,1.09390962090066E-15));
#226=DIRECTION('',(-1.06581410364015E-15,-1.06581410364015E-15,-1.));
#227=DIRECTION('',(1.,0.,0.));
#228=DIRECTION('',(-1.06581410364015E-15,-1.06581410364015E-15,-1.));
#229=DIRECTION('center_axis',(-1.,-2.13476623988628E-15,-1.09390962090063E-15));
#230=DIRECTION('ref_axis',(-1.09390962090063E-15,0.,1.));
#231=DIRECTION('',(1.95399252334029E-15,1.,1.0026701691146E-15));
#232=DIRECTION('',(-1.24344978758019E-15,-9.76996261670145E-16,-1.));
#233=DIRECTION('',(2.13162820728032E-15,1.,8.88178419700132E-16));
#234=DIRECTION('center_axis',(2.13476623988628E-15,1.,1.0026701691146E-15));
#235=DIRECTION('ref_axis',(0.,-1.0026701691146E-15,1.));
#236=DIRECTION('',(1.,2.22044604925031E-15,1.09390962090063E-15));
#237=DIRECTION('',(-1.24344978758019E-15,-9.76996261670145E-16,-1.));
#238=DIRECTION('',(1.,2.22044604925031E-15,0.));
#239=DIRECTION('center_axis',(1.,2.13476623988628E-15,1.09390962090063E-15));
#240=DIRECTION('ref_axis',(1.09390962090063E-15,0.,-1.));
#241=DIRECTION('',(-2.13162820728031E-15,-1.,-1.0026701691146E-15));
#242=DIRECTION('',(-1.06581410364016E-15,-1.06581410364016E-15,-1.));
#243=DIRECTION('',(-2.13162820728032E-15,-1.,-8.88178419700131E-16));
#244=DIRECTION('center_axis',(2.13476623988628E-15,1.,1.0026701691146E-15));
#245=DIRECTION('ref_axis',(0.,-1.0026701691146E-15,1.));
#246=DIRECTION('',(1.,0.,1.09390962090064E-15));
#247=DIRECTION('',(-1.06581410364016E-15,-1.06581410364016E-15,-1.));
#248=DIRECTION('',(1.,0.,0.));
#249=DIRECTION('center_axis',(-1.,-2.13476623988628E-15,-1.09390962090063E-15));
#250=DIRECTION('ref_axis',(-1.09390962090063E-15,0.,1.));
#251=DIRECTION('',(2.25514051876986E-15,1.,1.0026701691146E-15));
#252=DIRECTION('',(-1.06581410364015E-15,-8.88178419700124E-16,-1.));
#253=DIRECTION('',(2.08166817117218E-15,1.,8.67361737988409E-16));
#254=DIRECTION('center_axis',(-2.13476623988628E-15,-1.,-1.0026701691146E-15));
#255=DIRECTION('ref_axis',(0.,1.0026701691146E-15,-1.));
#256=DIRECTION('',(-1.,-3.02788097625041E-15,-1.09390962090063E-15));
#257=DIRECTION('',(-1.06581410364015E-15,-9.76996261670139E-16,-1.));
#258=DIRECTION('',(-1.,-3.02788097625042E-15,-2.01858731750028E-15));
#259=DIRECTION('center_axis',(1.,2.13476623988628E-15,1.09390962090063E-15));
#260=DIRECTION('ref_axis',(1.09390962090063E-15,0.,-1.));
#261=DIRECTION('',(-2.08166817117218E-15,-1.,-1.0026701691146E-15));
#262=DIRECTION('',(-2.25514051876987E-15,-1.,-1.04083408558609E-15));
#263=DIRECTION('center_axis',(1.09390962090064E-15,1.0026701691146E-15,
1.));
#264=DIRECTION('ref_axis',(1.,0.,-1.09390962090064E-15));
#265=DIRECTION('center_axis',(1.09390962090064E-15,1.0026701691146E-15,
1.));
#266=DIRECTION('ref_axis',(1.,0.,-1.09390962090064E-15));
#267=CARTESIAN_POINT('',(0.,0.,0.));
#268=CARTESIAN_POINT('Origin',(-15.5104215571205,-19.5120892018779,12.4999999999999));
#269=CARTESIAN_POINT('',(-15.8104215571205,-19.5120892018779,-1.11022302462516E-13));
#270=CARTESIAN_POINT('',(-15.5104215571205,-19.5120892018779,-1.11022302462516E-13));
#271=CARTESIAN_POINT('',(-15.8104215571205,-19.5120892018779,-1.11350475348786E-13));
#272=CARTESIAN_POINT('',(-15.5104215571205,-19.5120892018779,12.4999999999999));
#273=CARTESIAN_POINT('',(-15.5104215571205,-19.5120892018779,12.4999999999999));
#274=CARTESIAN_POINT('',(-15.8104215571205,-19.5120892018779,12.4999999999999));
#275=CARTESIAN_POINT('',(-15.8104215571205,-19.5120892018779,12.4999999999999));
#276=CARTESIAN_POINT('',(-15.8104215571205,-19.5120892018779,12.4999999999999));
#277=CARTESIAN_POINT('Origin',(-15.5104215571205,-19.5120892018779,12.4999999999999));
#278=CARTESIAN_POINT('',(-15.5104215571205,-7.01208920187795,0.));
#279=CARTESIAN_POINT('',(-15.5104215571205,-19.5120892018779,-1.11022302462516E-13));
#280=CARTESIAN_POINT('',(-15.5104215571205,-7.01208920187795,12.5));
#281=CARTESIAN_POINT('',(-15.5104215571205,-7.01208920187795,12.5));
#282=CARTESIAN_POINT('',(-15.5104215571205,-19.5120892018779,12.4999999999999));
#283=CARTESIAN_POINT('Origin',(-15.5104215571205,-7.01208920187795,12.5));
#284=CARTESIAN_POINT('',(-15.0104215571205,-7.01208920187794,0.));
#285=CARTESIAN_POINT('',(-15.5104215571205,-7.01208920187795,0.));
#286=CARTESIAN_POINT('',(-15.0104215571205,-7.01208920187794,12.5));
#287=CARTESIAN_POINT('',(-15.0104215571205,-7.01208920187794,12.5));
#288=CARTESIAN_POINT('',(-15.5104215571205,-7.01208920187795,12.5));
#289=CARTESIAN_POINT('Origin',(-15.0104215571205,-7.01208920187794,12.5));
#290=CARTESIAN_POINT('',(-15.0104215571205,-19.5120892018779,0.));
#291=CARTESIAN_POINT('',(-15.0104215571205,-7.01208920187794,0.));
#292=CARTESIAN_POINT('',(-15.0104215571205,-19.5120892018779,12.4999999999999));
#293=CARTESIAN_POINT('',(-15.0104215571205,-19.5120892018779,12.4999999999999));
#294=CARTESIAN_POINT('',(-15.0104215571205,-7.01208920187794,12.5));
#295=CARTESIAN_POINT('Origin',(-15.0104215571205,-19.5120892018779,12.4999999999999));
#296=CARTESIAN_POINT('',(-14.7104215571205,-19.5120892018779,0.));
#297=CARTESIAN_POINT('',(-15.0104215571205,-19.5120892018779,0.));
#298=CARTESIAN_POINT('',(-14.7104215571205,-19.5120892018779,12.4999999999999));
#299=CARTESIAN_POINT('',(-14.7104215571205,-19.5120892018779,12.4999999999999));
#300=CARTESIAN_POINT('',(-15.0104215571205,-19.5120892018779,12.4999999999999));
#301=CARTESIAN_POINT('Origin',(-14.7104215571205,-6.71208920187794,12.5));
#302=CARTESIAN_POINT('',(-14.7104215571205,-6.71208920187795,-1.11022302462516E-13));
#303=CARTESIAN_POINT('',(-14.7104215571205,-19.5120892018779,-1.23856480627182E-13));
#304=CARTESIAN_POINT('',(-14.7104215571205,-6.71208920187794,12.5));
#305=CARTESIAN_POINT('',(-14.7104215571205,-6.71208920187794,12.5));
#306=CARTESIAN_POINT('',(-14.7104215571205,-19.5120892018779,12.5));
#307=CARTESIAN_POINT('Origin',(-15.8104215571205,-6.71208920187795,12.4999999999999));
#308=CARTESIAN_POINT('',(-15.8104215571205,-6.71208920187796,-1.11022302462516E-13));
#309=CARTESIAN_POINT('',(-14.7104215571205,-6.71208920187795,-1.09819001879525E-13));
#310=CARTESIAN_POINT('',(-15.8104215571205,-6.71208920187795,12.4999999999999));
#311=CARTESIAN_POINT('',(-15.8104215571205,-6.71208920187795,12.4999999999999));
#312=CARTESIAN_POINT('',(-14.7104215571205,-6.71208920187795,12.4999999999999));
#313=CARTESIAN_POINT('Origin',(-15.8104215571205,-6.71208920187795,12.4999999999999));
#314=CARTESIAN_POINT('',(-15.8104215571205,-6.71208920187796,-1.11022302462516E-13));
#315=CARTESIAN_POINT('',(-15.8104215571205,-6.71208920187795,12.4999999999999));
#316=CARTESIAN_POINT('Origin',(-15.8104215571205,-19.5120892018779,12.4999999999999));
#317=CARTESIAN_POINT('Origin',(-15.8104215571205,-19.5120892018779,-1.11022302462516E-13));
#318=UNCERTAINTY_MEASURE_WITH_UNIT(LENGTH_MEASURE(0.01),#322,
'DISTANCE_ACCURACY_VALUE',
'Maximum model space distance between geometric entities at asserted c
onnectivities');
#319=UNCERTAINTY_MEASURE_WITH_UNIT(LENGTH_MEASURE(0.01),#322,
'DISTANCE_ACCURACY_VALUE',
'Maximum model space distance between geometric entities at asserted c
onnectivities');
#320=(
GEOMETRIC_REPRESENTATION_CONTEXT(3)
GLOBAL_UNCERTAINTY_ASSIGNED_CONTEXT((#318))
GLOBAL_UNIT_ASSIGNED_CONTEXT((#322,#324,#325))
REPRESENTATION_CONTEXT('','3D')
);
#321=(
GEOMETRIC_REPRESENTATION_CONTEXT(3)
GLOBAL_UNCERTAINTY_ASSIGNED_CONTEXT((#319))
GLOBAL_UNIT_ASSIGNED_CONTEXT((#322,#324,#325))
REPRESENTATION_CONTEXT('','3D')
);
#322=(
LENGTH_UNIT()
NAMED_UNIT(*)
SI_UNIT(.MILLI.,.METRE.)
);
#323=(
LENGTH_UNIT()
NAMED_UNIT(*)
SI_UNIT(.CENTI.,.METRE.)
);
#324=(
NAMED_UNIT(*)
PLANE_ANGLE_UNIT()
SI_UNIT($,.RADIAN.)
);
#325=(
NAMED_UNIT(*)
SI_UNIT($,.STERADIAN.)
SOLID_ANGLE_UNIT()
);
#326=SHAPE_DEFINITION_REPRESENTATION(#327,#328);
#327=PRODUCT_DEFINITION_SHAPE('',$,#330);
#328=SHAPE_REPRESENTATION('',(#210),#320);
#329=PRODUCT_DEFINITION_CONTEXT('part definition',#334,'design');
#330=PRODUCT_DEFINITION('isolant adh\X\E9sif capot capteur',
'isolant adh\X\E9sif capot capteur',#331,#329);
#331=PRODUCT_DEFINITION_FORMATION('',$,#336);
#332=PRODUCT_RELATED_PRODUCT_CATEGORY('isolant adh\X\E9sif capot capte
ur','isolant adh\X\E9sif capot capteur',(#336));
#333=APPLICATION_PROTOCOL_DEFINITION('international standard',
'automotive_design',2009,#334);
#334=APPLICATION_CONTEXT(
'Core Data for Automotive Mechanical Design Process');
#335=PRODUCT_CONTEXT('part definition',#334,'mechanical');
#336=PRODUCT('isolant adh\X\E9sif capot capteur',
'isolant adh\X\E9sif capot capteur',$,(#335));
#337=PRESENTATION_STYLE_ASSIGNMENT((#338));
#338=SURFACE_STYLE_USAGE(.BOTH.,#341);
#339=SURFACE_STYLE_RENDERING_WITH_PROPERTIES($,#345,(#340));
#340=SURFACE_STYLE_TRANSPARENT(0.);
#341=SURFACE_SIDE_STYLE('',(#342,#339));
#342=SURFACE_STYLE_FILL_AREA(#343);
#343=FILL_AREA_STYLE('',(#344));
#344=FILL_AREA_STYLE_COLOUR('',#345);
#345=COLOUR_RGB('',0.752941176470588,0.752941176470588,1.);
ENDSEC;
END-ISO-10303-21;
