ISO-10303-21;
HEADER;
FILE_DESCRIPTION(('FreeCAD Model'),'2;1');
FILE_NAME(
'/home/huba/pCloudDrive/_Freelance/0068 - OpenVentilator/01 - 
Electronic parts/NICOMATIC_C12000B.step','2020-05-09T07:08:05',('Author'
    ),(''),'Open CASCADE STEP processor 7.4','FreeCAD','Unknown');
FILE_SCHEMA(('AUTOMOTIVE_DESIGN { 1 0 10303 214 1 1 1 1 }'));
ENDSEC;
DATA;
#1 = APPLICATION_PROTOCOL_DEFINITION('international standard',
  'automotive_design',2000,#2);
#2 = APPLICATION_CONTEXT(
  'core data for automotive mechanical design processes');
#3 = SHAPE_DEFINITION_REPRESENTATION(#4,#10);
#4 = PRODUCT_DEFINITION_SHAPE('','',#5);
#5 = PRODUCT_DEFINITION('design','',#6,#9);
#6 = PRODUCT_DEFINITION_FORMATION('','',#7);
#7 = PRODUCT('NICOMATIC_C12000B','NICOMATIC_C12000B','',(#8));
#8 = PRODUCT_CONTEXT('',#2,'mechanical');
#9 = PRODUCT_DEFINITION_CONTEXT('part definition',#2,'design');
#10 = ADVANCED_BREP_SHAPE_REPRESENTATION('',(#11,#15),#1155);
#11 = AXIS2_PLACEMENT_3D('',#12,#13,#14);
#12 = CARTESIAN_POINT('',(0.,0.,0.));
#13 = DIRECTION('',(0.,0.,1.));
#14 = DIRECTION('',(1.,0.,-0.));
#15 = MANIFOLD_SOLID_BREP('',#16);
#16 = CLOSED_SHELL('',(#17,#89,#188,#212,#252,#308,#348,#372,#464,#481,
    #498,#515,#596,#620,#699,#716,#733,#750,#771,#795,#837,#904,#929,
    #993,#1005,#1022,#1039,#1051,#1068,#1080,#1097,#1114,#1131,#1143));
#17 = ADVANCED_FACE('',(#18),#84,.T.);
#18 = FACE_BOUND('',#19,.T.);
#19 = EDGE_LOOP('',(#20,#30,#38,#46,#54,#62,#70,#78));
#20 = ORIENTED_EDGE('',*,*,#21,.F.);
#21 = EDGE_CURVE('',#22,#24,#26,.T.);
#22 = VERTEX_POINT('',#23);
#23 = CARTESIAN_POINT('',(0.923853277176,0.675,1.141590572477E-03));
#24 = VERTEX_POINT('',#25);
#25 = CARTESIAN_POINT('',(0.375,0.675,4.91600302644E-02));
#26 = LINE('',#27,#28);
#27 = CARTESIAN_POINT('',(0.923853277176,0.675,1.141590572477E-03));
#28 = VECTOR('',#29,1.);
#29 = DIRECTION('',(-0.996194698092,-1.935246246535E-17,
    8.715574274766E-02));
#30 = ORIENTED_EDGE('',*,*,#31,.T.);
#31 = EDGE_CURVE('',#22,#32,#34,.T.);
#32 = VERTEX_POINT('',#33);
#33 = CARTESIAN_POINT('',(0.923853277176,-0.675,1.141590572476E-03));
#34 = LINE('',#35,#36);
#35 = CARTESIAN_POINT('',(0.923853277176,0.675,1.141590572477E-03));
#36 = VECTOR('',#37,1.);
#37 = DIRECTION('',(0.,-1.,-2.22044604925E-16));
#38 = ORIENTED_EDGE('',*,*,#39,.T.);
#39 = EDGE_CURVE('',#32,#40,#42,.T.);
#40 = VERTEX_POINT('',#41);
#41 = CARTESIAN_POINT('',(0.375,-0.675,4.91600302644E-02));
#42 = LINE('',#43,#44);
#43 = CARTESIAN_POINT('',(0.923853277176,-0.675,1.141590572476E-03));
#44 = VECTOR('',#45,1.);
#45 = DIRECTION('',(-0.996194698092,-1.935246246535E-17,
    8.715574274766E-02));
#46 = ORIENTED_EDGE('',*,*,#47,.T.);
#47 = EDGE_CURVE('',#40,#48,#50,.T.);
#48 = VERTEX_POINT('',#49);
#49 = CARTESIAN_POINT('',(0.375,-0.575,4.91600302644E-02));
#50 = LINE('',#51,#52);
#51 = CARTESIAN_POINT('',(0.375,-1.091571949816E-17,4.91600302644E-02));
#52 = VECTOR('',#53,1.);
#53 = DIRECTION('',(0.,1.,2.22044604925E-16));
#54 = ORIENTED_EDGE('',*,*,#55,.T.);
#55 = EDGE_CURVE('',#48,#56,#58,.T.);
#56 = VERTEX_POINT('',#57);
#57 = CARTESIAN_POINT('',(0.,-0.575,8.196827908662E-02));
#58 = LINE('',#59,#60);
#59 = CARTESIAN_POINT('',(0.651560776005,-0.575,2.496409758801E-02));
#60 = VECTOR('',#61,1.);
#61 = DIRECTION('',(-0.996194698092,-3.87049249307E-17,
    8.715574274766E-02));
#62 = ORIENTED_EDGE('',*,*,#63,.F.);
#63 = EDGE_CURVE('',#64,#56,#66,.T.);
#64 = VERTEX_POINT('',#65);
#65 = CARTESIAN_POINT('',(0.,0.575,8.196827908662E-02));
#66 = LINE('',#67,#68);
#67 = CARTESIAN_POINT('',(0.,0.675,8.196827908662E-02));
#68 = VECTOR('',#69,1.);
#69 = DIRECTION('',(0.,-1.,-2.22044604925E-16));
#70 = ORIENTED_EDGE('',*,*,#71,.F.);
#71 = EDGE_CURVE('',#72,#64,#74,.T.);
#72 = VERTEX_POINT('',#73);
#73 = CARTESIAN_POINT('',(0.375,0.575,4.91600302644E-02));
#74 = LINE('',#75,#76);
#75 = CARTESIAN_POINT('',(0.651560776005,0.575,2.496409758801E-02));
#76 = VECTOR('',#77,1.);
#77 = DIRECTION('',(-0.996194698092,0.,8.715574274766E-02));
#78 = ORIENTED_EDGE('',*,*,#79,.F.);
#79 = EDGE_CURVE('',#24,#72,#80,.T.);
#80 = LINE('',#81,#82);
#81 = CARTESIAN_POINT('',(0.375,0.675,4.91600302644E-02));
#82 = VECTOR('',#83,1.);
#83 = DIRECTION('',(0.,-1.,-2.22044604925E-16));
#84 = PLANE('',#85);
#85 = AXIS2_PLACEMENT_3D('',#86,#87,#88);
#86 = CARTESIAN_POINT('',(0.923853277176,0.675,1.141590572477E-03));
#87 = DIRECTION('',(-8.715574274766E-02,2.211996581662E-16,
    -0.996194698092));
#88 = DIRECTION('',(-0.996194698092,-1.935246246535E-17,
    8.715574274766E-02));
#89 = ADVANCED_FACE('',(#90),#183,.T.);
#90 = FACE_BOUND('',#91,.T.);
#91 = EDGE_LOOP('',(#92,#101,#102,#110,#118,#127,#135,#144,#152,#160,
    #168,#177));
#92 = ORIENTED_EDGE('',*,*,#93,.F.);
#93 = EDGE_CURVE('',#22,#94,#96,.T.);
#94 = VERTEX_POINT('',#95);
#95 = CARTESIAN_POINT('',(1.22461739217,0.675,0.420769565362));
#96 = CIRCLE('',#97,0.3);
#97 = AXIS2_PLACEMENT_3D('',#98,#99,#100);
#98 = CARTESIAN_POINT('',(0.95,0.675,0.3));
#99 = DIRECTION('',(0.,-1.,-2.22044604925E-16));
#100 = DIRECTION('',(1.,0.,0.));
#101 = ORIENTED_EDGE('',*,*,#21,.T.);
#102 = ORIENTED_EDGE('',*,*,#103,.T.);
#103 = EDGE_CURVE('',#24,#104,#106,.T.);
#104 = VERTEX_POINT('',#105);
#105 = CARTESIAN_POINT('',(0.375,0.675,0.249160030264));
#106 = LINE('',#107,#108);
#107 = CARTESIAN_POINT('',(0.375,0.675,0.));
#108 = VECTOR('',#109,1.);
#109 = DIRECTION('',(0.,0.,1.));
#110 = ORIENTED_EDGE('',*,*,#111,.F.);
#111 = EDGE_CURVE('',#112,#104,#114,.T.);
#112 = VERTEX_POINT('',#113);
#113 = CARTESIAN_POINT('',(0.941218094942,0.675,0.199622365874));
#114 = LINE('',#115,#116);
#115 = CARTESIAN_POINT('',(0.941218094942,0.675,0.199622365874));
#116 = VECTOR('',#117,1.);
#117 = DIRECTION('',(-0.996194698092,-1.935246246535E-17,
    8.715574274766E-02));
#118 = ORIENTED_EDGE('',*,*,#119,.T.);
#119 = EDGE_CURVE('',#112,#120,#122,.T.);
#120 = VERTEX_POINT('',#121);
#121 = CARTESIAN_POINT('',(1.042235798781,0.675,0.340562898226));
#122 = CIRCLE('',#123,0.100761060382);
#123 = AXIS2_PLACEMENT_3D('',#124,#125,#126);
#124 = CARTESIAN_POINT('',(0.95,0.675,0.3));
#125 = DIRECTION('',(0.,-1.,-2.22044604925E-16));
#126 = DIRECTION('',(1.,0.,0.));
#127 = ORIENTED_EDGE('',*,*,#128,.F.);
#128 = EDGE_CURVE('',#129,#120,#131,.T.);
#129 = VERTEX_POINT('',#130);
#130 = CARTESIAN_POINT('',(0.64643927633,0.675,1.240562898226));
#131 = LINE('',#132,#133);
#132 = CARTESIAN_POINT('',(0.64643927633,0.675,1.240562898226));
#133 = VECTOR('',#134,1.);
#134 = DIRECTION('',(0.402565217872,2.032577011666E-16,-0.915391307234)
  );
#135 = ORIENTED_EDGE('',*,*,#136,.T.);
#136 = EDGE_CURVE('',#129,#137,#139,.T.);
#137 = VERTEX_POINT('',#138);
#138 = CARTESIAN_POINT('',(0.554203477549,0.675,1.300761060382));
#139 = CIRCLE('',#140,0.100761060382);
#140 = AXIS2_PLACEMENT_3D('',#141,#142,#143);
#141 = CARTESIAN_POINT('',(0.554203477549,0.675,1.2));
#142 = DIRECTION('',(0.,-1.,-2.22044604925E-16));
#143 = DIRECTION('',(1.,0.,0.));
#144 = ORIENTED_EDGE('',*,*,#145,.F.);
#145 = EDGE_CURVE('',#146,#137,#148,.T.);
#146 = VERTEX_POINT('',#147);
#147 = CARTESIAN_POINT('',(0.25,0.675,1.300761060382));
#148 = LINE('',#149,#150);
#149 = CARTESIAN_POINT('',(-0.554203477549,0.675,1.300761060382));
#150 = VECTOR('',#151,1.);
#151 = DIRECTION('',(1.,0.,0.));
#152 = ORIENTED_EDGE('',*,*,#153,.F.);
#153 = EDGE_CURVE('',#154,#146,#156,.T.);
#154 = VERTEX_POINT('',#155);
#155 = CARTESIAN_POINT('',(0.25,0.675,1.5));
#156 = LINE('',#157,#158);
#157 = CARTESIAN_POINT('',(0.25,0.675,1.5));
#158 = VECTOR('',#159,1.);
#159 = DIRECTION('',(0.,0.,-1.));
#160 = ORIENTED_EDGE('',*,*,#161,.T.);
#161 = EDGE_CURVE('',#154,#162,#164,.T.);
#162 = VERTEX_POINT('',#163);
#163 = CARTESIAN_POINT('',(0.554203477549,0.675,1.5));
#164 = LINE('',#165,#166);
#165 = CARTESIAN_POINT('',(-0.554203477549,0.675,1.5));
#166 = VECTOR('',#167,1.);
#167 = DIRECTION('',(1.,0.,0.));
#168 = ORIENTED_EDGE('',*,*,#169,.F.);
#169 = EDGE_CURVE('',#170,#162,#172,.T.);
#170 = VERTEX_POINT('',#171);
#171 = CARTESIAN_POINT('',(0.828820869719,0.675,1.320769565362));
#172 = CIRCLE('',#173,0.3);
#173 = AXIS2_PLACEMENT_3D('',#174,#175,#176);
#174 = CARTESIAN_POINT('',(0.554203477549,0.675,1.2));
#175 = DIRECTION('',(0.,-1.,-2.22044604925E-16));
#176 = DIRECTION('',(1.,0.,0.));
#177 = ORIENTED_EDGE('',*,*,#178,.T.);
#178 = EDGE_CURVE('',#170,#94,#179,.T.);
#179 = LINE('',#180,#181);
#180 = CARTESIAN_POINT('',(0.828820869719,0.675,1.320769565362));
#181 = VECTOR('',#182,1.);
#182 = DIRECTION('',(0.402565217872,2.032577011666E-16,-0.915391307234)
  );
#183 = PLANE('',#184);
#184 = AXIS2_PLACEMENT_3D('',#185,#186,#187);
#185 = CARTESIAN_POINT('',(1.014755715665E-17,0.675,0.678127883248));
#186 = DIRECTION('',(-2.736911063134E-48,1.,2.22044604925E-16));
#187 = DIRECTION('',(0.,-2.22044604925E-16,1.));
#188 = ADVANCED_FACE('',(#189),#207,.F.);
#189 = FACE_BOUND('',#190,.F.);
#190 = EDGE_LOOP('',(#191,#192,#193,#201));
#191 = ORIENTED_EDGE('',*,*,#79,.F.);
#192 = ORIENTED_EDGE('',*,*,#103,.T.);
#193 = ORIENTED_EDGE('',*,*,#194,.T.);
#194 = EDGE_CURVE('',#104,#195,#197,.T.);
#195 = VERTEX_POINT('',#196);
#196 = CARTESIAN_POINT('',(0.375,0.575,0.249160030264));
#197 = LINE('',#198,#199);
#198 = CARTESIAN_POINT('',(0.375,0.675,0.249160030264));
#199 = VECTOR('',#200,1.);
#200 = DIRECTION('',(0.,-1.,-2.22044604925E-16));
#201 = ORIENTED_EDGE('',*,*,#202,.F.);
#202 = EDGE_CURVE('',#72,#195,#203,.T.);
#203 = LINE('',#204,#205);
#204 = CARTESIAN_POINT('',(0.375,0.575,0.));
#205 = VECTOR('',#206,1.);
#206 = DIRECTION('',(0.,0.,1.));
#207 = PLANE('',#208);
#208 = AXIS2_PLACEMENT_3D('',#209,#210,#211);
#209 = CARTESIAN_POINT('',(0.375,0.675,0.));
#210 = DIRECTION('',(1.,0.,0.));
#211 = DIRECTION('',(0.,-1.,0.));
#212 = ADVANCED_FACE('',(#213),#247,.F.);
#213 = FACE_BOUND('',#214,.F.);
#214 = EDGE_LOOP('',(#215,#216,#217,#225,#233,#241));
#215 = ORIENTED_EDGE('',*,*,#71,.F.);
#216 = ORIENTED_EDGE('',*,*,#202,.T.);
#217 = ORIENTED_EDGE('',*,*,#218,.T.);
#218 = EDGE_CURVE('',#195,#219,#221,.T.);
#219 = VERTEX_POINT('',#220);
#220 = CARTESIAN_POINT('',(0.,0.575,0.281968279087));
#221 = LINE('',#222,#223);
#222 = CARTESIAN_POINT('',(0.668925593772,0.575,0.223444872889));
#223 = VECTOR('',#224,1.);
#224 = DIRECTION('',(-0.996194698092,0.,8.715574274766E-02));
#225 = ORIENTED_EDGE('',*,*,#226,.T.);
#226 = EDGE_CURVE('',#219,#227,#229,.T.);
#227 = VERTEX_POINT('',#228);
#228 = CARTESIAN_POINT('',(-0.375,0.575,0.249160030264));
#229 = LINE('',#230,#231);
#230 = CARTESIAN_POINT('',(0.173834907389,0.575,0.297176862808));
#231 = VECTOR('',#232,1.);
#232 = DIRECTION('',(-0.996194698092,0.,-8.715574274766E-02));
#233 = ORIENTED_EDGE('',*,*,#234,.F.);
#234 = EDGE_CURVE('',#235,#227,#237,.T.);
#235 = VERTEX_POINT('',#236);
#236 = CARTESIAN_POINT('',(-0.375,0.575,4.91600302644E-02));
#237 = LINE('',#238,#239);
#238 = CARTESIAN_POINT('',(-0.375,0.575,0.));
#239 = VECTOR('',#240,1.);
#240 = DIRECTION('',(0.,0.,1.));
#241 = ORIENTED_EDGE('',*,*,#242,.F.);
#242 = EDGE_CURVE('',#64,#235,#243,.T.);
#243 = LINE('',#244,#245);
#244 = CARTESIAN_POINT('',(0.182517316272,0.575,9.793647515764E-02));
#245 = VECTOR('',#246,1.);
#246 = DIRECTION('',(-0.996194698092,0.,-8.715574274766E-02));
#247 = PLANE('',#248);
#248 = AXIS2_PLACEMENT_3D('',#249,#250,#251);
#249 = CARTESIAN_POINT('',(0.375,0.575,0.));
#250 = DIRECTION('',(0.,-1.,0.));
#251 = DIRECTION('',(-1.,0.,0.));
#252 = ADVANCED_FACE('',(#253),#303,.T.);
#253 = FACE_BOUND('',#254,.T.);
#254 = EDGE_LOOP('',(#255,#256,#257,#265,#273,#281,#289,#297));
#255 = ORIENTED_EDGE('',*,*,#242,.F.);
#256 = ORIENTED_EDGE('',*,*,#63,.T.);
#257 = ORIENTED_EDGE('',*,*,#258,.T.);
#258 = EDGE_CURVE('',#56,#259,#261,.T.);
#259 = VERTEX_POINT('',#260);
#260 = CARTESIAN_POINT('',(-0.375,-0.575,4.91600302644E-02));
#261 = LINE('',#262,#263);
#262 = CARTESIAN_POINT('',(0.182517316272,-0.575,9.793647515764E-02));
#263 = VECTOR('',#264,1.);
#264 = DIRECTION('',(-0.996194698092,3.87049249307E-17,
    -8.715574274766E-02));
#265 = ORIENTED_EDGE('',*,*,#266,.T.);
#266 = EDGE_CURVE('',#259,#267,#269,.T.);
#267 = VERTEX_POINT('',#268);
#268 = CARTESIAN_POINT('',(-0.375,-0.675,4.91600302644E-02));
#269 = LINE('',#270,#271);
#270 = CARTESIAN_POINT('',(-0.375,5.E-02,4.91600302644E-02));
#271 = VECTOR('',#272,1.);
#272 = DIRECTION('',(0.,-1.,-2.22044604925E-16));
#273 = ORIENTED_EDGE('',*,*,#274,.T.);
#274 = EDGE_CURVE('',#267,#275,#277,.T.);
#275 = VERTEX_POINT('',#276);
#276 = CARTESIAN_POINT('',(-0.923853277176,-0.675,1.141590572476E-03));
#277 = LINE('',#278,#279);
#278 = CARTESIAN_POINT('',(0.,-0.675,8.196827908662E-02));
#279 = VECTOR('',#280,1.);
#280 = DIRECTION('',(-0.996194698092,1.935246246535E-17,
    -8.715574274766E-02));
#281 = ORIENTED_EDGE('',*,*,#282,.F.);
#282 = EDGE_CURVE('',#283,#275,#285,.T.);
#283 = VERTEX_POINT('',#284);
#284 = CARTESIAN_POINT('',(-0.923853277176,0.675,1.141590572477E-03));
#285 = LINE('',#286,#287);
#286 = CARTESIAN_POINT('',(-0.923853277176,0.675,1.141590572477E-03));
#287 = VECTOR('',#288,1.);
#288 = DIRECTION('',(0.,-1.,-2.22044604925E-16));
#289 = ORIENTED_EDGE('',*,*,#290,.F.);
#290 = EDGE_CURVE('',#291,#283,#293,.T.);
#291 = VERTEX_POINT('',#292);
#292 = CARTESIAN_POINT('',(-0.375,0.675,4.91600302644E-02));
#293 = LINE('',#294,#295);
#294 = CARTESIAN_POINT('',(0.,0.675,8.196827908662E-02));
#295 = VECTOR('',#296,1.);
#296 = DIRECTION('',(-0.996194698092,1.935246246535E-17,
    -8.715574274766E-02));
#297 = ORIENTED_EDGE('',*,*,#298,.F.);
#298 = EDGE_CURVE('',#235,#291,#299,.T.);
#299 = LINE('',#300,#301);
#300 = CARTESIAN_POINT('',(-0.375,0.625,4.91600302644E-02));
#301 = VECTOR('',#302,1.);
#302 = DIRECTION('',(0.,1.,2.22044604925E-16));
#303 = PLANE('',#304);
#304 = AXIS2_PLACEMENT_3D('',#305,#306,#307);
#305 = CARTESIAN_POINT('',(0.,0.675,8.196827908662E-02));
#306 = DIRECTION('',(8.715574274766E-02,2.211996581662E-16,
    -0.996194698092));
#307 = DIRECTION('',(-0.996194698092,1.935246246535E-17,
    -8.715574274766E-02));
#308 = ADVANCED_FACE('',(#309),#343,.F.);
#309 = FACE_BOUND('',#310,.T.);
#310 = EDGE_LOOP('',(#311,#312,#320,#328,#336,#342));
#311 = ORIENTED_EDGE('',*,*,#55,.F.);
#312 = ORIENTED_EDGE('',*,*,#313,.T.);
#313 = EDGE_CURVE('',#48,#314,#316,.T.);
#314 = VERTEX_POINT('',#315);
#315 = CARTESIAN_POINT('',(0.375,-0.575,0.249160030264));
#316 = LINE('',#317,#318);
#317 = CARTESIAN_POINT('',(0.375,-0.575,-2.553512956638E-16));
#318 = VECTOR('',#319,1.);
#319 = DIRECTION('',(0.,-4.440892098501E-16,1.));
#320 = ORIENTED_EDGE('',*,*,#321,.T.);
#321 = EDGE_CURVE('',#314,#322,#324,.T.);
#322 = VERTEX_POINT('',#323);
#323 = CARTESIAN_POINT('',(0.,-0.575,0.281968279087));
#324 = LINE('',#325,#326);
#325 = CARTESIAN_POINT('',(0.668925593772,-0.575,0.223444872889));
#326 = VECTOR('',#327,1.);
#327 = DIRECTION('',(-0.996194698092,-3.87049249307E-17,
    8.715574274766E-02));
#328 = ORIENTED_EDGE('',*,*,#329,.T.);
#329 = EDGE_CURVE('',#322,#330,#332,.T.);
#330 = VERTEX_POINT('',#331);
#331 = CARTESIAN_POINT('',(-0.375,-0.575,0.249160030264));
#332 = LINE('',#333,#334);
#333 = CARTESIAN_POINT('',(0.173834907389,-0.575,0.297176862808));
#334 = VECTOR('',#335,1.);
#335 = DIRECTION('',(-0.996194698092,3.87049249307E-17,
    -8.715574274766E-02));
#336 = ORIENTED_EDGE('',*,*,#337,.F.);
#337 = EDGE_CURVE('',#259,#330,#338,.T.);
#338 = LINE('',#339,#340);
#339 = CARTESIAN_POINT('',(-0.375,-0.575,-2.553512956638E-16));
#340 = VECTOR('',#341,1.);
#341 = DIRECTION('',(0.,-4.440892098501E-16,1.));
#342 = ORIENTED_EDGE('',*,*,#258,.F.);
#343 = PLANE('',#344);
#344 = AXIS2_PLACEMENT_3D('',#345,#346,#347);
#345 = CARTESIAN_POINT('',(0.375,-0.575,-2.553512956638E-16));
#346 = DIRECTION('',(0.,1.,4.440892098501E-16));
#347 = DIRECTION('',(1.,0.,0.));
#348 = ADVANCED_FACE('',(#349),#367,.F.);
#349 = FACE_BOUND('',#350,.T.);
#350 = EDGE_LOOP('',(#351,#352,#360,#366));
#351 = ORIENTED_EDGE('',*,*,#47,.F.);
#352 = ORIENTED_EDGE('',*,*,#353,.T.);
#353 = EDGE_CURVE('',#40,#354,#356,.T.);
#354 = VERTEX_POINT('',#355);
#355 = CARTESIAN_POINT('',(0.375,-0.675,0.249160030264));
#356 = LINE('',#357,#358);
#357 = CARTESIAN_POINT('',(0.375,-0.675,-2.997602166488E-16));
#358 = VECTOR('',#359,1.);
#359 = DIRECTION('',(0.,-4.440892098501E-16,1.));
#360 = ORIENTED_EDGE('',*,*,#361,.T.);
#361 = EDGE_CURVE('',#354,#314,#362,.T.);
#362 = LINE('',#363,#364);
#363 = CARTESIAN_POINT('',(0.375,-5.532464048317E-17,0.249160030264));
#364 = VECTOR('',#365,1.);
#365 = DIRECTION('',(0.,1.,2.22044604925E-16));
#366 = ORIENTED_EDGE('',*,*,#313,.F.);
#367 = PLANE('',#368);
#368 = AXIS2_PLACEMENT_3D('',#369,#370,#371);
#369 = CARTESIAN_POINT('',(0.375,-0.675,-2.997602166488E-16));
#370 = DIRECTION('',(1.,0.,0.));
#371 = DIRECTION('',(-0.,-1.,-4.440892098501E-16));
#372 = ADVANCED_FACE('',(#373),#459,.F.);
#373 = FACE_BOUND('',#374,.F.);
#374 = EDGE_LOOP('',(#375,#384,#385,#386,#394,#403,#411,#420,#428,#436,
    #444,#453));
#375 = ORIENTED_EDGE('',*,*,#376,.F.);
#376 = EDGE_CURVE('',#32,#377,#379,.T.);
#377 = VERTEX_POINT('',#378);
#378 = CARTESIAN_POINT('',(1.22461739217,-0.675,0.420769565362));
#379 = CIRCLE('',#380,0.3);
#380 = AXIS2_PLACEMENT_3D('',#381,#382,#383);
#381 = CARTESIAN_POINT('',(0.95,-0.675,0.3));
#382 = DIRECTION('',(0.,-1.,-2.22044604925E-16));
#383 = DIRECTION('',(1.,0.,0.));
#384 = ORIENTED_EDGE('',*,*,#39,.T.);
#385 = ORIENTED_EDGE('',*,*,#353,.T.);
#386 = ORIENTED_EDGE('',*,*,#387,.F.);
#387 = EDGE_CURVE('',#388,#354,#390,.T.);
#388 = VERTEX_POINT('',#389);
#389 = CARTESIAN_POINT('',(0.941218094942,-0.675,0.199622365874));
#390 = LINE('',#391,#392);
#391 = CARTESIAN_POINT('',(0.941218094942,-0.675,0.199622365874));
#392 = VECTOR('',#393,1.);
#393 = DIRECTION('',(-0.996194698092,-1.935246246535E-17,
    8.715574274766E-02));
#394 = ORIENTED_EDGE('',*,*,#395,.T.);
#395 = EDGE_CURVE('',#388,#396,#398,.T.);
#396 = VERTEX_POINT('',#397);
#397 = CARTESIAN_POINT('',(1.042235798781,-0.675,0.340562898226));
#398 = CIRCLE('',#399,0.100761060382);
#399 = AXIS2_PLACEMENT_3D('',#400,#401,#402);
#400 = CARTESIAN_POINT('',(0.95,-0.675,0.3));
#401 = DIRECTION('',(0.,-1.,-2.22044604925E-16));
#402 = DIRECTION('',(1.,0.,0.));
#403 = ORIENTED_EDGE('',*,*,#404,.F.);
#404 = EDGE_CURVE('',#405,#396,#407,.T.);
#405 = VERTEX_POINT('',#406);
#406 = CARTESIAN_POINT('',(0.64643927633,-0.675,1.240562898226));
#407 = LINE('',#408,#409);
#408 = CARTESIAN_POINT('',(0.64643927633,-0.675,1.240562898226));
#409 = VECTOR('',#410,1.);
#410 = DIRECTION('',(0.402565217872,2.032577011666E-16,-0.915391307234)
  );
#411 = ORIENTED_EDGE('',*,*,#412,.T.);
#412 = EDGE_CURVE('',#405,#413,#415,.T.);
#413 = VERTEX_POINT('',#414);
#414 = CARTESIAN_POINT('',(0.554203477549,-0.675,1.300761060382));
#415 = CIRCLE('',#416,0.100761060382);
#416 = AXIS2_PLACEMENT_3D('',#417,#418,#419);
#417 = CARTESIAN_POINT('',(0.554203477549,-0.675,1.2));
#418 = DIRECTION('',(0.,-1.,-2.22044604925E-16));
#419 = DIRECTION('',(1.,0.,0.));
#420 = ORIENTED_EDGE('',*,*,#421,.F.);
#421 = EDGE_CURVE('',#422,#413,#424,.T.);
#422 = VERTEX_POINT('',#423);
#423 = CARTESIAN_POINT('',(0.25,-0.675,1.300761060382));
#424 = LINE('',#425,#426);
#425 = CARTESIAN_POINT('',(-0.554203477549,-0.675,1.300761060382));
#426 = VECTOR('',#427,1.);
#427 = DIRECTION('',(1.,0.,0.));
#428 = ORIENTED_EDGE('',*,*,#429,.F.);
#429 = EDGE_CURVE('',#430,#422,#432,.T.);
#430 = VERTEX_POINT('',#431);
#431 = CARTESIAN_POINT('',(0.25,-0.675,1.5));
#432 = LINE('',#433,#434);
#433 = CARTESIAN_POINT('',(0.25,-0.675,1.5));
#434 = VECTOR('',#435,1.);
#435 = DIRECTION('',(0.,4.440892098501E-16,-1.));
#436 = ORIENTED_EDGE('',*,*,#437,.T.);
#437 = EDGE_CURVE('',#430,#438,#440,.T.);
#438 = VERTEX_POINT('',#439);
#439 = CARTESIAN_POINT('',(0.554203477549,-0.675,1.5));
#440 = LINE('',#441,#442);
#441 = CARTESIAN_POINT('',(-0.554203477549,-0.675,1.5));
#442 = VECTOR('',#443,1.);
#443 = DIRECTION('',(1.,0.,0.));
#444 = ORIENTED_EDGE('',*,*,#445,.F.);
#445 = EDGE_CURVE('',#446,#438,#448,.T.);
#446 = VERTEX_POINT('',#447);
#447 = CARTESIAN_POINT('',(0.828820869719,-0.675,1.320769565362));
#448 = CIRCLE('',#449,0.3);
#449 = AXIS2_PLACEMENT_3D('',#450,#451,#452);
#450 = CARTESIAN_POINT('',(0.554203477549,-0.675,1.2));
#451 = DIRECTION('',(0.,-1.,-2.22044604925E-16));
#452 = DIRECTION('',(1.,0.,0.));
#453 = ORIENTED_EDGE('',*,*,#454,.T.);
#454 = EDGE_CURVE('',#446,#377,#455,.T.);
#455 = LINE('',#456,#457);
#456 = CARTESIAN_POINT('',(0.828820869719,-0.675,1.320769565362));
#457 = VECTOR('',#458,1.);
#458 = DIRECTION('',(0.402565217872,2.032577011666E-16,-0.915391307234)
  );
#459 = PLANE('',#460);
#460 = AXIS2_PLACEMENT_3D('',#461,#462,#463);
#461 = CARTESIAN_POINT('',(1.014755715665E-17,-0.675,0.678127883248));
#462 = DIRECTION('',(-2.736911063134E-48,1.,2.22044604925E-16));
#463 = DIRECTION('',(0.,-2.22044604925E-16,1.));
#464 = ADVANCED_FACE('',(#465),#476,.T.);
#465 = FACE_BOUND('',#466,.F.);
#466 = EDGE_LOOP('',(#467,#468,#469,#475));
#467 = ORIENTED_EDGE('',*,*,#31,.T.);
#468 = ORIENTED_EDGE('',*,*,#376,.T.);
#469 = ORIENTED_EDGE('',*,*,#470,.F.);
#470 = EDGE_CURVE('',#94,#377,#471,.T.);
#471 = LINE('',#472,#473);
#472 = CARTESIAN_POINT('',(1.22461739217,0.675,0.420769565362));
#473 = VECTOR('',#474,1.);
#474 = DIRECTION('',(0.,-1.,-2.22044604925E-16));
#475 = ORIENTED_EDGE('',*,*,#93,.F.);
#476 = CYLINDRICAL_SURFACE('',#477,0.3);
#477 = AXIS2_PLACEMENT_3D('',#478,#479,#480);
#478 = CARTESIAN_POINT('',(0.95,0.675,0.3));
#479 = DIRECTION('',(0.,1.,2.22044604925E-16));
#480 = DIRECTION('',(1.,0.,0.));
#481 = ADVANCED_FACE('',(#482),#493,.T.);
#482 = FACE_BOUND('',#483,.T.);
#483 = EDGE_LOOP('',(#484,#490,#491,#492));
#484 = ORIENTED_EDGE('',*,*,#485,.T.);
#485 = EDGE_CURVE('',#170,#446,#486,.T.);
#486 = LINE('',#487,#488);
#487 = CARTESIAN_POINT('',(0.828820869719,0.675,1.320769565362));
#488 = VECTOR('',#489,1.);
#489 = DIRECTION('',(0.,-1.,-2.22044604925E-16));
#490 = ORIENTED_EDGE('',*,*,#454,.T.);
#491 = ORIENTED_EDGE('',*,*,#470,.F.);
#492 = ORIENTED_EDGE('',*,*,#178,.F.);
#493 = PLANE('',#494);
#494 = AXIS2_PLACEMENT_3D('',#495,#496,#497);
#495 = CARTESIAN_POINT('',(0.828820869719,0.675,1.320769565362));
#496 = DIRECTION('',(0.915391307234,-8.938743475901E-17,0.402565217872)
  );
#497 = DIRECTION('',(0.402565217872,2.032577011666E-16,-0.915391307234)
  );
#498 = ADVANCED_FACE('',(#499),#510,.T.);
#499 = FACE_BOUND('',#500,.F.);
#500 = EDGE_LOOP('',(#501,#502,#503,#509));
#501 = ORIENTED_EDGE('',*,*,#485,.T.);
#502 = ORIENTED_EDGE('',*,*,#445,.T.);
#503 = ORIENTED_EDGE('',*,*,#504,.F.);
#504 = EDGE_CURVE('',#162,#438,#505,.T.);
#505 = LINE('',#506,#507);
#506 = CARTESIAN_POINT('',(0.554203477549,0.675,1.5));
#507 = VECTOR('',#508,1.);
#508 = DIRECTION('',(0.,-1.,-2.22044604925E-16));
#509 = ORIENTED_EDGE('',*,*,#169,.F.);
#510 = CYLINDRICAL_SURFACE('',#511,0.3);
#511 = AXIS2_PLACEMENT_3D('',#512,#513,#514);
#512 = CARTESIAN_POINT('',(0.554203477549,0.675,1.2));
#513 = DIRECTION('',(0.,1.,2.22044604925E-16));
#514 = DIRECTION('',(1.,0.,0.));
#515 = ADVANCED_FACE('',(#516),#591,.T.);
#516 = FACE_BOUND('',#517,.T.);
#517 = EDGE_LOOP('',(#518,#528,#536,#544,#552,#560,#566,#567,#568,#569,
    #577,#585));
#518 = ORIENTED_EDGE('',*,*,#519,.F.);
#519 = EDGE_CURVE('',#520,#522,#524,.T.);
#520 = VERTEX_POINT('',#521);
#521 = CARTESIAN_POINT('',(-0.554203477549,0.675,1.5));
#522 = VERTEX_POINT('',#523);
#523 = CARTESIAN_POINT('',(-0.25,0.675,1.5));
#524 = LINE('',#525,#526);
#525 = CARTESIAN_POINT('',(-0.554203477549,0.675,1.5));
#526 = VECTOR('',#527,1.);
#527 = DIRECTION('',(1.,0.,0.));
#528 = ORIENTED_EDGE('',*,*,#529,.T.);
#529 = EDGE_CURVE('',#520,#530,#532,.T.);
#530 = VERTEX_POINT('',#531);
#531 = CARTESIAN_POINT('',(-0.554203477549,-0.675,1.5));
#532 = LINE('',#533,#534);
#533 = CARTESIAN_POINT('',(-0.554203477549,0.675,1.5));
#534 = VECTOR('',#535,1.);
#535 = DIRECTION('',(0.,-1.,-2.22044604925E-16));
#536 = ORIENTED_EDGE('',*,*,#537,.T.);
#537 = EDGE_CURVE('',#530,#538,#540,.T.);
#538 = VERTEX_POINT('',#539);
#539 = CARTESIAN_POINT('',(-0.25,-0.675,1.5));
#540 = LINE('',#541,#542);
#541 = CARTESIAN_POINT('',(-0.554203477549,-0.675,1.5));
#542 = VECTOR('',#543,1.);
#543 = DIRECTION('',(1.,0.,0.));
#544 = ORIENTED_EDGE('',*,*,#545,.F.);
#545 = EDGE_CURVE('',#546,#538,#548,.T.);
#546 = VERTEX_POINT('',#547);
#547 = CARTESIAN_POINT('',(-0.25,-0.575,1.5));
#548 = LINE('',#549,#550);
#549 = CARTESIAN_POINT('',(-0.25,-0.575,1.5));
#550 = VECTOR('',#551,1.);
#551 = DIRECTION('',(0.,-1.,-4.440892098501E-16));
#552 = ORIENTED_EDGE('',*,*,#553,.F.);
#553 = EDGE_CURVE('',#554,#546,#556,.T.);
#554 = VERTEX_POINT('',#555);
#555 = CARTESIAN_POINT('',(0.25,-0.575,1.5));
#556 = LINE('',#557,#558);
#557 = CARTESIAN_POINT('',(0.25,-0.575,1.5));
#558 = VECTOR('',#559,1.);
#559 = DIRECTION('',(-1.,0.,-0.));
#560 = ORIENTED_EDGE('',*,*,#561,.F.);
#561 = EDGE_CURVE('',#430,#554,#562,.T.);
#562 = LINE('',#563,#564);
#563 = CARTESIAN_POINT('',(0.25,-0.675,1.5));
#564 = VECTOR('',#565,1.);
#565 = DIRECTION('',(0.,1.,4.440892098501E-16));
#566 = ORIENTED_EDGE('',*,*,#437,.T.);
#567 = ORIENTED_EDGE('',*,*,#504,.F.);
#568 = ORIENTED_EDGE('',*,*,#161,.F.);
#569 = ORIENTED_EDGE('',*,*,#570,.T.);
#570 = EDGE_CURVE('',#154,#571,#573,.T.);
#571 = VERTEX_POINT('',#572);
#572 = CARTESIAN_POINT('',(0.25,0.575,1.5));
#573 = LINE('',#574,#575);
#574 = CARTESIAN_POINT('',(0.25,0.675,1.5));
#575 = VECTOR('',#576,1.);
#576 = DIRECTION('',(0.,-1.,0.));
#577 = ORIENTED_EDGE('',*,*,#578,.T.);
#578 = EDGE_CURVE('',#571,#579,#581,.T.);
#579 = VERTEX_POINT('',#580);
#580 = CARTESIAN_POINT('',(-0.25,0.575,1.5));
#581 = LINE('',#582,#583);
#582 = CARTESIAN_POINT('',(0.25,0.575,1.5));
#583 = VECTOR('',#584,1.);
#584 = DIRECTION('',(-1.,0.,0.));
#585 = ORIENTED_EDGE('',*,*,#586,.T.);
#586 = EDGE_CURVE('',#579,#522,#587,.T.);
#587 = LINE('',#588,#589);
#588 = CARTESIAN_POINT('',(-0.25,0.575,1.5));
#589 = VECTOR('',#590,1.);
#590 = DIRECTION('',(0.,1.,0.));
#591 = PLANE('',#592);
#592 = AXIS2_PLACEMENT_3D('',#593,#594,#595);
#593 = CARTESIAN_POINT('',(-0.554203477549,0.675,1.5));
#594 = DIRECTION('',(0.,-2.22044604925E-16,1.));
#595 = DIRECTION('',(1.,0.,0.));
#596 = ADVANCED_FACE('',(#597),#615,.T.);
#597 = FACE_BOUND('',#598,.T.);
#598 = EDGE_LOOP('',(#599,#600,#601,#609));
#599 = ORIENTED_EDGE('',*,*,#570,.F.);
#600 = ORIENTED_EDGE('',*,*,#153,.T.);
#601 = ORIENTED_EDGE('',*,*,#602,.T.);
#602 = EDGE_CURVE('',#146,#603,#605,.T.);
#603 = VERTEX_POINT('',#604);
#604 = CARTESIAN_POINT('',(0.25,0.575,1.300761060382));
#605 = LINE('',#606,#607);
#606 = CARTESIAN_POINT('',(0.25,0.675,1.300761060382));
#607 = VECTOR('',#608,1.);
#608 = DIRECTION('',(0.,-1.,-2.22044604925E-16));
#609 = ORIENTED_EDGE('',*,*,#610,.F.);
#610 = EDGE_CURVE('',#571,#603,#611,.T.);
#611 = LINE('',#612,#613);
#612 = CARTESIAN_POINT('',(0.25,0.575,1.5));
#613 = VECTOR('',#614,1.);
#614 = DIRECTION('',(0.,0.,-1.));
#615 = PLANE('',#616);
#616 = AXIS2_PLACEMENT_3D('',#617,#618,#619);
#617 = CARTESIAN_POINT('',(0.25,0.675,1.5));
#618 = DIRECTION('',(-1.,0.,0.));
#619 = DIRECTION('',(0.,-1.,0.));
#620 = ADVANCED_FACE('',(#621),#694,.F.);
#621 = FACE_BOUND('',#622,.F.);
#622 = EDGE_LOOP('',(#623,#633,#641,#649,#657,#665,#671,#672,#678,#679,
    #680,#688));
#623 = ORIENTED_EDGE('',*,*,#624,.F.);
#624 = EDGE_CURVE('',#625,#627,#629,.T.);
#625 = VERTEX_POINT('',#626);
#626 = CARTESIAN_POINT('',(-0.554203477549,0.675,1.300761060382));
#627 = VERTEX_POINT('',#628);
#628 = CARTESIAN_POINT('',(-0.25,0.675,1.300761060382));
#629 = LINE('',#630,#631);
#630 = CARTESIAN_POINT('',(-0.554203477549,0.675,1.300761060382));
#631 = VECTOR('',#632,1.);
#632 = DIRECTION('',(1.,0.,0.));
#633 = ORIENTED_EDGE('',*,*,#634,.T.);
#634 = EDGE_CURVE('',#625,#635,#637,.T.);
#635 = VERTEX_POINT('',#636);
#636 = CARTESIAN_POINT('',(-0.554203477549,-0.675,1.300761060382));
#637 = LINE('',#638,#639);
#638 = CARTESIAN_POINT('',(-0.554203477549,0.675,1.300761060382));
#639 = VECTOR('',#640,1.);
#640 = DIRECTION('',(0.,-1.,-2.22044604925E-16));
#641 = ORIENTED_EDGE('',*,*,#642,.T.);
#642 = EDGE_CURVE('',#635,#643,#645,.T.);
#643 = VERTEX_POINT('',#644);
#644 = CARTESIAN_POINT('',(-0.25,-0.675,1.300761060382));
#645 = LINE('',#646,#647);
#646 = CARTESIAN_POINT('',(-0.554203477549,-0.675,1.300761060382));
#647 = VECTOR('',#648,1.);
#648 = DIRECTION('',(1.,0.,0.));
#649 = ORIENTED_EDGE('',*,*,#650,.F.);
#650 = EDGE_CURVE('',#651,#643,#653,.T.);
#651 = VERTEX_POINT('',#652);
#652 = CARTESIAN_POINT('',(-0.25,-0.575,1.300761060382));
#653 = LINE('',#654,#655);
#654 = CARTESIAN_POINT('',(-0.25,5.E-02,1.300761060382));
#655 = VECTOR('',#656,1.);
#656 = DIRECTION('',(0.,-1.,-2.22044604925E-16));
#657 = ORIENTED_EDGE('',*,*,#658,.F.);
#658 = EDGE_CURVE('',#659,#651,#661,.T.);
#659 = VERTEX_POINT('',#660);
#660 = CARTESIAN_POINT('',(0.25,-0.575,1.300761060382));
#661 = LINE('',#662,#663);
#662 = CARTESIAN_POINT('',(-0.152101738774,-0.575,1.300761060382));
#663 = VECTOR('',#664,1.);
#664 = DIRECTION('',(-1.,-0.,0.));
#665 = ORIENTED_EDGE('',*,*,#666,.F.);
#666 = EDGE_CURVE('',#422,#659,#667,.T.);
#667 = LINE('',#668,#669);
#668 = CARTESIAN_POINT('',(0.25,-4.553604294481E-16,1.300761060382));
#669 = VECTOR('',#670,1.);
#670 = DIRECTION('',(0.,1.,2.22044604925E-16));
#671 = ORIENTED_EDGE('',*,*,#421,.T.);
#672 = ORIENTED_EDGE('',*,*,#673,.F.);
#673 = EDGE_CURVE('',#137,#413,#674,.T.);
#674 = LINE('',#675,#676);
#675 = CARTESIAN_POINT('',(0.554203477549,0.675,1.300761060382));
#676 = VECTOR('',#677,1.);
#677 = DIRECTION('',(0.,-1.,-2.22044604925E-16));
#678 = ORIENTED_EDGE('',*,*,#145,.F.);
#679 = ORIENTED_EDGE('',*,*,#602,.T.);
#680 = ORIENTED_EDGE('',*,*,#681,.T.);
#681 = EDGE_CURVE('',#603,#682,#684,.T.);
#682 = VERTEX_POINT('',#683);
#683 = CARTESIAN_POINT('',(-0.25,0.575,1.300761060382));
#684 = LINE('',#685,#686);
#685 = CARTESIAN_POINT('',(-0.152101738774,0.575,1.300761060382));
#686 = VECTOR('',#687,1.);
#687 = DIRECTION('',(-1.,0.,0.));
#688 = ORIENTED_EDGE('',*,*,#689,.T.);
#689 = EDGE_CURVE('',#682,#627,#690,.T.);
#690 = LINE('',#691,#692);
#691 = CARTESIAN_POINT('',(-0.25,0.625,1.300761060382));
#692 = VECTOR('',#693,1.);
#693 = DIRECTION('',(0.,1.,2.22044604925E-16));
#694 = PLANE('',#695);
#695 = AXIS2_PLACEMENT_3D('',#696,#697,#698);
#696 = CARTESIAN_POINT('',(-0.554203477549,0.675,1.300761060382));
#697 = DIRECTION('',(0.,-2.22044604925E-16,1.));
#698 = DIRECTION('',(1.,0.,0.));
#699 = ADVANCED_FACE('',(#700),#711,.F.);
#700 = FACE_BOUND('',#701,.T.);
#701 = EDGE_LOOP('',(#702,#708,#709,#710));
#702 = ORIENTED_EDGE('',*,*,#703,.T.);
#703 = EDGE_CURVE('',#129,#405,#704,.T.);
#704 = LINE('',#705,#706);
#705 = CARTESIAN_POINT('',(0.64643927633,0.675,1.240562898226));
#706 = VECTOR('',#707,1.);
#707 = DIRECTION('',(0.,-1.,-2.22044604925E-16));
#708 = ORIENTED_EDGE('',*,*,#412,.T.);
#709 = ORIENTED_EDGE('',*,*,#673,.F.);
#710 = ORIENTED_EDGE('',*,*,#136,.F.);
#711 = CYLINDRICAL_SURFACE('',#712,0.100761060382);
#712 = AXIS2_PLACEMENT_3D('',#713,#714,#715);
#713 = CARTESIAN_POINT('',(0.554203477549,0.675,1.2));
#714 = DIRECTION('',(0.,1.,2.22044604925E-16));
#715 = DIRECTION('',(1.,0.,0.));
#716 = ADVANCED_FACE('',(#717),#728,.F.);
#717 = FACE_BOUND('',#718,.F.);
#718 = EDGE_LOOP('',(#719,#720,#721,#727));
#719 = ORIENTED_EDGE('',*,*,#703,.T.);
#720 = ORIENTED_EDGE('',*,*,#404,.T.);
#721 = ORIENTED_EDGE('',*,*,#722,.F.);
#722 = EDGE_CURVE('',#120,#396,#723,.T.);
#723 = LINE('',#724,#725);
#724 = CARTESIAN_POINT('',(1.042235798781,0.675,0.340562898226));
#725 = VECTOR('',#726,1.);
#726 = DIRECTION('',(0.,-1.,-2.22044604925E-16));
#727 = ORIENTED_EDGE('',*,*,#128,.F.);
#728 = PLANE('',#729);
#729 = AXIS2_PLACEMENT_3D('',#730,#731,#732);
#730 = CARTESIAN_POINT('',(0.64643927633,0.675,1.240562898226));
#731 = DIRECTION('',(0.915391307234,-8.938743475902E-17,0.402565217872)
  );
#732 = DIRECTION('',(0.402565217872,2.032577011666E-16,-0.915391307234)
  );
#733 = ADVANCED_FACE('',(#734),#745,.F.);
#734 = FACE_BOUND('',#735,.T.);
#735 = EDGE_LOOP('',(#736,#742,#743,#744));
#736 = ORIENTED_EDGE('',*,*,#737,.T.);
#737 = EDGE_CURVE('',#112,#388,#738,.T.);
#738 = LINE('',#739,#740);
#739 = CARTESIAN_POINT('',(0.941218094942,0.675,0.199622365874));
#740 = VECTOR('',#741,1.);
#741 = DIRECTION('',(0.,-1.,-2.22044604925E-16));
#742 = ORIENTED_EDGE('',*,*,#395,.T.);
#743 = ORIENTED_EDGE('',*,*,#722,.F.);
#744 = ORIENTED_EDGE('',*,*,#119,.F.);
#745 = CYLINDRICAL_SURFACE('',#746,0.100761060382);
#746 = AXIS2_PLACEMENT_3D('',#747,#748,#749);
#747 = CARTESIAN_POINT('',(0.95,0.675,0.3));
#748 = DIRECTION('',(0.,1.,2.22044604925E-16));
#749 = DIRECTION('',(1.,0.,0.));
#750 = ADVANCED_FACE('',(#751),#766,.F.);
#751 = FACE_BOUND('',#752,.F.);
#752 = EDGE_LOOP('',(#753,#754,#755,#756,#757,#758,#764,#765));
#753 = ORIENTED_EDGE('',*,*,#111,.F.);
#754 = ORIENTED_EDGE('',*,*,#737,.T.);
#755 = ORIENTED_EDGE('',*,*,#387,.T.);
#756 = ORIENTED_EDGE('',*,*,#361,.T.);
#757 = ORIENTED_EDGE('',*,*,#321,.T.);
#758 = ORIENTED_EDGE('',*,*,#759,.F.);
#759 = EDGE_CURVE('',#219,#322,#760,.T.);
#760 = LINE('',#761,#762);
#761 = CARTESIAN_POINT('',(0.,0.675,0.281968279087));
#762 = VECTOR('',#763,1.);
#763 = DIRECTION('',(0.,-1.,-2.22044604925E-16));
#764 = ORIENTED_EDGE('',*,*,#218,.F.);
#765 = ORIENTED_EDGE('',*,*,#194,.F.);
#766 = PLANE('',#767);
#767 = AXIS2_PLACEMENT_3D('',#768,#769,#770);
#768 = CARTESIAN_POINT('',(0.941218094942,0.675,0.199622365874));
#769 = DIRECTION('',(-8.715574274766E-02,2.211996581662E-16,
    -0.996194698092));
#770 = DIRECTION('',(-0.996194698092,-1.935246246535E-17,
    8.715574274766E-02));
#771 = ADVANCED_FACE('',(#772),#790,.F.);
#772 = FACE_BOUND('',#773,.F.);
#773 = EDGE_LOOP('',(#774,#775,#776,#784));
#774 = ORIENTED_EDGE('',*,*,#298,.F.);
#775 = ORIENTED_EDGE('',*,*,#234,.T.);
#776 = ORIENTED_EDGE('',*,*,#777,.T.);
#777 = EDGE_CURVE('',#227,#778,#780,.T.);
#778 = VERTEX_POINT('',#779);
#779 = CARTESIAN_POINT('',(-0.375,0.675,0.249160030264));
#780 = LINE('',#781,#782);
#781 = CARTESIAN_POINT('',(-0.375,0.625,0.249160030264));
#782 = VECTOR('',#783,1.);
#783 = DIRECTION('',(0.,1.,2.22044604925E-16));
#784 = ORIENTED_EDGE('',*,*,#785,.F.);
#785 = EDGE_CURVE('',#291,#778,#786,.T.);
#786 = LINE('',#787,#788);
#787 = CARTESIAN_POINT('',(-0.375,0.675,0.));
#788 = VECTOR('',#789,1.);
#789 = DIRECTION('',(0.,0.,1.));
#790 = PLANE('',#791);
#791 = AXIS2_PLACEMENT_3D('',#792,#793,#794);
#792 = CARTESIAN_POINT('',(-0.375,0.575,0.));
#793 = DIRECTION('',(-1.,0.,0.));
#794 = DIRECTION('',(0.,1.,0.));
#795 = ADVANCED_FACE('',(#796),#832,.F.);
#796 = FACE_BOUND('',#797,.F.);
#797 = EDGE_LOOP('',(#798,#799,#800,#801,#809,#817,#825,#831));
#798 = ORIENTED_EDGE('',*,*,#226,.F.);
#799 = ORIENTED_EDGE('',*,*,#759,.T.);
#800 = ORIENTED_EDGE('',*,*,#329,.T.);
#801 = ORIENTED_EDGE('',*,*,#802,.T.);
#802 = EDGE_CURVE('',#330,#803,#805,.T.);
#803 = VERTEX_POINT('',#804);
#804 = CARTESIAN_POINT('',(-0.375,-0.675,0.249160030264));
#805 = LINE('',#806,#807);
#806 = CARTESIAN_POINT('',(-0.375,5.E-02,0.249160030264));
#807 = VECTOR('',#808,1.);
#808 = DIRECTION('',(0.,-1.,-2.22044604925E-16));
#809 = ORIENTED_EDGE('',*,*,#810,.T.);
#810 = EDGE_CURVE('',#803,#811,#813,.T.);
#811 = VERTEX_POINT('',#812);
#812 = CARTESIAN_POINT('',(-0.941218094942,-0.675,0.199622365874));
#813 = LINE('',#814,#815);
#814 = CARTESIAN_POINT('',(0.,-0.675,0.281968279087));
#815 = VECTOR('',#816,1.);
#816 = DIRECTION('',(-0.996194698092,1.935246246535E-17,
    -8.715574274766E-02));
#817 = ORIENTED_EDGE('',*,*,#818,.F.);
#818 = EDGE_CURVE('',#819,#811,#821,.T.);
#819 = VERTEX_POINT('',#820);
#820 = CARTESIAN_POINT('',(-0.941218094942,0.675,0.199622365874));
#821 = LINE('',#822,#823);
#822 = CARTESIAN_POINT('',(-0.941218094942,0.675,0.199622365874));
#823 = VECTOR('',#824,1.);
#824 = DIRECTION('',(0.,-1.,-2.22044604925E-16));
#825 = ORIENTED_EDGE('',*,*,#826,.F.);
#826 = EDGE_CURVE('',#778,#819,#827,.T.);
#827 = LINE('',#828,#829);
#828 = CARTESIAN_POINT('',(0.,0.675,0.281968279087));
#829 = VECTOR('',#830,1.);
#830 = DIRECTION('',(-0.996194698092,1.935246246535E-17,
    -8.715574274766E-02));
#831 = ORIENTED_EDGE('',*,*,#777,.F.);
#832 = PLANE('',#833);
#833 = AXIS2_PLACEMENT_3D('',#834,#835,#836);
#834 = CARTESIAN_POINT('',(0.,0.675,0.281968279087));
#835 = DIRECTION('',(8.715574274766E-02,2.211996581662E-16,
    -0.996194698092));
#836 = DIRECTION('',(-0.996194698092,1.935246246535E-17,
    -8.715574274766E-02));
#837 = ADVANCED_FACE('',(#838),#899,.T.);
#838 = FACE_BOUND('',#839,.T.);
#839 = EDGE_LOOP('',(#840,#841,#847,#848,#857,#865,#872,#873,#874,#875,
    #884,#892));
#840 = ORIENTED_EDGE('',*,*,#519,.T.);
#841 = ORIENTED_EDGE('',*,*,#842,.T.);
#842 = EDGE_CURVE('',#522,#627,#843,.T.);
#843 = LINE('',#844,#845);
#844 = CARTESIAN_POINT('',(-0.25,0.675,1.5));
#845 = VECTOR('',#846,1.);
#846 = DIRECTION('',(0.,0.,-1.));
#847 = ORIENTED_EDGE('',*,*,#624,.F.);
#848 = ORIENTED_EDGE('',*,*,#849,.T.);
#849 = EDGE_CURVE('',#625,#850,#852,.T.);
#850 = VERTEX_POINT('',#851);
#851 = CARTESIAN_POINT('',(-0.64643927633,0.675,1.240562898226));
#852 = CIRCLE('',#853,0.100761060382);
#853 = AXIS2_PLACEMENT_3D('',#854,#855,#856);
#854 = CARTESIAN_POINT('',(-0.554203477549,0.675,1.2));
#855 = DIRECTION('',(0.,-1.,-2.22044604925E-16));
#856 = DIRECTION('',(1.,0.,0.));
#857 = ORIENTED_EDGE('',*,*,#858,.F.);
#858 = EDGE_CURVE('',#859,#850,#861,.T.);
#859 = VERTEX_POINT('',#860);
#860 = CARTESIAN_POINT('',(-1.042235798781,0.675,0.340562898226));
#861 = LINE('',#862,#863);
#862 = CARTESIAN_POINT('',(-1.042235798781,0.675,0.340562898226));
#863 = VECTOR('',#864,1.);
#864 = DIRECTION('',(0.402565217872,-2.032577011666E-16,0.915391307234)
  );
#865 = ORIENTED_EDGE('',*,*,#866,.T.);
#866 = EDGE_CURVE('',#859,#819,#867,.T.);
#867 = CIRCLE('',#868,0.100761060382);
#868 = AXIS2_PLACEMENT_3D('',#869,#870,#871);
#869 = CARTESIAN_POINT('',(-0.95,0.675,0.3));
#870 = DIRECTION('',(0.,-1.,-2.22044604925E-16));
#871 = DIRECTION('',(1.,0.,0.));
#872 = ORIENTED_EDGE('',*,*,#826,.F.);
#873 = ORIENTED_EDGE('',*,*,#785,.F.);
#874 = ORIENTED_EDGE('',*,*,#290,.T.);
#875 = ORIENTED_EDGE('',*,*,#876,.F.);
#876 = EDGE_CURVE('',#877,#283,#879,.T.);
#877 = VERTEX_POINT('',#878);
#878 = CARTESIAN_POINT('',(-1.22461739217,0.675,0.420769565362));
#879 = CIRCLE('',#880,0.3);
#880 = AXIS2_PLACEMENT_3D('',#881,#882,#883);
#881 = CARTESIAN_POINT('',(-0.95,0.675,0.3));
#882 = DIRECTION('',(0.,-1.,-2.22044604925E-16));
#883 = DIRECTION('',(1.,0.,0.));
#884 = ORIENTED_EDGE('',*,*,#885,.T.);
#885 = EDGE_CURVE('',#877,#886,#888,.T.);
#886 = VERTEX_POINT('',#887);
#887 = CARTESIAN_POINT('',(-0.828820869719,0.675,1.320769565362));
#888 = LINE('',#889,#890);
#889 = CARTESIAN_POINT('',(-1.22461739217,0.675,0.420769565362));
#890 = VECTOR('',#891,1.);
#891 = DIRECTION('',(0.402565217872,-2.032577011666E-16,0.915391307234)
  );
#892 = ORIENTED_EDGE('',*,*,#893,.F.);
#893 = EDGE_CURVE('',#520,#886,#894,.T.);
#894 = CIRCLE('',#895,0.3);
#895 = AXIS2_PLACEMENT_3D('',#896,#897,#898);
#896 = CARTESIAN_POINT('',(-0.554203477549,0.675,1.2));
#897 = DIRECTION('',(0.,-1.,-2.22044604925E-16));
#898 = DIRECTION('',(1.,0.,0.));
#899 = PLANE('',#900);
#900 = AXIS2_PLACEMENT_3D('',#901,#902,#903);
#901 = CARTESIAN_POINT('',(1.014755715665E-17,0.675,0.678127883248));
#902 = DIRECTION('',(-2.736911063134E-48,1.,2.22044604925E-16));
#903 = DIRECTION('',(0.,-2.22044604925E-16,1.));
#904 = ADVANCED_FACE('',(#905),#924,.T.);
#905 = FACE_BOUND('',#906,.F.);
#906 = EDGE_LOOP('',(#907,#915,#922,#923));
#907 = ORIENTED_EDGE('',*,*,#908,.T.);
#908 = EDGE_CURVE('',#877,#909,#911,.T.);
#909 = VERTEX_POINT('',#910);
#910 = CARTESIAN_POINT('',(-1.22461739217,-0.675,0.420769565362));
#911 = LINE('',#912,#913);
#912 = CARTESIAN_POINT('',(-1.22461739217,0.675,0.420769565362));
#913 = VECTOR('',#914,1.);
#914 = DIRECTION('',(0.,-1.,-2.22044604925E-16));
#915 = ORIENTED_EDGE('',*,*,#916,.T.);
#916 = EDGE_CURVE('',#909,#275,#917,.T.);
#917 = CIRCLE('',#918,0.3);
#918 = AXIS2_PLACEMENT_3D('',#919,#920,#921);
#919 = CARTESIAN_POINT('',(-0.95,-0.675,0.3));
#920 = DIRECTION('',(0.,-1.,-2.22044604925E-16));
#921 = DIRECTION('',(1.,0.,0.));
#922 = ORIENTED_EDGE('',*,*,#282,.F.);
#923 = ORIENTED_EDGE('',*,*,#876,.F.);
#924 = CYLINDRICAL_SURFACE('',#925,0.3);
#925 = AXIS2_PLACEMENT_3D('',#926,#927,#928);
#926 = CARTESIAN_POINT('',(-0.95,0.675,0.3));
#927 = DIRECTION('',(0.,1.,2.22044604925E-16));
#928 = DIRECTION('',(1.,0.,0.));
#929 = ADVANCED_FACE('',(#930),#988,.F.);
#930 = FACE_BOUND('',#931,.F.);
#931 = EDGE_LOOP('',(#932,#938,#939,#940,#948,#955,#956,#962,#963,#972,
    #980,#987));
#932 = ORIENTED_EDGE('',*,*,#933,.F.);
#933 = EDGE_CURVE('',#267,#803,#934,.T.);
#934 = LINE('',#935,#936);
#935 = CARTESIAN_POINT('',(-0.375,-0.675,-2.997602166488E-16));
#936 = VECTOR('',#937,1.);
#937 = DIRECTION('',(0.,-4.440892098501E-16,1.));
#938 = ORIENTED_EDGE('',*,*,#274,.T.);
#939 = ORIENTED_EDGE('',*,*,#916,.F.);
#940 = ORIENTED_EDGE('',*,*,#941,.T.);
#941 = EDGE_CURVE('',#909,#942,#944,.T.);
#942 = VERTEX_POINT('',#943);
#943 = CARTESIAN_POINT('',(-0.828820869719,-0.675,1.320769565362));
#944 = LINE('',#945,#946);
#945 = CARTESIAN_POINT('',(-1.22461739217,-0.675,0.420769565362));
#946 = VECTOR('',#947,1.);
#947 = DIRECTION('',(0.402565217872,-2.032577011666E-16,0.915391307234)
  );
#948 = ORIENTED_EDGE('',*,*,#949,.F.);
#949 = EDGE_CURVE('',#530,#942,#950,.T.);
#950 = CIRCLE('',#951,0.3);
#951 = AXIS2_PLACEMENT_3D('',#952,#953,#954);
#952 = CARTESIAN_POINT('',(-0.554203477549,-0.675,1.2));
#953 = DIRECTION('',(0.,-1.,-2.22044604925E-16));
#954 = DIRECTION('',(1.,0.,0.));
#955 = ORIENTED_EDGE('',*,*,#537,.T.);
#956 = ORIENTED_EDGE('',*,*,#957,.T.);
#957 = EDGE_CURVE('',#538,#643,#958,.T.);
#958 = LINE('',#959,#960);
#959 = CARTESIAN_POINT('',(-0.25,-0.675,1.5));
#960 = VECTOR('',#961,1.);
#961 = DIRECTION('',(0.,4.440892098501E-16,-1.));
#962 = ORIENTED_EDGE('',*,*,#642,.F.);
#963 = ORIENTED_EDGE('',*,*,#964,.T.);
#964 = EDGE_CURVE('',#635,#965,#967,.T.);
#965 = VERTEX_POINT('',#966);
#966 = CARTESIAN_POINT('',(-0.64643927633,-0.675,1.240562898226));
#967 = CIRCLE('',#968,0.100761060382);
#968 = AXIS2_PLACEMENT_3D('',#969,#970,#971);
#969 = CARTESIAN_POINT('',(-0.554203477549,-0.675,1.2));
#970 = DIRECTION('',(0.,-1.,-2.22044604925E-16));
#971 = DIRECTION('',(1.,0.,0.));
#972 = ORIENTED_EDGE('',*,*,#973,.F.);
#973 = EDGE_CURVE('',#974,#965,#976,.T.);
#974 = VERTEX_POINT('',#975);
#975 = CARTESIAN_POINT('',(-1.042235798781,-0.675,0.340562898226));
#976 = LINE('',#977,#978);
#977 = CARTESIAN_POINT('',(-1.042235798781,-0.675,0.340562898226));
#978 = VECTOR('',#979,1.);
#979 = DIRECTION('',(0.402565217872,-2.032577011666E-16,0.915391307234)
  );
#980 = ORIENTED_EDGE('',*,*,#981,.T.);
#981 = EDGE_CURVE('',#974,#811,#982,.T.);
#982 = CIRCLE('',#983,0.100761060382);
#983 = AXIS2_PLACEMENT_3D('',#984,#985,#986);
#984 = CARTESIAN_POINT('',(-0.95,-0.675,0.3));
#985 = DIRECTION('',(0.,-1.,-2.22044604925E-16));
#986 = DIRECTION('',(1.,0.,0.));
#987 = ORIENTED_EDGE('',*,*,#810,.F.);
#988 = PLANE('',#989);
#989 = AXIS2_PLACEMENT_3D('',#990,#991,#992);
#990 = CARTESIAN_POINT('',(1.014755715665E-17,-0.675,0.678127883248));
#991 = DIRECTION('',(-2.736911063134E-48,1.,2.22044604925E-16));
#992 = DIRECTION('',(0.,-2.22044604925E-16,1.));
#993 = ADVANCED_FACE('',(#994),#1000,.F.);
#994 = FACE_BOUND('',#995,.T.);
#995 = EDGE_LOOP('',(#996,#997,#998,#999));
#996 = ORIENTED_EDGE('',*,*,#266,.F.);
#997 = ORIENTED_EDGE('',*,*,#337,.T.);
#998 = ORIENTED_EDGE('',*,*,#802,.T.);
#999 = ORIENTED_EDGE('',*,*,#933,.F.);
#1000 = PLANE('',#1001);
#1001 = AXIS2_PLACEMENT_3D('',#1002,#1003,#1004);
#1002 = CARTESIAN_POINT('',(-0.375,-0.575,-2.553512956638E-16));
#1003 = DIRECTION('',(-1.,0.,0.));
#1004 = DIRECTION('',(0.,1.,4.440892098501E-16));
#1005 = ADVANCED_FACE('',(#1006),#1017,.T.);
#1006 = FACE_BOUND('',#1007,.F.);
#1007 = EDGE_LOOP('',(#1008,#1009,#1010,#1011));
#1008 = ORIENTED_EDGE('',*,*,#561,.F.);
#1009 = ORIENTED_EDGE('',*,*,#429,.T.);
#1010 = ORIENTED_EDGE('',*,*,#666,.T.);
#1011 = ORIENTED_EDGE('',*,*,#1012,.F.);
#1012 = EDGE_CURVE('',#554,#659,#1013,.T.);
#1013 = LINE('',#1014,#1015);
#1014 = CARTESIAN_POINT('',(0.25,-0.575,1.5));
#1015 = VECTOR('',#1016,1.);
#1016 = DIRECTION('',(0.,4.440892098501E-16,-1.));
#1017 = PLANE('',#1018);
#1018 = AXIS2_PLACEMENT_3D('',#1019,#1020,#1021);
#1019 = CARTESIAN_POINT('',(0.25,-0.675,1.5));
#1020 = DIRECTION('',(-1.,0.,0.));
#1021 = DIRECTION('',(-0.,-1.,-4.440892098501E-16));
#1022 = ADVANCED_FACE('',(#1023),#1034,.T.);
#1023 = FACE_BOUND('',#1024,.T.);
#1024 = EDGE_LOOP('',(#1025,#1026,#1032,#1033));
#1025 = ORIENTED_EDGE('',*,*,#586,.F.);
#1026 = ORIENTED_EDGE('',*,*,#1027,.T.);
#1027 = EDGE_CURVE('',#579,#682,#1028,.T.);
#1028 = LINE('',#1029,#1030);
#1029 = CARTESIAN_POINT('',(-0.25,0.575,1.5));
#1030 = VECTOR('',#1031,1.);
#1031 = DIRECTION('',(0.,0.,-1.));
#1032 = ORIENTED_EDGE('',*,*,#689,.T.);
#1033 = ORIENTED_EDGE('',*,*,#842,.F.);
#1034 = PLANE('',#1035);
#1035 = AXIS2_PLACEMENT_3D('',#1036,#1037,#1038);
#1036 = CARTESIAN_POINT('',(-0.25,0.575,1.5));
#1037 = DIRECTION('',(1.,0.,0.));
#1038 = DIRECTION('',(0.,1.,0.));
#1039 = ADVANCED_FACE('',(#1040),#1046,.T.);
#1040 = FACE_BOUND('',#1041,.T.);
#1041 = EDGE_LOOP('',(#1042,#1043,#1044,#1045));
#1042 = ORIENTED_EDGE('',*,*,#578,.F.);
#1043 = ORIENTED_EDGE('',*,*,#610,.T.);
#1044 = ORIENTED_EDGE('',*,*,#681,.T.);
#1045 = ORIENTED_EDGE('',*,*,#1027,.F.);
#1046 = PLANE('',#1047);
#1047 = AXIS2_PLACEMENT_3D('',#1048,#1049,#1050);
#1048 = CARTESIAN_POINT('',(0.25,0.575,1.5));
#1049 = DIRECTION('',(0.,1.,0.));
#1050 = DIRECTION('',(-1.,0.,0.));
#1051 = ADVANCED_FACE('',(#1052),#1063,.T.);
#1052 = FACE_BOUND('',#1053,.F.);
#1053 = EDGE_LOOP('',(#1054,#1055,#1056,#1062));
#1054 = ORIENTED_EDGE('',*,*,#1012,.T.);
#1055 = ORIENTED_EDGE('',*,*,#658,.T.);
#1056 = ORIENTED_EDGE('',*,*,#1057,.F.);
#1057 = EDGE_CURVE('',#546,#651,#1058,.T.);
#1058 = LINE('',#1059,#1060);
#1059 = CARTESIAN_POINT('',(-0.25,-0.575,1.5));
#1060 = VECTOR('',#1061,1.);
#1061 = DIRECTION('',(0.,4.440892098501E-16,-1.));
#1062 = ORIENTED_EDGE('',*,*,#553,.F.);
#1063 = PLANE('',#1064);
#1064 = AXIS2_PLACEMENT_3D('',#1065,#1066,#1067);
#1065 = CARTESIAN_POINT('',(0.25,-0.575,1.5));
#1066 = DIRECTION('',(0.,-1.,-4.440892098501E-16));
#1067 = DIRECTION('',(1.,0.,0.));
#1068 = ADVANCED_FACE('',(#1069),#1075,.T.);
#1069 = FACE_BOUND('',#1070,.F.);
#1070 = EDGE_LOOP('',(#1071,#1072,#1073,#1074));
#1071 = ORIENTED_EDGE('',*,*,#1057,.T.);
#1072 = ORIENTED_EDGE('',*,*,#650,.T.);
#1073 = ORIENTED_EDGE('',*,*,#957,.F.);
#1074 = ORIENTED_EDGE('',*,*,#545,.F.);
#1075 = PLANE('',#1076);
#1076 = AXIS2_PLACEMENT_3D('',#1077,#1078,#1079);
#1077 = CARTESIAN_POINT('',(-0.25,-0.575,1.5));
#1078 = DIRECTION('',(1.,0.,0.));
#1079 = DIRECTION('',(0.,1.,4.440892098501E-16));
#1080 = ADVANCED_FACE('',(#1081),#1092,.T.);
#1081 = FACE_BOUND('',#1082,.F.);
#1082 = EDGE_LOOP('',(#1083,#1084,#1085,#1091));
#1083 = ORIENTED_EDGE('',*,*,#529,.T.);
#1084 = ORIENTED_EDGE('',*,*,#949,.T.);
#1085 = ORIENTED_EDGE('',*,*,#1086,.F.);
#1086 = EDGE_CURVE('',#886,#942,#1087,.T.);
#1087 = LINE('',#1088,#1089);
#1088 = CARTESIAN_POINT('',(-0.828820869719,0.675,1.320769565362));
#1089 = VECTOR('',#1090,1.);
#1090 = DIRECTION('',(0.,-1.,-2.22044604925E-16));
#1091 = ORIENTED_EDGE('',*,*,#893,.F.);
#1092 = CYLINDRICAL_SURFACE('',#1093,0.3);
#1093 = AXIS2_PLACEMENT_3D('',#1094,#1095,#1096);
#1094 = CARTESIAN_POINT('',(-0.554203477549,0.675,1.2));
#1095 = DIRECTION('',(0.,1.,2.22044604925E-16));
#1096 = DIRECTION('',(1.,0.,0.));
#1097 = ADVANCED_FACE('',(#1098),#1109,.F.);
#1098 = FACE_BOUND('',#1099,.T.);
#1099 = EDGE_LOOP('',(#1100,#1101,#1102,#1108));
#1100 = ORIENTED_EDGE('',*,*,#634,.T.);
#1101 = ORIENTED_EDGE('',*,*,#964,.T.);
#1102 = ORIENTED_EDGE('',*,*,#1103,.F.);
#1103 = EDGE_CURVE('',#850,#965,#1104,.T.);
#1104 = LINE('',#1105,#1106);
#1105 = CARTESIAN_POINT('',(-0.64643927633,0.675,1.240562898226));
#1106 = VECTOR('',#1107,1.);
#1107 = DIRECTION('',(0.,-1.,-2.22044604925E-16));
#1108 = ORIENTED_EDGE('',*,*,#849,.F.);
#1109 = CYLINDRICAL_SURFACE('',#1110,0.100761060382);
#1110 = AXIS2_PLACEMENT_3D('',#1111,#1112,#1113);
#1111 = CARTESIAN_POINT('',(-0.554203477549,0.675,1.2));
#1112 = DIRECTION('',(0.,1.,2.22044604925E-16));
#1113 = DIRECTION('',(1.,0.,0.));
#1114 = ADVANCED_FACE('',(#1115),#1126,.F.);
#1115 = FACE_BOUND('',#1116,.T.);
#1116 = EDGE_LOOP('',(#1117,#1123,#1124,#1125));
#1117 = ORIENTED_EDGE('',*,*,#1118,.T.);
#1118 = EDGE_CURVE('',#859,#974,#1119,.T.);
#1119 = LINE('',#1120,#1121);
#1120 = CARTESIAN_POINT('',(-1.042235798781,0.675,0.340562898226));
#1121 = VECTOR('',#1122,1.);
#1122 = DIRECTION('',(0.,-1.,-2.22044604925E-16));
#1123 = ORIENTED_EDGE('',*,*,#981,.T.);
#1124 = ORIENTED_EDGE('',*,*,#818,.F.);
#1125 = ORIENTED_EDGE('',*,*,#866,.F.);
#1126 = CYLINDRICAL_SURFACE('',#1127,0.100761060382);
#1127 = AXIS2_PLACEMENT_3D('',#1128,#1129,#1130);
#1128 = CARTESIAN_POINT('',(-0.95,0.675,0.3));
#1129 = DIRECTION('',(0.,1.,2.22044604925E-16));
#1130 = DIRECTION('',(1.,0.,0.));
#1131 = ADVANCED_FACE('',(#1132),#1138,.T.);
#1132 = FACE_BOUND('',#1133,.T.);
#1133 = EDGE_LOOP('',(#1134,#1135,#1136,#1137));
#1134 = ORIENTED_EDGE('',*,*,#908,.T.);
#1135 = ORIENTED_EDGE('',*,*,#941,.T.);
#1136 = ORIENTED_EDGE('',*,*,#1086,.F.);
#1137 = ORIENTED_EDGE('',*,*,#885,.F.);
#1138 = PLANE('',#1139);
#1139 = AXIS2_PLACEMENT_3D('',#1140,#1141,#1142);
#1140 = CARTESIAN_POINT('',(-1.22461739217,0.675,0.420769565362));
#1141 = DIRECTION('',(-0.915391307234,-8.938743475901E-17,0.402565217872
    ));
#1142 = DIRECTION('',(0.402565217872,-2.032577011666E-16,0.915391307234)
  );
#1143 = ADVANCED_FACE('',(#1144),#1150,.F.);
#1144 = FACE_BOUND('',#1145,.F.);
#1145 = EDGE_LOOP('',(#1146,#1147,#1148,#1149));
#1146 = ORIENTED_EDGE('',*,*,#1118,.T.);
#1147 = ORIENTED_EDGE('',*,*,#973,.T.);
#1148 = ORIENTED_EDGE('',*,*,#1103,.F.);
#1149 = ORIENTED_EDGE('',*,*,#858,.F.);
#1150 = PLANE('',#1151);
#1151 = AXIS2_PLACEMENT_3D('',#1152,#1153,#1154);
#1152 = CARTESIAN_POINT('',(-1.042235798781,0.675,0.340562898226));
#1153 = DIRECTION('',(-0.915391307234,-8.938743475902E-17,0.402565217872
    ));
#1154 = DIRECTION('',(0.402565217872,-2.032577011666E-16,0.915391307234)
  );
#1155 = ( GEOMETRIC_REPRESENTATION_CONTEXT(3) 
GLOBAL_UNCERTAINTY_ASSIGNED_CONTEXT((#1159)) 
GLOBAL_UNIT_ASSIGNED_CONTEXT((#1156,#1157,#1158)) REPRESENTATION_CONTEXT
('Context #1','3D Context with UNIT and UNCERTAINTY') );
#1156 = ( LENGTH_UNIT() NAMED_UNIT(*) SI_UNIT(.MILLI.,.METRE.) );
#1157 = ( NAMED_UNIT(*) PLANE_ANGLE_UNIT() SI_UNIT($,.RADIAN.) );
#1158 = ( NAMED_UNIT(*) SI_UNIT($,.STERADIAN.) SOLID_ANGLE_UNIT() );
#1159 = UNCERTAINTY_MEASURE_WITH_UNIT(LENGTH_MEASURE(1.E-07),#1156,
  'distance_accuracy_value','confusion accuracy');
#1160 = PRODUCT_RELATED_PRODUCT_CATEGORY('part',$,(#7));
#1161 = MECHANICAL_DESIGN_GEOMETRIC_PRESENTATION_REPRESENTATION('',(
    #1162),#1155);
#1162 = STYLED_ITEM('color',(#1163),#15);
#1163 = PRESENTATION_STYLE_ASSIGNMENT((#1164,#1170));
#1164 = SURFACE_STYLE_USAGE(.BOTH.,#1165);
#1165 = SURFACE_SIDE_STYLE('',(#1166));
#1166 = SURFACE_STYLE_FILL_AREA(#1167);
#1167 = FILL_AREA_STYLE('',(#1168));
#1168 = FILL_AREA_STYLE_COLOUR('',#1169);
#1169 = COLOUR_RGB('',0.800000011921,0.800000011921,0.800000011921);
#1170 = CURVE_STYLE('',#1171,POSITIVE_LENGTH_MEASURE(0.1),#1172);
#1171 = DRAUGHTING_PRE_DEFINED_CURVE_FONT('continuous');
#1172 = COLOUR_RGB('',9.803921729326E-02,9.803921729326E-02,
  9.803921729326E-02);
ENDSEC;
END-ISO-10303-21;
