ISO-10303-21;
HEADER;
/* Generated by software containing ST-Developer
 * from STEP Tools, Inc. (www.steptools.com) 
 */

FILE_DESCRIPTION(
/* description */ (''),
/* implementation_level */ '2;1');

FILE_NAME(
/* name */ 
'C:\\Users\\huesof\\Downloads\\medtronic-pb560-ventilator-system-file-
set-2\\3D CAD Models\\TO228P972X240-3N-R540X510.stp',
/* time_stamp */ '2020-04-13T18:38:14-04:00',
/* author */ ('huesof'),
/* organization */ (''),
/* preprocessor_version */ 'ST-DEVELOPER v18',
/* originating_system */ 'Autodesk Inventor 2020',
/* authorisation */ '');

FILE_SCHEMA (('AUTOMOTIVE_DESIGN { 1 0 10303 214 3 1 1 }'));
ENDSEC;

DATA;
#10=MECHANICAL_DESIGN_GEOMETRIC_PRESENTATION_REPRESENTATION('',(#37,#38,
#39,#40,#41),#1832);
#11=SHAPE_REPRESENTATION_RELATIONSHIP('SRR','None',#1839,#12);
#12=ADVANCED_BREP_SHAPE_REPRESENTATION('',(#42,#43,#44,#45,#46),#1831);
#13=CIRCLE('',#1170,0.2);
#14=CIRCLE('',#1171,0.2);
#15=CIRCLE('',#1173,0.7);
#16=CIRCLE('',#1174,0.7);
#17=CIRCLE('',#1176,0.2);
#18=CIRCLE('',#1177,0.2);
#19=CIRCLE('',#1179,0.7);
#20=CIRCLE('',#1180,0.7);
#21=CIRCLE('',#1192,0.2);
#22=CIRCLE('',#1193,0.2);
#23=CIRCLE('',#1195,0.7);
#24=CIRCLE('',#1196,0.7);
#25=CIRCLE('',#1198,0.2);
#26=CIRCLE('',#1199,0.2);
#27=CIRCLE('',#1201,0.7);
#28=CIRCLE('',#1202,0.7);
#29=CYLINDRICAL_SURFACE('',#1169,0.2);
#30=CYLINDRICAL_SURFACE('',#1172,0.7);
#31=CYLINDRICAL_SURFACE('',#1175,0.2);
#32=CYLINDRICAL_SURFACE('',#1178,0.7);
#33=CYLINDRICAL_SURFACE('',#1191,0.2);
#34=CYLINDRICAL_SURFACE('',#1194,0.7);
#35=CYLINDRICAL_SURFACE('',#1197,0.2);
#36=CYLINDRICAL_SURFACE('',#1200,0.7);
#37=STYLED_ITEM('',(#1849),#42);
#38=STYLED_ITEM('',(#1850),#43);
#39=STYLED_ITEM('',(#1850),#44);
#40=STYLED_ITEM('',(#1850),#45);
#41=STYLED_ITEM('',(#1850),#46);
#42=MANIFOLD_SOLID_BREP('Solid1',#1118);
#43=MANIFOLD_SOLID_BREP('Solid2',#1119);
#44=MANIFOLD_SOLID_BREP('Solid3',#1120);
#45=MANIFOLD_SOLID_BREP('Solid4',#1121);
#46=MANIFOLD_SOLID_BREP('Solid5',#1122);
#47=FACE_OUTER_BOUND('',#108,.T.);
#48=FACE_OUTER_BOUND('',#109,.T.);
#49=FACE_OUTER_BOUND('',#110,.T.);
#50=FACE_OUTER_BOUND('',#111,.T.);
#51=FACE_OUTER_BOUND('',#112,.T.);
#52=FACE_OUTER_BOUND('',#113,.T.);
#53=FACE_OUTER_BOUND('',#114,.T.);
#54=FACE_OUTER_BOUND('',#115,.T.);
#55=FACE_OUTER_BOUND('',#116,.T.);
#56=FACE_OUTER_BOUND('',#117,.T.);
#57=FACE_OUTER_BOUND('',#118,.T.);
#58=FACE_OUTER_BOUND('',#119,.T.);
#59=FACE_OUTER_BOUND('',#120,.T.);
#60=FACE_OUTER_BOUND('',#121,.T.);
#61=FACE_OUTER_BOUND('',#122,.T.);
#62=FACE_OUTER_BOUND('',#123,.T.);
#63=FACE_OUTER_BOUND('',#124,.T.);
#64=FACE_OUTER_BOUND('',#125,.T.);
#65=FACE_OUTER_BOUND('',#126,.T.);
#66=FACE_OUTER_BOUND('',#127,.T.);
#67=FACE_OUTER_BOUND('',#128,.T.);
#68=FACE_OUTER_BOUND('',#129,.T.);
#69=FACE_OUTER_BOUND('',#130,.T.);
#70=FACE_OUTER_BOUND('',#131,.T.);
#71=FACE_OUTER_BOUND('',#132,.T.);
#72=FACE_OUTER_BOUND('',#133,.T.);
#73=FACE_OUTER_BOUND('',#134,.T.);
#74=FACE_OUTER_BOUND('',#135,.T.);
#75=FACE_OUTER_BOUND('',#136,.T.);
#76=FACE_OUTER_BOUND('',#137,.T.);
#77=FACE_OUTER_BOUND('',#138,.T.);
#78=FACE_OUTER_BOUND('',#139,.T.);
#79=FACE_OUTER_BOUND('',#140,.T.);
#80=FACE_OUTER_BOUND('',#141,.T.);
#81=FACE_OUTER_BOUND('',#142,.T.);
#82=FACE_OUTER_BOUND('',#143,.T.);
#83=FACE_OUTER_BOUND('',#144,.T.);
#84=FACE_OUTER_BOUND('',#145,.T.);
#85=FACE_OUTER_BOUND('',#146,.T.);
#86=FACE_OUTER_BOUND('',#147,.T.);
#87=FACE_OUTER_BOUND('',#148,.T.);
#88=FACE_OUTER_BOUND('',#149,.T.);
#89=FACE_OUTER_BOUND('',#150,.T.);
#90=FACE_OUTER_BOUND('',#151,.T.);
#91=FACE_OUTER_BOUND('',#152,.T.);
#92=FACE_OUTER_BOUND('',#153,.T.);
#93=FACE_OUTER_BOUND('',#154,.T.);
#94=FACE_OUTER_BOUND('',#155,.T.);
#95=FACE_OUTER_BOUND('',#156,.T.);
#96=FACE_OUTER_BOUND('',#157,.T.);
#97=FACE_OUTER_BOUND('',#158,.T.);
#98=FACE_OUTER_BOUND('',#159,.T.);
#99=FACE_OUTER_BOUND('',#160,.T.);
#100=FACE_OUTER_BOUND('',#161,.T.);
#101=FACE_OUTER_BOUND('',#162,.T.);
#102=FACE_OUTER_BOUND('',#163,.T.);
#103=FACE_OUTER_BOUND('',#164,.T.);
#104=FACE_OUTER_BOUND('',#165,.T.);
#105=FACE_OUTER_BOUND('',#166,.T.);
#106=FACE_OUTER_BOUND('',#167,.T.);
#107=FACE_OUTER_BOUND('',#168,.T.);
#108=EDGE_LOOP('',(#698,#699,#700,#701));
#109=EDGE_LOOP('',(#702,#703,#704,#705));
#110=EDGE_LOOP('',(#706,#707,#708,#709));
#111=EDGE_LOOP('',(#710,#711,#712,#713));
#112=EDGE_LOOP('',(#714,#715,#716,#717));
#113=EDGE_LOOP('',(#718,#719,#720,#721));
#114=EDGE_LOOP('',(#722,#723,#724,#725));
#115=EDGE_LOOP('',(#726,#727,#728,#729,#730,#731,#732,#733));
#116=EDGE_LOOP('',(#734,#735,#736,#737,#738,#739,#740,#741,#742,#743,#744,
#745));
#117=EDGE_LOOP('',(#746,#747,#748,#749));
#118=EDGE_LOOP('',(#750,#751,#752,#753));
#119=EDGE_LOOP('',(#754,#755,#756,#757,#758,#759,#760,#761));
#120=EDGE_LOOP('',(#762,#763,#764,#765));
#121=EDGE_LOOP('',(#766,#767,#768,#769,#770));
#122=EDGE_LOOP('',(#771,#772,#773,#774,#775));
#123=EDGE_LOOP('',(#776,#777,#778,#779));
#124=EDGE_LOOP('',(#780,#781,#782,#783));
#125=EDGE_LOOP('',(#784,#785,#786,#787));
#126=EDGE_LOOP('',(#788,#789,#790,#791));
#127=EDGE_LOOP('',(#792,#793,#794,#795));
#128=EDGE_LOOP('',(#796,#797,#798,#799));
#129=EDGE_LOOP('',(#800,#801,#802,#803));
#130=EDGE_LOOP('',(#804,#805,#806,#807));
#131=EDGE_LOOP('',(#808,#809,#810,#811));
#132=EDGE_LOOP('',(#812,#813,#814,#815));
#133=EDGE_LOOP('',(#816,#817,#818,#819,#820,#821,#822,#823,#824,#825));
#134=EDGE_LOOP('',(#826,#827,#828,#829,#830,#831,#832,#833,#834,#835));
#135=EDGE_LOOP('',(#836,#837,#838,#839));
#136=EDGE_LOOP('',(#840,#841,#842,#843));
#137=EDGE_LOOP('',(#844,#845,#846,#847));
#138=EDGE_LOOP('',(#848,#849,#850,#851));
#139=EDGE_LOOP('',(#852,#853,#854,#855));
#140=EDGE_LOOP('',(#856,#857,#858,#859,#860,#861,#862,#863,#864,#865,#866,
#867));
#141=EDGE_LOOP('',(#868,#869,#870,#871));
#142=EDGE_LOOP('',(#872,#873,#874,#875,#876,#877,#878,#879,#880,#881,#882,
#883));
#143=EDGE_LOOP('',(#884,#885,#886,#887));
#144=EDGE_LOOP('',(#888,#889,#890,#891));
#145=EDGE_LOOP('',(#892,#893,#894,#895));
#146=EDGE_LOOP('',(#896,#897,#898,#899));
#147=EDGE_LOOP('',(#900,#901,#902,#903));
#148=EDGE_LOOP('',(#904,#905,#906,#907));
#149=EDGE_LOOP('',(#908,#909,#910,#911));
#150=EDGE_LOOP('',(#912,#913,#914,#915));
#151=EDGE_LOOP('',(#916,#917,#918,#919));
#152=EDGE_LOOP('',(#920,#921,#922,#923));
#153=EDGE_LOOP('',(#924,#925,#926,#927));
#154=EDGE_LOOP('',(#928,#929,#930,#931,#932,#933,#934,#935,#936,#937,#938,
#939));
#155=EDGE_LOOP('',(#940,#941,#942,#943));
#156=EDGE_LOOP('',(#944,#945,#946,#947,#948,#949,#950,#951,#952,#953,#954,
#955));
#157=EDGE_LOOP('',(#956,#957,#958,#959));
#158=EDGE_LOOP('',(#960,#961,#962,#963));
#159=EDGE_LOOP('',(#964,#965,#966,#967));
#160=EDGE_LOOP('',(#968,#969,#970,#971));
#161=EDGE_LOOP('',(#972,#973,#974,#975));
#162=EDGE_LOOP('',(#976,#977,#978,#979));
#163=EDGE_LOOP('',(#980,#981,#982,#983));
#164=EDGE_LOOP('',(#984,#985,#986,#987));
#165=EDGE_LOOP('',(#988,#989,#990,#991));
#166=EDGE_LOOP('',(#992,#993,#994,#995));
#167=EDGE_LOOP('',(#996,#997,#998,#999));
#168=EDGE_LOOP('',(#1000,#1001,#1002,#1003));
#169=LINE('',#1516,#306);
#170=LINE('',#1518,#307);
#171=LINE('',#1520,#308);
#172=LINE('',#1521,#309);
#173=LINE('',#1524,#310);
#174=LINE('',#1526,#311);
#175=LINE('',#1527,#312);
#176=LINE('',#1530,#313);
#177=LINE('',#1532,#314);
#178=LINE('',#1533,#315);
#179=LINE('',#1537,#316);
#180=LINE('',#1538,#317);
#181=LINE('',#1539,#318);
#182=LINE('',#1543,#319);
#183=LINE('',#1545,#320);
#184=LINE('',#1547,#321);
#185=LINE('',#1548,#322);
#186=LINE('',#1551,#323);
#187=LINE('',#1553,#324);
#188=LINE('',#1554,#325);
#189=LINE('',#1556,#326);
#190=LINE('',#1557,#327);
#191=LINE('',#1559,#328);
#192=LINE('',#1562,#329);
#193=LINE('',#1564,#330);
#194=LINE('',#1566,#331);
#195=LINE('',#1568,#332);
#196=LINE('',#1569,#333);
#197=LINE('',#1573,#334);
#198=LINE('',#1575,#335);
#199=LINE('',#1577,#336);
#200=LINE('',#1578,#337);
#201=LINE('',#1581,#338);
#202=LINE('',#1583,#339);
#203=LINE('',#1584,#340);
#204=LINE('',#1586,#341);
#205=LINE('',#1587,#342);
#206=LINE('',#1589,#343);
#207=LINE('',#1590,#344);
#208=LINE('',#1596,#345);
#209=LINE('',#1598,#346);
#210=LINE('',#1600,#347);
#211=LINE('',#1601,#348);
#212=LINE('',#1604,#349);
#213=LINE('',#1606,#350);
#214=LINE('',#1607,#351);
#215=LINE('',#1610,#352);
#216=LINE('',#1612,#353);
#217=LINE('',#1613,#354);
#218=LINE('',#1616,#355);
#219=LINE('',#1618,#356);
#220=LINE('',#1619,#357);
#221=LINE('',#1622,#358);
#222=LINE('',#1624,#359);
#223=LINE('',#1625,#360);
#224=LINE('',#1628,#361);
#225=LINE('',#1630,#362);
#226=LINE('',#1631,#363);
#227=LINE('',#1634,#364);
#228=LINE('',#1636,#365);
#229=LINE('',#1637,#366);
#230=LINE('',#1640,#367);
#231=LINE('',#1642,#368);
#232=LINE('',#1643,#369);
#233=LINE('',#1646,#370);
#234=LINE('',#1648,#371);
#235=LINE('',#1649,#372);
#236=LINE('',#1651,#373);
#237=LINE('',#1652,#374);
#238=LINE('',#1660,#375);
#239=LINE('',#1663,#376);
#240=LINE('',#1669,#377);
#241=LINE('',#1672,#378);
#242=LINE('',#1678,#379);
#243=LINE('',#1681,#380);
#244=LINE('',#1687,#381);
#245=LINE('',#1690,#382);
#246=LINE('',#1693,#383);
#247=LINE('',#1695,#384);
#248=LINE('',#1696,#385);
#249=LINE('',#1699,#386);
#250=LINE('',#1700,#387);
#251=LINE('',#1702,#388);
#252=LINE('',#1704,#389);
#253=LINE('',#1705,#390);
#254=LINE('',#1706,#391);
#255=LINE('',#1707,#392);
#256=LINE('',#1710,#393);
#257=LINE('',#1711,#394);
#258=LINE('',#1713,#395);
#259=LINE('',#1714,#396);
#260=LINE('',#1716,#397);
#261=LINE('',#1718,#398);
#262=LINE('',#1719,#399);
#263=LINE('',#1720,#400);
#264=LINE('',#1723,#401);
#265=LINE('',#1725,#402);
#266=LINE('',#1734,#403);
#267=LINE('',#1737,#404);
#268=LINE('',#1743,#405);
#269=LINE('',#1746,#406);
#270=LINE('',#1752,#407);
#271=LINE('',#1755,#408);
#272=LINE('',#1761,#409);
#273=LINE('',#1764,#410);
#274=LINE('',#1767,#411);
#275=LINE('',#1769,#412);
#276=LINE('',#1770,#413);
#277=LINE('',#1773,#414);
#278=LINE('',#1774,#415);
#279=LINE('',#1776,#416);
#280=LINE('',#1778,#417);
#281=LINE('',#1779,#418);
#282=LINE('',#1780,#419);
#283=LINE('',#1781,#420);
#284=LINE('',#1784,#421);
#285=LINE('',#1785,#422);
#286=LINE('',#1787,#423);
#287=LINE('',#1788,#424);
#288=LINE('',#1790,#425);
#289=LINE('',#1792,#426);
#290=LINE('',#1793,#427);
#291=LINE('',#1794,#428);
#292=LINE('',#1797,#429);
#293=LINE('',#1799,#430);
#294=LINE('',#1806,#431);
#295=LINE('',#1808,#432);
#296=LINE('',#1810,#433);
#297=LINE('',#1811,#434);
#298=LINE('',#1814,#435);
#299=LINE('',#1816,#436);
#300=LINE('',#1817,#437);
#301=LINE('',#1820,#438);
#302=LINE('',#1822,#439);
#303=LINE('',#1823,#440);
#304=LINE('',#1825,#441);
#305=LINE('',#1826,#442);
#306=VECTOR('',#1223,1.);
#307=VECTOR('',#1224,1.);
#308=VECTOR('',#1225,1.);
#309=VECTOR('',#1226,1.);
#310=VECTOR('',#1229,1.);
#311=VECTOR('',#1230,1.);
#312=VECTOR('',#1231,1.);
#313=VECTOR('',#1234,1.);
#314=VECTOR('',#1235,1.);
#315=VECTOR('',#1236,1.);
#316=VECTOR('',#1239,0.999999999999662);
#317=VECTOR('',#1240,1.);
#318=VECTOR('',#1241,1.);
#319=VECTOR('',#1244,0.999999999999662);
#320=VECTOR('',#1245,1.);
#321=VECTOR('',#1246,1.);
#322=VECTOR('',#1247,1.);
#323=VECTOR('',#1250,1.);
#324=VECTOR('',#1251,1.);
#325=VECTOR('',#1252,1.);
#326=VECTOR('',#1255,1.);
#327=VECTOR('',#1256,1.);
#328=VECTOR('',#1259,1.);
#329=VECTOR('',#1262,1.);
#330=VECTOR('',#1263,1.);
#331=VECTOR('',#1264,1.);
#332=VECTOR('',#1265,1.);
#333=VECTOR('',#1266,1.);
#334=VECTOR('',#1269,0.999999999999662);
#335=VECTOR('',#1270,1.);
#336=VECTOR('',#1271,0.999999999999662);
#337=VECTOR('',#1272,1.);
#338=VECTOR('',#1275,1.);
#339=VECTOR('',#1276,1.);
#340=VECTOR('',#1277,1.);
#341=VECTOR('',#1280,0.999999999999662);
#342=VECTOR('',#1281,0.999999999999662);
#343=VECTOR('',#1284,0.999999999999662);
#344=VECTOR('',#1285,0.999999999999662);
#345=VECTOR('',#1292,1.);
#346=VECTOR('',#1293,1.);
#347=VECTOR('',#1294,1.);
#348=VECTOR('',#1295,1.);
#349=VECTOR('',#1298,1.);
#350=VECTOR('',#1299,1.);
#351=VECTOR('',#1300,1.);
#352=VECTOR('',#1303,1.);
#353=VECTOR('',#1304,1.);
#354=VECTOR('',#1305,1.);
#355=VECTOR('',#1308,1.);
#356=VECTOR('',#1309,1.);
#357=VECTOR('',#1310,1.);
#358=VECTOR('',#1313,1.00000000000028);
#359=VECTOR('',#1314,1.);
#360=VECTOR('',#1315,1.00000000000028);
#361=VECTOR('',#1318,1.);
#362=VECTOR('',#1319,1.);
#363=VECTOR('',#1320,1.);
#364=VECTOR('',#1323,1.00000000000028);
#365=VECTOR('',#1324,1.);
#366=VECTOR('',#1325,1.00000000000028);
#367=VECTOR('',#1328,1.);
#368=VECTOR('',#1329,1.);
#369=VECTOR('',#1330,1.);
#370=VECTOR('',#1333,1.);
#371=VECTOR('',#1334,1.);
#372=VECTOR('',#1335,1.);
#373=VECTOR('',#1338,1.);
#374=VECTOR('',#1339,1.);
#375=VECTOR('',#1348,1.);
#376=VECTOR('',#1351,1.);
#377=VECTOR('',#1356,1.);
#378=VECTOR('',#1359,1.);
#379=VECTOR('',#1364,1.);
#380=VECTOR('',#1367,1.);
#381=VECTOR('',#1372,1.);
#382=VECTOR('',#1375,1.);
#383=VECTOR('',#1378,1.);
#384=VECTOR('',#1379,1.);
#385=VECTOR('',#1380,1.);
#386=VECTOR('',#1383,1.);
#387=VECTOR('',#1384,1.00000000000009);
#388=VECTOR('',#1385,1.);
#389=VECTOR('',#1386,0.999999999999662);
#390=VECTOR('',#1387,1.);
#391=VECTOR('',#1388,1.00000000000009);
#392=VECTOR('',#1389,1.);
#393=VECTOR('',#1392,1.);
#394=VECTOR('',#1393,1.);
#395=VECTOR('',#1396,1.);
#396=VECTOR('',#1397,1.00000000000009);
#397=VECTOR('',#1398,1.);
#398=VECTOR('',#1399,0.999999999999662);
#399=VECTOR('',#1400,1.);
#400=VECTOR('',#1401,1.00000000000009);
#401=VECTOR('',#1406,1.);
#402=VECTOR('',#1409,1.);
#403=VECTOR('',#1420,1.);
#404=VECTOR('',#1423,1.);
#405=VECTOR('',#1428,1.);
#406=VECTOR('',#1431,1.);
#407=VECTOR('',#1436,1.);
#408=VECTOR('',#1439,1.);
#409=VECTOR('',#1444,1.);
#410=VECTOR('',#1447,1.);
#411=VECTOR('',#1450,1.);
#412=VECTOR('',#1451,1.);
#413=VECTOR('',#1452,1.);
#414=VECTOR('',#1455,1.);
#415=VECTOR('',#1456,1.00000000000009);
#416=VECTOR('',#1457,1.);
#417=VECTOR('',#1458,0.999999999999662);
#418=VECTOR('',#1459,1.);
#419=VECTOR('',#1460,1.00000000000009);
#420=VECTOR('',#1461,1.);
#421=VECTOR('',#1464,1.);
#422=VECTOR('',#1465,1.);
#423=VECTOR('',#1468,1.);
#424=VECTOR('',#1469,1.00000000000009);
#425=VECTOR('',#1470,1.);
#426=VECTOR('',#1471,0.999999999999662);
#427=VECTOR('',#1472,1.);
#428=VECTOR('',#1473,1.00000000000009);
#429=VECTOR('',#1478,1.);
#430=VECTOR('',#1481,1.);
#431=VECTOR('',#1490,1.);
#432=VECTOR('',#1491,1.);
#433=VECTOR('',#1492,1.);
#434=VECTOR('',#1493,1.);
#435=VECTOR('',#1496,1.);
#436=VECTOR('',#1497,1.);
#437=VECTOR('',#1498,1.);
#438=VECTOR('',#1501,0.999999999999662);
#439=VECTOR('',#1502,1.);
#440=VECTOR('',#1503,0.999999999999662);
#441=VECTOR('',#1506,1.);
#442=VECTOR('',#1507,1.);
#443=VERTEX_POINT('',#1514);
#444=VERTEX_POINT('',#1515);
#445=VERTEX_POINT('',#1517);
#446=VERTEX_POINT('',#1519);
#447=VERTEX_POINT('',#1523);
#448=VERTEX_POINT('',#1525);
#449=VERTEX_POINT('',#1529);
#450=VERTEX_POINT('',#1531);
#451=VERTEX_POINT('',#1535);
#452=VERTEX_POINT('',#1536);
#453=VERTEX_POINT('',#1541);
#454=VERTEX_POINT('',#1542);
#455=VERTEX_POINT('',#1544);
#456=VERTEX_POINT('',#1546);
#457=VERTEX_POINT('',#1550);
#458=VERTEX_POINT('',#1552);
#459=VERTEX_POINT('',#1561);
#460=VERTEX_POINT('',#1563);
#461=VERTEX_POINT('',#1565);
#462=VERTEX_POINT('',#1567);
#463=VERTEX_POINT('',#1571);
#464=VERTEX_POINT('',#1572);
#465=VERTEX_POINT('',#1574);
#466=VERTEX_POINT('',#1576);
#467=VERTEX_POINT('',#1580);
#468=VERTEX_POINT('',#1582);
#469=VERTEX_POINT('',#1594);
#470=VERTEX_POINT('',#1595);
#471=VERTEX_POINT('',#1597);
#472=VERTEX_POINT('',#1599);
#473=VERTEX_POINT('',#1603);
#474=VERTEX_POINT('',#1605);
#475=VERTEX_POINT('',#1609);
#476=VERTEX_POINT('',#1611);
#477=VERTEX_POINT('',#1615);
#478=VERTEX_POINT('',#1617);
#479=VERTEX_POINT('',#1621);
#480=VERTEX_POINT('',#1623);
#481=VERTEX_POINT('',#1627);
#482=VERTEX_POINT('',#1629);
#483=VERTEX_POINT('',#1633);
#484=VERTEX_POINT('',#1635);
#485=VERTEX_POINT('',#1639);
#486=VERTEX_POINT('',#1641);
#487=VERTEX_POINT('',#1645);
#488=VERTEX_POINT('',#1647);
#489=VERTEX_POINT('',#1656);
#490=VERTEX_POINT('',#1657);
#491=VERTEX_POINT('',#1659);
#492=VERTEX_POINT('',#1661);
#493=VERTEX_POINT('',#1665);
#494=VERTEX_POINT('',#1666);
#495=VERTEX_POINT('',#1668);
#496=VERTEX_POINT('',#1670);
#497=VERTEX_POINT('',#1674);
#498=VERTEX_POINT('',#1675);
#499=VERTEX_POINT('',#1677);
#500=VERTEX_POINT('',#1679);
#501=VERTEX_POINT('',#1683);
#502=VERTEX_POINT('',#1684);
#503=VERTEX_POINT('',#1686);
#504=VERTEX_POINT('',#1688);
#505=VERTEX_POINT('',#1692);
#506=VERTEX_POINT('',#1694);
#507=VERTEX_POINT('',#1698);
#508=VERTEX_POINT('',#1701);
#509=VERTEX_POINT('',#1703);
#510=VERTEX_POINT('',#1709);
#511=VERTEX_POINT('',#1715);
#512=VERTEX_POINT('',#1717);
#513=VERTEX_POINT('',#1730);
#514=VERTEX_POINT('',#1731);
#515=VERTEX_POINT('',#1733);
#516=VERTEX_POINT('',#1735);
#517=VERTEX_POINT('',#1739);
#518=VERTEX_POINT('',#1740);
#519=VERTEX_POINT('',#1742);
#520=VERTEX_POINT('',#1744);
#521=VERTEX_POINT('',#1748);
#522=VERTEX_POINT('',#1749);
#523=VERTEX_POINT('',#1751);
#524=VERTEX_POINT('',#1753);
#525=VERTEX_POINT('',#1757);
#526=VERTEX_POINT('',#1758);
#527=VERTEX_POINT('',#1760);
#528=VERTEX_POINT('',#1762);
#529=VERTEX_POINT('',#1766);
#530=VERTEX_POINT('',#1768);
#531=VERTEX_POINT('',#1772);
#532=VERTEX_POINT('',#1775);
#533=VERTEX_POINT('',#1777);
#534=VERTEX_POINT('',#1783);
#535=VERTEX_POINT('',#1789);
#536=VERTEX_POINT('',#1791);
#537=VERTEX_POINT('',#1804);
#538=VERTEX_POINT('',#1805);
#539=VERTEX_POINT('',#1807);
#540=VERTEX_POINT('',#1809);
#541=VERTEX_POINT('',#1813);
#542=VERTEX_POINT('',#1815);
#543=VERTEX_POINT('',#1819);
#544=VERTEX_POINT('',#1821);
#545=EDGE_CURVE('',#443,#444,#169,.T.);
#546=EDGE_CURVE('',#445,#443,#170,.T.);
#547=EDGE_CURVE('',#446,#445,#171,.T.);
#548=EDGE_CURVE('',#446,#444,#172,.T.);
#549=EDGE_CURVE('',#444,#447,#173,.T.);
#550=EDGE_CURVE('',#448,#446,#174,.T.);
#551=EDGE_CURVE('',#448,#447,#175,.T.);
#552=EDGE_CURVE('',#447,#449,#176,.T.);
#553=EDGE_CURVE('',#450,#448,#177,.T.);
#554=EDGE_CURVE('',#450,#449,#178,.T.);
#555=EDGE_CURVE('',#451,#452,#179,.T.);
#556=EDGE_CURVE('',#449,#451,#180,.T.);
#557=EDGE_CURVE('',#452,#450,#181,.T.);
#558=EDGE_CURVE('',#453,#454,#182,.T.);
#559=EDGE_CURVE('',#455,#453,#183,.T.);
#560=EDGE_CURVE('',#455,#456,#184,.T.);
#561=EDGE_CURVE('',#454,#456,#185,.T.);
#562=EDGE_CURVE('',#456,#457,#186,.T.);
#563=EDGE_CURVE('',#458,#455,#187,.T.);
#564=EDGE_CURVE('',#458,#457,#188,.T.);
#565=EDGE_CURVE('',#457,#443,#189,.T.);
#566=EDGE_CURVE('',#445,#458,#190,.T.);
#567=EDGE_CURVE('',#454,#451,#191,.T.);
#568=EDGE_CURVE('',#453,#459,#192,.T.);
#569=EDGE_CURVE('',#459,#460,#193,.T.);
#570=EDGE_CURVE('',#461,#460,#194,.T.);
#571=EDGE_CURVE('',#461,#462,#195,.T.);
#572=EDGE_CURVE('',#462,#452,#196,.T.);
#573=EDGE_CURVE('',#463,#464,#197,.T.);
#574=EDGE_CURVE('',#465,#464,#198,.T.);
#575=EDGE_CURVE('',#465,#466,#199,.T.);
#576=EDGE_CURVE('',#466,#463,#200,.T.);
#577=EDGE_CURVE('',#464,#467,#201,.T.);
#578=EDGE_CURVE('',#468,#467,#202,.T.);
#579=EDGE_CURVE('',#468,#465,#203,.T.);
#580=EDGE_CURVE('',#462,#468,#204,.T.);
#581=EDGE_CURVE('',#467,#459,#205,.T.);
#582=EDGE_CURVE('',#460,#463,#206,.T.);
#583=EDGE_CURVE('',#466,#461,#207,.T.);
#584=EDGE_CURVE('',#469,#470,#208,.T.);
#585=EDGE_CURVE('',#471,#470,#209,.T.);
#586=EDGE_CURVE('',#471,#472,#210,.T.);
#587=EDGE_CURVE('',#472,#469,#211,.T.);
#588=EDGE_CURVE('',#470,#473,#212,.T.);
#589=EDGE_CURVE('',#474,#473,#213,.T.);
#590=EDGE_CURVE('',#474,#471,#214,.T.);
#591=EDGE_CURVE('',#473,#475,#215,.T.);
#592=EDGE_CURVE('',#476,#475,#216,.T.);
#593=EDGE_CURVE('',#476,#474,#217,.T.);
#594=EDGE_CURVE('',#475,#477,#218,.T.);
#595=EDGE_CURVE('',#478,#477,#219,.T.);
#596=EDGE_CURVE('',#478,#476,#220,.T.);
#597=EDGE_CURVE('',#477,#479,#221,.T.);
#598=EDGE_CURVE('',#480,#479,#222,.T.);
#599=EDGE_CURVE('',#480,#478,#223,.T.);
#600=EDGE_CURVE('',#479,#481,#224,.T.);
#601=EDGE_CURVE('',#482,#481,#225,.T.);
#602=EDGE_CURVE('',#482,#480,#226,.T.);
#603=EDGE_CURVE('',#481,#483,#227,.T.);
#604=EDGE_CURVE('',#484,#483,#228,.T.);
#605=EDGE_CURVE('',#484,#482,#229,.T.);
#606=EDGE_CURVE('',#483,#485,#230,.T.);
#607=EDGE_CURVE('',#486,#485,#231,.T.);
#608=EDGE_CURVE('',#486,#484,#232,.T.);
#609=EDGE_CURVE('',#485,#487,#233,.T.);
#610=EDGE_CURVE('',#488,#487,#234,.T.);
#611=EDGE_CURVE('',#488,#486,#235,.T.);
#612=EDGE_CURVE('',#487,#469,#236,.T.);
#613=EDGE_CURVE('',#472,#488,#237,.T.);
#614=EDGE_CURVE('',#489,#490,#13,.T.);
#615=EDGE_CURVE('',#489,#491,#238,.T.);
#616=EDGE_CURVE('',#491,#492,#14,.T.);
#617=EDGE_CURVE('',#490,#492,#239,.T.);
#618=EDGE_CURVE('',#493,#494,#15,.T.);
#619=EDGE_CURVE('',#493,#495,#240,.T.);
#620=EDGE_CURVE('',#495,#496,#16,.T.);
#621=EDGE_CURVE('',#494,#496,#241,.T.);
#622=EDGE_CURVE('',#497,#498,#17,.T.);
#623=EDGE_CURVE('',#497,#499,#242,.T.);
#624=EDGE_CURVE('',#499,#500,#18,.T.);
#625=EDGE_CURVE('',#498,#500,#243,.T.);
#626=EDGE_CURVE('',#501,#502,#19,.T.);
#627=EDGE_CURVE('',#501,#503,#244,.T.);
#628=EDGE_CURVE('',#503,#504,#20,.T.);
#629=EDGE_CURVE('',#502,#504,#245,.T.);
#630=EDGE_CURVE('',#504,#505,#246,.T.);
#631=EDGE_CURVE('',#506,#505,#247,.T.);
#632=EDGE_CURVE('',#502,#506,#248,.T.);
#633=EDGE_CURVE('',#507,#489,#249,.T.);
#634=EDGE_CURVE('',#490,#493,#250,.T.);
#635=EDGE_CURVE('',#494,#508,#251,.T.);
#636=EDGE_CURVE('',#508,#509,#252,.T.);
#637=EDGE_CURVE('',#509,#497,#253,.T.);
#638=EDGE_CURVE('',#498,#501,#254,.T.);
#639=EDGE_CURVE('',#506,#507,#255,.T.);
#640=EDGE_CURVE('',#510,#491,#256,.T.);
#641=EDGE_CURVE('',#507,#510,#257,.T.);
#642=EDGE_CURVE('',#505,#510,#258,.T.);
#643=EDGE_CURVE('',#500,#503,#259,.T.);
#644=EDGE_CURVE('',#511,#499,#260,.T.);
#645=EDGE_CURVE('',#512,#511,#261,.T.);
#646=EDGE_CURVE('',#496,#512,#262,.T.);
#647=EDGE_CURVE('',#492,#495,#263,.T.);
#648=EDGE_CURVE('',#508,#512,#264,.T.);
#649=EDGE_CURVE('',#509,#511,#265,.T.);
#650=EDGE_CURVE('',#513,#514,#21,.T.);
#651=EDGE_CURVE('',#513,#515,#266,.T.);
#652=EDGE_CURVE('',#515,#516,#22,.T.);
#653=EDGE_CURVE('',#514,#516,#267,.T.);
#654=EDGE_CURVE('',#517,#518,#23,.T.);
#655=EDGE_CURVE('',#517,#519,#268,.T.);
#656=EDGE_CURVE('',#519,#520,#24,.T.);
#657=EDGE_CURVE('',#518,#520,#269,.T.);
#658=EDGE_CURVE('',#521,#522,#25,.T.);
#659=EDGE_CURVE('',#521,#523,#270,.T.);
#660=EDGE_CURVE('',#523,#524,#26,.T.);
#661=EDGE_CURVE('',#522,#524,#271,.T.);
#662=EDGE_CURVE('',#525,#526,#27,.T.);
#663=EDGE_CURVE('',#525,#527,#272,.T.);
#664=EDGE_CURVE('',#527,#528,#28,.T.);
#665=EDGE_CURVE('',#526,#528,#273,.T.);
#666=EDGE_CURVE('',#528,#529,#274,.T.);
#667=EDGE_CURVE('',#530,#529,#275,.T.);
#668=EDGE_CURVE('',#526,#530,#276,.T.);
#669=EDGE_CURVE('',#531,#513,#277,.T.);
#670=EDGE_CURVE('',#514,#517,#278,.T.);
#671=EDGE_CURVE('',#518,#532,#279,.T.);
#672=EDGE_CURVE('',#532,#533,#280,.T.);
#673=EDGE_CURVE('',#533,#521,#281,.T.);
#674=EDGE_CURVE('',#522,#525,#282,.T.);
#675=EDGE_CURVE('',#530,#531,#283,.T.);
#676=EDGE_CURVE('',#534,#515,#284,.T.);
#677=EDGE_CURVE('',#531,#534,#285,.T.);
#678=EDGE_CURVE('',#529,#534,#286,.T.);
#679=EDGE_CURVE('',#524,#527,#287,.T.);
#680=EDGE_CURVE('',#535,#523,#288,.T.);
#681=EDGE_CURVE('',#536,#535,#289,.T.);
#682=EDGE_CURVE('',#520,#536,#290,.T.);
#683=EDGE_CURVE('',#516,#519,#291,.T.);
#684=EDGE_CURVE('',#532,#536,#292,.T.);
#685=EDGE_CURVE('',#533,#535,#293,.T.);
#686=EDGE_CURVE('',#537,#538,#294,.T.);
#687=EDGE_CURVE('',#539,#538,#295,.T.);
#688=EDGE_CURVE('',#540,#539,#296,.T.);
#689=EDGE_CURVE('',#540,#537,#297,.T.);
#690=EDGE_CURVE('',#538,#541,#298,.T.);
#691=EDGE_CURVE('',#542,#541,#299,.T.);
#692=EDGE_CURVE('',#539,#542,#300,.T.);
#693=EDGE_CURVE('',#541,#543,#301,.T.);
#694=EDGE_CURVE('',#544,#543,#302,.T.);
#695=EDGE_CURVE('',#542,#544,#303,.T.);
#696=EDGE_CURVE('',#543,#537,#304,.T.);
#697=EDGE_CURVE('',#544,#540,#305,.T.);
#698=ORIENTED_EDGE('',*,*,#545,.F.);
#699=ORIENTED_EDGE('',*,*,#546,.F.);
#700=ORIENTED_EDGE('',*,*,#547,.F.);
#701=ORIENTED_EDGE('',*,*,#548,.T.);
#702=ORIENTED_EDGE('',*,*,#549,.F.);
#703=ORIENTED_EDGE('',*,*,#548,.F.);
#704=ORIENTED_EDGE('',*,*,#550,.F.);
#705=ORIENTED_EDGE('',*,*,#551,.T.);
#706=ORIENTED_EDGE('',*,*,#552,.F.);
#707=ORIENTED_EDGE('',*,*,#551,.F.);
#708=ORIENTED_EDGE('',*,*,#553,.F.);
#709=ORIENTED_EDGE('',*,*,#554,.T.);
#710=ORIENTED_EDGE('',*,*,#555,.F.);
#711=ORIENTED_EDGE('',*,*,#556,.F.);
#712=ORIENTED_EDGE('',*,*,#554,.F.);
#713=ORIENTED_EDGE('',*,*,#557,.F.);
#714=ORIENTED_EDGE('',*,*,#558,.F.);
#715=ORIENTED_EDGE('',*,*,#559,.F.);
#716=ORIENTED_EDGE('',*,*,#560,.T.);
#717=ORIENTED_EDGE('',*,*,#561,.F.);
#718=ORIENTED_EDGE('',*,*,#562,.F.);
#719=ORIENTED_EDGE('',*,*,#560,.F.);
#720=ORIENTED_EDGE('',*,*,#563,.F.);
#721=ORIENTED_EDGE('',*,*,#564,.T.);
#722=ORIENTED_EDGE('',*,*,#565,.F.);
#723=ORIENTED_EDGE('',*,*,#564,.F.);
#724=ORIENTED_EDGE('',*,*,#566,.F.);
#725=ORIENTED_EDGE('',*,*,#546,.T.);
#726=ORIENTED_EDGE('',*,*,#567,.F.);
#727=ORIENTED_EDGE('',*,*,#561,.T.);
#728=ORIENTED_EDGE('',*,*,#562,.T.);
#729=ORIENTED_EDGE('',*,*,#565,.T.);
#730=ORIENTED_EDGE('',*,*,#545,.T.);
#731=ORIENTED_EDGE('',*,*,#549,.T.);
#732=ORIENTED_EDGE('',*,*,#552,.T.);
#733=ORIENTED_EDGE('',*,*,#556,.T.);
#734=ORIENTED_EDGE('',*,*,#557,.T.);
#735=ORIENTED_EDGE('',*,*,#553,.T.);
#736=ORIENTED_EDGE('',*,*,#550,.T.);
#737=ORIENTED_EDGE('',*,*,#547,.T.);
#738=ORIENTED_EDGE('',*,*,#566,.T.);
#739=ORIENTED_EDGE('',*,*,#563,.T.);
#740=ORIENTED_EDGE('',*,*,#559,.T.);
#741=ORIENTED_EDGE('',*,*,#568,.T.);
#742=ORIENTED_EDGE('',*,*,#569,.T.);
#743=ORIENTED_EDGE('',*,*,#570,.F.);
#744=ORIENTED_EDGE('',*,*,#571,.T.);
#745=ORIENTED_EDGE('',*,*,#572,.T.);
#746=ORIENTED_EDGE('',*,*,#573,.T.);
#747=ORIENTED_EDGE('',*,*,#574,.F.);
#748=ORIENTED_EDGE('',*,*,#575,.T.);
#749=ORIENTED_EDGE('',*,*,#576,.T.);
#750=ORIENTED_EDGE('',*,*,#577,.T.);
#751=ORIENTED_EDGE('',*,*,#578,.F.);
#752=ORIENTED_EDGE('',*,*,#579,.T.);
#753=ORIENTED_EDGE('',*,*,#574,.T.);
#754=ORIENTED_EDGE('',*,*,#555,.T.);
#755=ORIENTED_EDGE('',*,*,#572,.F.);
#756=ORIENTED_EDGE('',*,*,#580,.T.);
#757=ORIENTED_EDGE('',*,*,#578,.T.);
#758=ORIENTED_EDGE('',*,*,#581,.T.);
#759=ORIENTED_EDGE('',*,*,#568,.F.);
#760=ORIENTED_EDGE('',*,*,#558,.T.);
#761=ORIENTED_EDGE('',*,*,#567,.T.);
#762=ORIENTED_EDGE('',*,*,#582,.T.);
#763=ORIENTED_EDGE('',*,*,#576,.F.);
#764=ORIENTED_EDGE('',*,*,#583,.T.);
#765=ORIENTED_EDGE('',*,*,#570,.T.);
#766=ORIENTED_EDGE('',*,*,#573,.F.);
#767=ORIENTED_EDGE('',*,*,#582,.F.);
#768=ORIENTED_EDGE('',*,*,#569,.F.);
#769=ORIENTED_EDGE('',*,*,#581,.F.);
#770=ORIENTED_EDGE('',*,*,#577,.F.);
#771=ORIENTED_EDGE('',*,*,#583,.F.);
#772=ORIENTED_EDGE('',*,*,#575,.F.);
#773=ORIENTED_EDGE('',*,*,#579,.F.);
#774=ORIENTED_EDGE('',*,*,#580,.F.);
#775=ORIENTED_EDGE('',*,*,#571,.F.);
#776=ORIENTED_EDGE('',*,*,#584,.T.);
#777=ORIENTED_EDGE('',*,*,#585,.F.);
#778=ORIENTED_EDGE('',*,*,#586,.T.);
#779=ORIENTED_EDGE('',*,*,#587,.T.);
#780=ORIENTED_EDGE('',*,*,#588,.T.);
#781=ORIENTED_EDGE('',*,*,#589,.F.);
#782=ORIENTED_EDGE('',*,*,#590,.T.);
#783=ORIENTED_EDGE('',*,*,#585,.T.);
#784=ORIENTED_EDGE('',*,*,#591,.T.);
#785=ORIENTED_EDGE('',*,*,#592,.F.);
#786=ORIENTED_EDGE('',*,*,#593,.T.);
#787=ORIENTED_EDGE('',*,*,#589,.T.);
#788=ORIENTED_EDGE('',*,*,#594,.T.);
#789=ORIENTED_EDGE('',*,*,#595,.F.);
#790=ORIENTED_EDGE('',*,*,#596,.T.);
#791=ORIENTED_EDGE('',*,*,#592,.T.);
#792=ORIENTED_EDGE('',*,*,#597,.T.);
#793=ORIENTED_EDGE('',*,*,#598,.F.);
#794=ORIENTED_EDGE('',*,*,#599,.T.);
#795=ORIENTED_EDGE('',*,*,#595,.T.);
#796=ORIENTED_EDGE('',*,*,#600,.T.);
#797=ORIENTED_EDGE('',*,*,#601,.F.);
#798=ORIENTED_EDGE('',*,*,#602,.T.);
#799=ORIENTED_EDGE('',*,*,#598,.T.);
#800=ORIENTED_EDGE('',*,*,#603,.T.);
#801=ORIENTED_EDGE('',*,*,#604,.F.);
#802=ORIENTED_EDGE('',*,*,#605,.T.);
#803=ORIENTED_EDGE('',*,*,#601,.T.);
#804=ORIENTED_EDGE('',*,*,#606,.T.);
#805=ORIENTED_EDGE('',*,*,#607,.F.);
#806=ORIENTED_EDGE('',*,*,#608,.T.);
#807=ORIENTED_EDGE('',*,*,#604,.T.);
#808=ORIENTED_EDGE('',*,*,#609,.T.);
#809=ORIENTED_EDGE('',*,*,#610,.F.);
#810=ORIENTED_EDGE('',*,*,#611,.T.);
#811=ORIENTED_EDGE('',*,*,#607,.T.);
#812=ORIENTED_EDGE('',*,*,#612,.T.);
#813=ORIENTED_EDGE('',*,*,#587,.F.);
#814=ORIENTED_EDGE('',*,*,#613,.T.);
#815=ORIENTED_EDGE('',*,*,#610,.T.);
#816=ORIENTED_EDGE('',*,*,#584,.F.);
#817=ORIENTED_EDGE('',*,*,#612,.F.);
#818=ORIENTED_EDGE('',*,*,#609,.F.);
#819=ORIENTED_EDGE('',*,*,#606,.F.);
#820=ORIENTED_EDGE('',*,*,#603,.F.);
#821=ORIENTED_EDGE('',*,*,#600,.F.);
#822=ORIENTED_EDGE('',*,*,#597,.F.);
#823=ORIENTED_EDGE('',*,*,#594,.F.);
#824=ORIENTED_EDGE('',*,*,#591,.F.);
#825=ORIENTED_EDGE('',*,*,#588,.F.);
#826=ORIENTED_EDGE('',*,*,#613,.F.);
#827=ORIENTED_EDGE('',*,*,#586,.F.);
#828=ORIENTED_EDGE('',*,*,#590,.F.);
#829=ORIENTED_EDGE('',*,*,#593,.F.);
#830=ORIENTED_EDGE('',*,*,#596,.F.);
#831=ORIENTED_EDGE('',*,*,#599,.F.);
#832=ORIENTED_EDGE('',*,*,#602,.F.);
#833=ORIENTED_EDGE('',*,*,#605,.F.);
#834=ORIENTED_EDGE('',*,*,#608,.F.);
#835=ORIENTED_EDGE('',*,*,#611,.F.);
#836=ORIENTED_EDGE('',*,*,#614,.F.);
#837=ORIENTED_EDGE('',*,*,#615,.T.);
#838=ORIENTED_EDGE('',*,*,#616,.T.);
#839=ORIENTED_EDGE('',*,*,#617,.F.);
#840=ORIENTED_EDGE('',*,*,#618,.F.);
#841=ORIENTED_EDGE('',*,*,#619,.T.);
#842=ORIENTED_EDGE('',*,*,#620,.T.);
#843=ORIENTED_EDGE('',*,*,#621,.F.);
#844=ORIENTED_EDGE('',*,*,#622,.F.);
#845=ORIENTED_EDGE('',*,*,#623,.T.);
#846=ORIENTED_EDGE('',*,*,#624,.T.);
#847=ORIENTED_EDGE('',*,*,#625,.F.);
#848=ORIENTED_EDGE('',*,*,#626,.F.);
#849=ORIENTED_EDGE('',*,*,#627,.T.);
#850=ORIENTED_EDGE('',*,*,#628,.T.);
#851=ORIENTED_EDGE('',*,*,#629,.F.);
#852=ORIENTED_EDGE('',*,*,#630,.T.);
#853=ORIENTED_EDGE('',*,*,#631,.F.);
#854=ORIENTED_EDGE('',*,*,#632,.F.);
#855=ORIENTED_EDGE('',*,*,#629,.T.);
#856=ORIENTED_EDGE('',*,*,#633,.T.);
#857=ORIENTED_EDGE('',*,*,#614,.T.);
#858=ORIENTED_EDGE('',*,*,#634,.T.);
#859=ORIENTED_EDGE('',*,*,#618,.T.);
#860=ORIENTED_EDGE('',*,*,#635,.T.);
#861=ORIENTED_EDGE('',*,*,#636,.T.);
#862=ORIENTED_EDGE('',*,*,#637,.T.);
#863=ORIENTED_EDGE('',*,*,#622,.T.);
#864=ORIENTED_EDGE('',*,*,#638,.T.);
#865=ORIENTED_EDGE('',*,*,#626,.T.);
#866=ORIENTED_EDGE('',*,*,#632,.T.);
#867=ORIENTED_EDGE('',*,*,#639,.T.);
#868=ORIENTED_EDGE('',*,*,#640,.T.);
#869=ORIENTED_EDGE('',*,*,#615,.F.);
#870=ORIENTED_EDGE('',*,*,#633,.F.);
#871=ORIENTED_EDGE('',*,*,#641,.T.);
#872=ORIENTED_EDGE('',*,*,#616,.F.);
#873=ORIENTED_EDGE('',*,*,#640,.F.);
#874=ORIENTED_EDGE('',*,*,#642,.F.);
#875=ORIENTED_EDGE('',*,*,#630,.F.);
#876=ORIENTED_EDGE('',*,*,#628,.F.);
#877=ORIENTED_EDGE('',*,*,#643,.F.);
#878=ORIENTED_EDGE('',*,*,#624,.F.);
#879=ORIENTED_EDGE('',*,*,#644,.F.);
#880=ORIENTED_EDGE('',*,*,#645,.F.);
#881=ORIENTED_EDGE('',*,*,#646,.F.);
#882=ORIENTED_EDGE('',*,*,#620,.F.);
#883=ORIENTED_EDGE('',*,*,#647,.F.);
#884=ORIENTED_EDGE('',*,*,#647,.T.);
#885=ORIENTED_EDGE('',*,*,#619,.F.);
#886=ORIENTED_EDGE('',*,*,#634,.F.);
#887=ORIENTED_EDGE('',*,*,#617,.T.);
#888=ORIENTED_EDGE('',*,*,#646,.T.);
#889=ORIENTED_EDGE('',*,*,#648,.F.);
#890=ORIENTED_EDGE('',*,*,#635,.F.);
#891=ORIENTED_EDGE('',*,*,#621,.T.);
#892=ORIENTED_EDGE('',*,*,#645,.T.);
#893=ORIENTED_EDGE('',*,*,#649,.F.);
#894=ORIENTED_EDGE('',*,*,#636,.F.);
#895=ORIENTED_EDGE('',*,*,#648,.T.);
#896=ORIENTED_EDGE('',*,*,#644,.T.);
#897=ORIENTED_EDGE('',*,*,#623,.F.);
#898=ORIENTED_EDGE('',*,*,#637,.F.);
#899=ORIENTED_EDGE('',*,*,#649,.T.);
#900=ORIENTED_EDGE('',*,*,#643,.T.);
#901=ORIENTED_EDGE('',*,*,#627,.F.);
#902=ORIENTED_EDGE('',*,*,#638,.F.);
#903=ORIENTED_EDGE('',*,*,#625,.T.);
#904=ORIENTED_EDGE('',*,*,#642,.T.);
#905=ORIENTED_EDGE('',*,*,#641,.F.);
#906=ORIENTED_EDGE('',*,*,#639,.F.);
#907=ORIENTED_EDGE('',*,*,#631,.T.);
#908=ORIENTED_EDGE('',*,*,#650,.F.);
#909=ORIENTED_EDGE('',*,*,#651,.T.);
#910=ORIENTED_EDGE('',*,*,#652,.T.);
#911=ORIENTED_EDGE('',*,*,#653,.F.);
#912=ORIENTED_EDGE('',*,*,#654,.F.);
#913=ORIENTED_EDGE('',*,*,#655,.T.);
#914=ORIENTED_EDGE('',*,*,#656,.T.);
#915=ORIENTED_EDGE('',*,*,#657,.F.);
#916=ORIENTED_EDGE('',*,*,#658,.F.);
#917=ORIENTED_EDGE('',*,*,#659,.T.);
#918=ORIENTED_EDGE('',*,*,#660,.T.);
#919=ORIENTED_EDGE('',*,*,#661,.F.);
#920=ORIENTED_EDGE('',*,*,#662,.F.);
#921=ORIENTED_EDGE('',*,*,#663,.T.);
#922=ORIENTED_EDGE('',*,*,#664,.T.);
#923=ORIENTED_EDGE('',*,*,#665,.F.);
#924=ORIENTED_EDGE('',*,*,#666,.T.);
#925=ORIENTED_EDGE('',*,*,#667,.F.);
#926=ORIENTED_EDGE('',*,*,#668,.F.);
#927=ORIENTED_EDGE('',*,*,#665,.T.);
#928=ORIENTED_EDGE('',*,*,#669,.T.);
#929=ORIENTED_EDGE('',*,*,#650,.T.);
#930=ORIENTED_EDGE('',*,*,#670,.T.);
#931=ORIENTED_EDGE('',*,*,#654,.T.);
#932=ORIENTED_EDGE('',*,*,#671,.T.);
#933=ORIENTED_EDGE('',*,*,#672,.T.);
#934=ORIENTED_EDGE('',*,*,#673,.T.);
#935=ORIENTED_EDGE('',*,*,#658,.T.);
#936=ORIENTED_EDGE('',*,*,#674,.T.);
#937=ORIENTED_EDGE('',*,*,#662,.T.);
#938=ORIENTED_EDGE('',*,*,#668,.T.);
#939=ORIENTED_EDGE('',*,*,#675,.T.);
#940=ORIENTED_EDGE('',*,*,#676,.T.);
#941=ORIENTED_EDGE('',*,*,#651,.F.);
#942=ORIENTED_EDGE('',*,*,#669,.F.);
#943=ORIENTED_EDGE('',*,*,#677,.T.);
#944=ORIENTED_EDGE('',*,*,#652,.F.);
#945=ORIENTED_EDGE('',*,*,#676,.F.);
#946=ORIENTED_EDGE('',*,*,#678,.F.);
#947=ORIENTED_EDGE('',*,*,#666,.F.);
#948=ORIENTED_EDGE('',*,*,#664,.F.);
#949=ORIENTED_EDGE('',*,*,#679,.F.);
#950=ORIENTED_EDGE('',*,*,#660,.F.);
#951=ORIENTED_EDGE('',*,*,#680,.F.);
#952=ORIENTED_EDGE('',*,*,#681,.F.);
#953=ORIENTED_EDGE('',*,*,#682,.F.);
#954=ORIENTED_EDGE('',*,*,#656,.F.);
#955=ORIENTED_EDGE('',*,*,#683,.F.);
#956=ORIENTED_EDGE('',*,*,#683,.T.);
#957=ORIENTED_EDGE('',*,*,#655,.F.);
#958=ORIENTED_EDGE('',*,*,#670,.F.);
#959=ORIENTED_EDGE('',*,*,#653,.T.);
#960=ORIENTED_EDGE('',*,*,#682,.T.);
#961=ORIENTED_EDGE('',*,*,#684,.F.);
#962=ORIENTED_EDGE('',*,*,#671,.F.);
#963=ORIENTED_EDGE('',*,*,#657,.T.);
#964=ORIENTED_EDGE('',*,*,#681,.T.);
#965=ORIENTED_EDGE('',*,*,#685,.F.);
#966=ORIENTED_EDGE('',*,*,#672,.F.);
#967=ORIENTED_EDGE('',*,*,#684,.T.);
#968=ORIENTED_EDGE('',*,*,#680,.T.);
#969=ORIENTED_EDGE('',*,*,#659,.F.);
#970=ORIENTED_EDGE('',*,*,#673,.F.);
#971=ORIENTED_EDGE('',*,*,#685,.T.);
#972=ORIENTED_EDGE('',*,*,#679,.T.);
#973=ORIENTED_EDGE('',*,*,#663,.F.);
#974=ORIENTED_EDGE('',*,*,#674,.F.);
#975=ORIENTED_EDGE('',*,*,#661,.T.);
#976=ORIENTED_EDGE('',*,*,#678,.T.);
#977=ORIENTED_EDGE('',*,*,#677,.F.);
#978=ORIENTED_EDGE('',*,*,#675,.F.);
#979=ORIENTED_EDGE('',*,*,#667,.T.);
#980=ORIENTED_EDGE('',*,*,#686,.T.);
#981=ORIENTED_EDGE('',*,*,#687,.F.);
#982=ORIENTED_EDGE('',*,*,#688,.F.);
#983=ORIENTED_EDGE('',*,*,#689,.T.);
#984=ORIENTED_EDGE('',*,*,#690,.T.);
#985=ORIENTED_EDGE('',*,*,#691,.F.);
#986=ORIENTED_EDGE('',*,*,#692,.F.);
#987=ORIENTED_EDGE('',*,*,#687,.T.);
#988=ORIENTED_EDGE('',*,*,#693,.T.);
#989=ORIENTED_EDGE('',*,*,#694,.F.);
#990=ORIENTED_EDGE('',*,*,#695,.F.);
#991=ORIENTED_EDGE('',*,*,#691,.T.);
#992=ORIENTED_EDGE('',*,*,#696,.T.);
#993=ORIENTED_EDGE('',*,*,#689,.F.);
#994=ORIENTED_EDGE('',*,*,#697,.F.);
#995=ORIENTED_EDGE('',*,*,#694,.T.);
#996=ORIENTED_EDGE('',*,*,#686,.F.);
#997=ORIENTED_EDGE('',*,*,#696,.F.);
#998=ORIENTED_EDGE('',*,*,#693,.F.);
#999=ORIENTED_EDGE('',*,*,#690,.F.);
#1000=ORIENTED_EDGE('',*,*,#697,.T.);
#1001=ORIENTED_EDGE('',*,*,#688,.T.);
#1002=ORIENTED_EDGE('',*,*,#692,.T.);
#1003=ORIENTED_EDGE('',*,*,#695,.T.);
#1004=PLANE('',#1142);
#1005=PLANE('',#1143);
#1006=PLANE('',#1144);
#1007=PLANE('',#1145);
#1008=PLANE('',#1146);
#1009=PLANE('',#1147);
#1010=PLANE('',#1148);
#1011=PLANE('',#1149);
#1012=PLANE('',#1150);
#1013=PLANE('',#1151);
#1014=PLANE('',#1152);
#1015=PLANE('',#1153);
#1016=PLANE('',#1154);
#1017=PLANE('',#1155);
#1018=PLANE('',#1156);
#1019=PLANE('',#1157);
#1020=PLANE('',#1158);
#1021=PLANE('',#1159);
#1022=PLANE('',#1160);
#1023=PLANE('',#1161);
#1024=PLANE('',#1162);
#1025=PLANE('',#1163);
#1026=PLANE('',#1164);
#1027=PLANE('',#1165);
#1028=PLANE('',#1166);
#1029=PLANE('',#1167);
#1030=PLANE('',#1168);
#1031=PLANE('',#1181);
#1032=PLANE('',#1182);
#1033=PLANE('',#1183);
#1034=PLANE('',#1184);
#1035=PLANE('',#1185);
#1036=PLANE('',#1186);
#1037=PLANE('',#1187);
#1038=PLANE('',#1188);
#1039=PLANE('',#1189);
#1040=PLANE('',#1190);
#1041=PLANE('',#1203);
#1042=PLANE('',#1204);
#1043=PLANE('',#1205);
#1044=PLANE('',#1206);
#1045=PLANE('',#1207);
#1046=PLANE('',#1208);
#1047=PLANE('',#1209);
#1048=PLANE('',#1210);
#1049=PLANE('',#1211);
#1050=PLANE('',#1212);
#1051=PLANE('',#1213);
#1052=PLANE('',#1214);
#1053=PLANE('',#1215);
#1054=PLANE('',#1216);
#1055=PLANE('',#1217);
#1056=PLANE('',#1218);
#1057=ADVANCED_FACE('',(#47),#1004,.F.);
#1058=ADVANCED_FACE('',(#48),#1005,.F.);
#1059=ADVANCED_FACE('',(#49),#1006,.F.);
#1060=ADVANCED_FACE('',(#50),#1007,.F.);
#1061=ADVANCED_FACE('',(#51),#1008,.F.);
#1062=ADVANCED_FACE('',(#52),#1009,.F.);
#1063=ADVANCED_FACE('',(#53),#1010,.F.);
#1064=ADVANCED_FACE('',(#54),#1011,.F.);
#1065=ADVANCED_FACE('',(#55),#1012,.T.);
#1066=ADVANCED_FACE('',(#56),#1013,.T.);
#1067=ADVANCED_FACE('',(#57),#1014,.T.);
#1068=ADVANCED_FACE('',(#58),#1015,.T.);
#1069=ADVANCED_FACE('',(#59),#1016,.T.);
#1070=ADVANCED_FACE('',(#60),#1017,.T.);
#1071=ADVANCED_FACE('',(#61),#1018,.F.);
#1072=ADVANCED_FACE('',(#62),#1019,.T.);
#1073=ADVANCED_FACE('',(#63),#1020,.T.);
#1074=ADVANCED_FACE('',(#64),#1021,.T.);
#1075=ADVANCED_FACE('',(#65),#1022,.T.);
#1076=ADVANCED_FACE('',(#66),#1023,.T.);
#1077=ADVANCED_FACE('',(#67),#1024,.T.);
#1078=ADVANCED_FACE('',(#68),#1025,.T.);
#1079=ADVANCED_FACE('',(#69),#1026,.T.);
#1080=ADVANCED_FACE('',(#70),#1027,.T.);
#1081=ADVANCED_FACE('',(#71),#1028,.T.);
#1082=ADVANCED_FACE('',(#72),#1029,.T.);
#1083=ADVANCED_FACE('',(#73),#1030,.F.);
#1084=ADVANCED_FACE('',(#74),#29,.F.);
#1085=ADVANCED_FACE('',(#75),#30,.T.);
#1086=ADVANCED_FACE('',(#76),#31,.F.);
#1087=ADVANCED_FACE('',(#77),#32,.T.);
#1088=ADVANCED_FACE('',(#78),#1031,.T.);
#1089=ADVANCED_FACE('',(#79),#1032,.F.);
#1090=ADVANCED_FACE('',(#80),#1033,.T.);
#1091=ADVANCED_FACE('',(#81),#1034,.T.);
#1092=ADVANCED_FACE('',(#82),#1035,.T.);
#1093=ADVANCED_FACE('',(#83),#1036,.T.);
#1094=ADVANCED_FACE('',(#84),#1037,.T.);
#1095=ADVANCED_FACE('',(#85),#1038,.T.);
#1096=ADVANCED_FACE('',(#86),#1039,.T.);
#1097=ADVANCED_FACE('',(#87),#1040,.T.);
#1098=ADVANCED_FACE('',(#88),#33,.F.);
#1099=ADVANCED_FACE('',(#89),#34,.T.);
#1100=ADVANCED_FACE('',(#90),#35,.F.);
#1101=ADVANCED_FACE('',(#91),#36,.T.);
#1102=ADVANCED_FACE('',(#92),#1041,.T.);
#1103=ADVANCED_FACE('',(#93),#1042,.F.);
#1104=ADVANCED_FACE('',(#94),#1043,.T.);
#1105=ADVANCED_FACE('',(#95),#1044,.T.);
#1106=ADVANCED_FACE('',(#96),#1045,.T.);
#1107=ADVANCED_FACE('',(#97),#1046,.T.);
#1108=ADVANCED_FACE('',(#98),#1047,.T.);
#1109=ADVANCED_FACE('',(#99),#1048,.T.);
#1110=ADVANCED_FACE('',(#100),#1049,.T.);
#1111=ADVANCED_FACE('',(#101),#1050,.T.);
#1112=ADVANCED_FACE('',(#102),#1051,.T.);
#1113=ADVANCED_FACE('',(#103),#1052,.T.);
#1114=ADVANCED_FACE('',(#104),#1053,.T.);
#1115=ADVANCED_FACE('',(#105),#1054,.T.);
#1116=ADVANCED_FACE('',(#106),#1055,.T.);
#1117=ADVANCED_FACE('',(#107),#1056,.F.);
#1118=CLOSED_SHELL('',(#1057,#1058,#1059,#1060,#1061,#1062,#1063,#1064,
#1065,#1066,#1067,#1068,#1069,#1070,#1071));
#1119=CLOSED_SHELL('',(#1072,#1073,#1074,#1075,#1076,#1077,#1078,#1079,
#1080,#1081,#1082,#1083));
#1120=CLOSED_SHELL('',(#1084,#1085,#1086,#1087,#1088,#1089,#1090,#1091,
#1092,#1093,#1094,#1095,#1096,#1097));
#1121=CLOSED_SHELL('',(#1098,#1099,#1100,#1101,#1102,#1103,#1104,#1105,
#1106,#1107,#1108,#1109,#1110,#1111));
#1122=CLOSED_SHELL('',(#1112,#1113,#1114,#1115,#1116,#1117));
#1123=DERIVED_UNIT_ELEMENT(#1125,1.);
#1124=DERIVED_UNIT_ELEMENT(#1834,3.);
#1125=(
MASS_UNIT()
NAMED_UNIT(*)
SI_UNIT($,.GRAM.)
);
#1126=DERIVED_UNIT((#1123,#1124));
#1127=MEASURE_REPRESENTATION_ITEM('density measure',
POSITIVE_RATIO_MEASURE(1.),#1126);
#1128=PROPERTY_DEFINITION_REPRESENTATION(#1133,#1130);
#1129=PROPERTY_DEFINITION_REPRESENTATION(#1134,#1131);
#1130=REPRESENTATION('material name',(#1132),#1831);
#1131=REPRESENTATION('density',(#1127),#1831);
#1132=DESCRIPTIVE_REPRESENTATION_ITEM('Generic','Generic');
#1133=PROPERTY_DEFINITION('material property','material name',#1841);
#1134=PROPERTY_DEFINITION('material property','density of part',#1841);
#1135=DATE_TIME_ROLE('creation_date');
#1136=APPLIED_DATE_AND_TIME_ASSIGNMENT(#1137,#1135,(#1841));
#1137=DATE_AND_TIME(#1138,#1139);
#1138=CALENDAR_DATE(2020,12,4);
#1139=LOCAL_TIME(23,14,33.,#1140);
#1140=COORDINATED_UNIVERSAL_TIME_OFFSET(0,0,.BEHIND.);
#1141=AXIS2_PLACEMENT_3D('placement',#1512,#1219,#1220);
#1142=AXIS2_PLACEMENT_3D('',#1513,#1221,#1222);
#1143=AXIS2_PLACEMENT_3D('',#1522,#1227,#1228);
#1144=AXIS2_PLACEMENT_3D('',#1528,#1232,#1233);
#1145=AXIS2_PLACEMENT_3D('',#1534,#1237,#1238);
#1146=AXIS2_PLACEMENT_3D('',#1540,#1242,#1243);
#1147=AXIS2_PLACEMENT_3D('',#1549,#1248,#1249);
#1148=AXIS2_PLACEMENT_3D('',#1555,#1253,#1254);
#1149=AXIS2_PLACEMENT_3D('',#1558,#1257,#1258);
#1150=AXIS2_PLACEMENT_3D('',#1560,#1260,#1261);
#1151=AXIS2_PLACEMENT_3D('',#1570,#1267,#1268);
#1152=AXIS2_PLACEMENT_3D('',#1579,#1273,#1274);
#1153=AXIS2_PLACEMENT_3D('',#1585,#1278,#1279);
#1154=AXIS2_PLACEMENT_3D('',#1588,#1282,#1283);
#1155=AXIS2_PLACEMENT_3D('',#1591,#1286,#1287);
#1156=AXIS2_PLACEMENT_3D('',#1592,#1288,#1289);
#1157=AXIS2_PLACEMENT_3D('',#1593,#1290,#1291);
#1158=AXIS2_PLACEMENT_3D('',#1602,#1296,#1297);
#1159=AXIS2_PLACEMENT_3D('',#1608,#1301,#1302);
#1160=AXIS2_PLACEMENT_3D('',#1614,#1306,#1307);
#1161=AXIS2_PLACEMENT_3D('',#1620,#1311,#1312);
#1162=AXIS2_PLACEMENT_3D('',#1626,#1316,#1317);
#1163=AXIS2_PLACEMENT_3D('',#1632,#1321,#1322);
#1164=AXIS2_PLACEMENT_3D('',#1638,#1326,#1327);
#1165=AXIS2_PLACEMENT_3D('',#1644,#1331,#1332);
#1166=AXIS2_PLACEMENT_3D('',#1650,#1336,#1337);
#1167=AXIS2_PLACEMENT_3D('',#1653,#1340,#1341);
#1168=AXIS2_PLACEMENT_3D('',#1654,#1342,#1343);
#1169=AXIS2_PLACEMENT_3D('',#1655,#1344,#1345);
#1170=AXIS2_PLACEMENT_3D('',#1658,#1346,#1347);
#1171=AXIS2_PLACEMENT_3D('',#1662,#1349,#1350);
#1172=AXIS2_PLACEMENT_3D('',#1664,#1352,#1353);
#1173=AXIS2_PLACEMENT_3D('',#1667,#1354,#1355);
#1174=AXIS2_PLACEMENT_3D('',#1671,#1357,#1358);
#1175=AXIS2_PLACEMENT_3D('',#1673,#1360,#1361);
#1176=AXIS2_PLACEMENT_3D('',#1676,#1362,#1363);
#1177=AXIS2_PLACEMENT_3D('',#1680,#1365,#1366);
#1178=AXIS2_PLACEMENT_3D('',#1682,#1368,#1369);
#1179=AXIS2_PLACEMENT_3D('',#1685,#1370,#1371);
#1180=AXIS2_PLACEMENT_3D('',#1689,#1373,#1374);
#1181=AXIS2_PLACEMENT_3D('',#1691,#1376,#1377);
#1182=AXIS2_PLACEMENT_3D('',#1697,#1381,#1382);
#1183=AXIS2_PLACEMENT_3D('',#1708,#1390,#1391);
#1184=AXIS2_PLACEMENT_3D('',#1712,#1394,#1395);
#1185=AXIS2_PLACEMENT_3D('',#1721,#1402,#1403);
#1186=AXIS2_PLACEMENT_3D('',#1722,#1404,#1405);
#1187=AXIS2_PLACEMENT_3D('',#1724,#1407,#1408);
#1188=AXIS2_PLACEMENT_3D('',#1726,#1410,#1411);
#1189=AXIS2_PLACEMENT_3D('',#1727,#1412,#1413);
#1190=AXIS2_PLACEMENT_3D('',#1728,#1414,#1415);
#1191=AXIS2_PLACEMENT_3D('',#1729,#1416,#1417);
#1192=AXIS2_PLACEMENT_3D('',#1732,#1418,#1419);
#1193=AXIS2_PLACEMENT_3D('',#1736,#1421,#1422);
#1194=AXIS2_PLACEMENT_3D('',#1738,#1424,#1425);
#1195=AXIS2_PLACEMENT_3D('',#1741,#1426,#1427);
#1196=AXIS2_PLACEMENT_3D('',#1745,#1429,#1430);
#1197=AXIS2_PLACEMENT_3D('',#1747,#1432,#1433);
#1198=AXIS2_PLACEMENT_3D('',#1750,#1434,#1435);
#1199=AXIS2_PLACEMENT_3D('',#1754,#1437,#1438);
#1200=AXIS2_PLACEMENT_3D('',#1756,#1440,#1441);
#1201=AXIS2_PLACEMENT_3D('',#1759,#1442,#1443);
#1202=AXIS2_PLACEMENT_3D('',#1763,#1445,#1446);
#1203=AXIS2_PLACEMENT_3D('',#1765,#1448,#1449);
#1204=AXIS2_PLACEMENT_3D('',#1771,#1453,#1454);
#1205=AXIS2_PLACEMENT_3D('',#1782,#1462,#1463);
#1206=AXIS2_PLACEMENT_3D('',#1786,#1466,#1467);
#1207=AXIS2_PLACEMENT_3D('',#1795,#1474,#1475);
#1208=AXIS2_PLACEMENT_3D('',#1796,#1476,#1477);
#1209=AXIS2_PLACEMENT_3D('',#1798,#1479,#1480);
#1210=AXIS2_PLACEMENT_3D('',#1800,#1482,#1483);
#1211=AXIS2_PLACEMENT_3D('',#1801,#1484,#1485);
#1212=AXIS2_PLACEMENT_3D('',#1802,#1486,#1487);
#1213=AXIS2_PLACEMENT_3D('',#1803,#1488,#1489);
#1214=AXIS2_PLACEMENT_3D('',#1812,#1494,#1495);
#1215=AXIS2_PLACEMENT_3D('',#1818,#1499,#1500);
#1216=AXIS2_PLACEMENT_3D('',#1824,#1504,#1505);
#1217=AXIS2_PLACEMENT_3D('',#1827,#1508,#1509);
#1218=AXIS2_PLACEMENT_3D('',#1828,#1510,#1511);
#1219=DIRECTION('axis',(0.,0.,1.));
#1220=DIRECTION('refdir',(1.,0.,0.));
#1221=DIRECTION('center_axis',(-1.,0.,0.));
#1222=DIRECTION('ref_axis',(0.,0.,1.));
#1223=DIRECTION('',(0.,1.,0.));
#1224=DIRECTION('',(0.,0.,1.));
#1225=DIRECTION('',(0.,-1.,0.));
#1226=DIRECTION('',(0.,0.,1.));
#1227=DIRECTION('center_axis',(0.,1.,0.));
#1228=DIRECTION('ref_axis',(0.,0.,1.));
#1229=DIRECTION('',(1.,0.,0.));
#1230=DIRECTION('',(-1.,0.,0.));
#1231=DIRECTION('',(0.,0.,1.));
#1232=DIRECTION('center_axis',(-1.,0.,0.));
#1233=DIRECTION('ref_axis',(0.,0.,1.));
#1234=DIRECTION('',(0.,1.,0.));
#1235=DIRECTION('',(0.,-1.,0.));
#1236=DIRECTION('',(0.,0.,1.));
#1237=DIRECTION('center_axis',(0.,1.,0.));
#1238=DIRECTION('ref_axis',(0.,0.,1.));
#1239=DIRECTION('',(0.121869343405041,-7.34631700000248E-16,-0.992546151641335));
#1240=DIRECTION('',(1.,0.,0.));
#1241=DIRECTION('',(-1.,0.,0.));
#1242=DIRECTION('center_axis',(0.,-1.,0.));
#1243=DIRECTION('ref_axis',(0.,0.,-1.));
#1244=DIRECTION('',(-0.121869343405041,2.93852700000099E-15,0.992546151641335));
#1245=DIRECTION('',(1.,0.,0.));
#1246=DIRECTION('',(0.,0.,1.));
#1247=DIRECTION('',(-1.,0.,0.));
#1248=DIRECTION('center_axis',(-1.,0.,0.));
#1249=DIRECTION('ref_axis',(0.,0.,1.));
#1250=DIRECTION('',(0.,1.,0.));
#1251=DIRECTION('',(0.,-1.,0.));
#1252=DIRECTION('',(0.,0.,1.));
#1253=DIRECTION('center_axis',(0.,-1.,0.));
#1254=DIRECTION('ref_axis',(0.,0.,-1.));
#1255=DIRECTION('',(-1.,0.,0.));
#1256=DIRECTION('',(1.,0.,0.));
#1257=DIRECTION('center_axis',(0.,0.,1.));
#1258=DIRECTION('ref_axis',(1.,0.,0.));
#1259=DIRECTION('',(0.,1.,0.));
#1260=DIRECTION('center_axis',(0.,0.,-1.));
#1261=DIRECTION('ref_axis',(-1.,0.,0.));
#1262=DIRECTION('',(0.,-1.,0.));
#1263=DIRECTION('',(-1.,0.,0.));
#1264=DIRECTION('',(0.,-1.,0.));
#1265=DIRECTION('',(1.,0.,0.));
#1266=DIRECTION('',(0.,-1.,0.));
#1267=DIRECTION('center_axis',(-0.992546151641335,7.31816000000247E-16,
0.121869343405041));
#1268=DIRECTION('ref_axis',(0.121869343405041,-3.69778549322474E-32,0.992546151641335));
#1269=DIRECTION('',(0.121869343405041,0.,0.992546151641335));
#1270=DIRECTION('',(0.,-1.,0.));
#1271=DIRECTION('',(-0.121869343405041,-9.44526500000319E-16,-0.992546151641335));
#1272=DIRECTION('',(0.,-1.,0.));
#1273=DIRECTION('center_axis',(0.,0.,1.));
#1274=DIRECTION('ref_axis',(1.,0.,0.));
#1275=DIRECTION('',(1.,0.,0.));
#1276=DIRECTION('',(0.,-1.,0.));
#1277=DIRECTION('',(-1.,0.,0.));
#1278=DIRECTION('center_axis',(0.992546151641335,-5.67813400000192E-16,
0.121869343405041));
#1279=DIRECTION('ref_axis',(0.121869343405041,0.,-0.992546151641335));
#1280=DIRECTION('',(-0.121869343405041,5.50973800000186E-16,0.992546151641335));
#1281=DIRECTION('',(0.121869343405041,-1.83657900000062E-16,-0.992546151641335));
#1282=DIRECTION('center_axis',(-0.992546151641335,5.67813400000192E-16,
-0.121869343405041));
#1283=DIRECTION('ref_axis',(-0.121869343405041,2.4651903288165E-32,0.992546151641335));
#1284=DIRECTION('',(-0.121869343405041,0.,0.992546151641335));
#1285=DIRECTION('',(0.121869343405041,-8.81558100000298E-16,-0.992546151641335));
#1286=DIRECTION('center_axis',(0.,-1.,0.));
#1287=DIRECTION('ref_axis',(0.,0.,-1.));
#1288=DIRECTION('center_axis',(0.,-1.,0.));
#1289=DIRECTION('ref_axis',(0.,0.,-1.));
#1290=DIRECTION('center_axis',(-1.,0.,0.));
#1291=DIRECTION('ref_axis',(0.,0.,1.));
#1292=DIRECTION('',(0.,1.,0.));
#1293=DIRECTION('',(0.,0.,1.));
#1294=DIRECTION('',(0.,-1.,0.));
#1295=DIRECTION('',(0.,0.,1.));
#1296=DIRECTION('center_axis',(0.,1.,0.));
#1297=DIRECTION('ref_axis',(0.,0.,1.));
#1298=DIRECTION('',(1.,0.,0.));
#1299=DIRECTION('',(0.,0.,1.));
#1300=DIRECTION('',(-1.,0.,0.));
#1301=DIRECTION('center_axis',(-1.,0.,0.));
#1302=DIRECTION('ref_axis',(0.,0.,1.));
#1303=DIRECTION('',(0.,1.,0.));
#1304=DIRECTION('',(0.,0.,1.));
#1305=DIRECTION('',(0.,-1.,0.));
#1306=DIRECTION('center_axis',(0.,1.,0.));
#1307=DIRECTION('ref_axis',(0.,0.,1.));
#1308=DIRECTION('',(1.,0.,0.));
#1309=DIRECTION('',(0.,0.,1.));
#1310=DIRECTION('',(-1.,0.,0.));
#1311=DIRECTION('center_axis',(0.910366477462742,0.413802944300883,-6.12551399999826E-16));
#1312=DIRECTION('ref_axis',(-5.57646260282636E-16,-2.53475572855725E-16,
-1.));
#1313=DIRECTION('',(0.413802944300883,-0.910366477462742,0.));
#1314=DIRECTION('',(0.,0.,1.));
#1315=DIRECTION('',(-0.413802944300883,0.910366477462742,-1.47012399999958E-15));
#1316=DIRECTION('center_axis',(1.,0.,0.));
#1317=DIRECTION('ref_axis',(0.,0.,-1.));
#1318=DIRECTION('',(0.,-1.,0.));
#1319=DIRECTION('',(0.,0.,1.));
#1320=DIRECTION('',(0.,1.,0.));
#1321=DIRECTION('center_axis',(0.910366477462742,-0.413802944300883,6.12551399999826E-16));
#1322=DIRECTION('ref_axis',(5.57646260282636E-16,-2.53475572855725E-16,
-1.));
#1323=DIRECTION('',(-0.413802944300883,-0.910366477462742,9.18827099999739E-16));
#1324=DIRECTION('',(0.,0.,1.));
#1325=DIRECTION('',(0.413802944300883,0.910366477462742,-1.47012399999958E-15));
#1326=DIRECTION('center_axis',(0.,-1.,0.));
#1327=DIRECTION('ref_axis',(0.,0.,-1.));
#1328=DIRECTION('',(-1.,0.,0.));
#1329=DIRECTION('',(0.,0.,1.));
#1330=DIRECTION('',(1.,0.,0.));
#1331=DIRECTION('center_axis',(-1.,0.,0.));
#1332=DIRECTION('ref_axis',(0.,0.,1.));
#1333=DIRECTION('',(0.,1.,0.));
#1334=DIRECTION('',(0.,0.,1.));
#1335=DIRECTION('',(0.,-1.,0.));
#1336=DIRECTION('center_axis',(0.,-1.,0.));
#1337=DIRECTION('ref_axis',(0.,0.,-1.));
#1338=DIRECTION('',(-1.,0.,0.));
#1339=DIRECTION('',(1.,0.,0.));
#1340=DIRECTION('center_axis',(0.,0.,1.));
#1341=DIRECTION('ref_axis',(1.,0.,0.));
#1342=DIRECTION('center_axis',(0.,0.,1.));
#1343=DIRECTION('ref_axis',(1.,0.,0.));
#1344=DIRECTION('center_axis',(0.,-1.,0.));
#1345=DIRECTION('ref_axis',(0.525731112119055,0.,-0.850650808352089));
#1346=DIRECTION('center_axis',(0.,-1.,0.));
#1347=DIRECTION('ref_axis',(0.525731112119055,0.,-0.850650808352089));
#1348=DIRECTION('',(0.,-1.,0.));
#1349=DIRECTION('center_axis',(0.,-1.,0.));
#1350=DIRECTION('ref_axis',(0.525731112119055,0.,-0.850650808352089));
#1351=DIRECTION('',(0.,-1.,0.));
#1352=DIRECTION('center_axis',(0.,-1.,0.));
#1353=DIRECTION('ref_axis',(-0.525731112119055,0.,0.850650808352089));
#1354=DIRECTION('center_axis',(0.,1.,0.));
#1355=DIRECTION('ref_axis',(-0.525731112119055,0.,0.850650808352089));
#1356=DIRECTION('',(0.,-1.,0.));
#1357=DIRECTION('center_axis',(0.,1.,0.));
#1358=DIRECTION('ref_axis',(-0.525731112119055,0.,0.850650808352089));
#1359=DIRECTION('',(0.,-1.,0.));
#1360=DIRECTION('center_axis',(0.,-1.,0.));
#1361=DIRECTION('ref_axis',(-0.525731112119055,0.,0.850650808352089));
#1362=DIRECTION('center_axis',(0.,-1.,0.));
#1363=DIRECTION('ref_axis',(-0.525731112119055,0.,0.850650808352089));
#1364=DIRECTION('',(0.,-1.,0.));
#1365=DIRECTION('center_axis',(0.,-1.,0.));
#1366=DIRECTION('ref_axis',(-0.525731112119055,0.,0.850650808352089));
#1367=DIRECTION('',(0.,-1.,0.));
#1368=DIRECTION('center_axis',(0.,-1.,0.));
#1369=DIRECTION('ref_axis',(0.525731112119055,0.,-0.850650808352089));
#1370=DIRECTION('center_axis',(0.,1.,0.));
#1371=DIRECTION('ref_axis',(0.525731112119055,0.,-0.850650808352089));
#1372=DIRECTION('',(0.,-1.,0.));
#1373=DIRECTION('center_axis',(0.,1.,0.));
#1374=DIRECTION('ref_axis',(0.525731112119055,0.,-0.850650808352089));
#1375=DIRECTION('',(0.,-1.,0.));
#1376=DIRECTION('center_axis',(0.,0.,-1.));
#1377=DIRECTION('ref_axis',(-1.,0.,0.));
#1378=DIRECTION('',(-1.,0.,0.));
#1379=DIRECTION('',(0.,-1.,0.));
#1380=DIRECTION('',(-1.,0.,0.));
#1381=DIRECTION('center_axis',(0.,-1.,0.));
#1382=DIRECTION('ref_axis',(0.,0.,-1.));
#1383=DIRECTION('',(1.,0.,0.));
#1384=DIRECTION('',(0.447213595499958,0.,0.894427190999916));
#1385=DIRECTION('',(1.,0.,0.));
#1386=DIRECTION('',(-0.121869343405041,0.,-0.992546151641335));
#1387=DIRECTION('',(-1.,0.,0.));
#1388=DIRECTION('',(-0.447213595499958,0.,-0.894427190999916));
#1389=DIRECTION('',(0.,0.,1.));
#1390=DIRECTION('center_axis',(0.,0.,1.));
#1391=DIRECTION('ref_axis',(1.,0.,0.));
#1392=DIRECTION('',(1.,0.,0.));
#1393=DIRECTION('',(0.,-1.,0.));
#1394=DIRECTION('center_axis',(0.,-1.,0.));
#1395=DIRECTION('ref_axis',(0.,0.,-1.));
#1396=DIRECTION('',(0.,0.,1.));
#1397=DIRECTION('',(-0.447213595499958,0.,-0.894427190999916));
#1398=DIRECTION('',(-1.,0.,0.));
#1399=DIRECTION('',(-0.121869343405041,0.,-0.992546151641335));
#1400=DIRECTION('',(1.,0.,0.));
#1401=DIRECTION('',(0.447213595499958,0.,0.894427190999916));
#1402=DIRECTION('center_axis',(-0.894427190999916,3.84967899999964E-16,
0.447213595499958));
#1403=DIRECTION('ref_axis',(0.447213595499958,-4.93038065763086E-32,0.894427190999916));
#1404=DIRECTION('center_axis',(0.,0.,1.));
#1405=DIRECTION('ref_axis',(1.,0.,0.));
#1406=DIRECTION('',(0.,-1.,0.));
#1407=DIRECTION('center_axis',(0.992546151641335,-4.27199000000144E-16,
-0.121869343405041));
#1408=DIRECTION('ref_axis',(-0.121869343405041,6.16297582204124E-33,-0.992546151641335));
#1409=DIRECTION('',(0.,-1.,0.));
#1410=DIRECTION('center_axis',(0.,0.,-1.));
#1411=DIRECTION('ref_axis',(-1.,0.,0.));
#1412=DIRECTION('center_axis',(0.894427190999916,-3.84967899999964E-16,
-0.447213595499958));
#1413=DIRECTION('ref_axis',(-0.447213595499958,4.93038065763086E-32,-0.894427190999916));
#1414=DIRECTION('center_axis',(-1.,0.,0.));
#1415=DIRECTION('ref_axis',(0.,0.,1.));
#1416=DIRECTION('center_axis',(0.,-1.,0.));
#1417=DIRECTION('ref_axis',(0.525731112119055,0.,-0.850650808352089));
#1418=DIRECTION('center_axis',(0.,-1.,0.));
#1419=DIRECTION('ref_axis',(0.525731112119055,0.,-0.850650808352089));
#1420=DIRECTION('',(0.,-1.,0.));
#1421=DIRECTION('center_axis',(0.,-1.,0.));
#1422=DIRECTION('ref_axis',(0.525731112119055,0.,-0.850650808352089));
#1423=DIRECTION('',(0.,-1.,0.));
#1424=DIRECTION('center_axis',(0.,-1.,0.));
#1425=DIRECTION('ref_axis',(-0.525731112119055,0.,0.850650808352089));
#1426=DIRECTION('center_axis',(0.,1.,0.));
#1427=DIRECTION('ref_axis',(-0.525731112119055,0.,0.850650808352089));
#1428=DIRECTION('',(0.,-1.,0.));
#1429=DIRECTION('center_axis',(0.,1.,0.));
#1430=DIRECTION('ref_axis',(-0.525731112119055,0.,0.850650808352089));
#1431=DIRECTION('',(0.,-1.,0.));
#1432=DIRECTION('center_axis',(0.,-1.,0.));
#1433=DIRECTION('ref_axis',(-0.525731112119055,0.,0.850650808352089));
#1434=DIRECTION('center_axis',(0.,-1.,0.));
#1435=DIRECTION('ref_axis',(-0.525731112119055,0.,0.850650808352089));
#1436=DIRECTION('',(0.,-1.,0.));
#1437=DIRECTION('center_axis',(0.,-1.,0.));
#1438=DIRECTION('ref_axis',(-0.525731112119055,0.,0.850650808352089));
#1439=DIRECTION('',(0.,-1.,0.));
#1440=DIRECTION('center_axis',(0.,-1.,0.));
#1441=DIRECTION('ref_axis',(0.525731112119055,0.,-0.850650808352089));
#1442=DIRECTION('center_axis',(0.,1.,0.));
#1443=DIRECTION('ref_axis',(0.525731112119055,0.,-0.850650808352089));
#1444=DIRECTION('',(0.,-1.,0.));
#1445=DIRECTION('center_axis',(0.,1.,0.));
#1446=DIRECTION('ref_axis',(0.525731112119055,0.,-0.850650808352089));
#1447=DIRECTION('',(0.,-1.,0.));
#1448=DIRECTION('center_axis',(0.,0.,-1.));
#1449=DIRECTION('ref_axis',(-1.,0.,0.));
#1450=DIRECTION('',(-1.,0.,0.));
#1451=DIRECTION('',(0.,-1.,0.));
#1452=DIRECTION('',(-1.,0.,0.));
#1453=DIRECTION('center_axis',(0.,-1.,0.));
#1454=DIRECTION('ref_axis',(0.,0.,-1.));
#1455=DIRECTION('',(1.,0.,0.));
#1456=DIRECTION('',(0.447213595499958,0.,0.894427190999916));
#1457=DIRECTION('',(1.,0.,0.));
#1458=DIRECTION('',(-0.121869343405041,-8.81558100000298E-16,-0.992546151641335));
#1459=DIRECTION('',(-1.,0.,0.));
#1460=DIRECTION('',(-0.447213595499958,0.,-0.894427190999916));
#1461=DIRECTION('',(0.,0.,1.));
#1462=DIRECTION('center_axis',(0.,0.,1.));
#1463=DIRECTION('ref_axis',(1.,0.,0.));
#1464=DIRECTION('',(1.,0.,0.));
#1465=DIRECTION('',(0.,-1.,0.));
#1466=DIRECTION('center_axis',(0.,-1.,0.));
#1467=DIRECTION('ref_axis',(0.,0.,-1.));
#1468=DIRECTION('',(0.,0.,1.));
#1469=DIRECTION('',(-0.447213595499958,0.,-0.894427190999916));
#1470=DIRECTION('',(-1.,0.,0.));
#1471=DIRECTION('',(-0.121869343405041,0.,-0.992546151641335));
#1472=DIRECTION('',(1.,0.,0.));
#1473=DIRECTION('',(0.447213595499958,0.,0.894427190999916));
#1474=DIRECTION('center_axis',(-0.894427190999916,3.84967899999964E-16,
0.447213595499958));
#1475=DIRECTION('ref_axis',(0.447213595499958,-4.93038065763086E-32,0.894427190999916));
#1476=DIRECTION('center_axis',(0.,0.,1.));
#1477=DIRECTION('ref_axis',(1.,0.,0.));
#1478=DIRECTION('',(0.,-1.,0.));
#1479=DIRECTION('center_axis',(0.992546151641335,-4.27199000000144E-16,
-0.121869343405041));
#1480=DIRECTION('ref_axis',(-0.121869343405041,6.16297582204124E-33,-0.992546151641335));
#1481=DIRECTION('',(0.,-1.,0.));
#1482=DIRECTION('center_axis',(0.,0.,-1.));
#1483=DIRECTION('ref_axis',(-1.,0.,0.));
#1484=DIRECTION('center_axis',(0.894427190999916,-3.84967899999964E-16,
-0.447213595499958));
#1485=DIRECTION('ref_axis',(-0.447213595499958,4.93038065763086E-32,-0.894427190999916));
#1486=DIRECTION('center_axis',(-1.,0.,0.));
#1487=DIRECTION('ref_axis',(0.,0.,1.));
#1488=DIRECTION('center_axis',(-1.,0.,0.));
#1489=DIRECTION('ref_axis',(0.,0.,1.));
#1490=DIRECTION('',(0.,0.,1.));
#1491=DIRECTION('',(0.,-1.,0.));
#1492=DIRECTION('',(0.,0.,1.));
#1493=DIRECTION('',(0.,-1.,0.));
#1494=DIRECTION('center_axis',(0.,0.,1.));
#1495=DIRECTION('ref_axis',(1.,0.,0.));
#1496=DIRECTION('',(1.,0.,0.));
#1497=DIRECTION('',(0.,-1.,0.));
#1498=DIRECTION('',(1.,0.,0.));
#1499=DIRECTION('center_axis',(0.992546151641335,-7.92344800000268E-16,
-0.121869343405041));
#1500=DIRECTION('ref_axis',(-0.121869343405041,1.23259516440825E-32,-0.992546151641335));
#1501=DIRECTION('',(-0.121869343405041,0.,-0.992546151641335));
#1502=DIRECTION('',(0.,-1.,0.));
#1503=DIRECTION('',(-0.121869343405041,0.,-0.992546151641335));
#1504=DIRECTION('center_axis',(0.,0.,-1.));
#1505=DIRECTION('ref_axis',(-1.,0.,0.));
#1506=DIRECTION('',(-1.,0.,0.));
#1507=DIRECTION('',(-1.,0.,0.));
#1508=DIRECTION('center_axis',(0.,-1.,0.));
#1509=DIRECTION('ref_axis',(0.,0.,-1.));
#1510=DIRECTION('center_axis',(0.,-1.,0.));
#1511=DIRECTION('ref_axis',(0.,0.,-1.));
#1512=CARTESIAN_POINT('',(0.,0.,0.));
#1513=CARTESIAN_POINT('Origin',(-0.2,2.585,0.63));
#1514=CARTESIAN_POINT('',(-0.2,-2.35,0.6));
#1515=CARTESIAN_POINT('',(-0.2,2.35,0.6));
#1516=CARTESIAN_POINT('',(-0.2,-2.35,0.6));
#1517=CARTESIAN_POINT('',(-0.2,-2.35,5.329071E-15));
#1518=CARTESIAN_POINT('',(-0.2,-2.35,5.329071E-15));
#1519=CARTESIAN_POINT('',(-0.2,2.35,0.));
#1520=CARTESIAN_POINT('',(-0.2,2.35,0.));
#1521=CARTESIAN_POINT('',(-0.2,2.35,0.));
#1522=CARTESIAN_POINT('Origin',(-0.375,2.35,-0.03));
#1523=CARTESIAN_POINT('',(3.3,2.35,0.6));
#1524=CARTESIAN_POINT('',(-0.2,2.35,0.6));
#1525=CARTESIAN_POINT('',(3.3,2.35,-1.776357E-15));
#1526=CARTESIAN_POINT('',(3.3,2.35,-1.776357E-15));
#1527=CARTESIAN_POINT('',(3.3,2.35,-1.776357E-15));
#1528=CARTESIAN_POINT('Origin',(3.3,2.7175,0.63));
#1529=CARTESIAN_POINT('',(3.3,2.7,0.6));
#1530=CARTESIAN_POINT('',(3.3,2.35,0.6));
#1531=CARTESIAN_POINT('',(3.3,2.7,-1.776357E-15));
#1532=CARTESIAN_POINT('',(3.3,2.7,-1.776357E-15));
#1533=CARTESIAN_POINT('',(3.3,2.7,-1.776357E-15));
#1534=CARTESIAN_POINT('Origin',(3.26,2.7,-0.03));
#1535=CARTESIAN_POINT('',(4.026329263458,2.7,0.6));
#1536=CARTESIAN_POINT('',(4.1,2.7,-3.552714E-15));
#1537=CARTESIAN_POINT('',(4.026329263458,2.7,0.6));
#1538=CARTESIAN_POINT('',(3.3,2.7,0.6));
#1539=CARTESIAN_POINT('',(4.1,2.7,-3.552714E-15));
#1540=CARTESIAN_POINT('Origin',(3.26,-2.7,0.63));
#1541=CARTESIAN_POINT('',(4.1,-2.7,1.776357E-15));
#1542=CARTESIAN_POINT('',(4.026329263458,-2.7,0.6));
#1543=CARTESIAN_POINT('',(4.1,-2.7,1.776357E-15));
#1544=CARTESIAN_POINT('',(3.3,-2.7,1.776357E-15));
#1545=CARTESIAN_POINT('',(3.3,-2.7,1.776357E-15));
#1546=CARTESIAN_POINT('',(3.3,-2.7,0.6));
#1547=CARTESIAN_POINT('',(3.3,-2.7,1.776357E-15));
#1548=CARTESIAN_POINT('',(4.026329263458,-2.7,0.6));
#1549=CARTESIAN_POINT('Origin',(3.3,-2.3325,0.63));
#1550=CARTESIAN_POINT('',(3.3,-2.35,0.6));
#1551=CARTESIAN_POINT('',(3.3,-2.7,0.6));
#1552=CARTESIAN_POINT('',(3.3,-2.35,1.776357E-15));
#1553=CARTESIAN_POINT('',(3.3,-2.35,1.776357E-15));
#1554=CARTESIAN_POINT('',(3.3,-2.35,1.776357E-15));
#1555=CARTESIAN_POINT('Origin',(-0.375,-2.35,0.63));
#1556=CARTESIAN_POINT('',(3.3,-2.35,0.6));
#1557=CARTESIAN_POINT('',(-0.2,-2.35,5.329071E-15));
#1558=CARTESIAN_POINT('Origin',(-0.411316463173,2.97,0.6));
#1559=CARTESIAN_POINT('',(4.026329263458,-2.7,0.6));
#1560=CARTESIAN_POINT('Origin',(-2.281076211052,-3.63,-7.105427E-15));
#1561=CARTESIAN_POINT('',(4.1,-3.3,-3.552714E-15));
#1562=CARTESIAN_POINT('',(4.1,-2.7,1.776357E-15));
#1563=CARTESIAN_POINT('',(-1.977215439097,-3.3,0.));
#1564=CARTESIAN_POINT('',(4.1,-3.3,-3.552714E-15));
#1565=CARTESIAN_POINT('',(-1.977215439097,3.3,-3.552714E-15));
#1566=CARTESIAN_POINT('',(-1.977215439097,3.3,-3.552714E-15));
#1567=CARTESIAN_POINT('',(4.1,3.3,-7.105427E-15));
#1568=CARTESIAN_POINT('',(-1.977215439097,3.3,-3.552714E-15));
#1569=CARTESIAN_POINT('',(4.1,3.3,-7.105427E-15));
#1570=CARTESIAN_POINT('Origin',(-1.919506695473,3.63,2.47));
#1571=CARTESIAN_POINT('',(-2.1,-3.3,1.));
#1572=CARTESIAN_POINT('',(-1.928101614736,-3.3,2.4));
#1573=CARTESIAN_POINT('',(-2.1,-3.3,1.));
#1574=CARTESIAN_POINT('',(-1.928101614736,3.3,2.4));
#1575=CARTESIAN_POINT('',(-1.928101614736,3.3,2.4));
#1576=CARTESIAN_POINT('',(-2.1,3.3,1.));
#1577=CARTESIAN_POINT('',(-1.928101614736,3.3,2.4));
#1578=CARTESIAN_POINT('',(-2.1,3.3,1.));
#1579=CARTESIAN_POINT('Origin',(-2.214772548164,3.63,2.4));
#1580=CARTESIAN_POINT('',(3.805317053833,-3.3,2.4));
#1581=CARTESIAN_POINT('',(-1.928101614736,-3.3,2.4));
#1582=CARTESIAN_POINT('',(3.805317053833,3.3,2.4));
#1583=CARTESIAN_POINT('',(3.805317053833,3.3,2.4));
#1584=CARTESIAN_POINT('',(3.805317053833,3.3,2.4));
#1585=CARTESIAN_POINT('Origin',(4.114734147308,3.63,-0.12));
#1586=CARTESIAN_POINT('',(4.1,3.3,-7.105427E-15));
#1587=CARTESIAN_POINT('',(3.805317053833,-3.3,2.4));
#1588=CARTESIAN_POINT('Origin',(-2.106139228045,3.63,1.05));
#1589=CARTESIAN_POINT('',(-1.977215439097,-3.3,0.));
#1590=CARTESIAN_POINT('',(-2.1,3.3,1.));
#1591=CARTESIAN_POINT('Origin',(-2.41,-3.3,2.52));
#1592=CARTESIAN_POINT('Origin',(-2.41,3.3,2.52));
#1593=CARTESIAN_POINT('Origin',(-0.2,2.585,0.63));
#1594=CARTESIAN_POINT('',(-0.2,-2.35,0.6));
#1595=CARTESIAN_POINT('',(-0.2,2.35,0.6));
#1596=CARTESIAN_POINT('',(-0.2,-2.35,0.6));
#1597=CARTESIAN_POINT('',(-0.2,2.35,0.));
#1598=CARTESIAN_POINT('',(-0.2,2.35,0.));
#1599=CARTESIAN_POINT('',(-0.2,-2.35,5.329071E-15));
#1600=CARTESIAN_POINT('',(-0.2,2.35,0.));
#1601=CARTESIAN_POINT('',(-0.2,-2.35,5.329071E-15));
#1602=CARTESIAN_POINT('Origin',(-0.375,2.35,-0.03));
#1603=CARTESIAN_POINT('',(3.3,2.35,0.6));
#1604=CARTESIAN_POINT('',(-0.2,2.35,0.6));
#1605=CARTESIAN_POINT('',(3.3,2.35,-1.776357E-15));
#1606=CARTESIAN_POINT('',(3.3,2.35,-1.776357E-15));
#1607=CARTESIAN_POINT('',(3.3,2.35,-1.776357E-15));
#1608=CARTESIAN_POINT('Origin',(3.3,2.7175,0.63));
#1609=CARTESIAN_POINT('',(3.3,2.7,0.6));
#1610=CARTESIAN_POINT('',(3.3,2.35,0.6));
#1611=CARTESIAN_POINT('',(3.3,2.7,-1.776357E-15));
#1612=CARTESIAN_POINT('',(3.3,2.7,-1.776357E-15));
#1613=CARTESIAN_POINT('',(3.3,2.7,-1.776357E-15));
#1614=CARTESIAN_POINT('Origin',(3.245,2.7,-0.03));
#1615=CARTESIAN_POINT('',(4.4,2.7,0.6));
#1616=CARTESIAN_POINT('',(3.3,2.7,0.6));
#1617=CARTESIAN_POINT('',(4.4,2.7,-3.552714E-15));
#1618=CARTESIAN_POINT('',(4.4,2.7,-3.552714E-15));
#1619=CARTESIAN_POINT('',(4.4,2.7,-3.552714E-15));
#1620=CARTESIAN_POINT('Origin',(4.375,2.755,-0.03));
#1621=CARTESIAN_POINT('',(4.9,1.6,0.6));
#1622=CARTESIAN_POINT('',(4.4,2.7,0.6));
#1623=CARTESIAN_POINT('',(4.9,1.6,-1.776357E-15));
#1624=CARTESIAN_POINT('',(4.9,1.6,-1.776357E-15));
#1625=CARTESIAN_POINT('',(4.9,1.6,-1.776357E-15));
#1626=CARTESIAN_POINT('Origin',(4.9,1.76,-0.03));
#1627=CARTESIAN_POINT('',(4.9,-1.6,0.6));
#1628=CARTESIAN_POINT('',(4.9,1.6,0.6));
#1629=CARTESIAN_POINT('',(4.9,-1.6,0.));
#1630=CARTESIAN_POINT('',(4.9,-1.6,0.));
#1631=CARTESIAN_POINT('',(4.9,-1.6,0.));
#1632=CARTESIAN_POINT('Origin',(4.925,-1.545,-0.03));
#1633=CARTESIAN_POINT('',(4.4,-2.7,0.6));
#1634=CARTESIAN_POINT('',(4.9,-1.6,0.6));
#1635=CARTESIAN_POINT('',(4.4,-2.7,1.776357E-15));
#1636=CARTESIAN_POINT('',(4.4,-2.7,1.776357E-15));
#1637=CARTESIAN_POINT('',(4.4,-2.7,1.776357E-15));
#1638=CARTESIAN_POINT('Origin',(3.245,-2.7,0.63));
#1639=CARTESIAN_POINT('',(3.3,-2.7,0.6));
#1640=CARTESIAN_POINT('',(4.4,-2.7,0.6));
#1641=CARTESIAN_POINT('',(3.3,-2.7,1.776357E-15));
#1642=CARTESIAN_POINT('',(3.3,-2.7,1.776357E-15));
#1643=CARTESIAN_POINT('',(3.3,-2.7,1.776357E-15));
#1644=CARTESIAN_POINT('Origin',(3.3,-2.3325,0.63));
#1645=CARTESIAN_POINT('',(3.3,-2.35,0.6));
#1646=CARTESIAN_POINT('',(3.3,-2.7,0.6));
#1647=CARTESIAN_POINT('',(3.3,-2.35,1.776357E-15));
#1648=CARTESIAN_POINT('',(3.3,-2.35,1.776357E-15));
#1649=CARTESIAN_POINT('',(3.3,-2.35,1.776357E-15));
#1650=CARTESIAN_POINT('Origin',(-0.375,-2.35,0.63));
#1651=CARTESIAN_POINT('',(3.3,-2.35,0.6));
#1652=CARTESIAN_POINT('',(-0.2,-2.35,5.329071E-15));
#1653=CARTESIAN_POINT('Origin',(-0.455,2.97,0.6));
#1654=CARTESIAN_POINT('Origin',(-0.455,2.97,0.));
#1655=CARTESIAN_POINT('Origin',(-4.332623792125,-1.785,0.7));
#1656=CARTESIAN_POINT('',(-4.332623792125,-1.83,0.5));
#1657=CARTESIAN_POINT('',(-4.153738353925,-1.83,0.6105572809));
#1658=CARTESIAN_POINT('Origin',(-4.332623792125,-1.83,0.7));
#1659=CARTESIAN_POINT('',(-4.332623792125,-2.73,0.5));
#1660=CARTESIAN_POINT('',(-4.332623792125,-1.83,0.5));
#1661=CARTESIAN_POINT('',(-4.153738353925,-2.73,0.6105572809));
#1662=CARTESIAN_POINT('Origin',(-4.332623792125,-2.73,0.7));
#1663=CARTESIAN_POINT('',(-4.153738353925,-1.83,0.6105572809));
#1664=CARTESIAN_POINT('Origin',(-3.27639320225,-1.785,0.8));
#1665=CARTESIAN_POINT('',(-3.90249223595,-1.83,1.11304951685));
#1666=CARTESIAN_POINT('',(-3.27639320225,-1.83,1.5));
#1667=CARTESIAN_POINT('Origin',(-3.27639320225,-1.83,0.8));
#1668=CARTESIAN_POINT('',(-3.90249223595,-2.73,1.11304951685));
#1669=CARTESIAN_POINT('',(-3.90249223595,-1.83,1.11304951685));
#1670=CARTESIAN_POINT('',(-3.27639320225,-2.73,1.5));
#1671=CARTESIAN_POINT('Origin',(-3.27639320225,-2.73,0.8));
#1672=CARTESIAN_POINT('',(-3.27639320225,-1.83,1.5));
#1673=CARTESIAN_POINT('Origin',(-3.27639320225,-1.785,0.8));
#1674=CARTESIAN_POINT('',(-3.27639320225,-1.83,1.));
#1675=CARTESIAN_POINT('',(-3.45527864045,-1.83,0.8894427191));
#1676=CARTESIAN_POINT('Origin',(-3.27639320225,-1.83,0.8));
#1677=CARTESIAN_POINT('',(-3.27639320225,-2.73,1.));
#1678=CARTESIAN_POINT('',(-3.27639320225,-1.83,1.));
#1679=CARTESIAN_POINT('',(-3.45527864045,-2.73,0.8894427191));
#1680=CARTESIAN_POINT('Origin',(-3.27639320225,-2.73,0.8));
#1681=CARTESIAN_POINT('',(-3.45527864045,-1.83,0.8894427191));
#1682=CARTESIAN_POINT('Origin',(-4.332623792125,-1.785,0.7));
#1683=CARTESIAN_POINT('',(-3.706524758425,-1.83,0.38695048315));
#1684=CARTESIAN_POINT('',(-4.332623792125,-1.83,3.552714E-15));
#1685=CARTESIAN_POINT('Origin',(-4.332623792125,-1.83,0.7));
#1686=CARTESIAN_POINT('',(-3.706524758425,-2.73,0.38695048315));
#1687=CARTESIAN_POINT('',(-3.706524758425,-1.83,0.38695048315));
#1688=CARTESIAN_POINT('',(-4.332623792125,-2.73,3.552714E-15));
#1689=CARTESIAN_POINT('Origin',(-4.332623792125,-2.73,0.7));
#1690=CARTESIAN_POINT('',(-4.332623792125,-1.83,3.552714E-15));
#1691=CARTESIAN_POINT('Origin',(-4.928368810394,-2.775,3.552714E-15));
#1692=CARTESIAN_POINT('',(-4.82,-2.73,3.552714E-15));
#1693=CARTESIAN_POINT('',(-4.332623792125,-2.73,3.552714E-15));
#1694=CARTESIAN_POINT('',(-4.82,-1.83,3.552714E-15));
#1695=CARTESIAN_POINT('',(-4.82,-1.83,3.552714E-15));
#1696=CARTESIAN_POINT('',(-4.332623792125,-1.83,3.552714E-15));
#1697=CARTESIAN_POINT('Origin',(-5.043069614023,-1.83,1.575));
#1698=CARTESIAN_POINT('',(-4.82,-1.83,0.5));
#1699=CARTESIAN_POINT('',(-4.82,-1.83,0.5));
#1700=CARTESIAN_POINT('',(-4.153738353925,-1.83,0.6105572809));
#1701=CARTESIAN_POINT('',(-2.038607719549,-1.83,1.5));
#1702=CARTESIAN_POINT('',(-3.27639320225,-1.83,1.5));
#1703=CARTESIAN_POINT('',(-2.1,-1.83,1.));
#1704=CARTESIAN_POINT('',(-2.038607719549,-1.83,1.5));
#1705=CARTESIAN_POINT('',(-2.1,-1.83,1.));
#1706=CARTESIAN_POINT('',(-3.45527864045,-1.83,0.8894427191));
#1707=CARTESIAN_POINT('',(-4.82,-1.83,3.552714E-15));
#1708=CARTESIAN_POINT('Origin',(-4.928368810394,-1.785,0.5));
#1709=CARTESIAN_POINT('',(-4.82,-2.73,0.5));
#1710=CARTESIAN_POINT('',(-4.82,-2.73,0.5));
#1711=CARTESIAN_POINT('',(-4.82,-1.83,0.5));
#1712=CARTESIAN_POINT('Origin',(-5.043069614023,-2.73,1.575));
#1713=CARTESIAN_POINT('',(-4.82,-2.73,3.552714E-15));
#1714=CARTESIAN_POINT('',(-3.45527864045,-2.73,0.8894427191));
#1715=CARTESIAN_POINT('',(-2.1,-2.73,1.));
#1716=CARTESIAN_POINT('',(-2.1,-2.73,1.));
#1717=CARTESIAN_POINT('',(-2.038607719549,-2.73,1.5));
#1718=CARTESIAN_POINT('',(-2.038607719549,-2.73,1.5));
#1719=CARTESIAN_POINT('',(-3.27639320225,-2.73,1.5));
#1720=CARTESIAN_POINT('',(-4.153738353925,-2.73,0.6105572809));
#1721=CARTESIAN_POINT('Origin',(-3.889929930051,-1.785,1.138174128647));
#1722=CARTESIAN_POINT('Origin',(-3.338282476385,-1.785,1.5));
#1723=CARTESIAN_POINT('',(-2.038607719549,-1.83,1.5));
#1724=CARTESIAN_POINT('Origin',(-2.103069614023,-1.785,0.975));
#1725=CARTESIAN_POINT('',(-2.1,-1.83,1.));
#1726=CARTESIAN_POINT('Origin',(-3.335212862363,-2.775,1.));
#1727=CARTESIAN_POINT('Origin',(-3.719087064324,-1.785,0.361825871353));
#1728=CARTESIAN_POINT('Origin',(-4.82,-1.785,0.525));
#1729=CARTESIAN_POINT('Origin',(-4.332623792125,2.775,0.7));
#1730=CARTESIAN_POINT('',(-4.332623792125,2.73,0.5));
#1731=CARTESIAN_POINT('',(-4.153738353925,2.73,0.6105572809));
#1732=CARTESIAN_POINT('Origin',(-4.332623792125,2.73,0.7));
#1733=CARTESIAN_POINT('',(-4.332623792125,1.83,0.5));
#1734=CARTESIAN_POINT('',(-4.332623792125,2.73,0.5));
#1735=CARTESIAN_POINT('',(-4.153738353925,1.83,0.6105572809));
#1736=CARTESIAN_POINT('Origin',(-4.332623792125,1.83,0.7));
#1737=CARTESIAN_POINT('',(-4.153738353925,2.73,0.6105572809));
#1738=CARTESIAN_POINT('Origin',(-3.27639320225,2.775,0.8));
#1739=CARTESIAN_POINT('',(-3.90249223595,2.73,1.11304951685));
#1740=CARTESIAN_POINT('',(-3.27639320225,2.73,1.5));
#1741=CARTESIAN_POINT('Origin',(-3.27639320225,2.73,0.8));
#1742=CARTESIAN_POINT('',(-3.90249223595,1.83,1.11304951685));
#1743=CARTESIAN_POINT('',(-3.90249223595,2.73,1.11304951685));
#1744=CARTESIAN_POINT('',(-3.27639320225,1.83,1.5));
#1745=CARTESIAN_POINT('Origin',(-3.27639320225,1.83,0.8));
#1746=CARTESIAN_POINT('',(-3.27639320225,2.73,1.5));
#1747=CARTESIAN_POINT('Origin',(-3.27639320225,2.775,0.8));
#1748=CARTESIAN_POINT('',(-3.27639320225,2.73,1.));
#1749=CARTESIAN_POINT('',(-3.45527864045,2.73,0.8894427191));
#1750=CARTESIAN_POINT('Origin',(-3.27639320225,2.73,0.8));
#1751=CARTESIAN_POINT('',(-3.27639320225,1.83,1.));
#1752=CARTESIAN_POINT('',(-3.27639320225,2.73,1.));
#1753=CARTESIAN_POINT('',(-3.45527864045,1.83,0.8894427191));
#1754=CARTESIAN_POINT('Origin',(-3.27639320225,1.83,0.8));
#1755=CARTESIAN_POINT('',(-3.45527864045,2.73,0.8894427191));
#1756=CARTESIAN_POINT('Origin',(-4.332623792125,2.775,0.7));
#1757=CARTESIAN_POINT('',(-3.706524758425,2.73,0.38695048315));
#1758=CARTESIAN_POINT('',(-4.332623792125,2.73,1.776357E-15));
#1759=CARTESIAN_POINT('Origin',(-4.332623792125,2.73,0.7));
#1760=CARTESIAN_POINT('',(-3.706524758425,1.83,0.38695048315));
#1761=CARTESIAN_POINT('',(-3.706524758425,2.73,0.38695048315));
#1762=CARTESIAN_POINT('',(-4.332623792125,1.83,1.776357E-15));
#1763=CARTESIAN_POINT('Origin',(-4.332623792125,1.83,0.7));
#1764=CARTESIAN_POINT('',(-4.332623792125,2.73,1.776357E-15));
#1765=CARTESIAN_POINT('Origin',(-4.928368810394,1.785,1.776357E-15));
#1766=CARTESIAN_POINT('',(-4.82,1.83,1.776357E-15));
#1767=CARTESIAN_POINT('',(-4.332623792125,1.83,1.776357E-15));
#1768=CARTESIAN_POINT('',(-4.82,2.73,1.776357E-15));
#1769=CARTESIAN_POINT('',(-4.82,2.73,1.776357E-15));
#1770=CARTESIAN_POINT('',(-4.332623792125,2.73,1.776357E-15));
#1771=CARTESIAN_POINT('Origin',(-5.043069614023,2.73,1.575));
#1772=CARTESIAN_POINT('',(-4.82,2.73,0.5));
#1773=CARTESIAN_POINT('',(-4.82,2.73,0.5));
#1774=CARTESIAN_POINT('',(-4.153738353925,2.73,0.6105572809));
#1775=CARTESIAN_POINT('',(-2.038607719549,2.73,1.5));
#1776=CARTESIAN_POINT('',(-3.27639320225,2.73,1.5));
#1777=CARTESIAN_POINT('',(-2.1,2.73,1.));
#1778=CARTESIAN_POINT('',(-2.038607719549,2.73,1.5));
#1779=CARTESIAN_POINT('',(-2.1,2.73,1.));
#1780=CARTESIAN_POINT('',(-3.45527864045,2.73,0.8894427191));
#1781=CARTESIAN_POINT('',(-4.82,2.73,1.776357E-15));
#1782=CARTESIAN_POINT('Origin',(-4.928368810394,2.775,0.5));
#1783=CARTESIAN_POINT('',(-4.82,1.83,0.5));
#1784=CARTESIAN_POINT('',(-4.82,1.83,0.5));
#1785=CARTESIAN_POINT('',(-4.82,2.73,0.5));
#1786=CARTESIAN_POINT('Origin',(-5.043069614023,1.83,1.575));
#1787=CARTESIAN_POINT('',(-4.82,1.83,1.776357E-15));
#1788=CARTESIAN_POINT('',(-3.45527864045,1.83,0.8894427191));
#1789=CARTESIAN_POINT('',(-2.1,1.83,1.));
#1790=CARTESIAN_POINT('',(-2.1,1.83,1.));
#1791=CARTESIAN_POINT('',(-2.038607719549,1.83,1.5));
#1792=CARTESIAN_POINT('',(-2.038607719549,1.83,1.5));
#1793=CARTESIAN_POINT('',(-3.27639320225,1.83,1.5));
#1794=CARTESIAN_POINT('',(-4.153738353925,1.83,0.6105572809));
#1795=CARTESIAN_POINT('Origin',(-3.889929930051,2.775,1.138174128647));
#1796=CARTESIAN_POINT('Origin',(-3.338282476385,2.775,1.5));
#1797=CARTESIAN_POINT('',(-2.038607719549,2.73,1.5));
#1798=CARTESIAN_POINT('Origin',(-2.103069614023,2.775,0.975));
#1799=CARTESIAN_POINT('',(-2.1,2.73,1.));
#1800=CARTESIAN_POINT('Origin',(-3.335212862363,1.785,1.));
#1801=CARTESIAN_POINT('Origin',(-3.719087064324,2.775,0.361825871353));
#1802=CARTESIAN_POINT('Origin',(-4.82,2.775,0.525));
#1803=CARTESIAN_POINT('Origin',(-2.638607719549,0.495,1.525));
#1804=CARTESIAN_POINT('',(-2.638607719549,-0.45,1.));
#1805=CARTESIAN_POINT('',(-2.638607719549,-0.45,1.5));
#1806=CARTESIAN_POINT('',(-2.638607719549,-0.45,1.));
#1807=CARTESIAN_POINT('',(-2.638607719549,0.45,1.5));
#1808=CARTESIAN_POINT('',(-2.638607719549,0.45,1.5));
#1809=CARTESIAN_POINT('',(-2.638607719549,0.45,1.));
#1810=CARTESIAN_POINT('',(-2.638607719549,0.45,1.));
#1811=CARTESIAN_POINT('',(-2.638607719549,0.45,1.));
#1812=CARTESIAN_POINT('Origin',(-2.668607719549,0.495,1.5));
#1813=CARTESIAN_POINT('',(-2.038607719549,-0.45,1.5));
#1814=CARTESIAN_POINT('',(-2.638607719549,-0.45,1.5));
#1815=CARTESIAN_POINT('',(-2.038607719549,0.45,1.5));
#1816=CARTESIAN_POINT('',(-2.038607719549,0.45,1.5));
#1817=CARTESIAN_POINT('',(-2.638607719549,0.45,1.5));
#1818=CARTESIAN_POINT('Origin',(-2.103069614023,0.495,0.975));
#1819=CARTESIAN_POINT('',(-2.1,-0.45,1.));
#1820=CARTESIAN_POINT('',(-2.038607719549,-0.45,1.5));
#1821=CARTESIAN_POINT('',(-2.1,0.45,1.));
#1822=CARTESIAN_POINT('',(-2.1,0.45,1.));
#1823=CARTESIAN_POINT('',(-2.038607719549,0.45,1.5));
#1824=CARTESIAN_POINT('Origin',(-2.665538105526,-0.495,1.));
#1825=CARTESIAN_POINT('',(-2.1,-0.45,1.));
#1826=CARTESIAN_POINT('',(-2.1,0.45,1.));
#1827=CARTESIAN_POINT('Origin',(-2.668607719549,-0.45,1.525));
#1828=CARTESIAN_POINT('Origin',(-2.668607719549,0.45,1.525));
#1829=UNCERTAINTY_MEASURE_WITH_UNIT(LENGTH_MEASURE(0.01),#1833,
'DISTANCE_ACCURACY_VALUE',
'Maximum model space distance between geometric entities at asserted c
onnectivities');
#1830=UNCERTAINTY_MEASURE_WITH_UNIT(LENGTH_MEASURE(0.01),#1833,
'DISTANCE_ACCURACY_VALUE',
'Maximum model space distance between geometric entities at asserted c
onnectivities');
#1831=(
GEOMETRIC_REPRESENTATION_CONTEXT(3)
GLOBAL_UNCERTAINTY_ASSIGNED_CONTEXT((#1829))
GLOBAL_UNIT_ASSIGNED_CONTEXT((#1833,#1835,#1836))
REPRESENTATION_CONTEXT('','3D')
);
#1832=(
GEOMETRIC_REPRESENTATION_CONTEXT(3)
GLOBAL_UNCERTAINTY_ASSIGNED_CONTEXT((#1830))
GLOBAL_UNIT_ASSIGNED_CONTEXT((#1833,#1835,#1836))
REPRESENTATION_CONTEXT('','3D')
);
#1833=(
LENGTH_UNIT()
NAMED_UNIT(*)
SI_UNIT(.MILLI.,.METRE.)
);
#1834=(
LENGTH_UNIT()
NAMED_UNIT(*)
SI_UNIT(.CENTI.,.METRE.)
);
#1835=(
NAMED_UNIT(*)
PLANE_ANGLE_UNIT()
SI_UNIT($,.RADIAN.)
);
#1836=(
NAMED_UNIT(*)
SI_UNIT($,.STERADIAN.)
SOLID_ANGLE_UNIT()
);
#1837=SHAPE_DEFINITION_REPRESENTATION(#1838,#1839);
#1838=PRODUCT_DEFINITION_SHAPE('',$,#1841);
#1839=SHAPE_REPRESENTATION('',(#1141),#1831);
#1840=PRODUCT_DEFINITION_CONTEXT('part definition',#1845,'design');
#1841=PRODUCT_DEFINITION('TO228P972X240-3N-R540X510',
'TO228P972X240-3N-R540X510',#1842,#1840);
#1842=PRODUCT_DEFINITION_FORMATION('',$,#1847);
#1843=PRODUCT_RELATED_PRODUCT_CATEGORY('TO228P972X240-3N-R540X510',
'TO228P972X240-3N-R540X510',(#1847));
#1844=APPLICATION_PROTOCOL_DEFINITION('international standard',
'automotive_design',2009,#1845);
#1845=APPLICATION_CONTEXT(
'Core Data for Automotive Mechanical Design Process');
#1846=PRODUCT_CONTEXT('part definition',#1845,'mechanical');
#1847=PRODUCT('TO228P972X240-3N-R540X510','TO228P972X240-3N-R540X510',$,
(#1846));
#1848=PRESENTATION_STYLE_ASSIGNMENT((#1851));
#1849=PRESENTATION_STYLE_ASSIGNMENT((#1852));
#1850=PRESENTATION_STYLE_ASSIGNMENT((#1853));
#1851=SURFACE_STYLE_USAGE(.BOTH.,#1860);
#1852=SURFACE_STYLE_USAGE(.BOTH.,#1861);
#1853=SURFACE_STYLE_USAGE(.BOTH.,#1862);
#1854=SURFACE_STYLE_RENDERING_WITH_PROPERTIES($,#1872,(#1857));
#1855=SURFACE_STYLE_RENDERING_WITH_PROPERTIES($,#1873,(#1858));
#1856=SURFACE_STYLE_RENDERING_WITH_PROPERTIES($,#1874,(#1859));
#1857=SURFACE_STYLE_TRANSPARENT(0.);
#1858=SURFACE_STYLE_TRANSPARENT(0.);
#1859=SURFACE_STYLE_TRANSPARENT(0.);
#1860=SURFACE_SIDE_STYLE('',(#1863,#1854));
#1861=SURFACE_SIDE_STYLE('',(#1864,#1855));
#1862=SURFACE_SIDE_STYLE('',(#1865,#1856));
#1863=SURFACE_STYLE_FILL_AREA(#1866);
#1864=SURFACE_STYLE_FILL_AREA(#1867);
#1865=SURFACE_STYLE_FILL_AREA(#1868);
#1866=FILL_AREA_STYLE('',(#1869));
#1867=FILL_AREA_STYLE('',(#1870));
#1868=FILL_AREA_STYLE('',(#1871));
#1869=FILL_AREA_STYLE_COLOUR('',#1872);
#1870=FILL_AREA_STYLE_COLOUR('',#1873);
#1871=FILL_AREA_STYLE_COLOUR('',#1874);
#1872=COLOUR_RGB('',0.749019607843137,0.749019607843137,0.749019607843137);
#1873=COLOUR_RGB('',0.329411764705882,0.329411764705882,0.329411764705882);
#1874=COLOUR_RGB('',0.866666666666667,0.866666666666667,0.866666666666667);
ENDSEC;
END-ISO-10303-21;
