EESchema Schematic File Version 4
EELAYER 30 0
EELAYER END
$Descr User 17335 11946
encoding utf-8
Sheet 4 9
Title "RB0505 CPU Board"
Date "2020-04-15"
Rev "1"
Comp "KiCad OpenVentilator Group"
Comment1 "based on Medtronic open design files"
Comment2 ""
Comment3 ""
Comment4 ""
$EndDescr
Connection ~ 1600 2250
Wire Wire Line
	1600 2250 1600 1850
Wire Notes Line
	1375 7663 6475 7663
Wire Notes Line
	1375 10663 1375 7663
Wire Notes Line
	1375 10663 6475 10663
Wire Notes Line
	1400 838  1400 3100
Wire Notes Line
	1400 838  5037 838 
Wire Notes Line
	1400 3100 5037 3100
Wire Notes Line
	1400 3238 1400 5500
Wire Notes Line
	1400 3238 5037 3238
Wire Notes Line
	1400 5500 5037 5500
Wire Notes Line
	1400 5788 5000 5788
Wire Notes Line
	1400 7488 1400 5788
Wire Notes Line
	5000 5788 5000 7488
Wire Notes Line
	5000 7488 1400 7488
Wire Notes Line
	5037 838  5037 3100
Wire Notes Line
	5037 3238 5037 5500
Wire Notes Line
	6475 7663 6475 10663
Wire Notes Line
	6650 950  6650 8075
Wire Notes Line
	6650 950  11212 950 
Wire Notes Line
	6650 8075 11212 8075
Wire Notes Line
	6812 1313 11050 1313
Wire Notes Line
	6812 3313 6812 1313
Wire Notes Line
	6812 3413 11050 3413
Wire Notes Line
	6812 5613 6812 3413
Wire Notes Line
	6812 5813 11050 5813
Wire Notes Line
	6812 7913 6812 5813
Wire Notes Line
	11050 1313 11050 3313
Wire Notes Line
	11050 3313 6812 3313
Wire Notes Line
	11050 3413 11050 5613
Wire Notes Line
	11050 5613 6812 5613
Wire Notes Line
	11050 5813 11050 7913
Wire Notes Line
	11050 7913 6812 7913
Wire Notes Line
	11212 950  11212 8075
Wire Notes Line
	11300 950  16112 950 
Wire Notes Line
	11300 3363 11300 950 
Wire Notes Line
	16112 950  16112 3363
Wire Notes Line
	16112 3363 11300 3363
Text Notes 1450 7800 0    59   ~ 0
5V Power Supply
Text Notes 1500 988  0    59   ~ 0
5V Ref Patient Pressure Sensor, µC, Valve, O² Regul
Text Notes 1500 5950 0    59   ~ 0
3.3V Power Supply
Text Notes 1512 3375 0    59   ~ 0
10V Ref, Inspiratory + Exhalation Flow Sensors
Text Notes 6750 1100 0    59   ~ 0
POWER SUPPLY MONITORING
Text Notes 6900 1450 0    59   ~ 0
+5V Ref Monitoring
Text Notes 6900 3563 0    59   ~ 0
+10V Ref Monitoring
Text Notes 6900 5963 0    59   ~ 0
+3,3V Monitoring
Text Notes 15762 10763 0    59   ~ 0
A
Text Notes 16000 10763 0    59   ~ 0
05/03/14
Text Notes 16500 10775 0    59   ~ 0
JR
Text Notes 11337 1088 0    56   ~ 0
STARTING CURRENT PROTECTION
Text HLabel 9850 2400 2    56   Output ~ 0
+5VREF-FAILURE
Text HLabel 9850 4600 2    56   Output ~ 0
+10VREF-FAILURE
Text HLabel 9850 6950 2    56   Output ~ 0
+3.3V-FAILURE
Text HLabel 15275 2500 2    56   Output ~ 0
MES-24V
$Comp
L V_Diode:D_Schottky_Small D4
U 1 1 C08B3BB7
P 11650 2350
AR Path="/C08B3BB7" Ref="D4"  Part="1" 
AR Path="/5E92540F/C08B3BB7" Ref="D4"  Part="1" 
F 0 "D4" V 11675 2250 51  0000 R TNN
F 1 "1SMB36AT3" V 11600 2262 51  0000 R TNN
F 2 "GR106772-A:SMB" H 11650 2350 50  0001 C CNN
F 3 "https://www.littelfuse.com/~/media/electronics/datasheets/tvs_diodes/littelfuse_tvs_diode_sz1smb_datasheet.pdf.pdf" H 11650 2350 50  0001 C CNN
F 4 "DIODE TRANSIENT 600W,36V" H 11650 2350 50  0001 C CNN "Description"
F 5 "10022654" H 11650 2350 50  0001 C CNN "Item Number"
F 6 "LITTLEFUSE" H 11650 2350 50  0001 C CNN "Manufacturer"
F 7 "SZ1SMB36AT3G" H 11650 2350 50  0001 C CNN "Manufacturer_No"
F 8 "LITTLEFUSE" H 11650 2350 50  0001 C CNN "Manufacturer2"
F 9 "1SMB36AT3G" H 11650 2350 50  0001 C CNN "Manufacturer_No2"
F 10 "ON SEMICONDUCTOR_RMS1" H 11650 2350 50  0001 C CNN "Manufacturer3"
F 11 "1SMB36AT3G" H 11650 2350 50  0001 C CNN "Manufacturer_No3"
	1    11650 2350
	0    -1   -1   0   
$EndComp
$Comp
L V_Capacitor:C0805_100nF_50V_10% C79
U 1 1 5EA262E6
P 1600 2500
AR Path="/5EA262E6" Ref="C79"  Part="1" 
AR Path="/5E92540F/5EA262E6" Ref="C79"  Part="1" 
F 0 "C79" H 1700 2475 64  0000 L CNN
F 1 "100nF" H 1700 2550 42  0000 L CNN
F 2 "GR106772-A:C0805" H 1600 2500 50  0001 C CNN
F 3 "https://www.yageo.com/upload/media/product/productsearch/datasheet/mlcc/UPY-GPHC_X7R_6.3V-to-50V_18.pdf" H 1600 2500 50  0001 C CNN
F 4 "CAPACITOR CERAMIC, 100NF, +/-10%, 50V, X7R,0805" H 1600 2500 50  0001 C CNN "Description"
F 5 "10022135" H 1600 2500 50  0001 C CNN "Item Number"
F 6 "YAGEO_RMS1" H 1600 2500 50  0001 C CNN "Manufacturer"
F 7 "CC0805KRX7R9BB104" H 1600 2500 50  0001 C CNN "Manufacturer_No"
F 8 "MURATA MANUFACTURING CO., LTD." H 1600 2500 50  0001 C CNN "Manufacturer2"
F 9 "GRM21BR71H104KA01L" H 1600 2500 50  0001 C CNN "Manufacturer_No2"
F 10 "YAGEO_RMS1" H 1600 2500 50  0001 C CNN "Manufacturer3"
F 11 "CC0805KRX7R9BB104" H 1600 2500 50  0001 C CNN "Manufacturer_No3"
	1    1600 2500
	1    0    0    1   
$EndComp
$Comp
L V_Capacitor:C0805_100nF_50V_10% C82
U 1 1 3B4E26FC
P 1600 4900
AR Path="/3B4E26FC" Ref="C82"  Part="1" 
AR Path="/5E92540F/3B4E26FC" Ref="C82"  Part="1" 
F 0 "C82" H 1700 4875 64  0000 L CNN
F 1 "100nF" H 1700 4950 42  0000 L CNN
F 2 "GR106772-A:C0805" H 1600 4900 50  0001 C CNN
F 3 "https://www.yageo.com/upload/media/product/productsearch/datasheet/mlcc/UPY-GPHC_X7R_6.3V-to-50V_18.pdf" H 1600 4900 50  0001 C CNN
F 4 "CAPACITOR CERAMIC, 100NF, +/-10%, 50V, X7R,0805" H 1600 4900 50  0001 C CNN "Description"
F 5 "10022135" H 1600 4900 50  0001 C CNN "Item Number"
F 6 "YAGEO_RMS1" H 1600 4900 50  0001 C CNN "Manufacturer"
F 7 "CC0805KRX7R9BB104" H 1600 4900 50  0001 C CNN "Manufacturer_No"
F 8 "MURATA MANUFACTURING CO., LTD." H 1600 4900 50  0001 C CNN "Manufacturer2"
F 9 "GRM21BR71H104KA01L" H 1600 4900 50  0001 C CNN "Manufacturer_No2"
F 10 "YAGEO_RMS1" H 1600 4900 50  0001 C CNN "Manufacturer3"
F 11 "CC0805KRX7R9BB104" H 1600 4900 50  0001 C CNN "Manufacturer_No3"
	1    1600 4900
	1    0    0    1   
$EndComp
$Comp
L V_Capacitor:C0805_100nF_50V_10% C105
U 1 1 DFA69215
P 2150 9300
AR Path="/DFA69215" Ref="C105"  Part="1" 
AR Path="/5E92540F/DFA69215" Ref="C105"  Part="1" 
F 0 "C105" H 2025 9275 64  0000 R CNN
F 1 "100nF" H 2000 9350 42  0000 R CNN
F 2 "GR106772-A:C0805" H 2150 9300 50  0001 C CNN
F 3 "https://www.yageo.com/upload/media/product/productsearch/datasheet/mlcc/UPY-GPHC_X7R_6.3V-to-50V_18.pdf" H 2150 9300 50  0001 C CNN
F 4 "CAPACITOR CERAMIC, 100NF, +/-10%, 50V, X7R,0805" H 2150 9300 50  0001 C CNN "Description"
F 5 "10022135" H 2150 9300 50  0001 C CNN "Item Number"
F 6 "YAGEO_RMS1" H 2150 9300 50  0001 C CNN "Manufacturer"
F 7 "CC0805KRX7R9BB104" H 2150 9300 50  0001 C CNN "Manufacturer_No"
F 8 "MURATA MANUFACTURING CO., LTD." H 2150 9300 50  0001 C CNN "Manufacturer2"
F 9 "GRM21BR71H104KA01L" H 2150 9300 50  0001 C CNN "Manufacturer_No2"
F 10 "YAGEO_RMS1" H 2150 9300 50  0001 C CNN "Manufacturer3"
F 11 "CC0805KRX7R9BB104" H 2150 9300 50  0001 C CNN "Manufacturer_No3"
	1    2150 9300
	-1   0    0    1   
$EndComp
$Comp
L V_Capacitor:C0402_100nF_16V_10% C91
U 1 1 3BD8044E
P 2450 6750
AR Path="/3BD8044E" Ref="C91"  Part="1" 
AR Path="/5E92540F/3BD8044E" Ref="C91"  Part="1" 
F 0 "C91" H 2350 6750 64  0000 R CNN
F 1 "100nF" H 2350 6850 42  0000 R CNN
F 2 "GR106772-A:C0402" H 2450 6750 50  0001 C CNN
F 3 "https://www.yageo.com/upload/media/product/productsearch/datasheet/mlcc/UPY-GPHC_X7R_6.3V-to-50V_18.pdf" H 2450 6750 50  0001 C CNN
F 4 "CAPACITOR,100NF,16V,+/-10%,X7R,0402" H 0   0   50  0001 C CNN "Description"
F 5 "10022607" H 0   0   50  0001 C CNN "Item Number"
F 6 "YAGEO_RMS1" H 0   0   50  0001 C CNN "Manufacturer"
F 7 "YAGEO_RMS1" H 0   0   50  0001 C CNN "Manufacturer2"
F 8 "MURATA MANUFACTURING CO., LTD." H 0   0   50  0001 C CNN "Manufacturer3"
F 9 "CC0402KRX7R7BB104" H 0   0   50  0001 C CNN "Manufacturer_No"
F 10 "223878715649" H 0   0   50  0001 C CNN "Manufacturer_No2"
F 11 "GRM155R71C104KA88D" H 0   0   50  0001 C CNN "Manufacturer_No3"
	1    2450 6750
	1    0    0    1   
$EndComp
$Comp
L V_Capacitor:C0402_100nF_16V_10% C107
U 1 1 21969A4D
P 6050 8400
AR Path="/21969A4D" Ref="C107"  Part="1" 
AR Path="/5E92540F/21969A4D" Ref="C107"  Part="1" 
F 0 "C107" H 5950 8350 64  0000 R CNN
F 1 "100nF" H 5950 8425 42  0000 R CNN
F 2 "GR106772-A:C0402" H 6050 8400 50  0001 C CNN
F 3 "https://www.yageo.com/upload/media/product/productsearch/datasheet/mlcc/UPY-GPHC_X7R_6.3V-to-50V_18.pdf" H 6050 8400 50  0001 C CNN
F 4 "CAPACITOR,100NF,16V,+/-10%,X7R,0402" H 0   0   50  0001 C CNN "Description"
F 5 "10022607" H 0   0   50  0001 C CNN "Item Number"
F 6 "YAGEO_RMS1" H 0   0   50  0001 C CNN "Manufacturer"
F 7 "YAGEO_RMS1" H 0   0   50  0001 C CNN "Manufacturer2"
F 8 "MURATA MANUFACTURING CO., LTD." H 0   0   50  0001 C CNN "Manufacturer3"
F 9 "CC0402KRX7R7BB104" H 0   0   50  0001 C CNN "Manufacturer_No"
F 10 "223878715649" H 0   0   50  0001 C CNN "Manufacturer_No2"
F 11 "GRM155R71C104KA88D" H 0   0   50  0001 C CNN "Manufacturer_No3"
	1    6050 8400
	-1   0    0    1   
$EndComp
$Comp
L V_Power:0VANA #U$38
U 1 1 D00605AD
P 2900 2800
AR Path="/D00605AD" Ref="#U$38"  Part="1" 
AR Path="/5E92540F/D00605AD" Ref="#U$038"  Part="1" 
F 0 "#U$038" H 2900 2800 50  0001 C CNN
F 1 "0VANA" H 2763 2600 59  0000 L BNN
F 2 "" H 2900 2800 50  0001 C CNN
F 3 "" H 2900 2800 50  0001 C CNN
	1    2900 2800
	1    0    0    -1  
$EndComp
$Comp
L V_Power:0VANA #U$376
U 1 1 CFE99AB5
P 8750 3050
AR Path="/CFE99AB5" Ref="#U$376"  Part="1" 
AR Path="/5E92540F/CFE99AB5" Ref="#U$0376"  Part="1" 
F 0 "#U$0376" H 8750 3050 50  0001 C CNN
F 1 "0VANA" H 8625 2863 59  0000 L BNN
F 2 "" H 8750 3050 50  0001 C CNN
F 3 "" H 8750 3050 50  0001 C CNN
	1    8750 3050
	1    0    0    -1  
$EndComp
$Comp
L V_Power:0VANA #U$377
U 1 1 BA815124
P 8750 5300
AR Path="/BA815124" Ref="#U$377"  Part="1" 
AR Path="/5E92540F/BA815124" Ref="#U$0377"  Part="1" 
F 0 "#U$0377" H 8750 5300 50  0001 C CNN
F 1 "0VANA" H 8625 5125 59  0000 L BNN
F 2 "" H 8750 5300 50  0001 C CNN
F 3 "" H 8750 5300 50  0001 C CNN
	1    8750 5300
	1    0    0    -1  
$EndComp
$Comp
L V_Diode:D_Schottky D7
U 1 1 11F28FEE
P 1700 8800
AR Path="/11F28FEE" Ref="D7"  Part="1" 
AR Path="/5E92540F/11F28FEE" Ref="D7"  Part="1" 
F 0 "D7" V 1746 8909 59  0000 L BNN
F 1 "PRLL5819" V 1827 8912 42  0000 L BNN
F 2 "GR106772-A:SOD87" H 1700 8800 50  0001 C CNN
F 3 "https://www.diodes.com/assets/Datasheets/ds30217.pdf" H 1700 8800 50  0001 C CNN
F 4 "DIODE SCHOTTKY, 40V, 1A" H 1700 8800 50  0001 C CNN "Description"
F 5 "10097253" H 1700 8800 50  0001 C CNN "Item Number"
F 6 "DIODES INC_RMS1" H 1700 8800 50  0001 C CNN "Manufacturer"
F 7 "1N5819HW-7-F" H 1700 8800 50  0001 C CNN "Manufacturer_No"
	1    1700 8800
	0    1    1    0   
$EndComp
$Comp
L V_Diode:D_Schottky_A1K3_10022656 D11
U 1 1 84A4DC5F
P 3500 8100
AR Path="/84A4DC5F" Ref="D11"  Part="1" 
AR Path="/5E92540F/84A4DC5F" Ref="D11"  Part="1" 
F 0 "D11" H 3425 8275 59  0000 L BNN
F 1 "STPS340U" H 3425 8200 42  0000 L BNN
F 2 "GR106772-A:SMB" H 3500 8100 50  0001 C CNN
F 3 "https://www.st.com/content/ccc/resource/technical/document/datasheet/bb/db/21/0c/04/d9/41/a5/CD00000844.pdf/files/CD00000844.pdf/jcr:content/translations/en.CD00000844.pdf" H 3500 8100 50  0001 C CNN
F 4 "DIODE SCHOTTKY, 3A, 40V" H 3500 8100 50  0001 C CNN "Description"
F 5 "10022656" H 3500 8100 50  0001 C CNN "Item Number"
F 6 "STMICROELECTRONICS" H 3500 8100 50  0001 C CNN "Manufacturer"
F 7 "STPS340U" H 3500 8100 50  0001 C CNN "Manufacturer_No"
	1    3500 8100
	1    0    0    -1  
$EndComp
$Comp
L V_Jumper:JUMP_0U JP9
U 1 1 C8B46213
P 12350 1550
AR Path="/C8B46213" Ref="JP9"  Part="1" 
AR Path="/5E92540F/C8B46213" Ref="JP9"  Part="1" 
F 0 "JP9" H 12250 1650 51  0000 L BNN
F 1 "DNP" H 12200 1725 51  0000 L BNN
F 2 "GR106772-A:R0603" H 12350 1550 50  0001 C CNN
F 3 "RoHS3 Compliant with exemptions" H 12350 1550 50  0001 C CNN
F 4 "RESISTANCE, 0 OHM,0603" H 0   0   50  0001 C CNN "Description"
F 5 "10023185" H 0   0   50  0001 C CNN "Item Number"
F 6 "YAGEO_RMS1" H 0   0   50  0001 C CNN "Manufacturer"
F 7 "YAGEO_RMS1" H 0   0   50  0001 C CNN "Manufacturer2"
F 8 "YAGEO_RMS1" H 0   0   50  0001 C CNN "Manufacturer3"
F 9 "RC0603JR-070RL" H 0   0   50  0001 C CNN "Manufacturer_No"
F 10 "RC0603JR-070RL" H 0   0   50  0001 C CNN "Manufacturer_No2"
F 11 "RC0603JR-070RL" H 0   0   50  0001 C CNN "Manufacturer_No3"
	1    12350 1550
	1    0    0    -1  
$EndComp
$Comp
L V_Resistor:R0805_180R_5% R44
U 1 1 84674E91
P 2100 4650
AR Path="/84674E91" Ref="R44"  Part="1" 
AR Path="/5E92540F/84674E91" Ref="R44"  Part="1" 
F 0 "R44" H 2000 4800 64  0000 L BNN
F 1 "180" H 2025 4725 42  0000 L BNN
F 2 "GR106772-A:R0805" H 2100 4650 50  0001 C CNN
F 3 "" H 2100 4650 50  0001 C CNN
F 4 "RESISTOR, 180 OHM, 0805, +/-5%" H 2100 4650 50  0001 C CNN "Description"
F 5 "10023240" H 2100 4650 50  0001 C CNN "Item Number"
F 6 "YAGEO_RMS1" H 2100 4650 50  0001 C CNN "Manufacturer"
F 7 "RC0805JR-07180RL" H 2100 4650 50  0001 C CNN "Manufacturer_No"
F 8 "KOA SPEER" H 2100 4650 50  0001 C CNN "Manufacturer2"
F 9 "RK73B2ATTD181J" H 2100 4650 50  0001 C CNN "Manufacturer_No2"
F 10 "YAGEO_RMS1" H 2100 4650 50  0001 C CNN "Manufacturer3"
F 11 "RC0805JR-07180RL" H 2100 4650 50  0001 C CNN "Manufacturer_No3"
	1    2100 4650
	1    0    0    -1  
$EndComp
$Comp
L V_Resistor:R0603_10k_0.1%_10097272 R71
U 1 1 58DA2A05
P 4750 9150
AR Path="/58DA2A05" Ref="R71"  Part="1" 
AR Path="/5E92540F/58DA2A05" Ref="R71"  Part="1" 
F 0 "R71" V 4675 9062 64  0000 R TNN
F 1 "10k" V 4775 9062 42  0000 R TNN
F 2 "GR106772-A:R0603" H 4750 9150 50  0001 C CNN
F 3 "" H 4750 9150 50  0001 C CNN
F 4 "RESISTOR, PRECISION,10K OHM, 0.063W,+/-0.1%,0603" H 4750 9150 50  0001 C CNN "Description"
F 5 "10097272" H 4750 9150 50  0001 C CNN "Item Number"
F 6 "SUSUMU CO" H 4750 9150 50  0001 C CNN "Manufacturer"
F 7 "RG1608P-103-B-T5" H 4750 9150 50  0001 C CNN "Manufacturer_No"
F 8 "WELWYN" H 4750 9150 50  0001 C CNN "Manufacturer2"
F 9 "PCF0603R-10KBI" H 4750 9150 50  0001 C CNN "Manufacturer_No2"
F 10 "YAGEO_RMS1" H 4750 9150 50  0001 C CNN "Manufacturer3"
F 11 "RT0603BRB0710K" H 4750 9150 50  0001 C CNN "Manufacturer_No3"
	1    4750 9150
	0    -1   1    0   
$EndComp
$Comp
L V_Resistor:R0603_3k24_0.1%_10097273 R73
U 1 1 EBEFFEA5
P 4750 10150
AR Path="/EBEFFEA5" Ref="R73"  Part="1" 
AR Path="/5E92540F/EBEFFEA5" Ref="R73"  Part="1" 
F 0 "R73" V 4825 10225 64  0000 L BNN
F 1 "3.24k" V 4725 10238 42  0000 L BNN
F 2 "GR106772-A:R0603" H 4750 10150 50  0001 C CNN
F 3 "https://media.digikey.com/pdf/Data%20Sheets/Susumu%20PDFs/RG_RM_RGH_Oct2012.pdf" H 4750 10150 50  0001 C CNN
F 4 "RESISTOR,PRECISION, 3.24K OHM, 0.063W,+/-0.1%,0603" H 4750 10150 50  0001 C CNN "Description"
F 5 "10097273" H 4750 10150 50  0001 C CNN "Item Number"
F 6 "SUSUMU CO" H 4750 10150 50  0001 C CNN "Manufacturer"
F 7 "RG1608P-3241-B-T5" H 4750 10150 50  0001 C CNN "Manufacturer_No"
F 8 "VISHAY_RMS1" H 4750 10150 50  0001 C CNN "Manufacturer2"
F 9 "TNPW06033K24BEEA" H 4750 10150 50  0001 C CNN "Manufacturer_No2"
F 10 "PANASONIC_RMS1" H 4750 10150 50  0001 C CNN "Manufacturer3"
F 11 "ERA-3AEB3241V " H 4750 10150 50  0001 C CNN "Manufacturer_No3"
	1    4750 10150
	0    1    -1   0   
$EndComp
$Comp
L V_Resistor:R0805_470R_1% R66
U 1 1 DA816598
P 8150 3975
AR Path="/DA816598" Ref="R66"  Part="1" 
AR Path="/5E92540F/DA816598" Ref="R66"  Part="1" 
F 0 "R66" V 8325 3875 64  0000 L BNN
F 1 "470" V 8250 3925 42  0000 L BNN
F 2 "GR106772-A:R0805" H 8150 3975 50  0001 C CNN
F 3 "" H 8150 3975 50  0001 C CNN
F 4 "RESISTOR,470 OHM, 0.125W,+/-1%, 0805" H 8150 3975 50  0001 C CNN "Description"
F 5 "10022697" H 8150 3975 50  0001 C CNN "Item Number"
F 6 "YAGEO_RMS1" H 8150 3975 50  0001 C CNN "Manufacturer"
F 7 "RC0805FR-07470RL" H 8150 3975 50  0001 C CNN "Manufacturer_No"
F 8 "VISHAY_RMS1" H 8150 3975 50  0001 C CNN "Manufacturer2"
F 9 "CRCW0805470RFKEA" H 8150 3975 50  0001 C CNN "Manufacturer_No2"
F 10 "YAGEO_RMS1" H 8150 3975 50  0001 C CNN "Manufacturer3"
F 11 "RC0805FR-07470RL" H 8150 3975 50  0001 C CNN "Manufacturer_No3"
	1    8150 3975
	0    -1   -1   0   
$EndComp
$Comp
L V_Resistor:R0805_470R_1% R67
U 1 1 2547CA40
P 8450 4650
AR Path="/2547CA40" Ref="R67"  Part="1" 
AR Path="/5E92540F/2547CA40" Ref="R67"  Part="1" 
F 0 "R67" H 8725 4625 64  0000 R TNN
F 1 "470" H 8725 4700 42  0000 R TNN
F 2 "GR106772-A:R0805" H 8450 4650 50  0001 C CNN
F 3 "" H 8450 4650 50  0001 C CNN
F 4 "RESISTOR,470 OHM, 0.125W,+/-1%, 0805" H 8450 4650 50  0001 C CNN "Description"
F 5 "10022697" H 8450 4650 50  0001 C CNN "Item Number"
F 6 "YAGEO_RMS1" H 8450 4650 50  0001 C CNN "Manufacturer"
F 7 "RC0805FR-07470RL" H 8450 4650 50  0001 C CNN "Manufacturer_No"
F 8 "VISHAY_RMS1" H 8450 4650 50  0001 C CNN "Manufacturer2"
F 9 "CRCW0805470RFKEA" H 8450 4650 50  0001 C CNN "Manufacturer_No2"
F 10 "YAGEO_RMS1" H 8450 4650 50  0001 C CNN "Manufacturer3"
F 11 "RC0805FR-07470RL" H 8450 4650 50  0001 C CNN "Manufacturer_No3"
	1    8450 4650
	-1   0    0    1   
$EndComp
$Comp
L V_Resistor:R0603_15k_1% R40
U 1 1 7FF0BFE4
P 15150 2750
AR Path="/7FF0BFE4" Ref="R40"  Part="1" 
AR Path="/5E92540F/7FF0BFE4" Ref="R40"  Part="1" 
F 0 "R40" H 15225 2750 64  0000 L BNN
F 1 "15k" H 15225 2675 42  0000 L BNN
F 2 "GR106772-A:R0603" H 15150 2750 50  0001 C CNN
F 3 "" H 15150 2750 50  0001 C CNN
F 4 "RESISTOR, 15K OHM, 0603, +/-1%" H 15150 2750 50  0001 C CNN "Description"
F 5 "10023238" H 15150 2750 50  0001 C CNN "Item Number"
F 6 "PANASONIC_RMS1" H 15150 2750 50  0001 C CNN "Manufacturer"
F 7 "ERJ3EKF1502V" H 15150 2750 50  0001 C CNN "Manufacturer_No"
F 8 "VISHAY_RMS1" H 15150 2750 50  0001 C CNN "Manufacturer2"
F 9 "CRCW060315K0FKEA" H 15150 2750 50  0001 C CNN "Manufacturer_No2"
F 10 "YAGEO_RMS1" H 15150 2750 50  0001 C CNN "Manufacturer3"
F 11 "RC0603FR-0715KL" H 15150 2750 50  0001 C CNN "Manufacturer_No3"
	1    15150 2750
	1    0    0    -1  
$EndComp
$Comp
L V_Inductor:WE-TPC-MH L2
U 1 1 86B7B564
P 4300 8100
AR Path="/86B7B564" Ref="L2"  Part="1" 
AR Path="/5E92540F/86B7B564" Ref="L2"  Part="1" 
F 0 "L2" H 4400 8338 59  0000 R TNN
F 1 "33uH" H 4400 8238 59  0000 R TNN
F 2 "GR106772-A:WE-PD4" H 4300 8100 50  0001 C CNN
F 3 "" H 4300 8100 50  0001 C CNN
F 4 "INDUCTOR,33UH +/-10%" H 4300 8100 50  0001 C CNN "Description"
F 5 "10022908" H 4300 8100 50  0001 C CNN "Item Number"
F 6 "WURTH ELEKTRONIK GMBH" H 4300 8100 50  0001 C CNN "Manufacturer"
F 7 "74456133" H 4300 8100 50  0001 C CNN "Manufacturer_No"
	1    4300 8100
	-1   0    0    -1  
$EndComp
$Comp
L V_Capacitor:C_1000uF_35V_20% C88
U 1 1 2D29FFA4
P 1700 9850
AR Path="/2D29FFA4" Ref="C88"  Part="1" 
AR Path="/5E92540F/2D29FFA4" Ref="C88"  Part="1" 
F 0 "C88" H 1825 9856 56  0000 L BNN
F 1 "1000uF" H 1825 9781 42  0000 L BNN
F 2 "GR106772-A:CO31D1_100001111101" H 1700 9850 50  0001 C CNN
F 3 "" H 1700 9850 50  0001 C CNN
F 4 "CAPACITOR ELECTROLYTIC, 1000UF,35V,+/-20%" H 1700 9850 50  0001 C CNN "Description"
F 5 "10097252" H 1700 9850 50  0001 C CNN "Item Number"
F 6 "ILLINOIS CAPACITOR, INC." H 1700 9850 50  0001 C CNN "Manufacturer"
F 7 "108TTA035M" H 1700 9850 50  0001 C CNN "Manufacturer_No"
	1    1700 9850
	1    0    0    -1  
$EndComp
$Comp
L V_Capacitor:C_22uF_10V_10% C92
U 1 1 939B92B5
P 3900 6750
AR Path="/939B92B5" Ref="C92"  Part="1" 
AR Path="/5E92540F/939B92B5" Ref="C92"  Part="1" 
F 0 "C92" H 4012 6743 56  0000 L BNN
F 1 "22uF" H 4025 6668 42  0000 L BNN
F 2 "GR106772-A:C3216" H 3900 6750 50  0001 C CNN
F 3 "https://api.kemet.com/component-edge/download/datasheet/T495A226K010ATE1K2.pdf" H 3900 6750 50  0001 C CNN
F 4 "CAPACITOR TANTALUM, 22UF, 10V,+/-10%" H 3900 6750 50  0001 C CNN "Description"
F 5 "10022973" H 3900 6750 50  0001 C CNN "Item Number"
F 6 "KEMET" H 3900 6750 50  0001 C CNN "Manufacturer"
F 7 "T495A226K010ATE1K2" H 3900 6750 50  0001 C CNN "Manufacturer_No"
	1    3900 6750
	1    0    0    -1  
$EndComp
$Comp
L V_Capacitor:C_10uF_25V_10% C108
U 1 1 1DA7F1EB
P 5500 8400
AR Path="/1DA7F1EB" Ref="C108"  Part="1" 
AR Path="/5E92540F/1DA7F1EB" Ref="C108"  Part="1" 
F 0 "C108" H 5400 8468 56  0000 R TNN
F 1 "10uF" H 5400 8368 42  0000 R TNN
F 2 "GR106772-A:C6032" H 5500 8400 50  0001 C CNN
F 3 "https://api.kemet.com/component-edge/download/datasheet/T491C106K025AT.pdf" H 5500 8400 50  0001 C CNN
F 4 "CAPACITOR TANTALUM, 10UF, 25V, +/-10%" H 5500 8400 50  0001 C CNN "Description"
F 5 "10022608" H 5500 8400 50  0001 C CNN "Item Number"
F 6 "KEMET" H 5500 8400 50  0001 C CNN "Manufacturer"
F 7 "T491C106K025AT" H 5500 8400 50  0001 C CNN "Manufacturer_No"
F 8 "KEMET" H 5500 8400 50  0001 C CNN "Manufacturer2"
F 9 "T495C106K025ATE275" H 5500 8400 50  0001 C CNN "Manufacturer_No2"
	1    5500 8400
	-1   0    0    -1  
$EndComp
$Comp
L V_Capacitor:C_100uF_35V_20%_SMD C21
U 1 1 967DA045
P 14150 2300
AR Path="/967DA045" Ref="C21"  Part="1" 
AR Path="/5E92540F/967DA045" Ref="C21"  Part="1" 
F 0 "C21" H 14275 2300 56  0000 L BNN
F 1 "100uF" H 14275 2231 42  0000 L BNN
F 2 "GR106772-A:C-SC8" H 14150 2300 50  0001 C CNN
F 3 "https://products.nichicon.co.jp/en/pdf/XJA043/e-uwt.pdf" H 14150 2300 50  0001 C CNN
F 4 "CAPACITOR ELECTROLYTIC, 100UF, 35V +/-20% SMD" H 14150 2300 50  0001 C CNN "Description"
F 5 "10022963" H 14150 2300 50  0001 C CNN "Item Number"
F 6 "NICHICON_RMS1" H 14150 2300 50  0001 C CNN "Manufacturer"
F 7 "UWT1H101MNL1GS" H 14150 2300 50  0001 C CNN "Manufacturer_No"
	1    14150 2300
	1    0    0    -1  
$EndComp
$Comp
L V_Transistor:Q_PNP_BCEC T11
U 1 1 64295267
P 2400 1450
AR Path="/64295267" Ref="T11"  Part="1" 
AR Path="/5E92540F/64295267" Ref="T11"  Part="1" 
F 0 "T11" V 2850 1300 85  0000 L BNN
F 1 "FZT953" V 2628 1215 42  0000 L BNN
F 2 "GR106772-A:SOT223" H 2400 1450 50  0001 C CNN
F 3 "https://www.diodes.com/assets/Datasheets/FZT951_FZT953.pdf" H 2400 1450 50  0001 C CNN
F 4 "RSP TRANSISTOR, BIPOLAR, PNP, 100V, 5A, SOT223" H 2400 1450 50  0001 C CNN "Description"
F 5 "10023243" H 2400 1450 50  0001 C CNN "Item Number"
F 6 "ZETEX /Diodes inc." H 2400 1450 50  0001 C CNN "Manufacturer"
F 7 "FZT953" H 2400 1450 50  0001 C CNN "Manufacturer_No"
F 8 "ZETEX /Diodes inc." H 2400 1450 50  0001 C CNN "Manufacturer2"
F 9 "FZT953TA" H 2400 1450 50  0001 C CNN "Manufacturer_No2"
	1    2400 1450
	0    1    -1   0   
$EndComp
$Comp
L V_Transistor:Q_PNP_BCEC T12
U 1 1 28298AA4
P 2400 3850
AR Path="/28298AA4" Ref="T12"  Part="1" 
AR Path="/5E92540F/28298AA4" Ref="T12"  Part="1" 
F 0 "T12" V 2850 3550 85  0000 L BNN
F 1 "FZT953" V 2628 3573 42  0000 L BNN
F 2 "GR106772-A:SOT223" H 2400 3850 50  0001 C CNN
F 3 "https://www.diodes.com/assets/Datasheets/FZT951_FZT953.pdf" H 2400 3850 50  0001 C CNN
F 4 "RSP TRANSISTOR, BIPOLAR, PNP, 100V, 5A, SOT223" H 2400 3850 50  0001 C CNN "Description"
F 5 "10023243" H 2400 3850 50  0001 C CNN "Item Number"
F 6 "ZETEX /Diodes inc." H 2400 3850 50  0001 C CNN "Manufacturer"
F 7 "FZT953" H 2400 3850 50  0001 C CNN "Manufacturer_No"
F 8 "ZETEX /Diodes inc." H 2400 3850 50  0001 C CNN "Manufacturer2"
F 9 "FZT953TA" H 2400 3850 50  0001 C CNN "Manufacturer_No2"
	1    2400 3850
	0    1    -1   0   
$EndComp
$Comp
L V_Transistor:Q_PNP_BCEC T10
U 1 1 97227110
P 12400 2100
AR Path="/97227110" Ref="T10"  Part="1" 
AR Path="/5E92540F/97227110" Ref="T10"  Part="1" 
F 0 "T10" V 12800 2000 85  0000 L BNN
F 1 "FZT953" V 12672 2008 42  0000 L BNN
F 2 "GR106772-A:SOT223" H 12400 2100 50  0001 C CNN
F 3 "https://www.diodes.com/assets/Datasheets/FZT951_FZT953.pdf" H 12400 2100 50  0001 C CNN
F 4 "RSP TRANSISTOR, BIPOLAR, PNP, 100V, 5A, SOT223" H 12400 2100 50  0001 C CNN "Description"
F 5 "10023243" H 12400 2100 50  0001 C CNN "Item Number"
F 6 "ZETEX /Diodes inc." H 12400 2100 50  0001 C CNN "Manufacturer"
F 7 "FZT953" H 12400 2100 50  0001 C CNN "Manufacturer_No"
F 8 "ZETEX /Diodes inc." H 12400 2100 50  0001 C CNN "Manufacturer2"
F 9 "FZT953TA" H 12400 2100 50  0001 C CNN "Manufacturer_No2"
	1    12400 2100
	0    1    -1   0   
$EndComp
$Comp
L V_IC:LF33CDT IC26
U 1 1 694A8893
P 2950 6400
AR Path="/694A8893" Ref="IC26"  Part="1" 
AR Path="/5E92540F/694A8893" Ref="IC26"  Part="1" 
F 0 "IC26" H 2775 6612 85  0000 L BNN
F 1 "LF33CDT" H 2775 6525 42  0000 L BNN
F 2 "GR106772-A:DPAK_cpu" H 2950 6400 50  0001 C CNN
F 3 "http://www.st.com/content/ccc/resource/technical/document/datasheet/c4/0e/7e/2a/be/bc/4c/bd/CD00000546.pdf/files/CD00000546.pdf/jcr:content/translations/en.CD00000546.pdf" H 2950 6400 50  0001 C CNN
F 4 "REGULATOR 3.3 V 2% 500MA LOW DROPOUT,DPACK" H 2950 6400 50  0001 C CNN "Description"
F 5 "10022892" H 2950 6400 50  0001 C CNN "Item Number"
F 6 "ST MICROELECTRONIC" H 2950 6400 50  0001 C CNN "Manufacturer"
F 7 "LF33CDT" H 2950 6400 50  0001 C CNN "Manufacturer_No"
F 8 "STMICROELECTRONICS" H 2950 6400 50  0001 C CNN "Manufacturer2"
F 9 "LF33CDT-TR" H 2950 6400 50  0001 C CNN "Manufacturer_No2"
	1    2950 6400
	1    0    0    -1  
$EndComp
$Comp
L V_IC:LT1236_10023040 IC23
U 1 1 44FE90A9
P 2900 4650
AR Path="/44FE90A9" Ref="IC23"  Part="1" 
AR Path="/5E92540F/44FE90A9" Ref="IC23"  Part="1" 
F 0 "IC23" H 2550 5000 64  0000 L BNN
F 1 "LT1236ACS8-10" H 2550 4925 59  0000 L BNN
F 2 "GR106772-A:MX.A8_COMPOSANT" H 2900 4650 50  0001 C CNN
F 3 "https://datasheet.datasheetarchive.com/originals/dk/DKDS-14/268053.pdf" H 2900 4650 50  0001 C CNN
F 4 "IC,REFERENCE VOLTAGE 10V FIXED - 10 MA,SO8" H 2900 4650 50  0001 C CNN "Description"
F 5 "10023040" H 2900 4650 50  0001 C CNN "Item Number"
F 6 "LINEAR TECHNOLOGY_RMS1" H 2900 4650 50  0001 C CNN "Manufacturer"
F 7 "LT1236CCS8-10#TRPBF" H 2900 4650 50  0001 C CNN "Manufacturer_No"
	1    2900 4650
	1    0    0    -1  
$EndComp
$Comp
L V_IC:STM809_10022974 IC24
U 1 1 7AE97733
P 8950 2400
AR Path="/7AE97733" Ref="IC24"  Part="1" 
AR Path="/5E92540F/7AE97733" Ref="IC24"  Part="1" 
F 0 "IC24" H 8950 2838 59  0000 L BNN
F 1 "STM809LWX" H 8950 2750 59  0000 L BNN
F 2 "GR106772-A:SOT23-1G" H 8950 2400 50  0001 C CNN
F 3 "https://www.st.com/resource/en/datasheet/stm809.pdf" H 8950 2400 50  0001 C CNN
F 4 "RESET CIRCUIT, SUPERVISOR VOLTAGE 5V,SOT23" H 8950 2400 50  0001 C CNN "Description"
F 5 "10022974" H 8950 2400 50  0001 C CNN "Item Number"
F 6 "STMICROELECTRONICS" H 8950 2400 50  0001 C CNN "Manufacturer"
F 7 "STM809LWX6F" H 8950 2400 50  0001 C CNN "Manufacturer_No"
	1    8950 2400
	1    0    0    -1  
$EndComp
$Comp
L V_IC:STM809_10023041 IC36
U 1 1 28D53763
P 8950 6950
AR Path="/28D53763" Ref="IC36"  Part="1" 
AR Path="/5E92540F/28D53763" Ref="IC36"  Part="1" 
F 0 "IC36" H 8962 7363 59  0000 L BNN
F 1 "STM809TWX" H 8962 7288 59  0000 L BNN
F 2 "GR106772-A:SOT23-1G" H 8950 6950 50  0001 C CNN
F 3 "" H 8950 6950 50  0001 C CNN
F 4 "IC, SUPERVISOR VOLTAGE 3.3 V,SOT23" H 8950 6950 50  0001 C CNN "Description"
F 5 "10023041" H 8950 6950 50  0001 C CNN "Item Number"
F 6 "STMICROELECTRONICS" H 8950 6950 50  0001 C CNN "Manufacturer"
F 7 "STM809TWX6F" H 8950 6950 50  0001 C CNN "Manufacturer_No"
	1    8950 6950
	1    0    0    -1  
$EndComp
$Comp
L V_Capacitor:C_10uF_25V_10% C85
U 1 1 2D7C5423
P 3950 4900
AR Path="/2D7C5423" Ref="C85"  Part="1" 
AR Path="/5E92540F/2D7C5423" Ref="C85"  Part="1" 
F 0 "C85" H 4125 4975 56  0000 L CNN
F 1 "10uF" H 4125 4900 42  0000 L CNN
F 2 "GR106772-A:C6032" H 3950 4900 50  0001 C CNN
F 3 "https://api.kemet.com/component-edge/download/datasheet/T491C106K025AT.pdf" H 3950 4900 50  0001 C CNN
F 4 "CAPACITOR TANTALUM, 10UF, 25V, +/-10%" H 3950 4900 50  0001 C CNN "Description"
F 5 "10022608" H 3950 4900 50  0001 C CNN "Item Number"
F 6 "KEMET" H 3950 4900 50  0001 C CNN "Manufacturer"
F 7 "T491C106K025AT" H 3950 4900 50  0001 C CNN "Manufacturer_No"
F 8 "KEMET" H 3950 4900 50  0001 C CNN "Manufacturer2"
F 9 "T495C106K025ATE275" H 3950 4900 50  0001 C CNN "Manufacturer_No2"
	1    3950 4900
	1    0    0    -1  
$EndComp
$Comp
L V_Capacitor:C_10uF_25V_10% C81
U 1 1 5EA262E9
P 3950 2500
AR Path="/5EA262E9" Ref="C81"  Part="1" 
AR Path="/5E92540F/5EA262E9" Ref="C81"  Part="1" 
F 0 "C81" H 4125 2525 56  0000 L CNN
F 1 "10uF" H 4125 2450 42  0000 L CNN
F 2 "GR106772-A:C6032" H 3950 2500 50  0001 C CNN
F 3 "https://api.kemet.com/component-edge/download/datasheet/T491C106K025AT.pdf" H 3950 2500 50  0001 C CNN
F 4 "CAPACITOR TANTALUM, 10UF, 25V, +/-10%" H 3950 2500 50  0001 C CNN "Description"
F 5 "10022608" H 3950 2500 50  0001 C CNN "Item Number"
F 6 "KEMET" H 3950 2500 50  0001 C CNN "Manufacturer"
F 7 "T491C106K025AT" H 3950 2500 50  0001 C CNN "Manufacturer_No"
F 8 "KEMET" H 3950 2500 50  0001 C CNN "Manufacturer2"
F 9 "T495C106K025ATE275" H 3950 2500 50  0001 C CNN "Manufacturer_No2"
	1    3950 2500
	1    0    0    -1  
$EndComp
$Comp
L V_Resistor:R0805_180R_5% R35
U 1 1 AB7C9AB4
P 2150 2250
AR Path="/AB7C9AB4" Ref="R35"  Part="1" 
AR Path="/5E92540F/AB7C9AB4" Ref="R35"  Part="1" 
F 0 "R35" H 2075 2387 64  0000 L BNN
F 1 "180" H 2087 2312 42  0000 L BNN
F 2 "GR106772-A:R0805" H 2150 2250 50  0001 C CNN
F 3 "" H 2150 2250 50  0001 C CNN
F 4 "RESISTOR, 180 OHM, 0805, +/-5%" H 2150 2250 50  0001 C CNN "Description"
F 5 "10023240" H 2150 2250 50  0001 C CNN "Item Number"
F 6 "YAGEO_RMS1" H 2150 2250 50  0001 C CNN "Manufacturer"
F 7 "RC0805JR-07180RL" H 2150 2250 50  0001 C CNN "Manufacturer_No"
F 8 "KOA SPEER" H 2150 2250 50  0001 C CNN "Manufacturer2"
F 9 "RK73B2ATTD181J" H 2150 2250 50  0001 C CNN "Manufacturer_No2"
F 10 "YAGEO_RMS1" H 2150 2250 50  0001 C CNN "Manufacturer3"
F 11 "RC0805JR-07180RL" H 2150 2250 50  0001 C CNN "Manufacturer_No3"
	1    2150 2250
	1    0    0    -1  
$EndComp
$Comp
L V_IC:LT1236_10023039 IC21
U 1 1 88F14A94
P 2900 2250
AR Path="/88F14A94" Ref="IC21"  Part="1" 
AR Path="/5E92540F/88F14A94" Ref="IC21"  Part="1" 
F 0 "IC21" H 2550 2600 64  0000 L BNN
F 1 "LT1236ACS8-5" H 2550 2525 59  0000 L BNN
F 2 "GR106772-A:MX.A8_COMPOSANT" H 2900 2250 50  0001 C CNN
F 3 "http://www.linear.com/docs/2948" H 2900 2250 50  0001 C CNN
F 4 "IC,REFERENCE VOLTAGE 5V FIXED - 10 MA,SO8" H 2900 2250 50  0001 C CNN "Description"
F 5 "10023039" H 2900 2250 50  0001 C CNN "Item Number"
F 6 "LINEAR TECHNOLOGY_RMS1" H 2900 2250 50  0001 C CNN "Manufacturer"
F 7 "LT1236CCS8-5#TRPBF" H 2900 2250 50  0001 C CNN "Manufacturer_No"
	1    2900 2250
	1    0    0    -1  
$EndComp
Wire Wire Line
	1600 2800 2900 2800
Wire Wire Line
	2900 2700 2900 2800
Connection ~ 2900 2800
Wire Wire Line
	2900 2800 3500 2800
Wire Wire Line
	3500 2800 3500 2650
Wire Wire Line
	3500 2250 3400 2250
Wire Wire Line
	3500 2250 3950 2250
Connection ~ 3500 2250
Wire Wire Line
	3950 2100 3950 2250
Connection ~ 3950 2250
Wire Wire Line
	3500 2800 3950 2800
Connection ~ 3500 2800
Wire Wire Line
	2600 1250 2750 1250
Wire Wire Line
	2750 1250 2750 1350
Connection ~ 2750 1350
Wire Wire Line
	2750 1350 2600 1350
Wire Wire Line
	2400 1650 2400 2250
Connection ~ 2400 2250
Wire Wire Line
	2400 2250 2450 2250
Connection ~ 1600 4650
Wire Wire Line
	1600 4650 1600 4250
Wire Wire Line
	1600 5200 1600 5050
$Comp
L V_Power:0VANA #U$?
U 1 1 5EAD48D2
P 2900 5200
AR Path="/5EAD48D2" Ref="#U$?"  Part="1" 
AR Path="/5E92540F/5EAD48D2" Ref="#U$0108"  Part="1" 
F 0 "#U$0108" H 2900 5200 50  0001 C CNN
F 1 "0VANA" H 2763 5000 59  0000 L BNN
F 2 "" H 2900 5200 50  0001 C CNN
F 3 "" H 2900 5200 50  0001 C CNN
	1    2900 5200
	1    0    0    -1  
$EndComp
Wire Wire Line
	1600 5200 2900 5200
Wire Wire Line
	2900 5100 2900 5200
Connection ~ 2900 5200
Wire Wire Line
	2900 5200 3500 5200
Wire Wire Line
	3500 5200 3500 5050
Wire Wire Line
	3500 4650 3400 4650
Wire Wire Line
	3500 4650 3950 4650
Connection ~ 3500 4650
Wire Wire Line
	3950 4500 3950 4650
Connection ~ 3950 4650
Wire Wire Line
	3500 5200 3950 5200
Connection ~ 3500 5200
Wire Wire Line
	3500 3750 2750 3750
Wire Wire Line
	3500 3750 3500 4650
Wire Wire Line
	2600 3650 2750 3650
Wire Wire Line
	2750 3650 2750 3750
Connection ~ 2750 3750
Wire Wire Line
	2750 3750 2600 3750
Connection ~ 2400 4650
Wire Wire Line
	2400 4650 2450 4650
Wire Wire Line
	2100 6400 2450 6400
Connection ~ 2450 6400
Wire Wire Line
	2450 6400 2550 6400
Wire Wire Line
	2450 7150 2950 7150
Wire Wire Line
	2950 7150 2950 6700
Connection ~ 2950 7150
Wire Wire Line
	2950 7150 3500 7150
Wire Wire Line
	3500 7150 3500 6900
Wire Wire Line
	3500 6400 3350 6400
Wire Wire Line
	3500 6400 3900 6400
Wire Wire Line
	3900 6400 3900 6650
Connection ~ 3500 6400
Wire Wire Line
	3900 6850 3900 7150
Wire Wire Line
	3900 7150 3500 7150
Connection ~ 3500 7150
Wire Wire Line
	3900 6400 4000 6400
Connection ~ 3900 6400
Wire Wire Line
	4000 6250 4000 6400
$Comp
L V_Capacitor:C_10uF_50V_10%_TANT C117
U 1 1 E481EE55
P 2700 9300
AR Path="/E481EE55" Ref="C117"  Part="1" 
AR Path="/5E92540F/E481EE55" Ref="C117"  Part="1" 
F 0 "C117" H 2825 9293 56  0000 L BNN
F 1 "10uF" H 2825 9218 42  0000 L BNN
F 2 "GR106772-A:C7343" H 2700 9300 50  0001 C CNN
F 3 "http://datasheets.avx.com/TAJ.pdf" H 2700 9300 50  0001 C CNN
F 4 "CAPACITOR TANTALUM,10UF, 50V,+/-10%" H 2700 9300 50  0001 C CNN "Description"
F 5 "10022978" H 2700 9300 50  0001 C CNN "Item Number"
F 6 "AVX CORPORATION" H 2700 9300 50  0001 C CNN "Manufacturer"
F 7 "TAJD106K050RNJ" H 2700 9300 50  0001 C CNN "Manufacturer_No"
	1    2700 9300
	1    0    0    -1  
$EndComp
Wire Wire Line
	3200 8100 3200 8250
Wire Wire Line
	3650 8100 3800 8100
Wire Wire Line
	3800 8100 4000 8100
Connection ~ 3800 8100
$Comp
L V_Capacitor:C0603_10nF_50V_10% C97
U 1 1 F034F2C9
P 4150 8700
AR Path="/F034F2C9" Ref="C97"  Part="1" 
AR Path="/5E92540F/F034F2C9" Ref="C97"  Part="1" 
F 0 "C97" H 4200 8750 64  0000 L BNN
F 1 "10nF" H 4225 8600 42  0000 L BNN
F 2 "GR106772-A:C0603" H 4150 8700 50  0001 C CNN
F 3 "" H 4150 8700 50  0001 C CNN
F 4 "CAPACITOR CERAMIC,10NF,+/-10%,50V,0603" H 4150 8700 50  0001 C CNN "Description"
F 5 "10022508" H 4150 8700 50  0001 C CNN "Item Number"
F 6 "YAGEO_RMS1" H 4150 8700 50  0001 C CNN "Manufacturer"
F 7 "CC0603KRX7R9BB103" H 4150 8700 50  0001 C CNN "Manufacturer_No"
F 8 "YAGEO_RMS1" H 4150 8700 50  0001 C CNN "Manufacturer2"
F 9 "CC0603KRX7R9BB104" H 4150 8700 50  0001 C CNN "Manufacturer_No2"
F 10 "KEMET_RMS1" H 4150 8700 50  0001 C CNN "Manufacturer3"
F 11 "C0603C103K5RACTU" H 4150 8700 50  0001 C CNN "Manufacturer_No3"
	1    4150 8700
	1    0    0    -1  
$EndComp
Wire Wire Line
	4600 8100 4750 8100
Wire Wire Line
	6050 8650 5500 8650
Wire Wire Line
	5500 8650 5500 8500
Connection ~ 5500 8650
Wire Wire Line
	5500 8650 4950 8650
Wire Wire Line
	4750 8100 4950 8100
Connection ~ 4750 8100
Wire Wire Line
	6350 8100 6350 8025
Connection ~ 4950 8100
Wire Wire Line
	4950 8100 5500 8100
Wire Wire Line
	5500 8100 5500 8300
Connection ~ 5500 8100
Wire Wire Line
	5500 8100 6050 8100
Connection ~ 6050 8100
Wire Wire Line
	6050 8100 6350 8100
Wire Wire Line
	7850 6250 8750 6250
Wire Wire Line
	8450 5200 8750 5200
Connection ~ 8750 5200
Wire Wire Line
	8750 5200 8750 5300
Wire Wire Line
	8750 3975 8450 3975
Connection ~ 8450 3975
Wire Wire Line
	7850 1800 8750 1800
Wire Wire Line
	8750 1800 8750 1900
$Comp
L V_Capacitor:C0402_100nF_16V_10% C80
U 1 1 5EA262E8
P 3500 2500
AR Path="/5EA262E8" Ref="C80"  Part="1" 
AR Path="/5E92540F/5EA262E8" Ref="C80"  Part="1" 
F 0 "C80" H 3600 2475 64  0000 L CNN
F 1 "100nF" H 3600 2550 42  0000 L CNN
F 2 "GR106772-A:C0402" H 3500 2500 50  0001 C CNN
F 3 "https://www.yageo.com/upload/media/product/productsearch/datasheet/mlcc/UPY-GPHC_X7R_6.3V-to-50V_18.pdf" H 3500 2500 50  0001 C CNN
F 4 "CAPACITOR,100NF,16V,+/-10%,X7R,0402" H 3500 2500 50  0001 C CNN "Description"
F 5 "10022607" H 3500 2500 50  0001 C CNN "Item Number"
F 6 "YAGEO_RMS1" H 3500 2500 50  0001 C CNN "Manufacturer"
F 7 "CC0402KRX7R7BB104" H 3500 2500 50  0001 C CNN "Manufacturer_No"
F 8 "YAGEO_RMS1" H 3500 2500 50  0001 C CNN "Manufacturer2"
F 9 "223878715649" H 3500 2500 50  0001 C CNN "Manufacturer_No2"
F 10 "MURATA MANUFACTURING CO., LTD." H 3500 2500 50  0001 C CNN "Manufacturer3"
F 11 "GRM155R71C104KA88D" H 3500 2500 50  0001 C CNN "Manufacturer_No3"
	1    3500 2500
	1    0    0    1   
$EndComp
Wire Wire Line
	11650 1475 11650 1550
Wire Wire Line
	11650 1550 12150 1550
Wire Wire Line
	11650 1550 11650 2000
Wire Wire Line
	11650 2000 11750 2000
Connection ~ 11650 1550
Wire Wire Line
	11650 2000 11650 2250
Connection ~ 11650 2000
Wire Wire Line
	11650 2450 11650 3050
Wire Wire Line
	11650 3050 12400 3050
$Comp
L V_Fuse:SLOBLO FU2
U 1 1 2106B4DB
P 11950 2000
AR Path="/2106B4DB" Ref="FU2"  Part="1" 
AR Path="/5E92540F/2106B4DB" Ref="FU2"  Part="1" 
F 0 "FU2" H 11800 2130 51  0000 L BNN
F 1 "500 mA T" H 11800 2048 51  0000 L BNN
F 2 "GR106772-A:FU154000" H 11950 2000 50  0001 C CNN
F 3 "" H 11950 2000 50  0001 C CNN
F 4 "FUSE, 500MA" H 11950 2000 50  0001 C CNN "Description"
F 5 "10022703" H 11950 2000 50  0001 C CNN "Item Number"
F 6 "LITTELFUSE_RMS1" H 11950 2000 50  0001 C CNN "Manufacturer"
F 7 "0154.500DRT" H 11950 2000 50  0001 C CNN "Manufacturer_No"
	1    11950 2000
	1    0    0    -1  
$EndComp
Wire Wire Line
	12200 2000 12150 2000
Wire Wire Line
	12400 2300 12400 2500
$Comp
L V_Resistor:R0603_4k7_5% R41
U 1 1 5EAEEA7B
P 12400 2650
F 0 "R41" V 12450 2725 64  0000 L CNN
F 1 "4.7k" V 12350 2725 42  0000 L CNN
F 2 "GR106772-A:R0603" H 12400 2650 50  0001 C CNN
F 3 "https://www.bourns.com/docs/Product-Datasheets/CHPREZTR.pdf" H 12400 2650 50  0001 C CNN
F 4 "RESISTOR, 4.7 K OHM, 0.063W +/-5%" H 12400 2650 50  0001 C CNN "Description"
F 5 "10022617" H 12400 2650 50  0001 C CNN "Item Number"
F 6 "BOURNS_RMS1" H 12400 2650 50  0001 C CNN "Manufacturer"
F 7 "CR0603-FX-4701ELF " H 12400 2650 50  0001 C CNN "Manufacturer_No"
F 8 "YAGEO_RMS1" H 12400 2650 50  0001 C CNN "Manufacturer2"
F 9 "RC0603JR-074K7L" H 12400 2650 50  0001 C CNN "Manufacturer_No2"
F 10 "YAGEO_RMS1" H 12400 2650 50  0001 C CNN "Manufacturer3"
F 11 "RC0603JR-074K7L" H 12400 2650 50  0001 C CNN "Manufacturer_No3"
	1    12400 2650
	0    1    -1   0   
$EndComp
$Comp
L V_Capacitor:C0402_220pF_50V_5% C47
U 1 1 5EB01229
P 13000 2400
F 0 "C47" H 13125 2450 64  0000 L CNN
F 1 "220pF" H 13125 2350 42  0000 L CNN
F 2 "GR106772-A:C0402" H 13000 2400 50  0001 C CNN
F 3 "" H 13000 2400 50  0001 C CNN
F 4 "CAPACITOR CERAMIC, 220PF, 50V,+/-5%, NPO,0402" H 13000 2400 50  0001 C CNN "Description"
F 5 "10022966" H 13000 2400 50  0001 C CNN "Item Number"
F 6 "YAGEO_RMS1" H 13000 2400 50  0001 C CNN "Manufacturer"
F 7 "CC0402JRNPO9BN221" H 13000 2400 50  0001 C CNN "Manufacturer_No"
F 8 "MURATA MANUFACTURING CO., LTD." H 13000 2400 50  0001 C CNN "Manufacturer2"
F 9 "GRM1555C1H221JA01D" H 13000 2400 50  0001 C CNN "Manufacturer_No2"
F 10 "YAGEO_RMS1" H 13000 2400 50  0001 C CNN "Manufacturer3"
F 11 "CC0402JRNPO9BN221" H 13000 2400 50  0001 C CNN "Manufacturer_No3"
	1    13000 2400
	1    0    0    -1  
$EndComp
Wire Wire Line
	12600 2000 12700 2000
Wire Wire Line
	12550 1550 13000 1550
Wire Wire Line
	13000 1550 13000 2000
Connection ~ 13000 2000
Wire Wire Line
	13000 2000 13200 2000
Wire Wire Line
	12400 3050 13000 3050
Wire Wire Line
	13000 3050 13000 2500
Connection ~ 12400 3050
Wire Wire Line
	13000 2000 13000 2300
Wire Wire Line
	13400 2000 13650 2000
Wire Wire Line
	13650 2000 13650 2300
Wire Wire Line
	13650 3050 13000 3050
Connection ~ 13000 3050
Wire Wire Line
	14150 3050 13650 3050
Connection ~ 13650 3050
Wire Wire Line
	13650 2000 14150 2000
Wire Wire Line
	14150 2000 14150 2150
Connection ~ 13650 2000
Connection ~ 14150 2000
Wire Wire Line
	15150 2500 15275 2500
Connection ~ 15150 2500
$Comp
L V_Power:0VANA #U$?
U 1 1 5EB67D38
P 15150 3050
AR Path="/5EB67D38" Ref="#U$?"  Part="1" 
AR Path="/5E92540F/5EB67D38" Ref="#U$0112"  Part="1" 
F 0 "#U$0112" H 15150 3050 50  0001 C CNN
F 1 "0VANA" H 15025 2863 59  0000 L BNN
F 2 "" H 15150 3050 50  0001 C CNN
F 3 "" H 15150 3050 50  0001 C CNN
	1    15150 3050
	1    0    0    -1  
$EndComp
$Comp
L V_Capacitor:C0402_100nF_16V_10% C74
U 1 1 5EB68398
P 14900 2750
F 0 "C74" H 15200 2700 64  0000 R CNN
F 1 "100nF" H 15200 2800 42  0000 R CNN
F 2 "GR106772-A:C0402" H 14900 2750 50  0001 C CNN
F 3 "https://www.yageo.com/upload/media/product/productsearch/datasheet/mlcc/UPY-GPHC_X7R_6.3V-to-50V_18.pdf" H 14900 2750 50  0001 C CNN
F 4 "CAPACITOR,100NF,16V,+/-10%,X7R,0402" H 14900 2750 50  0001 C CNN "Description"
F 5 "10022607" H 14900 2750 50  0001 C CNN "Item Number"
F 6 "YAGEO_RMS1" H 14900 2750 50  0001 C CNN "Manufacturer"
F 7 "CC0402KRX7R7BB104" H 14900 2750 50  0001 C CNN "Manufacturer_No"
F 8 "YAGEO_RMS1" H 14900 2750 50  0001 C CNN "Manufacturer2"
F 9 "223878715649" H 14900 2750 50  0001 C CNN "Manufacturer_No2"
F 10 "MURATA MANUFACTURING CO., LTD." H 14900 2750 50  0001 C CNN "Manufacturer3"
F 11 "GRM155R71C104KA88D" H 14900 2750 50  0001 C CNN "Manufacturer_No3"
	1    14900 2750
	-1   0    0    1   
$EndComp
Wire Wire Line
	15150 2500 14900 2500
Wire Wire Line
	14900 3000 15150 3000
Wire Wire Line
	12600 1900 12700 1900
Wire Wire Line
	12700 1900 12700 2000
Connection ~ 12700 2000
Wire Wire Line
	12700 2000 13000 2000
Wire Wire Line
	7850 6200 7850 6250
Wire Wire Line
	7850 3875 7850 3975
$Comp
L V_Capacitor:C_100uF_35V_20%_TH C?
U 1 1 5EA4EF1D
P 14150 2300
AR Path="/5EA4EF1D" Ref="C?"  Part="1" 
AR Path="/5E92540F/5EA4EF1D" Ref="ZC21"  Part="1" 
F 0 "ZC21" H 14275 2375 56  0000 L BNN
F 1 "100uF" H 14275 2231 42  0000 L BNN
F 2 "GR106772-A:03513_100011111101" H 14150 2300 50  0001 C CNN
F 3 "" H 14150 2300 50  0001 C CNN
F 4 "CAPACITOR ELECTROLYTIC, 100UF, 35V +/-20%" H 14150 2300 50  0001 C CNN "Description"
F 5 "10022963_TH" H 14150 2300 50  0001 C CNN "Item Number"
F 6 "MULTICOMP                       (920630)" H 14150 2300 50  0001 C CNN "Manufacturer"
F 7 "MCRH35V107M8X11" H 14150 2300 50  0001 C CNN "Manufacturer_No"
F 8 "LELON" H 14150 2300 50  0001 C CNN "Manufacturer2"
F 9 "RXW101M1VSA-0811s" H 14150 2300 50  0001 C CNN "Manufacturer_No2"
	1    14150 2300
	1    0    0    -1  
$EndComp
$Comp
L V_Power:PWR_FLAG #FLG0101
U 1 1 5EB406E1
P 14800 2000
F 0 "#FLG0101" H 14800 2075 50  0001 C CNN
F 1 "PWR_FLAG" H 14800 2173 50  0000 C CNN
F 2 "" H 14800 2000 50  0001 C CNN
F 3 "" H 14800 2000 50  0001 C CNN
	1    14800 2000
	1    0    0    -1  
$EndComp
Connection ~ 14800 2000
Wire Wire Line
	14800 2000 15150 2000
$Comp
L V_Power:PWR_FLAG #FLG0106
U 1 1 5FFE8229
P 2400 4650
F 0 "#FLG0106" H 2400 4725 50  0001 C CNN
F 1 "PWR_FLAG" H 2250 4800 50  0000 L CNN
F 2 "" H 2400 4650 50  0001 C CNN
F 3 "" H 2400 4650 50  0001 C CNN
	1    2400 4650
	-1   0    0    1   
$EndComp
$Comp
L V_Power:PWR_FLAG #FLG0107
U 1 1 600002FA
P 2700 9000
F 0 "#FLG0107" H 2700 9075 50  0001 C CNN
F 1 "PWR_FLAG" H 2700 9150 50  0000 C CNN
F 2 "" H 2700 9000 50  0001 C CNN
F 3 "" H 2700 9000 50  0001 C CNN
	1    2700 9000
	1    0    0    -1  
$EndComp
$Comp
L V_Power:PWR_FLAG #FLG0108
U 1 1 60008CAC
P 2400 2250
F 0 "#FLG0108" H 2400 2325 50  0001 C CNN
F 1 "PWR_FLAG" H 2450 2400 50  0000 C CNN
F 2 "" H 2400 2250 50  0001 C CNN
F 3 "" H 2400 2250 50  0001 C CNN
	1    2400 2250
	-1   0    0    1   
$EndComp
Wire Wire Line
	2300 2250 2400 2250
Wire Wire Line
	3950 2600 3950 2800
Wire Wire Line
	3950 2250 3950 2400
Wire Wire Line
	3500 2250 3500 1350
Wire Wire Line
	2750 1350 3500 1350
Wire Wire Line
	1600 2250 1850 2250
Wire Wire Line
	1850 2250 1850 1350
Wire Wire Line
	1850 1350 2200 1350
Connection ~ 1850 2250
Wire Wire Line
	1850 2250 2000 2250
Wire Wire Line
	3950 5000 3950 5200
Wire Wire Line
	3950 4650 3950 4800
Wire Wire Line
	2250 4650 2400 4650
Wire Wire Line
	1600 4650 1850 4650
Wire Wire Line
	1850 4650 1850 3750
Wire Wire Line
	1850 3750 2200 3750
Connection ~ 1850 4650
Wire Wire Line
	1850 4650 1950 4650
Wire Wire Line
	2100 6250 2100 6400
Wire Wire Line
	2150 9700 2700 9700
Wire Wire Line
	2700 9700 2700 9725
Wire Wire Line
	2150 9150 2150 9050
Wire Wire Line
	1700 8950 1700 9050
Wire Wire Line
	2700 9050 2150 9050
Connection ~ 1700 9050
Wire Wire Line
	1700 9050 1700 9750
Connection ~ 2150 9050
Wire Wire Line
	2150 9050 1700 9050
Connection ~ 2700 9700
Wire Wire Line
	3700 10350 3700 10400
NoConn ~ 3050 9450
Connection ~ 2700 9050
Wire Wire Line
	4050 9450 4750 9450
Wire Wire Line
	4750 9450 4750 10000
Connection ~ 4750 9450
Wire Wire Line
	3800 8100 3800 8450
Wire Wire Line
	4050 9050 4150 9050
Wire Wire Line
	5500 8650 5500 8800
Wire Wire Line
	4750 8100 4750 9000
Wire Wire Line
	4750 9300 4750 9450
Wire Wire Line
	4750 10300 4750 10400
Wire Wire Line
	1700 9950 1700 10350
Wire Wire Line
	1700 10350 3700 10350
Wire Wire Line
	8750 6250 8750 6450
Wire Wire Line
	9450 6950 9850 6950
Wire Wire Line
	8750 7450 8750 7600
Wire Wire Line
	7850 3975 8000 3975
Wire Wire Line
	8300 3975 8450 3975
Wire Wire Line
	8450 3975 8450 4500
Wire Wire Line
	8450 4800 8450 5200
Wire Wire Line
	8750 5100 8750 5200
Wire Wire Line
	8750 3975 8750 4100
$Comp
L V_IC:STM809_10022974 IC25
U 1 1 6D5019AB
P 8950 4600
AR Path="/6D5019AB" Ref="IC25"  Part="1" 
AR Path="/5E92540F/6D5019AB" Ref="IC25"  Part="1" 
F 0 "IC25" H 8950 5025 59  0000 L BNN
F 1 "STM809LWX" H 8950 4938 59  0000 L BNN
F 2 "GR106772-A:SOT23-1G" H 8950 4600 50  0001 C CNN
F 3 "https://www.st.com/resource/en/datasheet/stm809.pdf" H 8950 4600 50  0001 C CNN
F 4 "RESET CIRCUIT, SUPERVISOR VOLTAGE 5V,SOT23" H 8950 4600 50  0001 C CNN "Description"
F 5 "10022974" H 8950 4600 50  0001 C CNN "Item Number"
F 6 "STMICROELECTRONICS" H 8950 4600 50  0001 C CNN "Manufacturer"
F 7 "STM809LWX6F" H 8950 4600 50  0001 C CNN "Manufacturer_No"
	1    8950 4600
	1    0    0    -1  
$EndComp
Wire Wire Line
	9450 4600 9850 4600
Wire Wire Line
	9450 2400 9850 2400
Wire Wire Line
	8750 2900 8750 3050
Wire Wire Line
	7850 1750 7850 1800
Wire Wire Line
	12400 2800 12400 3050
Wire Wire Line
	14150 2000 14500 2000
Wire Wire Line
	14500 1800 14500 2000
Connection ~ 14500 2000
Wire Wire Line
	14500 2000 14800 2000
Wire Wire Line
	15150 2000 15150 2100
Wire Wire Line
	15150 2400 15150 2500
Wire Wire Line
	15150 2500 15150 2600
Wire Wire Line
	15150 3050 15150 3000
Wire Wire Line
	15150 2900 15150 3000
Connection ~ 15150 3000
Wire Wire Line
	14900 2500 14900 2600
Wire Wire Line
	3350 8100 3200 8100
Wire Wire Line
	3500 6600 3500 6400
Wire Wire Line
	2450 6600 2450 6400
Wire Wire Line
	2450 6900 2450 7150
Wire Wire Line
	1600 4750 1600 4650
Wire Wire Line
	3500 4750 3500 4650
Wire Wire Line
	3500 2350 3500 2250
Wire Wire Line
	1600 2350 1600 2250
Wire Wire Line
	1600 2650 1600 2800
Wire Wire Line
	13650 2600 13650 3050
Wire Wire Line
	14900 2900 14900 3000
$Comp
L V_IC:TPS5430DDA IC29
U 1 1 408852E0
P 3550 9250
AR Path="/408852E0" Ref="IC29"  Part="1" 
AR Path="/5E92540F/408852E0" Ref="IC29"  Part="1" 
F 0 "IC29" H 3550 9800 85  0000 R TNN
F 1 "TPS5430" H 3550 9650 50  0000 R TNN
F 2 "GR106772-A:SO08-PPAD_COMPOSANT" H 3550 9250 50  0001 C CNN
F 3 "https://www.ti.com/lit/ds/symlink/tps5430.pdf" H 3550 9250 50  0001 C CNN
F 4 "REGULATOR, 5.5V TO 36V,3A HSOP8" H 3550 9250 50  0001 C CNN "Description"
F 5 "10022895" H 3550 9250 50  0001 C CNN "Item Number"
F 6 "TEXAS INSTRUMENTS_RMS1" H 3550 9250 50  0001 C CNN "Manufacturer"
F 7 "TPS5430DDA" H 3550 9250 50  0001 C CNN "Manufacturer_No"
F 8 "TEXAS INSTRUMENTS_RMS1" H 3550 9250 50  0001 C CNN "Manufacturer2"
F 9 "TPS5430DDAR" H 3550 9250 50  0001 C CNN "Manufacturer_No2"
	1    3550 9250
	1    0    0    -1  
$EndComp
Wire Wire Line
	4450 9250 4450 8450
Wire Wire Line
	3800 8450 4150 8450
Wire Wire Line
	4050 9250 4450 9250
Wire Wire Line
	4150 8850 4150 9050
Wire Wire Line
	4150 8550 4150 8450
Connection ~ 4150 8450
Wire Wire Line
	4150 8450 4450 8450
Wire Wire Line
	2700 9050 3050 9050
Wire Wire Line
	2150 9450 2150 9700
Wire Wire Line
	3450 9650 3450 9700
Wire Wire Line
	2700 9700 3450 9700
Wire Wire Line
	3550 9650 3550 9700
Wire Wire Line
	3550 9700 3450 9700
Connection ~ 3450 9700
Wire Wire Line
	6050 8250 6050 8100
Wire Wire Line
	6050 8550 6050 8650
Wire Wire Line
	2700 9450 2700 9700
Wire Wire Line
	2400 4050 2400 4650
$Comp
L V_Capacitor:C0402_100nF_16V_10% C?
U 1 1 5EA9F004
P 3500 4900
AR Path="/5EA9F004" Ref="C?"  Part="1" 
AR Path="/5E92540F/5EA9F004" Ref="C83"  Part="1" 
F 0 "C83" H 3400 4850 64  0000 R CNN
F 1 "100nF" H 3400 4925 42  0000 R CNN
F 2 "GR106772-A:C0402" H 3500 4900 50  0001 C CNN
F 3 "https://www.yageo.com/upload/media/product/productsearch/datasheet/mlcc/UPY-GPHC_X7R_6.3V-to-50V_18.pdf" H 3500 4900 50  0001 C CNN
F 4 "CAPACITOR,100NF,16V,+/-10%,X7R,0402" H 0   0   50  0001 C CNN "Description"
F 5 "10022607" H 0   0   50  0001 C CNN "Item Number"
F 6 "YAGEO_RMS1" H 0   0   50  0001 C CNN "Manufacturer"
F 7 "YAGEO_RMS1" H 0   0   50  0001 C CNN "Manufacturer2"
F 8 "MURATA MANUFACTURING CO., LTD." H 0   0   50  0001 C CNN "Manufacturer3"
F 9 "CC0402KRX7R7BB104" H 0   0   50  0001 C CNN "Manufacturer_No"
F 10 "223878715649" H 0   0   50  0001 C CNN "Manufacturer_No2"
F 11 "GRM155R71C104KA88D" H 0   0   50  0001 C CNN "Manufacturer_No3"
	1    3500 4900
	-1   0    0    1   
$EndComp
$Comp
L V_Capacitor:C0402_100nF_16V_10% C90
U 1 1 8D21F230
P 3500 6750
AR Path="/8D21F230" Ref="C90"  Part="1" 
AR Path="/5E92540F/8D21F230" Ref="C90"  Part="1" 
F 0 "C90" H 3575 6750 64  0000 L CNN
F 1 "100nF" H 3575 6825 42  0000 L CNN
F 2 "GR106772-A:C0402" H 3500 6750 50  0001 C CNN
F 3 "https://www.yageo.com/upload/media/product/productsearch/datasheet/mlcc/UPY-GPHC_X7R_6.3V-to-50V_18.pdf" H 3500 6750 50  0001 C CNN
F 4 "CAPACITOR,100NF,16V,+/-10%,X7R,0402" H 0   0   50  0001 C CNN "Description"
F 5 "10022607" H 0   0   50  0001 C CNN "Item Number"
F 6 "YAGEO_RMS1" H 0   0   50  0001 C CNN "Manufacturer"
F 7 "YAGEO_RMS1" H 0   0   50  0001 C CNN "Manufacturer2"
F 8 "MURATA MANUFACTURING CO., LTD." H 0   0   50  0001 C CNN "Manufacturer3"
F 9 "CC0402KRX7R7BB104" H 0   0   50  0001 C CNN "Manufacturer_No"
F 10 "223878715649" H 0   0   50  0001 C CNN "Manufacturer_No2"
F 11 "GRM155R71C104KA88D" H 0   0   50  0001 C CNN "Manufacturer_No3"
	1    3500 6750
	1    0    0    1   
$EndComp
Wire Wire Line
	2700 9050 2700 9000
Wire Wire Line
	1700 8650 1700 8600
$Comp
L V_Resistor:R0603_75k_1% R?
U 1 1 5EB4CA51
P 15150 2250
AR Path="/5EB4CA51" Ref="R?"  Part="1" 
AR Path="/5E92540F/5EB4CA51" Ref="R36"  Part="1" 
F 0 "R36" V 15137 2337 64  0000 L BNN
F 1 "75k" V 15212 2337 42  0000 L BNN
F 2 "GR106772-A:R0603" H 15150 2250 50  0001 C CNN
F 3 "https://www.bourns.com/docs/Product-Datasheets/CHPREZTR.pdf" H 15150 2250 50  0001 C CNN
F 4 "RESISTOR, 75K OHM, 0603, +/-1%" H 0   0   50  0001 C CNN "Description"
F 5 "10023239" H 0   0   50  0001 C CNN "Item Number"
F 6 "BOURNS_RMS1" H 0   0   50  0001 C CNN "Manufacturer"
F 7 "CR0603-FX-7502ELF " H 0   0   50  0001 C CNN "Manufacturer_No"
	1    15150 2250
	0    1    1    0   
$EndComp
$Comp
L V_Capacitor:C0805_100nF_50V_10% C46
U 1 1 5EB01C7B
P 13650 2450
F 0 "C46" H 13750 2400 64  0000 L CNN
F 1 "100nF" H 13750 2500 42  0000 L CNN
F 2 "GR106772-A:C0805" H 13650 2450 50  0001 C CNN
F 3 "https://www.yageo.com/upload/media/product/productsearch/datasheet/mlcc/UPY-GPHC_X7R_6.3V-to-50V_18.pdf" H 13650 2450 50  0001 C CNN
F 4 "CAPACITOR CERAMIC, 100NF, +/-10%, 50V, X7R,0805" H 13650 2450 50  0001 C CNN "Description"
F 5 "10022135" H 13650 2450 50  0001 C CNN "Item Number"
F 6 "YAGEO_RMS1" H 13650 2450 50  0001 C CNN "Manufacturer"
F 7 "CC0805KRX7R9BB104" H 13650 2450 50  0001 C CNN "Manufacturer_No"
F 8 "MURATA MANUFACTURING CO., LTD." H 13650 2450 50  0001 C CNN "Manufacturer2"
F 9 "GRM21BR71H104KA01L" H 13650 2450 50  0001 C CNN "Manufacturer_No2"
F 10 "YAGEO_RMS1" H 13650 2450 50  0001 C CNN "Manufacturer3"
F 11 "CC0805KRX7R9BB104" H 13650 2450 50  0001 C CNN "Manufacturer_No3"
	1    13650 2450
	1    0    0    1   
$EndComp
$Comp
L V_Capacitor:C_220uF_20%_SMD C106
U 1 1 F8977F3B
P 4950 8400
AR Path="/F8977F3B" Ref="C106"  Part="1" 
AR Path="/5E92540F/F8977F3B" Ref="C106"  Part="1" 
F 0 "C106" H 4850 8468 56  0000 R TNN
F 1 "220uF" H 4838 8368 42  0000 R TNN
F 2 "GR106772-A:C-SC8" H 4950 8400 50  0001 C CNN
F 3 "" H 4950 8400 50  0001 C CNN
F 4 "CAPACITOR ELECTROLYTIC, 220UF,16V+/-20%" H 4950 8400 50  0001 C CNN "Description"
F 5 "10022622" H 4950 8400 50  0001 C CNN "Item Number"
F 6 "PANASONIC_RMS1" H 4950 8400 50  0001 C CNN "Manufacturer"
F 7 "EEEFK1C221P" H 4950 8400 50  0001 C CNN "Manufacturer_No"
F 8 "ELNA AMERICA, INC." H 4950 8400 50  0001 C CNN "Manufacturer2"
F 9 "RVD-16V221MG68U-R" H 4950 8400 50  0001 C CNN "Manufacturer_No2"
F 10 "ELNA AMERICA, INC." H 0   0   50  0001 C CNN "Manufacturer3"
F 11 "RVZ-16V221MG68U" H 0   0   50  0001 C CNN "Manufacturer_No3"
	1    4950 8400
	-1   0    0    -1  
$EndComp
Wire Wire Line
	4950 8100 4950 8250
$Comp
L V_Capacitor:C_220uF_20%_TH C?
U 1 1 5EA53F33
P 4950 8400
AR Path="/5EA53F33" Ref="C?"  Part="1" 
AR Path="/5E92540F/5EA53F33" Ref="ZC106"  Part="1" 
F 0 "ZC106" H 4850 8550 56  0000 R TNN
F 1 "220uF" H 4838 8368 42  0000 R TNN
F 2 "GR106772-A:03512_100001111101" H 4950 8400 50  0001 C CNN
F 3 "" H 4950 8400 50  0001 C CNN
F 4 "CAPACITOR ELECTROLYTIC, 220UF,16V+/-20% TH" H 4950 8400 50  0001 C CNN "Description"
F 5 "10022622_TH" H 4950 8400 50  0001 C CNN "Item Number"
	1    4950 8400
	-1   0    0    -1  
$EndComp
Wire Wire Line
	4950 8550 4950 8650
Connection ~ 4950 8250
Connection ~ 4950 8550
Wire Wire Line
	14150 2450 14150 3050
Connection ~ 14150 2150
Connection ~ 14150 2450
$Comp
L V_Power:+24V #PWR0116
U 1 1 5EBE8406
P 1600 1850
F 0 "#PWR0116" H 1750 1750 50  0001 C CNN
F 1 "+24V" H 1615 2023 50  0000 C CNN
F 2 "" H 1600 1850 50  0001 C CNN
F 3 "" H 1600 1850 50  0001 C CNN
	1    1600 1850
	1    0    0    -1  
$EndComp
$Comp
L V_Power:+24V #PWR0117
U 1 1 5EBE8E7D
P 1600 4250
F 0 "#PWR0117" H 1750 4150 50  0001 C CNN
F 1 "+24V" H 1615 4423 50  0000 C CNN
F 2 "" H 1600 4250 50  0001 C CNN
F 3 "" H 1600 4250 50  0001 C CNN
	1    1600 4250
	1    0    0    -1  
$EndComp
$Comp
L V_Power:+24V #PWR0118
U 1 1 5EBEA719
P 1700 8600
F 0 "#PWR0118" H 1850 8500 50  0001 C CNN
F 1 "+24V" H 1715 8773 50  0000 C CNN
F 2 "" H 1700 8600 50  0001 C CNN
F 3 "" H 1700 8600 50  0001 C CNN
	1    1700 8600
	1    0    0    -1  
$EndComp
$Comp
L V_Power:+24V #PWR0119
U 1 1 5EBECE96
P 14500 1800
F 0 "#PWR0119" H 14650 1700 50  0001 C CNN
F 1 "+24V" H 14515 1973 50  0000 C CNN
F 2 "" H 14500 1800 50  0001 C CNN
F 3 "" H 14500 1800 50  0001 C CNN
	1    14500 1800
	1    0    0    -1  
$EndComp
$Comp
L V_Power:+24VUTIL #0104
U 1 1 5EBF49B4
P 11650 1475
F 0 "#0104" H 11700 1525 50  0001 C CNN
F 1 "+24VUTIL" H 11450 1625 59  0000 L CNN
F 2 "" H 11650 1575 50  0001 C CNN
F 3 "" H 11650 1575 50  0001 C CNN
	1    11650 1475
	1    0    0    -1  
$EndComp
$Comp
L V_Power:+5VREF #U0117
U 1 1 5EBF8F48
P 3950 2100
F 0 "#U0117" H 4000 2150 50  0001 C CNN
F 1 "+5VREF" H 3775 2275 59  0000 L CNN
F 2 "" H 3950 2200 50  0001 C CNN
F 3 "" H 3950 2200 50  0001 C CNN
	1    3950 2100
	1    0    0    -1  
$EndComp
$Comp
L V_Power:+5VREF #U0118
U 1 1 5EBFA552
P 7850 1750
F 0 "#U0118" H 7900 1800 50  0001 C CNN
F 1 "+5VREF" H 7675 1925 59  0000 L CNN
F 2 "" H 7850 1850 50  0001 C CNN
F 3 "" H 7850 1850 50  0001 C CNN
	1    7850 1750
	1    0    0    -1  
$EndComp
$Comp
L V_Power:+10VREF #0105
U 1 1 5EC003B6
P 3950 4500
F 0 "#0105" H 4000 4550 50  0001 C CNN
F 1 "+10VREF" H 3750 4675 59  0000 L CNN
F 2 "" H 3950 4500 50  0001 C CNN
F 3 "" H 3950 4500 50  0001 C CNN
	1    3950 4500
	1    0    0    -1  
$EndComp
$Comp
L V_Power:+5V #0106
U 1 1 5EC046C8
P 2100 6250
F 0 "#0106" H 2150 6300 50  0001 C CNN
F 1 "+5V" H 2000 6400 59  0000 L CNN
F 2 "" H 2100 6350 50  0001 C CNN
F 3 "" H 2100 6350 50  0001 C CNN
	1    2100 6250
	1    0    0    -1  
$EndComp
$Comp
L V_Power:+5V #U0119
U 1 1 5EC094F0
P 6350 8025
F 0 "#U0119" H 6400 8075 50  0001 C CNN
F 1 "+5V" H 6250 8175 59  0000 L CNN
F 2 "" H 6350 8125 50  0001 C CNN
F 3 "" H 6350 8125 50  0001 C CNN
	1    6350 8025
	1    0    0    -1  
$EndComp
$Comp
L V_Power:GND #PWR0120
U 1 1 5EC0DB2F
P 2950 7150
F 0 "#PWR0120" H 3100 7100 50  0001 C CNN
F 1 "GND" H 2950 7000 50  0000 C CNN
F 2 "" H 2950 7050 50  0001 C CNN
F 3 "" H 2950 7050 50  0001 C CNN
	1    2950 7150
	1    0    0    -1  
$EndComp
$Comp
L V_Power:GND #PWR0121
U 1 1 5EC0E965
P 3200 8250
F 0 "#PWR0121" H 3350 8200 50  0001 C CNN
F 1 "GND" H 3200 8100 50  0000 C CNN
F 2 "" H 3200 8150 50  0001 C CNN
F 3 "" H 3200 8150 50  0001 C CNN
	1    3200 8250
	1    0    0    -1  
$EndComp
$Comp
L V_Power:GND #PWR0122
U 1 1 5EC1047D
P 5500 8800
F 0 "#PWR0122" H 5650 8750 50  0001 C CNN
F 1 "GND" H 5500 8650 50  0000 C CNN
F 2 "" H 5500 8700 50  0001 C CNN
F 3 "" H 5500 8700 50  0001 C CNN
	1    5500 8800
	1    0    0    -1  
$EndComp
$Comp
L V_Power:GND #PWR0123
U 1 1 5EC11172
P 4750 10400
F 0 "#PWR0123" H 4900 10350 50  0001 C CNN
F 1 "GND" H 4750 10250 50  0000 C CNN
F 2 "" H 4750 10300 50  0001 C CNN
F 3 "" H 4750 10300 50  0001 C CNN
	1    4750 10400
	1    0    0    -1  
$EndComp
$Comp
L V_Power:GND #PWR0124
U 1 1 5EC12296
P 3700 10400
F 0 "#PWR0124" H 3850 10350 50  0001 C CNN
F 1 "GND" H 3700 10250 50  0000 C CNN
F 2 "" H 3700 10300 50  0001 C CNN
F 3 "" H 3700 10300 50  0001 C CNN
	1    3700 10400
	1    0    0    -1  
$EndComp
$Comp
L V_Power:GND #PWR0125
U 1 1 5EC14A5D
P 2700 9725
F 0 "#PWR0125" H 2850 9675 50  0001 C CNN
F 1 "GND" H 2700 9575 50  0000 C CNN
F 2 "" H 2700 9625 50  0001 C CNN
F 3 "" H 2700 9625 50  0001 C CNN
	1    2700 9725
	1    0    0    -1  
$EndComp
$Comp
L V_Power:GND #PWR0126
U 1 1 5EC15442
P 8750 7600
F 0 "#PWR0126" H 8900 7550 50  0001 C CNN
F 1 "GND" H 8750 7450 50  0000 C CNN
F 2 "" H 8750 7500 50  0001 C CNN
F 3 "" H 8750 7500 50  0001 C CNN
	1    8750 7600
	1    0    0    -1  
$EndComp
$Comp
L V_Power:GND #PWR0127
U 1 1 5EC16972
P 13650 3050
F 0 "#PWR0127" H 13800 3000 50  0001 C CNN
F 1 "GND" H 13650 2900 50  0000 C CNN
F 2 "" H 13650 2950 50  0001 C CNN
F 3 "" H 13650 2950 50  0001 C CNN
	1    13650 3050
	1    0    0    -1  
$EndComp
$Comp
L V_Power:+10VREF #U0120
U 1 1 5EC1D486
P 7850 3875
F 0 "#U0120" H 7900 3925 50  0001 C CNN
F 1 "+10VREF" H 7650 4050 59  0000 L CNN
F 2 "" H 7850 3875 50  0001 C CNN
F 3 "" H 7850 3875 50  0001 C CNN
	1    7850 3875
	1    0    0    -1  
$EndComp
Wire Wire Line
	2700 9050 2700 9150
$Comp
L V_Power:+3.3V #PWR0216
U 1 1 5EC705BC
P 4000 6250
F 0 "#PWR0216" H 4000 6100 50  0001 C CNN
F 1 "+3.3V" H 4015 6423 50  0000 C CNN
F 2 "" H 4000 6250 50  0001 C CNN
F 3 "" H 4000 6250 50  0001 C CNN
	1    4000 6250
	1    0    0    -1  
$EndComp
$Comp
L V_Power:+3.3V #PWR0217
U 1 1 5EC7A428
P 7850 6200
F 0 "#PWR0217" H 7850 6050 50  0001 C CNN
F 1 "+3.3V" H 7865 6373 50  0000 C CNN
F 2 "" H 7850 6200 50  0001 C CNN
F 3 "" H 7850 6200 50  0001 C CNN
	1    7850 6200
	1    0    0    -1  
$EndComp
$Comp
L V_Inductor:FB-TH_773R L30
U 1 1 5EDE1BCB
P 13300 2000
F 0 "L30" H 13300 2125 50  0000 C CNN
F 1 "7427504" H 13300 1875 50  0000 C CNN
F 2 "GR106772-A:WE-7427504_ENT-12.7X3_100001100011" H 13300 2250 50  0001 C CIN
F 3 "https://www.we-online.de/katalog/datasheet/7427504.pdf" V 13300 2000 50  0001 C CNN
F 4 "10023186" H 13700 2050 50  0001 L CNN "Item Number"
F 5 "FERRITE, 2.5, 3A" H 13700 1990 50  0001 L CNN "Description"
F 6 "WURTH ELEKTRONIK GMBH" H 13700 1930 50  0001 L CNN "Manufacturer"
F 7 "7427512" H 13700 1870 50  0001 L CNN "Manufacturer_No"
F 8 "WURTH ELEKTRONIK GMBH" H 0   0   50  0001 C CNN "Manufacturer2"
F 9 "7427504" H 0   0   50  0001 C CNN "Manufacturer_No2"
	1    13300 2000
	1    0    0    -1  
$EndComp
Connection ~ 13400 2000
Connection ~ 13200 2000
$Comp
L V_Inductor:FB-SMD_580R ZL30
U 1 1 5EDECDC0
P 13300 2000
AR Path="/5EDECDC0" Ref="ZL30"  Part="1" 
AR Path="/5E92540F/5EDECDC0" Ref="ZL30"  Part="1" 
F 0 "ZL30" H 13325 1800 50  0000 C CNN
F 1 "DNP" H 13300 1875 50  0001 C CNN
F 2 "GR106772-A:WE-7427512" H 13300 2250 50  0001 C CIN
F 3 "https://www.we-online.de/katalog/datasheet/7427512.pdf" V 13300 2000 50  0001 C CNN
F 4 "10023186_A" H 13700 2050 50  0001 L CNN "Item Number"
F 5 "5 HOLE SMD FERRITE BEAD" H 13700 1990 50  0001 L CNN "Description"
F 6 "WURTH ELEKTRONIK GMBH" H 13700 1930 50  0001 L CNN "Manufacturer"
F 7 "7427512" H 13700 1870 50  0001 L CNN "Manufacturer_No"
	1    13300 2000
	-1   0    0    1   
$EndComp
$Comp
L V_Transistor:Q_PNP_BCEC_v2 T?
U 1 1 5FA807FC
P 2400 1450
AR Path="/5FA807FC" Ref="T?"  Part="1" 
AR Path="/5E92540F/5FA807FC" Ref="ZT11"  Part="1" 
F 0 "ZT11" V 2750 1200 85  0000 L BNN
F 1 "?" V 2628 1215 42  0000 L BNN
F 2 "GR106772-A:DPAK_cpu" H 2400 1450 50  0001 C CNN
F 3 "" H 2400 1450 50  0001 C CNN
F 4 "" H 2400 1450 50  0001 C CNN "Description"
F 5 "?" H 2400 1450 50  0001 C CNN "Item Number"
F 6 "" H 2400 1450 50  0001 C CNN "Manufacturer"
F 7 "" H 2400 1450 50  0001 C CNN "Manufacturer_No"
F 8 "" H 2400 1450 50  0001 C CNN "Manufacturer2"
F 9 "" H 2400 1450 50  0001 C CNN "Manufacturer_No2"
	1    2400 1450
	0    1    -1   0   
$EndComp
Connection ~ 2400 1650
Connection ~ 2600 1350
Connection ~ 2200 1350
$Comp
L V_Transistor:Q_PNP_BCEC_v2 T?
U 1 1 5FA81222
P 2400 3850
AR Path="/5FA81222" Ref="T?"  Part="1" 
AR Path="/5E92540F/5FA81222" Ref="ZT12"  Part="1" 
F 0 "ZT12" V 2750 3550 85  0000 L BNN
F 1 "?" V 2628 3573 42  0000 L BNN
F 2 "GR106772-A:DPAK_cpu" H 2400 3850 50  0001 C CNN
F 3 "" H 2400 3850 50  0001 C CNN
F 4 "" H 2400 3850 50  0001 C CNN "Description"
F 5 "?" H 2400 3850 50  0001 C CNN "Item Number"
F 6 "" H 2400 3850 50  0001 C CNN "Manufacturer"
F 7 "" H 2400 3850 50  0001 C CNN "Manufacturer_No"
F 8 "" H 2400 3850 50  0001 C CNN "Manufacturer2"
F 9 "" H 2400 3850 50  0001 C CNN "Manufacturer_No2"
	1    2400 3850
	0    1    -1   0   
$EndComp
Connection ~ 2400 4050
Connection ~ 2600 3750
Connection ~ 2200 3750
$EndSCHEMATC
