EESchema Schematic File Version 4
EELAYER 30 0
EELAYER END
$Descr User 17335 11946
encoding utf-8
Sheet 6 9
Title "RB0505 CPU Board"
Date "2020-04-15"
Rev "1"
Comp "KiCad OpenVentilator Group"
Comment1 "based on Medtronic open design files"
Comment2 ""
Comment3 ""
Comment4 ""
$EndDescr
Wire Wire Line
	2900 10750 2900 10725
Wire Wire Line
	2900 10725 2800 10725
Wire Wire Line
	2800 10725 2600 10725
Wire Wire Line
	2900 10725 3000 10725
Wire Wire Line
	3000 10725 3200 10725
Wire Wire Line
	3200 10725 3450 10725
Wire Wire Line
	3450 10725 3650 10725
Wire Wire Line
	3650 10725 3850 10725
Wire Wire Line
	3850 10725 4050 10725
Connection ~ 2800 10725
Connection ~ 2900 10725
Connection ~ 3000 10725
Connection ~ 3200 10725
Connection ~ 3450 10725
Connection ~ 3650 10725
Connection ~ 3850 10725
Text HLabel 6650 3000 2    56   Input ~ 0
LED-O2
Text HLabel 6550 4050 2    56   Input ~ 0
LED-AL-R
Text HLabel 6550 4550 2    56   Input ~ 0
LED-AL-O
Text HLabel 3300 1800 2    56   Input ~ 0
COM1
Text HLabel 3300 2000 2    56   Input ~ 0
COM2
Text HLabel 3300 2400 2    56   Input ~ 0
COM3
Text HLabel 3300 2200 2    56   Output ~ 0
KEY-1
Text HLabel 6550 3500 2    56   Input ~ 0
LED-VENTIL
Text HLabel 12000 2375 3    56   Output ~ 0
BUSY-AFF
Text HLabel 13600 2425 3    56   Input ~ 0
~RD~
Text HLabel 14200 2375 3    56   Input ~ 0
~WR~
Text HLabel 14400 2375 3    56   Input ~ 0
~CS4~
Text HLabel 3300 5400 2    56   Output ~ 0
ALARM-INHIB
Text HLabel 3300 5600 2    56   Output ~ 0
INHIB-STOP-INV
Connection ~ 3650 8400
Text HLabel 7825 8200 2    56   Output ~ 0
RXD1
Text HLabel 8400 4350 0    50   Output ~ 0
RX_UART_ST
Text HLabel 8400 4850 0    50   Input ~ 0
CE_SPI_USB
Text HLabel 8400 4950 0    50   Input ~ 0
CE_SPI_PIC
Text HLabel 8400 4750 0    50   Output ~ 0
USB_BUSY
Text HLabel 14850 4750 2    56   Input ~ 0
RESET_USB
Text HLabel 14850 4550 2    56   Output ~ 0
LED_PRESENCE_AC
Text HLabel 6250 5150 2    56   Input ~ 0
LED_PRESENCE_AC
Text HLabel 14850 4350 2    56   Input ~ 0
TX_UART_ST
Text HLabel 14850 4250 2    56   Output ~ 0
RTS_UART_ST
Text HLabel 8400 4650 0    50   Output ~ 0
VBAT
Connection ~ 2600 9800
Text Label 3875 9800 0    50   ~ 0
PHOTO-DIODE-SIGNAL
Text Label 3925 8800 0    50   ~ 0
LED-DRIVE-LINE1
Connection ~ 3200 9000
Text Label 3925 9000 0    50   ~ 0
LED-DRIVE-LINE2
Connection ~ 3000 9200
Text Label 3925 9200 0    50   ~ 0
SENSOR-TYPE-LINE
Connection ~ 2800 9400
Text Label 3925 9400 0    50   ~ 0
PHOTO-DIODE-BIAS
Text Label 3925 9600 0    50   ~ 0
SIGNAL-SHIELD
Connection ~ 3850 7800
Text Label 3925 10000 0    50   ~ 0
CABLE-SHIELD
Text HLabel 14850 4650 2    56   Output ~ 0
+5VSUPPLY-BOARD
Text HLabel 3300 4600 2    56   Input ~ 0
+5VSUPPLY-BOARD
Text HLabel 3300 3200 2    56   Input ~ 0
+5VSUPPLY-BOARD
Text HLabel 8400 4250 0    50   Input ~ 0
MTSR_SPI_1
Text HLabel 8400 4450 0    50   Output ~ 0
MRST_SPI_1
Text HLabel 14850 4850 2    56   Output ~ 0
MRST_SPI_0
Text HLabel 14850 4950 2    56   Input ~ 0
MTSR_SPI_0
Text HLabel 14850 5050 2    56   Input ~ 0
SCLK_SPI_1
Text HLabel 8400 5050 0    50   Input ~ 0
SCLK_SPI_0
$Comp
L V_Resistor:R0805_620R_5% R13
U 1 1 486842E0
P 3350 4000
F 0 "R13" H 3075 4087 64  0000 L BNN
F 1 "620" H 3075 4012 42  0000 L BNN
F 2 "GR106772-A:R0805" H 3350 4000 50  0001 C CNN
F 3 "" H 3350 4000 50  0001 C CNN
F 4 "RESISTOR, 620 OHM, 0.125W,+/-5%,0805" H 3350 4000 50  0001 C CNN "Description"
F 5 "10023190" H 3350 4000 50  0001 C CNN "Item Number"
F 6 "MULTICOMP                       (920630)" H 3350 4000 50  0001 C CNN "Manufacturer"
F 7 "MCWR08X621" H 3350 4000 50  0001 C CNN "Manufacturer_No"
F 8 "YAGEO_RMS1" H 0   0   50  0001 C CNN "Manufacturer2"
F 9 "RC0805FR-07620RL" H 0   0   50  0001 C CNN "Manufacturer_No2"
	1    3350 4000
	1    0    0    -1  
$EndComp
$Comp
L V_Resistor:R0805_150R_5% R16
U 1 1 BF9499E8
P 3350 3600
F 0 "R16" H 3250 3687 64  0000 R BNN
F 1 "150" H 3075 3612 42  0000 L BNN
F 2 "GR106772-A:R0805" H 3350 3600 50  0001 C CNN
F 3 "" H 3350 3600 50  0001 C CNN
F 4 "RESISTOR, 150 OHM, 0805, +/-5%" H 3350 3600 50  0001 C CNN "Description"
F 5 "10023237" H 3350 3600 50  0001 C CNN "Item Number"
F 6 "YAGEO_RMS1" H 3350 3600 50  0001 C CNN "Manufacturer"
F 7 "RC0805JR-07150RL" H 3350 3600 50  0001 C CNN "Manufacturer_No"
F 8 "YAGEO_RMS1" H 3350 3600 50  0001 C CNN "Manufacturer2"
F 9 "RC0805JR-07150RL" H 3350 3600 50  0001 C CNN "Manufacturer_No2"
F 10 "BOURNS_RMS1" H 3350 3600 50  0001 C CNN "Manufacturer3"
F 11 "CR0805-FX-1500ELF" H 3350 3600 50  0001 C CNN "Manufacturer_No3"
	1    3350 3600
	1    0    0    -1  
$EndComp
$Comp
L V_Transistor:Q_NMOS_GSD_10097274 T4
U 1 1 4AEDAEDD
P 5700 3000
F 0 "T4" H 5625 3250 64  0000 L BNN
F 1 "2N7002" H 5400 3175 59  0000 L BNN
F 2 "GR106772-A:SOT23-GSD" H 5700 3000 50  0001 C CNN
F 3 "" H 5700 3000 50  0001 C CNN
F 4 "TRANSISTOR MOSFET N CHANNEL 60V, 0.18A" H 5700 3000 50  0001 C CNN "Description"
F 5 "10097274" H 5700 3000 50  0001 C CNN "Item Number"
F 6 "ON SEMICONDUCTOR_RMS1" H 5700 3000 50  0001 C CNN "Manufacturer"
F 7 "2N7002LT1G" H 5700 3000 50  0001 C CNN "Manufacturer_No"
F 8 "NXP SEMICONDUCTORS_RMS1" H 5700 3000 50  0001 C CNN "Manufacturer2"
F 9 "2N7002,215" H 5700 3000 50  0001 C CNN "Manufacturer_No2"
F 10 "NXP SEMICONDUCTORS_RMS1" H 5700 3000 50  0001 C CNN "Manufacturer3"
F 11 "2N7002" H 5700 3000 50  0001 C CNN "Manufacturer_No3"
	1    5700 3000
	-1   0    0    -1  
$EndComp
$Comp
L V_Resistor:R_100k_5% R20
U 1 1 9FEA229A
P 5900 3200
F 0 "R20" H 6000 3350 64  0000 R TNN
F 1 "100k" H 6000 3425 42  0000 R TNN
F 2 "GR106772-A:R0603" H 5900 3200 50  0001 C CNN
F 3 "" H 5900 3200 50  0001 C CNN
F 4 "RESISTOR,100 K OHM, 0.063W +/-5%" H 5900 3200 50  0001 C CNN "Description"
F 5 "10022732" H 5900 3200 50  0001 C CNN "Item Number"
F 6 "YAGEO_RMS1" H 5900 3200 50  0001 C CNN "Manufacturer"
F 7 "RC0603JR-07100KL" H 5900 3200 50  0001 C CNN "Manufacturer_No"
F 8 "YAGEO_RMS1" H 5900 3200 50  0001 C CNN "Manufacturer2"
F 9 "RC0603JR-07100KL" H 5900 3200 50  0001 C CNN "Manufacturer_No2"
F 10 "YAGEO_RMS1" H 5900 3200 50  0001 C CNN "Manufacturer3"
F 11 "RC0603JR-07100KL" H 5900 3200 50  0001 C CNN "Manufacturer_No3"
	1    5900 3200
	-1   0    0    1   
$EndComp
$Comp
L V_Resistor:R_100k_5% R21
U 1 1 F84F2443
P 6150 4250
F 0 "R21" H 6050 4325 64  0000 L BNN
F 1 "100k" H 6075 4425 42  0000 L BNN
F 2 "GR106772-A:R0603" H 6150 4250 50  0001 C CNN
F 3 "" H 6150 4250 50  0001 C CNN
F 4 "RESISTOR,100 K OHM, 0.063W +/-5%" H 6150 4250 50  0001 C CNN "Description"
F 5 "10022732" H 6150 4250 50  0001 C CNN "Item Number"
F 6 "YAGEO_RMS1" H 6150 4250 50  0001 C CNN "Manufacturer"
F 7 "RC0603JR-07100KL" H 6150 4250 50  0001 C CNN "Manufacturer_No"
F 8 "YAGEO_RMS1" H 6150 4250 50  0001 C CNN "Manufacturer2"
F 9 "RC0603JR-07100KL" H 6150 4250 50  0001 C CNN "Manufacturer_No2"
F 10 "YAGEO_RMS1" H 6150 4250 50  0001 C CNN "Manufacturer3"
F 11 "RC0603JR-07100KL" H 6150 4250 50  0001 C CNN "Manufacturer_No3"
	1    6150 4250
	-1   0    0    1   
$EndComp
$Comp
L V_Transistor:Q_NMOS_GSD_10097274 T8
U 1 1 39E804CC
P 5200 4550
F 0 "T8" H 5150 4800 64  0000 L BNN
F 1 "2N7002" H 4925 4725 59  0000 L BNN
F 2 "GR106772-A:SOT23-GSD" H 5200 4550 50  0001 C CNN
F 3 "" H 5200 4550 50  0001 C CNN
F 4 "TRANSISTOR MOSFET N CHANNEL 60V, 0.18A" H 5200 4550 50  0001 C CNN "Description"
F 5 "10097274" H 5200 4550 50  0001 C CNN "Item Number"
F 6 "ON SEMICONDUCTOR_RMS1" H 5200 4550 50  0001 C CNN "Manufacturer"
F 7 "2N7002LT1G" H 5200 4550 50  0001 C CNN "Manufacturer_No"
F 8 "NXP SEMICONDUCTORS_RMS1" H 5200 4550 50  0001 C CNN "Manufacturer2"
F 9 "2N7002,215" H 5200 4550 50  0001 C CNN "Manufacturer_No2"
F 10 "NXP SEMICONDUCTORS_RMS1" H 5200 4550 50  0001 C CNN "Manufacturer3"
F 11 "2N7002" H 5200 4550 50  0001 C CNN "Manufacturer_No3"
	1    5200 4550
	-1   0    0    -1  
$EndComp
$Comp
L V_Resistor:R_100k_5% R24
U 1 1 84932BAC
P 5350 4750
F 0 "R24" H 5250 4837 64  0000 L BNN
F 1 "100k" H 5250 4925 42  0000 L BNN
F 2 "GR106772-A:R0603" H 5350 4750 50  0001 C CNN
F 3 "" H 5350 4750 50  0001 C CNN
F 4 "RESISTOR,100 K OHM, 0.063W +/-5%" H 5350 4750 50  0001 C CNN "Description"
F 5 "10022732" H 5350 4750 50  0001 C CNN "Item Number"
F 6 "YAGEO_RMS1" H 5350 4750 50  0001 C CNN "Manufacturer"
F 7 "RC0603JR-07100KL" H 5350 4750 50  0001 C CNN "Manufacturer_No"
F 8 "YAGEO_RMS1" H 5350 4750 50  0001 C CNN "Manufacturer2"
F 9 "RC0603JR-07100KL" H 5350 4750 50  0001 C CNN "Manufacturer_No2"
F 10 "YAGEO_RMS1" H 5350 4750 50  0001 C CNN "Manufacturer3"
F 11 "RC0603JR-07100KL" H 5350 4750 50  0001 C CNN "Manufacturer_No3"
	1    5350 4750
	-1   0    0    1   
$EndComp
$Comp
L V_Resistor:R0805_620R_5% R25
U 1 1 D4C34F44
P 3350 3400
F 0 "R25" H 3088 3487 64  0000 L BNN
F 1 "620" H 3088 3412 42  0000 L BNN
F 2 "GR106772-A:R0805" H 3350 3400 50  0001 C CNN
F 3 "" H 3350 3400 50  0001 C CNN
F 4 "RESISTOR, 620 OHM, 0.125W,+/-5%,0805" H 3350 3400 50  0001 C CNN "Description"
F 5 "10023190" H 3350 3400 50  0001 C CNN "Item Number"
F 6 "MULTICOMP                       (920630)" H 3350 3400 50  0001 C CNN "Manufacturer"
F 7 "MCWR08X621" H 3350 3400 50  0001 C CNN "Manufacturer_No"
F 8 "YAGEO_RMS1" H 0   0   50  0001 C CNN "Manufacturer2"
F 9 "RC0805FR-07620RL" H 0   0   50  0001 C CNN "Manufacturer_No2"
	1    3350 3400
	1    0    0    -1  
$EndComp
$Comp
L V_Transistor:Q_NMOS_GSD_10097274 T9
U 1 1 7B8E4CC8
P 5200 3500
F 0 "T9" H 5150 3775 64  0000 L BNN
F 1 "2N7002" H 4925 3675 59  0000 L BNN
F 2 "GR106772-A:SOT23-GSD" H 5200 3500 50  0001 C CNN
F 3 "" H 5200 3500 50  0001 C CNN
F 4 "TRANSISTOR MOSFET N CHANNEL 60V, 0.18A" H 5200 3500 50  0001 C CNN "Description"
F 5 "10097274" H 5200 3500 50  0001 C CNN "Item Number"
F 6 "ON SEMICONDUCTOR_RMS1" H 5200 3500 50  0001 C CNN "Manufacturer"
F 7 "2N7002LT1G" H 5200 3500 50  0001 C CNN "Manufacturer_No"
F 8 "NXP SEMICONDUCTORS_RMS1" H 5200 3500 50  0001 C CNN "Manufacturer2"
F 9 "2N7002,215" H 5200 3500 50  0001 C CNN "Manufacturer_No2"
F 10 "NXP SEMICONDUCTORS_RMS1" H 5200 3500 50  0001 C CNN "Manufacturer3"
F 11 "2N7002" H 5200 3500 50  0001 C CNN "Manufacturer_No3"
	1    5200 3500
	-1   0    0    -1  
$EndComp
$Comp
L V_Resistor:R_100k_5% R26
U 1 1 AD264776
P 5400 3700
F 0 "R26" H 5313 3775 64  0000 L BNN
F 1 "100k" H 5325 3875 42  0000 L BNN
F 2 "GR106772-A:R0603" H 5400 3700 50  0001 C CNN
F 3 "" H 5400 3700 50  0001 C CNN
F 4 "RESISTOR,100 K OHM, 0.063W +/-5%" H 5400 3700 50  0001 C CNN "Description"
F 5 "10022732" H 5400 3700 50  0001 C CNN "Item Number"
F 6 "YAGEO_RMS1" H 5400 3700 50  0001 C CNN "Manufacturer"
F 7 "RC0603JR-07100KL" H 5400 3700 50  0001 C CNN "Manufacturer_No"
F 8 "YAGEO_RMS1" H 5400 3700 50  0001 C CNN "Manufacturer2"
F 9 "RC0603JR-07100KL" H 5400 3700 50  0001 C CNN "Manufacturer_No2"
F 10 "YAGEO_RMS1" H 5400 3700 50  0001 C CNN "Manufacturer3"
F 11 "RC0603JR-07100KL" H 5400 3700 50  0001 C CNN "Manufacturer_No3"
	1    5400 3700
	-1   0    0    1   
$EndComp
$Comp
L V_Capacitor:C_1uF_35V_10% C31
U 1 1 0C4556A5
P 10600 2800
F 0 "C31" V 10432 2750 56  0000 L BNN
F 1 "1uF" V 10444 2888 42  0000 R TNN
F 2 "GR106772-A:C3216" H 10600 2800 50  0001 C CNN
F 3 "https://4donline.ihs.com/images/VipMasterIC/IC/KEME/KEME-S-A0006487387/KEME-S-A0006487387-1.pdf?hkey=52A5661711E402568146F3353EA87419" H 10600 2800 50  0001 C CNN
F 4 "CAPACITOR TANTALUM, 1UF,35V, +/-10%" H 10600 2800 50  0001 C CNN "Description"
F 5 "10022959" H 10600 2800 50  0001 C CNN "Item Number"
F 6 "KEMET" H 10600 2800 50  0001 C CNN "Manufacturer"
F 7 "T491A105M035AT" H 10600 2800 50  0001 C CNN "Manufacturer_No"
F 8 "KEMET" H 10600 2800 50  0001 C CNN "Manufacturer2"
F 9 "T495A105K035ATE3K0" H 10600 2800 50  0001 C CNN "Manufacturer_No2"
	1    10600 2800
	0    1    1    0   
$EndComp
$Comp
L V_Capacitor:C_1uF_35V_10% C32
U 1 1 FD532AD7
P 10600 1300
F 0 "C32" V 10406 1250 56  0000 L BNN
F 1 "1uF" V 10494 1250 42  0000 L BNN
F 2 "GR106772-A:C3216" H 10600 1300 50  0001 C CNN
F 3 "https://4donline.ihs.com/images/VipMasterIC/IC/KEME/KEME-S-A0006487387/KEME-S-A0006487387-1.pdf?hkey=52A5661711E402568146F3353EA87419" H 10600 1300 50  0001 C CNN
F 4 "CAPACITOR TANTALUM, 1UF,35V, +/-10%" H 10600 1300 50  0001 C CNN "Description"
F 5 "10022959" H 10600 1300 50  0001 C CNN "Item Number"
F 6 "KEMET" H 10600 1300 50  0001 C CNN "Manufacturer"
F 7 "T491A105M035AT" H 10600 1300 50  0001 C CNN "Manufacturer_No"
F 8 "KEMET" H 10600 1300 50  0001 C CNN "Manufacturer2"
F 9 "T495A105K035ATE3K0" H 10600 1300 50  0001 C CNN "Manufacturer_No2"
	1    10600 1300
	0    1    1    0   
$EndComp
$Comp
L V_Resistor:R0603_0R_5% R30
U 1 1 A2E2AA66
P 6050 8600
F 0 "R30" H 6150 8550 64  0000 R TNN
F 1 "DNP" H 6125 8700 42  0000 R TNN
F 2 "GR106772-A:R0603" H 6050 8600 50  0001 C CNN
F 3 "" H 6050 8600 50  0001 C CNN
F 4 "10023185" H 6050 8600 50  0001 C CNN "Item Number"
	1    6050 8600
	-1   0    0    1   
$EndComp
$Comp
L V_Capacitor:C0402_100nF_16V_10% C35
U 1 1 31890B0B
P 5950 9900
F 0 "C35" H 5900 10150 64  0000 L CNN
F 1 "DNP" H 5907 10225 42  0000 L CNN
F 2 "GR106772-A:C0402" H 5950 9900 50  0001 C CNN
F 3 "https://www.yageo.com/upload/media/product/productsearch/datasheet/mlcc/UPY-GPHC_X7R_6.3V-to-50V_18.pdf" H 5950 9900 50  0001 C CNN
F 4 "10022607" H 5950 9900 50  0001 C CNN "Item Number"
F 5 "CAPACITOR,100NF,16V,+/-10%,X7R,0402" H 0   0   50  0001 C CNN "Description"
F 6 "YAGEO_RMS1" H 0   0   50  0001 C CNN "Manufacturer"
F 7 "YAGEO_RMS1" H 0   0   50  0001 C CNN "Manufacturer2"
F 8 "MURATA MANUFACTURING CO., LTD." H 0   0   50  0001 C CNN "Manufacturer3"
F 9 "CC0402KRX7R7BB104" H 0   0   50  0001 C CNN "Manufacturer_No"
F 10 "223878715649" H 0   0   50  0001 C CNN "Manufacturer_No2"
F 11 "GRM155R71C104KA88D" H 0   0   50  0001 C CNN "Manufacturer_No3"
	1    5950 9900
	1    0    0    1   
$EndComp
$Comp
L V_Resistor:R0603_10k_5% R32
U 1 1 2A092FBD
P 7750 7900
F 0 "R32" V 7788 7800 64  0000 R TNN
F 1 "10k" V 7713 7800 42  0000 R TNN
F 2 "GR106772-A:R0603" H 7750 7900 50  0001 C CNN
F 3 "" H 7750 7900 50  0001 C CNN
F 4 "RESISTOR,10K OHM, 0.063W,+/-5%,0603" H 7750 7900 50  0001 C CNN "Description"
F 5 "10097266" H 7750 7900 50  0001 C CNN "Item Number"
F 6 "YAGEO_RMS1" H 7750 7900 50  0001 C CNN "Manufacturer"
F 7 "RC0603JR-0710KL" H 7750 7900 50  0001 C CNN "Manufacturer_No"
F 8 "YAGEO_RMS1" H 7750 7900 50  0001 C CNN "Manufacturer2"
F 9 "RC0603JR-0710KL" H 7750 7900 50  0001 C CNN "Manufacturer_No2"
F 10 "VISHAY_RMS1" H 7750 7900 50  0001 C CNN "Manufacturer3"
F 11 "CRCW060310K0JNEA" H 7750 7900 50  0001 C CNN "Manufacturer_No3"
	1    7750 7900
	0    -1   -1   0   
$EndComp
$Comp
L V_Resistor:R_100k_5% R7
U 1 1 184A3E63
P 4800 5350
F 0 "R7" H 4862 5500 64  0000 R TNN
F 1 "100k" H 4862 5575 42  0000 R TNN
F 2 "GR106772-A:R0603" H 4800 5350 50  0001 C CNN
F 3 "" H 4800 5350 50  0001 C CNN
F 4 "RESISTOR,100 K OHM, 0.063W +/-5%" H 4800 5350 50  0001 C CNN "Description"
F 5 "10022732" H 4800 5350 50  0001 C CNN "Item Number"
F 6 "YAGEO_RMS1" H 4800 5350 50  0001 C CNN "Manufacturer"
F 7 "RC0603JR-07100KL" H 4800 5350 50  0001 C CNN "Manufacturer_No"
F 8 "YAGEO_RMS1" H 4800 5350 50  0001 C CNN "Manufacturer2"
F 9 "RC0603JR-07100KL" H 4800 5350 50  0001 C CNN "Manufacturer_No2"
F 10 "YAGEO_RMS1" H 4800 5350 50  0001 C CNN "Manufacturer3"
F 11 "RC0603JR-07100KL" H 4800 5350 50  0001 C CNN "Manufacturer_No3"
	1    4800 5350
	-1   0    0    1   
$EndComp
$Comp
L V_Transistor:Q_NMOS_GSD_10097274 T2
U 1 1 4E5B5821
P 5750 2100
F 0 "T2" H 5625 2375 64  0000 L BNN
F 1 "2N7002" H 5400 2300 59  0000 L BNN
F 2 "GR106772-A:SOT23-GSD" H 5750 2100 50  0001 C CNN
F 3 "" H 5750 2100 50  0001 C CNN
F 4 "TRANSISTOR MOSFET N CHANNEL 60V, 0.18A" H 5750 2100 50  0001 C CNN "Description"
F 5 "10097274" H 5750 2100 50  0001 C CNN "Item Number"
F 6 "ON SEMICONDUCTOR_RMS1" H 5750 2100 50  0001 C CNN "Manufacturer"
F 7 "2N7002LT1G" H 5750 2100 50  0001 C CNN "Manufacturer_No"
F 8 "NXP SEMICONDUCTORS_RMS1" H 5750 2100 50  0001 C CNN "Manufacturer2"
F 9 "2N7002,215" H 5750 2100 50  0001 C CNN "Manufacturer_No2"
F 10 "NXP SEMICONDUCTORS_RMS1" H 5750 2100 50  0001 C CNN "Manufacturer3"
F 11 "2N7002" H 5750 2100 50  0001 C CNN "Manufacturer_No3"
	1    5750 2100
	-1   0    0    -1  
$EndComp
$Comp
L V_Resistor:R_100k_5% R12
U 1 1 0C5252B0
P 5950 2300
F 0 "R12" H 6050 2450 64  0000 R TNN
F 1 "100k" H 6050 2525 42  0000 R TNN
F 2 "GR106772-A:R0603" H 5950 2300 50  0001 C CNN
F 3 "" H 5950 2300 50  0001 C CNN
F 4 "RESISTOR,100 K OHM, 0.063W +/-5%" H 5950 2300 50  0001 C CNN "Description"
F 5 "10022732" H 5950 2300 50  0001 C CNN "Item Number"
F 6 "YAGEO_RMS1" H 5950 2300 50  0001 C CNN "Manufacturer"
F 7 "RC0603JR-07100KL" H 5950 2300 50  0001 C CNN "Manufacturer_No"
F 8 "YAGEO_RMS1" H 5950 2300 50  0001 C CNN "Manufacturer2"
F 9 "RC0603JR-07100KL" H 5950 2300 50  0001 C CNN "Manufacturer_No2"
F 10 "YAGEO_RMS1" H 5950 2300 50  0001 C CNN "Manufacturer3"
F 11 "RC0603JR-07100KL" H 5950 2300 50  0001 C CNN "Manufacturer_No3"
	1    5950 2300
	-1   0    0    1   
$EndComp
$Comp
L V_Resistor:R0805_180R_5% R22
U 1 1 50E1B837
P 3550 4800
F 0 "R22" H 3263 4887 64  0000 L BNN
F 1 "180" H 3275 4812 42  0000 L BNN
F 2 "GR106772-A:R0805" H 3550 4800 50  0001 C CNN
F 3 "" H 3550 4800 50  0001 C CNN
F 4 "RESISTOR, 180 OHM, 0805, +/-5%" H 3550 4800 50  0001 C CNN "Description"
F 5 "10023240" H 3550 4800 50  0001 C CNN "Item Number"
F 6 "YAGEO_RMS1" H 3550 4800 50  0001 C CNN "Manufacturer"
F 7 "RC0805JR-07180RL" H 3550 4800 50  0001 C CNN "Manufacturer_No"
F 8 "KOA SPEER" H 3550 4800 50  0001 C CNN "Manufacturer2"
F 9 "RK73B2ATTD181J" H 3550 4800 50  0001 C CNN "Manufacturer_No2"
F 10 "YAGEO_RMS1" H 3550 4800 50  0001 C CNN "Manufacturer3"
F 11 "RC0805JR-07180RL" H 3550 4800 50  0001 C CNN "Manufacturer_No3"
F 12 "YAGEO_RMS1" H 3550 4800 50  0001 C CNN "Manufacturer4"
F 13 "RC0805JR-07180RL" H 3550 4800 50  0001 C CNN "Manufacturer_No4"
	1    3550 4800
	1    0    0    -1  
$EndComp
$Comp
L V_Resistor:R0805_180R_5% R23
U 1 1 AE8C3E2E
P 3350 3000
F 0 "R23" H 3088 3100 64  0000 L BNN
F 1 "180" H 3075 3012 42  0000 L BNN
F 2 "GR106772-A:R0805" H 3350 3000 50  0001 C CNN
F 3 "" H 3350 3000 50  0001 C CNN
F 4 "RESISTOR, 180 OHM, 0805, +/-5%" H 3350 3000 50  0001 C CNN "Description"
F 5 "10023240" H 3350 3000 50  0001 C CNN "Item Number"
F 6 "YAGEO_RMS1" H 3350 3000 50  0001 C CNN "Manufacturer"
F 7 "RC0805JR-07180RL" H 3350 3000 50  0001 C CNN "Manufacturer_No"
F 8 "KOA SPEER" H 3350 3000 50  0001 C CNN "Manufacturer2"
F 9 "RK73B2ATTD181J" H 3350 3000 50  0001 C CNN "Manufacturer_No2"
F 10 "YAGEO_RMS1" H 3350 3000 50  0001 C CNN "Manufacturer3"
F 11 "RC0805JR-07180RL" H 3350 3000 50  0001 C CNN "Manufacturer_No3"
F 12 "YAGEO_RMS1" H 3350 3000 50  0001 C CNN "Manufacturer4"
F 13 "RC0805JR-07180RL" H 3350 3000 50  0001 C CNN "Manufacturer_No4"
	1    3350 3000
	1    0    0    -1  
$EndComp
$Comp
L V_Power:0VANA #U$0374
U 1 1 FB537956
P 10900 4000
F 0 "#U$0374" H 10900 4000 50  0001 C CNN
F 1 "0VANA" H 10788 3825 59  0000 L BNN
F 2 "" H 10900 4000 50  0001 C CNN
F 3 "" H 10900 4000 50  0001 C CNN
	1    10900 4000
	-1   0    0    1   
$EndComp
$Comp
L V_Capacitor:C0612_47pF_50V_10% C41
U 1 1 25C7D5B9
P 13150 6325
F 0 "C41" H 13000 5963 64  0000 L BNN
F 1 "47pF" H 13013 5888 42  0000 L BNN
F 2 "GR106772-A:C0612-4" H 13150 6325 50  0001 C CNN
F 3 "http://datasheets.avx.com/CapArray.pdf" H 13150 6325 50  0001 C CNN
F 4 "CAPACITOR ARRAY, 47PF, 50V, +/-10%,NPO,0612" H 13150 6325 50  0001 C CNN "Description"
F 5 "10095973" H 13150 6325 50  0001 C CNN "Item Number"
F 6 "AVX_RMS1" H 13150 6325 50  0001 C CNN "Manufacturer"
F 7 "W3A45A470KAT2A" H 13150 6325 50  0001 C CNN "Manufacturer_No"
F 8 "YAGEO_RMS1" H 0   0   50  0001 C CNN "Manufacturer2"
F 9 "CA0612JRNPO9BN470" H 0   0   50  0001 C CNN "Manufacturer_No2"
	1    13150 6325
	1    0    0    -1  
$EndComp
$Comp
L V_Capacitor:C0612_47pF_50V_10% C52
U 1 1 D9AC599B
P 9150 6325
F 0 "C52" H 8975 5975 64  0000 L BNN
F 1 "47pF" H 8975 5887 42  0000 L BNN
F 2 "GR106772-A:C0612-4" H 9150 6325 50  0001 C CNN
F 3 "http://datasheets.avx.com/CapArray.pdf" H 9150 6325 50  0001 C CNN
F 4 "CAPACITOR ARRAY, 47PF, 50V, +/-10%,NPO,0612" H 9150 6325 50  0001 C CNN "Description"
F 5 "10095973" H 9150 6325 50  0001 C CNN "Item Number"
F 6 "AVX_RMS1" H 9150 6325 50  0001 C CNN "Manufacturer"
F 7 "W3A45A470KAT2A" H 9150 6325 50  0001 C CNN "Manufacturer_No"
F 8 "YAGEO_RMS1" H 0   0   50  0001 C CNN "Manufacturer2"
F 9 "CA0612JRNPO9BN470" H 0   0   50  0001 C CNN "Manufacturer_No2"
	1    9150 6325
	1    0    0    -1  
$EndComp
$Comp
L V_Inductor:L_10022907 L16
U 1 1 3E1ECFE2
P 8650 4350
AR Path="/3E1ECFE2" Ref="L16"  Part="1" 
AR Path="/5E926050/3E1ECFE2" Ref="L16"  Part="1" 
F 0 "L16" H 8525 4375 42  0000 L BNN
F 1 "Ferrite 200mA" H 8550 4400 34  0001 L BNN
F 2 "GR106772-A:C0603" H 8650 4350 50  0001 C CNN
F 3 "" H 8650 4350 50  0001 C CNN
F 4 "SMD FERRITE 200MA" H 8650 4350 50  0001 C CNN "Description"
F 5 "10022907" H 8650 4350 50  0001 C CNN "Item Number"
F 6 "WURTH ELEKTRONIK GMBH" H 8650 4350 50  0001 C CNN "Manufacturer"
F 7 "74279266" H 8650 4350 50  0001 C CNN "Manufacturer_No"
	1    8650 4350
	1    0    0    -1  
$EndComp
$Comp
L V_Inductor:L_10022907 L18
U 1 1 C853FF9C
P 8650 4550
AR Path="/C853FF9C" Ref="L18"  Part="1" 
AR Path="/5E926050/C853FF9C" Ref="L18"  Part="1" 
F 0 "L18" H 8525 4575 42  0000 L BNN
F 1 "Ferrite 200mA" H 8550 4600 34  0001 L BNN
F 2 "GR106772-A:C0603" H 8650 4550 50  0001 C CNN
F 3 "" H 8650 4550 50  0001 C CNN
F 4 "SMD FERRITE 200MA" H 8650 4550 50  0001 C CNN "Description"
F 5 "10022907" H 8650 4550 50  0001 C CNN "Item Number"
F 6 "WURTH ELEKTRONIK GMBH" H 8650 4550 50  0001 C CNN "Manufacturer"
F 7 "74279266" H 8650 4550 50  0001 C CNN "Manufacturer_No"
	1    8650 4550
	1    0    0    -1  
$EndComp
$Comp
L V_Inductor:L_10022907 L1
U 1 1 63106439
P 8650 4650
AR Path="/63106439" Ref="L1"  Part="1" 
AR Path="/5E926050/63106439" Ref="L1"  Part="1" 
F 0 "L1" H 8525 4675 42  0000 L BNN
F 1 "Ferrite 200mA" H 8550 4700 34  0001 L BNN
F 2 "GR106772-A:C0603" H 8650 4650 50  0001 C CNN
F 3 "" H 8650 4650 50  0001 C CNN
F 4 "SMD FERRITE 200MA" H 8650 4650 50  0001 C CNN "Description"
F 5 "10022907" H 8650 4650 50  0001 C CNN "Item Number"
F 6 "WURTH ELEKTRONIK GMBH" H 8650 4650 50  0001 C CNN "Manufacturer"
F 7 "74279266" H 8650 4650 50  0001 C CNN "Manufacturer_No"
	1    8650 4650
	1    0    0    -1  
$EndComp
$Comp
L V_Inductor:L_10022907 L3
U 1 1 5E88F353
P 8650 4750
AR Path="/5E88F353" Ref="L3"  Part="1" 
AR Path="/5E926050/5E88F353" Ref="L3"  Part="1" 
F 0 "L3" H 8525 4775 42  0000 L BNN
F 1 "Ferrite 200mA" H 8550 4800 34  0001 L BNN
F 2 "GR106772-A:C0603" H 8650 4750 50  0001 C CNN
F 3 "" H 8650 4750 50  0001 C CNN
F 4 "SMD FERRITE 200MA" H 8650 4750 50  0001 C CNN "Description"
F 5 "10022907" H 8650 4750 50  0001 C CNN "Item Number"
F 6 "WURTH ELEKTRONIK GMBH" H 8650 4750 50  0001 C CNN "Manufacturer"
F 7 "74279266" H 8650 4750 50  0001 C CNN "Manufacturer_No"
	1    8650 4750
	1    0    0    -1  
$EndComp
$Comp
L V_Inductor:L_10022907 L4
U 1 1 AC576572
P 8650 4850
AR Path="/AC576572" Ref="L4"  Part="1" 
AR Path="/5E926050/AC576572" Ref="L4"  Part="1" 
F 0 "L4" H 8525 4875 42  0000 L BNN
F 1 "Ferrite 200mA" H 8550 4900 34  0001 L BNN
F 2 "GR106772-A:C0603" H 8650 4850 50  0001 C CNN
F 3 "" H 8650 4850 50  0001 C CNN
F 4 "SMD FERRITE 200MA" H 8650 4850 50  0001 C CNN "Description"
F 5 "10022907" H 8650 4850 50  0001 C CNN "Item Number"
F 6 "WURTH ELEKTRONIK GMBH" H 8650 4850 50  0001 C CNN "Manufacturer"
F 7 "74279266" H 8650 4850 50  0001 C CNN "Manufacturer_No"
	1    8650 4850
	1    0    0    -1  
$EndComp
$Comp
L V_Inductor:L_10022907 L6
U 1 1 76104BF1
P 8650 5050
AR Path="/76104BF1" Ref="L6"  Part="1" 
AR Path="/5E926050/76104BF1" Ref="L6"  Part="1" 
F 0 "L6" H 8550 4975 42  0000 L BNN
F 1 "Ferrite 200mA" H 8550 5100 34  0001 L BNN
F 2 "GR106772-A:C0603" H 8650 5050 50  0001 C CNN
F 3 "" H 8650 5050 50  0001 C CNN
F 4 "SMD FERRITE 200MA" H 8650 5050 50  0001 C CNN "Description"
F 5 "10022907" H 8650 5050 50  0001 C CNN "Item Number"
F 6 "WURTH ELEKTRONIK GMBH" H 8650 5050 50  0001 C CNN "Manufacturer"
F 7 "74279266" H 8650 5050 50  0001 C CNN "Manufacturer_No"
	1    8650 5050
	1    0    0    -1  
$EndComp
$Comp
L V_Inductor:L_10022907 L43
U 1 1 B8451C4A
P 14550 4950
AR Path="/B8451C4A" Ref="L43"  Part="1" 
AR Path="/5E926050/B8451C4A" Ref="L43"  Part="1" 
F 0 "L43" H 14450 4975 42  0000 L BNN
F 1 "Ferrite 200mA" H 14450 5000 34  0001 L BNN
F 2 "GR106772-A:C0603" H 14550 4950 50  0001 C CNN
F 3 "" H 14550 4950 50  0001 C CNN
F 4 "SMD FERRITE 200MA" H 14550 4950 50  0001 C CNN "Description"
F 5 "10022907" H 14550 4950 50  0001 C CNN "Item Number"
F 6 "WURTH ELEKTRONIK GMBH" H 14550 4950 50  0001 C CNN "Manufacturer"
F 7 "74279266" H 14550 4950 50  0001 C CNN "Manufacturer_No"
	1    14550 4950
	1    0    0    -1  
$EndComp
$Comp
L V_Inductor:L_10022907 L44
U 1 1 C8827D52
P 14550 4850
AR Path="/C8827D52" Ref="L44"  Part="1" 
AR Path="/5E926050/C8827D52" Ref="L44"  Part="1" 
F 0 "L44" H 14450 4875 42  0000 L BNN
F 1 "Ferrite 200mA" H 14450 4900 34  0001 L BNN
F 2 "GR106772-A:C0603" H 14550 4850 50  0001 C CNN
F 3 "" H 14550 4850 50  0001 C CNN
F 4 "SMD FERRITE 200MA" H 14550 4850 50  0001 C CNN "Description"
F 5 "10022907" H 14550 4850 50  0001 C CNN "Item Number"
F 6 "WURTH ELEKTRONIK GMBH" H 14550 4850 50  0001 C CNN "Manufacturer"
F 7 "74279266" H 14550 4850 50  0001 C CNN "Manufacturer_No"
	1    14550 4850
	1    0    0    -1  
$EndComp
$Comp
L V_Inductor:L_10022907 L45
U 1 1 27E57B0C
P 14550 4750
AR Path="/27E57B0C" Ref="L45"  Part="1" 
AR Path="/5E926050/27E57B0C" Ref="L45"  Part="1" 
F 0 "L45" H 14450 4775 42  0000 L BNN
F 1 "Ferrite 200mA" H 14450 4800 34  0001 L BNN
F 2 "GR106772-A:C0603" H 14550 4750 50  0001 C CNN
F 3 "" H 14550 4750 50  0001 C CNN
F 4 "SMD FERRITE 200MA" H 14550 4750 50  0001 C CNN "Description"
F 5 "10022907" H 14550 4750 50  0001 C CNN "Item Number"
F 6 "WURTH ELEKTRONIK GMBH" H 14550 4750 50  0001 C CNN "Manufacturer"
F 7 "74279266" H 14550 4750 50  0001 C CNN "Manufacturer_No"
	1    14550 4750
	1    0    0    -1  
$EndComp
$Comp
L V_Inductor:L_10022907 L47
U 1 1 58FFAA19
P 14550 4550
AR Path="/58FFAA19" Ref="L47"  Part="1" 
AR Path="/5E926050/58FFAA19" Ref="L47"  Part="1" 
F 0 "L47" H 14450 4575 42  0000 L BNN
F 1 "Ferrite 200mA" H 14450 4600 34  0001 L BNN
F 2 "GR106772-A:C0603" H 14550 4550 50  0001 C CNN
F 3 "" H 14550 4550 50  0001 C CNN
F 4 "SMD FERRITE 200MA" H 14550 4550 50  0001 C CNN "Description"
F 5 "10022907" H 14550 4550 50  0001 C CNN "Item Number"
F 6 "WURTH ELEKTRONIK GMBH" H 14550 4550 50  0001 C CNN "Manufacturer"
F 7 "74279266" H 14550 4550 50  0001 C CNN "Manufacturer_No"
	1    14550 4550
	1    0    0    -1  
$EndComp
$Comp
L V_Inductor:L_10022907 L48
U 1 1 7A9C51D5
P 14550 4450
AR Path="/7A9C51D5" Ref="L48"  Part="1" 
AR Path="/5E926050/7A9C51D5" Ref="L48"  Part="1" 
F 0 "L48" H 14450 4475 42  0000 L BNN
F 1 "Ferrite 200mA" H 14450 4500 34  0001 L BNN
F 2 "GR106772-A:C0603" H 14550 4450 50  0001 C CNN
F 3 "" H 14550 4450 50  0001 C CNN
F 4 "SMD FERRITE 200MA" H 14550 4450 50  0001 C CNN "Description"
F 5 "10022907" H 14550 4450 50  0001 C CNN "Item Number"
F 6 "WURTH ELEKTRONIK GMBH" H 14550 4450 50  0001 C CNN "Manufacturer"
F 7 "74279266" H 14550 4450 50  0001 C CNN "Manufacturer_No"
	1    14550 4450
	1    0    0    -1  
$EndComp
$Comp
L V_Inductor:L_10022907 L49
U 1 1 B59E7860
P 14550 4350
AR Path="/B59E7860" Ref="L49"  Part="1" 
AR Path="/5E926050/B59E7860" Ref="L49"  Part="1" 
F 0 "L49" H 14450 4375 42  0000 L BNN
F 1 "Ferrite 200mA" H 14450 4400 34  0001 L BNN
F 2 "GR106772-A:C0603" H 14550 4350 50  0001 C CNN
F 3 "" H 14550 4350 50  0001 C CNN
F 4 "SMD FERRITE 200MA" H 14550 4350 50  0001 C CNN "Description"
F 5 "10022907" H 14550 4350 50  0001 C CNN "Item Number"
F 6 "WURTH ELEKTRONIK GMBH" H 14550 4350 50  0001 C CNN "Manufacturer"
F 7 "74279266" H 14550 4350 50  0001 C CNN "Manufacturer_No"
	1    14550 4350
	1    0    0    -1  
$EndComp
$Comp
L V_Inductor:L_10022907 L50
U 1 1 39D83C75
P 14550 4250
AR Path="/39D83C75" Ref="L50"  Part="1" 
AR Path="/5E926050/39D83C75" Ref="L50"  Part="1" 
F 0 "L50" H 14450 4275 42  0000 L BNN
F 1 "Ferrite 200mA" H 14450 4300 34  0001 L BNN
F 2 "GR106772-A:C0603" H 14550 4250 50  0001 C CNN
F 3 "" H 14550 4250 50  0001 C CNN
F 4 "SMD FERRITE 200MA" H 14550 4250 50  0001 C CNN "Description"
F 5 "10022907" H 14550 4250 50  0001 C CNN "Item Number"
F 6 "WURTH ELEKTRONIK GMBH" H 14550 4250 50  0001 C CNN "Manufacturer"
F 7 "74279266" H 14550 4250 50  0001 C CNN "Manufacturer_No"
	1    14550 4250
	1    0    0    -1  
$EndComp
$Comp
L V_Inductor:L_10022911 L61
U 1 1 D3E71165
P 14550 4150
AR Path="/D3E71165" Ref="L61"  Part="1" 
AR Path="/5E926050/D3E71165" Ref="L61"  Part="1" 
F 0 "L61" H 14450 4175 42  0000 L BNN
F 1 "Ferrite 1A" H 14437 4213 34  0001 L BNN
F 2 "GR106772-A:RC1206" H 14550 4150 50  0001 C CNN
F 3 "" H 14550 4150 50  0001 C CNN
F 4 "SMD FERRITE, 1A,1206" H 14550 4150 50  0001 C CNN "Description"
F 5 "10022911" H 14550 4150 50  0001 C CNN "Item Number"
F 6 "WURTH ELEKTRONIK GMBH" H 14550 4150 50  0001 C CNN "Manufacturer"
F 7 "74279218" H 14550 4150 50  0001 C CNN "Manufacturer_No"
	1    14550 4150
	1    0    0    -1  
$EndComp
$Comp
L V_Connector:26BR-HE10 J7
U 1 1 916830BC
P 11250 4650
F 0 "J7" H 11100 5385 59  0000 L BNN
F 1 "26BR-HE10" H 11100 3875 45  0000 L BNN
F 2 "GR106772-A:BP2X13C_0xf61a7da61a61a61a61a61a6186986986987df61" H 11250 4650 50  0001 C CNN
F 3 "" H 11250 4650 50  0001 C CNN
F 4 "HEADER CONNECTOR, RIGHT ANGLE, 26 PINS" H 11250 4650 50  0001 C CNN "Description"
F 5 "10052331" H 11250 4650 50  0001 C CNN "Item Number"
F 6 "FCI/BERG" H 11250 4650 50  0001 C CNN "Manufacturer"
F 7 "75867-105LF" H 11250 4650 50  0001 C CNN "Manufacturer_No"
F 8 "FCI/BERG" H 11250 4650 50  0001 C CNN "Manufacturer2"
F 9 "88874-026LF" H 11250 4650 50  0001 C CNN "Manufacturer_No2"
	1    11250 4650
	1    0    0    -1  
$EndComp
$Comp
L V_Power:0VANA #U$0379
U 1 1 A6CF7D7B
P 10950 5475
F 0 "#U$0379" H 10950 5475 50  0001 C CNN
F 1 "0VANA" H 10837 5288 59  0000 L BNN
F 2 "" H 10950 5475 50  0001 C CNN
F 3 "" H 10950 5475 50  0001 C CNN
	1    10950 5475
	1    0    0    -1  
$EndComp
$Comp
L V_Capacitor:C0612_47pF_50V_10% C55
U 1 1 BAACCAAE
P 14050 6325
F 0 "C55" H 13900 5963 64  0000 L BNN
F 1 "47pF" H 13912 5888 42  0000 L BNN
F 2 "GR106772-A:C0612-4" H 14050 6325 50  0001 C CNN
F 3 "http://datasheets.avx.com/CapArray.pdf" H 14050 6325 50  0001 C CNN
F 4 "CAPACITOR ARRAY, 47PF, 50V, +/-10%,NPO,0612" H 14050 6325 50  0001 C CNN "Description"
F 5 "10095973" H 14050 6325 50  0001 C CNN "Item Number"
F 6 "AVX_RMS1" H 14050 6325 50  0001 C CNN "Manufacturer"
F 7 "W3A45A470KAT2A" H 14050 6325 50  0001 C CNN "Manufacturer_No"
F 8 "YAGEO_RMS1" H 0   0   50  0001 C CNN "Manufacturer2"
F 9 "CA0612JRNPO9BN470" H 0   0   50  0001 C CNN "Manufacturer_No2"
	1    14050 6325
	1    0    0    -1  
$EndComp
$Comp
L V_Capacitor:C0612_47pF_50V_10% C58
U 1 1 6DB6649E
P 10100 6325
F 0 "C58" H 9950 5975 64  0000 L BNN
F 1 "47pF" H 9950 5900 42  0000 L BNN
F 2 "GR106772-A:C0612-4" H 10100 6325 50  0001 C CNN
F 3 "http://datasheets.avx.com/CapArray.pdf" H 10100 6325 50  0001 C CNN
F 4 "CAPACITOR ARRAY, 47PF, 50V, +/-10%,NPO,0612" H 10100 6325 50  0001 C CNN "Description"
F 5 "10095973" H 10100 6325 50  0001 C CNN "Item Number"
F 6 "AVX_RMS1" H 10100 6325 50  0001 C CNN "Manufacturer"
F 7 "W3A45A470KAT2A" H 10100 6325 50  0001 C CNN "Manufacturer_No"
F 8 "YAGEO_RMS1" H 0   0   50  0001 C CNN "Manufacturer2"
F 9 "CA0612JRNPO9BN470" H 0   0   50  0001 C CNN "Manufacturer_No2"
	1    10100 6325
	1    0    0    -1  
$EndComp
$Comp
L V_Inductor:L_10022911 L8
U 1 1 8A653321
P 14550 5150
AR Path="/8A653321" Ref="L8"  Part="1" 
AR Path="/5E926050/8A653321" Ref="L8"  Part="1" 
F 0 "L8" H 14450 5175 42  0000 L BNN
F 1 "Ferrite 1A" H 14425 5050 34  0001 L BNN
F 2 "GR106772-A:RC1206" H 14550 5150 50  0001 C CNN
F 3 "" H 14550 5150 50  0001 C CNN
F 4 "SMD FERRITE, 1A,1206" H 14550 5150 50  0001 C CNN "Description"
F 5 "10022911" H 14550 5150 50  0001 C CNN "Item Number"
F 6 "WURTH ELEKTRONIK GMBH" H 14550 5150 50  0001 C CNN "Manufacturer"
F 7 "74279218" H 14550 5150 50  0001 C CNN "Manufacturer_No"
	1    14550 5150
	1    0    0    -1  
$EndComp
$Comp
L V_Inductor:L_10022907 L36
U 1 1 99D0EAD2
P 4875 9800
AR Path="/99D0EAD2" Ref="L36"  Part="1" 
AR Path="/5E926050/99D0EAD2" Ref="L36"  Part="1" 
F 0 "L36" H 4825 9850 42  0000 L BNN
F 1 "DNP" H 4825 9750 34  0000 L BNN
F 2 "GR106772-A:C0603" H 4875 9800 50  0001 C CNN
F 3 "" H 4875 9800 50  0001 C CNN
F 4 "10022907" H 4875 9800 50  0001 C CNN "Item Number"
F 5 "SMD FERRITE 200MA" H -75 0   50  0001 C CNN "Description"
F 6 "WURTH ELEKTRONIK GMBH" H -75 0   50  0001 C CNN "Manufacturer"
F 7 "74279266" H -75 0   50  0001 C CNN "Manufacturer_No"
	1    4875 9800
	1    0    0    -1  
$EndComp
$Comp
L V_Inductor:L_10022907 L38
U 1 1 FD4FC626
P 4875 9400
AR Path="/FD4FC626" Ref="L38"  Part="1" 
AR Path="/5E926050/FD4FC626" Ref="L38"  Part="1" 
F 0 "L38" H 4813 9450 42  0000 L BNN
F 1 "DNP" H 4825 9350 34  0000 L BNN
F 2 "GR106772-A:C0603" H 4875 9400 50  0001 C CNN
F 3 "" H 4875 9400 50  0001 C CNN
F 4 "10022907" H 4875 9400 50  0001 C CNN "Item Number"
F 5 "SMD FERRITE 200MA" H -75 0   50  0001 C CNN "Description"
F 6 "WURTH ELEKTRONIK GMBH" H -75 0   50  0001 C CNN "Manufacturer"
F 7 "74279266" H -75 0   50  0001 C CNN "Manufacturer_No"
	1    4875 9400
	1    0    0    -1  
$EndComp
$Comp
L V_Inductor:L_10022907 L39
U 1 1 37C2E7A2
P 4875 9200
AR Path="/37C2E7A2" Ref="L39"  Part="1" 
AR Path="/5E926050/37C2E7A2" Ref="L39"  Part="1" 
F 0 "L39" H 4812 9250 42  0000 L BNN
F 1 "DNP" H 4825 9150 34  0000 L BNN
F 2 "GR106772-A:C0603" H 4875 9200 50  0001 C CNN
F 3 "" H 4875 9200 50  0001 C CNN
F 4 "10022907" H 4875 9200 50  0001 C CNN "Item Number"
F 5 "SMD FERRITE 200MA" H -75 0   50  0001 C CNN "Description"
F 6 "WURTH ELEKTRONIK GMBH" H -75 0   50  0001 C CNN "Manufacturer"
F 7 "74279266" H -75 0   50  0001 C CNN "Manufacturer_No"
	1    4875 9200
	1    0    0    -1  
$EndComp
$Comp
L V_Inductor:L_10022907 L40
U 1 1 D8418348
P 4850 9000
AR Path="/D8418348" Ref="L40"  Part="1" 
AR Path="/5E926050/D8418348" Ref="L40"  Part="1" 
F 0 "L40" H 4787 9050 42  0000 L BNN
F 1 "DNP" H 4800 8950 34  0000 L BNN
F 2 "GR106772-A:C0603" H 4850 9000 50  0001 C CNN
F 3 "" H 4850 9000 50  0001 C CNN
F 4 "10022907" H 4850 9000 50  0001 C CNN "Item Number"
F 5 "SMD FERRITE 200MA" H -100 0   50  0001 C CNN "Description"
F 6 "WURTH ELEKTRONIK GMBH" H -100 0   50  0001 C CNN "Manufacturer"
F 7 "74279266" H -100 0   50  0001 C CNN "Manufacturer_No"
	1    4850 9000
	1    0    0    -1  
$EndComp
$Comp
L V_Inductor:L_10022907 L41
U 1 1 D7B52F8F
P 4850 8800
AR Path="/D7B52F8F" Ref="L41"  Part="1" 
AR Path="/5E926050/D7B52F8F" Ref="L41"  Part="1" 
F 0 "L41" H 4787 8850 42  0000 L BNN
F 1 "DNP" H 4800 8750 34  0000 L BNN
F 2 "GR106772-A:C0603" H 4850 8800 50  0001 C CNN
F 3 "" H 4850 8800 50  0001 C CNN
F 4 "10022907" H 4850 8800 50  0001 C CNN "Item Number"
F 5 "SMD FERRITE 200MA" H -100 0   50  0001 C CNN "Description"
F 6 "WURTH ELEKTRONIK GMBH" H -100 0   50  0001 C CNN "Manufacturer"
F 7 "74279266" H -100 0   50  0001 C CNN "Manufacturer_No"
	1    4850 8800
	1    0    0    -1  
$EndComp
$Comp
L V_Capacitor:C0612_47pF_50V_10% C17
U 1 1 D8976320
P 2900 10500
F 0 "C17" H 2225 10500 64  0000 L BNN
F 1 "47pF" H 2237 10400 42  0000 L BNN
F 2 "GR106772-A:C0612-4" H 2900 10500 50  0001 C CNN
F 3 "http://datasheets.avx.com/CapArray.pdf" H 2900 10500 50  0001 C CNN
F 4 "CAPACITOR ARRAY, 47PF, 50V, +/-10%,NPO,0612" H 2900 10500 50  0001 C CNN "Description"
F 5 "10095973" H 2900 10500 50  0001 C CNN "Item Number"
F 6 "AVX_RMS1" H 2900 10500 50  0001 C CNN "Manufacturer"
F 7 "W3A45A470KAT2A" H 2900 10500 50  0001 C CNN "Manufacturer_No"
F 8 "YAGEO_RMS1" H 0   0   50  0001 C CNN "Manufacturer2"
F 9 "CA0612JRNPO9BN470" H 0   0   50  0001 C CNN "Manufacturer_No2"
	1    2900 10500
	1    0    0    -1  
$EndComp
$Comp
L V_Capacitor:C0612_47pF_50V_10% C18
U 1 1 03290900
P 3750 10500
F 0 "C18" H 4200 10525 64  0000 L BNN
F 1 "47pF" H 4225 10425 42  0000 L BNN
F 2 "GR106772-A:C0612-4" H 3750 10500 50  0001 C CNN
F 3 "http://datasheets.avx.com/CapArray.pdf" H 3750 10500 50  0001 C CNN
F 4 "CAPACITOR ARRAY, 47PF, 50V, +/-10%,NPO,0612" H 3750 10500 50  0001 C CNN "Description"
F 5 "10095973" H 3750 10500 50  0001 C CNN "Item Number"
F 6 "AVX_RMS1" H 3750 10500 50  0001 C CNN "Manufacturer"
F 7 "W3A45A470KAT2A" H 3750 10500 50  0001 C CNN "Manufacturer_No"
F 8 "YAGEO_RMS1" H 0   0   50  0001 C CNN "Manufacturer2"
F 9 "CA0612JRNPO9BN470" H 0   0   50  0001 C CNN "Manufacturer_No2"
	1    3750 10500
	1    0    0    -1  
$EndComp
$Comp
L V_Capacitor:C_47uF_10V_10% C19
U 1 1 9CA42FFB
P 3200 8450
F 0 "C19" H 3313 8431 56  0000 L BNN
F 1 "47uF" H 3313 8368 42  0000 L BNN
F 2 "GR106772-A:C3528" H 3200 8450 50  0001 C CNN
F 3 "" H 3200 8450 50  0001 C CNN
F 4 "CAPACITOR TANALUM, 47UF, 10V +/-10%" H 3200 8450 50  0001 C CNN "Description"
F 5 "10022962" H 3200 8450 50  0001 C CNN "Item Number"
F 6 "KEMET" H 3200 8450 50  0001 C CNN "Manufacturer"
F 7 "T495B476K010ATE500" H 3200 8450 50  0001 C CNN "Manufacturer_No"
	1    3200 8450
	1    0    0    -1  
$EndComp
$Comp
L V_Connector:B12B-ZR J3
U 1 1 7D94D0D3
P 2250 10100
AR Path="/7D94D0D3" Ref="J3"  Part="1" 
AR Path="/5E926050/7D94D0D3" Ref="J3"  Part="1" 
F 0 "J3" H 2175 10000 59  0000 L BNN
F 1 " " H 2175 9912 59  0000 L BNN
F 2 "GR106772-A:B12BZR-SM3TF" H 2250 10100 50  0001 C CNN
F 3 "" H 2250 10100 50  0001 C CNN
F 4 "CONNECTOR, SPO2, 12 CONTACTS" H 2250 10100 50  0001 C CNN "Description"
F 5 "10097259" H 2250 10100 50  0001 C CNN "Item Number"
F 6 "J.S.T. CORPORATION" H 2250 10100 50  0001 C CNN "Manufacturer"
F 7 "B12B-ZR-SM4-TF (LF)(SN)" H 2250 10100 50  0001 C CNN "Manufacturer_No"
	1    2250 10100
	1    0    0    -1  
$EndComp
$Comp
L V_Transistor:Q_PMOS_GSD_10022933 T16
U 1 1 0F564599
P 7250 9250
F 0 "T16" H 7000 9025 59  0000 L BNN
F 1 "DNP" H 7000 9125 56  0000 L BNN
F 2 "GR106772-A:SOT23-GSD" H 7250 9250 50  0001 C CNN
F 3 "" H 7250 9250 50  0001 C CNN
F 4 "10022933" H 7250 9250 50  0001 C CNN "Item Number"
F 5 "IRLML5103TRPBF" H 7250 9250 50  0001 C CNN "Manufacturer_No"
F 6 "INTERNATIONAL RECTIFIER_RMS1" H 7250 9250 50  0001 C CNN "Manufacturer"
F 7 "RSPTRANSISTOR MOSFET, P CHANNEL, 30V,0.6A" H 0   0   50  0001 C CNN "Description"
	1    7250 9250
	1    0    0    1   
$EndComp
$Comp
L V_Resistor:R0603_10k_5% R47
U 1 1 65CD8F11
P 6650 9500
F 0 "R47" V 6700 9425 64  0000 R TNN
F 1 "DNP" V 6625 9425 42  0000 R TNN
F 2 "GR106772-A:R0603" H 6650 9500 50  0001 C CNN
F 3 "" H 6650 9500 50  0001 C CNN
F 4 "10097266" V 6650 9500 50  0001 C CNN "Item Number"
F 5 "RESISTOR,10K OHM, 0.063W,+/-5%,0603" H 0   0   50  0001 C CNN "Description"
F 6 "YAGEO_RMS1" H 0   0   50  0001 C CNN "Manufacturer"
F 7 "YAGEO_RMS1" H 0   0   50  0001 C CNN "Manufacturer2"
F 8 "VISHAY_RMS1" H 0   0   50  0001 C CNN "Manufacturer3"
F 9 "RC0603JR-0710KL" H 0   0   50  0001 C CNN "Manufacturer_No"
F 10 "RC0603JR-0710KL" H 0   0   50  0001 C CNN "Manufacturer_No2"
F 11 "CRCW060310K0JNEA" H 0   0   50  0001 C CNN "Manufacturer_No3"
	1    6650 9500
	0    -1   -1   0   
$EndComp
$Comp
L V_Inductor:L_10022907 L35
U 1 1 3EE6CC19
P 4950 8200
AR Path="/3EE6CC19" Ref="L35"  Part="1" 
AR Path="/5E926050/3EE6CC19" Ref="L35"  Part="1" 
F 0 "L35" H 4888 8250 42  0000 L BNN
F 1 "Ferrite 200mA" H 4850 8250 34  0001 L BNN
F 2 "GR106772-A:C0603" H 4950 8200 50  0001 C CNN
F 3 "" H 4950 8200 50  0001 C CNN
F 4 "SMD FERRITE 200MA" H 4950 8200 50  0001 C CNN "Description"
F 5 "10022907" H 4950 8200 50  0001 C CNN "Item Number"
F 6 "WURTH ELEKTRONIK GMBH" H 4950 8200 50  0001 C CNN "Manufacturer"
F 7 "74279266" H 4950 8200 50  0001 C CNN "Manufacturer_No"
	1    4950 8200
	1    0    0    -1  
$EndComp
$Comp
L V_Inductor:L_10022907 L42
U 1 1 68BA90A5
P 4950 7450
AR Path="/68BA90A5" Ref="L42"  Part="1" 
AR Path="/5E926050/68BA90A5" Ref="L42"  Part="1" 
F 0 "L42" H 4888 7500 42  0000 L BNN
F 1 "Ferrite 200mA" H 4850 7500 34  0001 L BNN
F 2 "GR106772-A:C0603" H 4950 7450 50  0001 C CNN
F 3 "" H 4950 7450 50  0001 C CNN
F 4 "SMD FERRITE 200MA" H 4950 7450 50  0001 C CNN "Description"
F 5 "10022907" H 4950 7450 50  0001 C CNN "Item Number"
F 6 "WURTH ELEKTRONIK GMBH" H 4950 7450 50  0001 C CNN "Manufacturer"
F 7 "74279266" H 4950 7450 50  0001 C CNN "Manufacturer_No"
	1    4950 7450
	1    0    0    -1  
$EndComp
$Comp
L V_Capacitor:C0402_100nF_16V_10% C87
U 1 1 DE7D17FD
P 5950 7750
F 0 "C87" H 6050 7675 64  0000 L BNN
F 1 "100nF" H 6050 7775 42  0000 L BNN
F 2 "GR106772-A:C0402" H 5950 7750 50  0001 C CNN
F 3 "https://www.yageo.com/upload/media/product/productsearch/datasheet/mlcc/UPY-GPHC_X7R_6.3V-to-50V_18.pdf" H 5950 7750 50  0001 C CNN
F 4 "10022607" H 5950 7750 50  0001 C CNN "Item Number"
F 5 "CAPACITOR,100NF,16V,+/-10%,X7R,0402" H 0   0   50  0001 C CNN "Description"
F 6 "YAGEO_RMS1" H 0   0   50  0001 C CNN "Manufacturer"
F 7 "YAGEO_RMS1" H 0   0   50  0001 C CNN "Manufacturer2"
F 8 "MURATA MANUFACTURING CO., LTD." H 0   0   50  0001 C CNN "Manufacturer3"
F 9 "CC0402KRX7R7BB104" H 0   0   50  0001 C CNN "Manufacturer_No"
F 10 "223878715649" H 0   0   50  0001 C CNN "Manufacturer_No2"
F 11 "GRM155R71C104KA88D" H 0   0   50  0001 C CNN "Manufacturer_No3"
	1    5950 7750
	1    0    0    1   
$EndComp
$Comp
L V_Jumper:JUMP_0U JP1
U 1 1 0B60073D
P 4700 10250
F 0 "JP1" V 4788 10313 51  0000 L BNN
F 1 "JUMP_0U" H 4488 10100 51  0001 L BNN
F 2 "GR106772-A:R0603" H 4700 10250 50  0001 C CNN
F 3 "RoHS3 Compliant with exemptions" H 4700 10250 50  0001 C CNN
F 4 "RESISTANCE, 0 OHM,0603" H 4700 10250 50  0001 C CNN "Description"
F 5 "10023185" H 4700 10250 50  0001 C CNN "Item Number"
F 6 "YAGEO_RMS1" H 4700 10250 50  0001 C CNN "Manufacturer"
F 7 "RC0603JR-070RL" H 4700 10250 50  0001 C CNN "Manufacturer_No"
F 8 "YAGEO_RMS1" H 4700 10250 50  0001 C CNN "Manufacturer2"
F 9 "RC0603JR-070RL" H 4700 10250 50  0001 C CNN "Manufacturer_No2"
F 10 "YAGEO_RMS1" H 4700 10250 50  0001 C CNN "Manufacturer3"
F 11 "RC0603JR-070RL" H 4700 10250 50  0001 C CNN "Manufacturer_No3"
	1    4700 10250
	0    -1   -1   0   
$EndComp
$Comp
L V_Inductor:L_10022907 L46
U 1 1 17AB747C
P 14550 4650
AR Path="/17AB747C" Ref="L46"  Part="1" 
AR Path="/5E926050/17AB747C" Ref="L46"  Part="1" 
F 0 "L46" H 14450 4675 42  0000 L BNN
F 1 "Ferrite 200mA" H 14450 4700 34  0001 L BNN
F 2 "GR106772-A:C0603" H 14550 4650 50  0001 C CNN
F 3 "" H 14550 4650 50  0001 C CNN
F 4 "SMD FERRITE 200MA" H 14550 4650 50  0001 C CNN "Description"
F 5 "10022907" H 14550 4650 50  0001 C CNN "Item Number"
F 6 "WURTH ELEKTRONIK GMBH" H 14550 4650 50  0001 C CNN "Manufacturer"
F 7 "74279266" H 14550 4650 50  0001 C CNN "Manufacturer_No"
	1    14550 4650
	1    0    0    -1  
$EndComp
$Comp
L V_Inductor:L_10022907 L51
U 1 1 49C38A30
P 8650 4250
AR Path="/49C38A30" Ref="L51"  Part="1" 
AR Path="/5E926050/49C38A30" Ref="L51"  Part="1" 
F 0 "L51" H 8525 4300 42  0000 L BNN
F 1 "Ferrite 200mA" H 8550 4300 34  0001 L BNN
F 2 "GR106772-A:C0603" H 8650 4250 50  0001 C CNN
F 3 "" H 8650 4250 50  0001 C CNN
F 4 "SMD FERRITE 200MA" H 8650 4250 50  0001 C CNN "Description"
F 5 "10022907" H 8650 4250 50  0001 C CNN "Item Number"
F 6 "WURTH ELEKTRONIK GMBH" H 8650 4250 50  0001 C CNN "Manufacturer"
F 7 "74279266" H 8650 4250 50  0001 C CNN "Manufacturer_No"
	1    8650 4250
	1    0    0    -1  
$EndComp
$Comp
L V_Inductor:L_10022907 L52
U 1 1 5D3B4218
P 8650 4450
AR Path="/5D3B4218" Ref="L52"  Part="1" 
AR Path="/5E926050/5D3B4218" Ref="L52"  Part="1" 
F 0 "L52" H 8525 4475 42  0000 L BNN
F 1 "Ferrite 200mA" H 8550 4500 34  0001 L BNN
F 2 "GR106772-A:C0603" H 8650 4450 50  0001 C CNN
F 3 "" H 8650 4450 50  0001 C CNN
F 4 "SMD FERRITE 200MA" H 8650 4450 50  0001 C CNN "Description"
F 5 "10022907" H 8650 4450 50  0001 C CNN "Item Number"
F 6 "WURTH ELEKTRONIK GMBH" H 8650 4450 50  0001 C CNN "Manufacturer"
F 7 "74279266" H 8650 4450 50  0001 C CNN "Manufacturer_No"
	1    8650 4450
	1    0    0    -1  
$EndComp
$Comp
L V_Capacitor:C0612_47pF_50V_10% C111
U 1 1 C2212B5B
P 12250 6325
F 0 "C111" H 12100 5963 64  0000 L BNN
F 1 "47pF" H 12112 5888 42  0000 L BNN
F 2 "GR106772-A:C0612-4" H 12250 6325 50  0001 C CNN
F 3 "http://datasheets.avx.com/CapArray.pdf" H 12250 6325 50  0001 C CNN
F 4 "CAPACITOR ARRAY, 47PF, 50V, +/-10%,NPO,0612" H 12250 6325 50  0001 C CNN "Description"
F 5 "10095973" H 12250 6325 50  0001 C CNN "Item Number"
F 6 "AVX_RMS1" H 12250 6325 50  0001 C CNN "Manufacturer"
F 7 "W3A45A470KAT2A" H 12250 6325 50  0001 C CNN "Manufacturer_No"
F 8 "YAGEO_RMS1" H 0   0   50  0001 C CNN "Manufacturer2"
F 9 "CA0612JRNPO9BN470" H 0   0   50  0001 C CNN "Manufacturer_No2"
	1    12250 6325
	1    0    0    -1  
$EndComp
$Comp
L V_Inductor:L_10022907 L53
U 1 1 983C8A5F
P 14550 5050
AR Path="/983C8A5F" Ref="L53"  Part="1" 
AR Path="/5E926050/983C8A5F" Ref="L53"  Part="1" 
F 0 "L53" H 14450 5075 42  0000 L BNN
F 1 "Ferrite 200mA" H 14450 5100 34  0001 L BNN
F 2 "GR106772-A:C0603" H 14550 5050 50  0001 C CNN
F 3 "" H 14550 5050 50  0001 C CNN
F 4 "SMD FERRITE 200MA" H 14550 5050 50  0001 C CNN "Description"
F 5 "10022907" H 14550 5050 50  0001 C CNN "Item Number"
F 6 "WURTH ELEKTRONIK GMBH" H 14550 5050 50  0001 C CNN "Manufacturer"
F 7 "74279266" H 14550 5050 50  0001 C CNN "Manufacturer_No"
	1    14550 5050
	1    0    0    -1  
$EndComp
$Comp
L V_Resistor:R0603_470R_5% L5
U 1 1 E13C76CE
P 8650 4950
F 0 "L5" H 8588 4928 43  0000 L BNN
F 1 "470" H 8768 4959 42  0000 L BNN
F 2 "GR106772-A:C0603" H 8650 4950 50  0001 C CNN
F 3 "" H 8650 4950 50  0001 C CNN
F 4 "RESISTOR, 470 OHM, 0.063W, +/-5%" H 8650 4950 50  0001 C CNN "Description"
F 5 "10022544" H 8650 4950 50  0001 C CNN "Item Number"
F 6 "YAGEO_RMS1" H 8650 4950 50  0001 C CNN "Manufacturer"
F 7 "RC0603JR-07470RL" H 8650 4950 50  0001 C CNN "Manufacturer_No"
F 8 "VISHAY_RMS1" H 8650 4950 50  0001 C CNN "Manufacturer2"
F 9 "CRCW0603470RJNEA" H 8650 4950 50  0001 C CNN "Manufacturer_No2"
F 10 "YAGEO_RMS1" H 8650 4950 50  0001 C CNN "Manufacturer3"
F 11 "RC0603JR-07470RL" H 8650 4950 50  0001 C CNN "Manufacturer_No3"
	1    8650 4950
	1    0    0    -1  
$EndComp
Wire Notes Line
	862  763  7137 763 
Wire Notes Line
	862  763  862  7250
Wire Notes Line
	7137 763  7137 7250
Wire Notes Line
	2550 4050 2637 4000
Wire Notes Line
	2637 4000 2550 3950
Wire Notes Line
	2562 3925 2600 3888
Wire Notes Line
	2600 3888 2600 3925
Wire Notes Line
	2600 3925 2650 3888
Wire Notes Line
	2650 3888 2625 3888
Wire Notes Line
	2650 3888 2637 3913
Wire Notes Line
	2550 3650 2637 3600
Wire Notes Line
	2637 3600 2550 3550
Wire Notes Line
	2550 3538 2587 3500
Wire Notes Line
	2587 3500 2587 3538
Wire Notes Line
	2587 3538 2637 3500
Wire Notes Line
	2637 3500 2612 3500
Wire Notes Line
	2637 3500 2625 3525
Wire Notes Line
	2550 3063 2550 3025
Wire Notes Line
	2550 3013 2550 2963
Wire Notes Line
	2550 2963 2637 3013
Wire Notes Line
	2637 3013 2550 3063
Wire Notes Line
	2562 2938 2600 2900
Wire Notes Line
	2600 2900 2600 2938
Wire Notes Line
	2600 2938 2650 2900
Wire Notes Line
	2650 2900 2625 2900
Wire Notes Line
	2650 2900 2637 2925
Wire Notes Line
	2537 4750 2625 4800
Wire Notes Line
	2625 4800 2537 4850
Wire Notes Line
	2550 4725 2587 4688
Wire Notes Line
	2587 4688 2587 4725
Wire Notes Line
	2587 4725 2637 4688
Wire Notes Line
	2637 4688 2625 4713
Wire Notes Line
	2550 4250 2637 4200
Wire Notes Line
	2637 4200 2550 4150
Wire Notes Line
	2550 4138 2587 4100
Wire Notes Line
	2587 4100 2587 4138
Wire Notes Line
	2587 4138 2637 4100
Wire Notes Line
	2637 4100 2612 4100
Wire Notes Line
	2637 4100 2625 4125
Wire Notes Line
	2812 1800 925  1800
Wire Notes Line
	2812 2000 1400 2000
Wire Notes Line
	1125 2200 1125 2263
Wire Notes Line
	1600 2200 1600 2263
Wire Notes Line
	2187 2200 2187 2263
Wire Notes Line
	925  2475 975  2475
Wire Notes Line
	1400 2475 1450 2475
Wire Notes Line
	1987 2475 2037 2475
Wire Notes Line
	1012 2500 1150 2300
Wire Notes Line
	1487 2500 1625 2300
Wire Notes Line
	2075 2500 2212 2300
Wire Notes Line
	1125 2600 1125 2663
Wire Notes Line
	1600 2600 1600 2663
Wire Notes Line
	925  2875 975  2875
Wire Notes Line
	1400 2875 1450 2875
Wire Notes Line
	1012 2900 1150 2700
Wire Notes Line
	1487 2900 1625 2700
Wire Notes Line
	1137 5400 1137 5463
Wire Notes Line
	937  5675 987  5675
Wire Notes Line
	1025 5700 1162 5500
Wire Notes Line
	2812 5400 1137 5400
Wire Notes Line
	862  7250 7137 7250
Wire Notes Line
	2550 3363 2550 3463
Wire Notes Line
	2550 3463 2637 3413
Wire Notes Line
	2637 3413 2550 3363
Wire Notes Line
	2550 3350 2587 3313
Wire Notes Line
	2587 3313 2587 3350
Wire Notes Line
	2587 3350 2637 3313
Wire Notes Line
	2637 3313 2612 3313
Wire Notes Line
	2637 3313 2625 3338
Wire Notes Line
	8300 763  8300 3225
Wire Notes Line
	8300 763  16062 763 
Wire Notes Line
	16062 3225 16062 763 
Wire Notes Line
	16062 3225 8300 3225
Wire Notes Line
	2187 2600 2187 2663
Wire Notes Line
	1987 2875 2037 2875
Wire Notes Line
	2075 2900 2212 2700
Wire Notes Line
	1150 5750 1150 5813
Wire Notes Line
	937  6025 1000 6025
Wire Notes Line
	1037 6050 1175 5850
Wire Notes Line
	2037 5750 1150 5750
Wire Notes Line
	850  10950 862  7313
Wire Notes Line
	8262 10950 8262 7313
Wire Notes Line
	1087 5613 1087 5975
Wire Notes Line
	2537 5150 2625 5200
Wire Notes Line
	2625 5200 2537 5250
Wire Notes Line
	2550 5125 2587 5088
Wire Notes Line
	2587 5088 2587 5125
Wire Notes Line
	2587 5125 2637 5088
Wire Notes Line
	2637 5088 2612 5088
Wire Notes Line
	2637 5088 2625 5113
Wire Notes Line
	2362 3413 2550 3413
Wire Notes Line
	2550 3600 2362 3600
Wire Notes Line
	2550 3013 2375 3013
Wire Notes Line
	2375 5200 2537 5200
Wire Notes Line
	2787 1600 937  1600
Wire Notes Line
	16050 7013 7237 7013
Wire Notes Line
	7237 3313 7237 7013
Wire Notes Line
	16050 3313 16050 7013
Wire Notes Line
	1237 8688 1225 8688
Wire Notes Line
	1225 8688 1200 8713
Wire Notes Line
	1200 8713 1200 9388
Wire Notes Line
	1200 9388 1175 9413
Wire Notes Line
	1175 9413 1200 9438
Wire Notes Line
	1200 9438 1200 10038
Wire Notes Line
	1200 10038 1225 10063
Wire Notes Line
	1225 10063 1250 10063
Wire Notes Line
	1237 8638 1225 8638
Wire Notes Line
	1225 8638 1200 8613
Wire Notes Line
	1200 8613 1200 8325
Wire Notes Line
	1200 8325 1175 8300
Wire Notes Line
	1175 8300 1200 8275
Wire Notes Line
	1200 8275 1200 7963
Wire Notes Line
	1200 7963 1225 7938
Wire Notes Line
	1225 7938 1237 7938
Wire Notes Line
	2262 9800 1800 9800
Wire Notes Line
	2262 9413 1800 9413
Wire Notes Line
	1962 9388 1962 9838
Wire Notes Line
	1962 9388 2062 9388
Wire Notes Line
	1962 9838 2062 9838
Wire Notes Line
	2262 9600 2062 9600
Wire Notes Line
	2250 10000 1862 10000
Wire Notes Line
	2250 9200 1787 9200
Wire Notes Line
	2250 9000 1787 9000
Wire Notes Line
	2250 8800 1787 8800
Wire Notes Line
	2250 8600 1787 8600
Wire Notes Line
	2250 8400 1787 8400
Wire Notes Line
	2250 8200 1787 8200
Wire Notes Line
	1812 7700 1812 9863
Wire Notes Line
	1912 7700 1912 9863
Wire Notes Line
	1812 7700 1912 7700
Wire Notes Line
	1812 9863 1862 9913
Wire Notes Line
	1862 9913 1912 9863
Wire Notes Line
	1862 9913 1862 10000
Wire Notes Line
	862  7313 8262 7313
Wire Notes Line
	5075 10475 5075 8463
Wire Notes Line
	5825 10475 5825 8463
Wire Notes Line
	5075 8463 5825 8463
Wire Notes Line
	5075 10475 5825 10475
Wire Notes Line
	2250 7988 1787 7988
Wire Notes Line
	2250 7800 1787 7800
Wire Notes Line
	1325 7800 1325 7988
Wire Notes Line
	1325 7988 1450 7988
Wire Notes Line
	1325 7800 1450 7800
Wire Notes Line
	2587 2400 2812 2400
Wire Notes Line
	2587 2400 2587 2075
Wire Notes Line
	2587 2075 1987 2075
Wire Notes Line
	2812 3013 2637 3013
Wire Notes Line
	2812 3200 2375 3200
Wire Notes Line
	2375 3013 2375 3200
Wire Notes Line
	2812 3413 2637 3413
Wire Notes Line
	2812 3600 2637 3600
Wire Notes Line
	2812 3800 2362 3800
Wire Notes Line
	2812 4000 2637 4000
Wire Notes Line
	2812 4200 2637 4200
Wire Notes Line
	2550 4000 2375 4000
Wire Notes Line
	2550 4200 2375 4200
Wire Notes Line
	2812 4400 2375 4400
Wire Notes Line
	2812 4600 2375 4600
Wire Notes Line
	2812 4800 2625 4800
Wire Notes Line
	2537 4800 2375 4800
Wire Notes Line
	2375 4600 2375 4800
Wire Notes Line
	2812 5200 2625 5200
Wire Notes Line
	2812 5000 2375 5000
Wire Notes Line
	2375 5000 2375 5200
Wire Notes Line
	2812 5600 2037 5600
Wire Notes Line
	2800 5800 2362 5800
Wire Notes Line
	2362 5800 2362 6200
Wire Notes Line
	937  6200 2362 6200
Wire Notes Line
	2037 5600 2037 5750
Text Notes 1487 4025 0    59   ~ 0
Red Alarme LED
Text Notes 1512 4775 0    59   ~ 0
AC LED
Text Notes 1487 3613 0    59   ~ 0
VENTILATION LED
Text Notes 1512 5200 0    59   ~ 0
DC LED
Text Notes 1487 4225 0    59   ~ 0
Orange Alarm LED
Text Notes 1462 2175 0    56   ~ 0
VALID
Text Notes 2012 2175 0    56   ~ 0
NAVIG
Text Notes 937  2588 0    56   ~ 0
100%O2
Text Notes 1437 2588 0    56   ~ 0
VENTIL(O/I)
Text Notes 2012 2588 0    56   ~ 0
TOP(+)
Text Notes 950  925  0    59   ~ 0
KEYBOARD CONNECTOR
Text Notes 1162 5363 0    56   ~ 0
INHIB ALARM
Text Notes 1500 3425 0    59   ~ 0
100% O² LED
Text Notes 11025 2725 1    47   ~ 0
RESERVED
Text Notes 11225 2725 1    47   ~ 0
RESERVED
Text Notes 1137 5725 0    56   ~ 0
INHIB-STOP-INV
Text Notes 937  7463 0    59   ~ 0
SpO2 FONCTION
Text Notes 1025 10000 1    73   ~ 0
Vers Sub-D 9Br
Text Notes 1250 10038 0    47   ~ 0
Pin 7 Sub-D
Text Notes 1250 9838 0    47   ~ 0
Pin 5 Sub-D
Text Notes 1250 9438 0    47   ~ 0
Pin 9 Sub-D
Text Notes 1250 9238 0    47   ~ 0
Pin 6 Sub-D
Text Notes 1250 9038 0    47   ~ 0
Pin 2 Sub-D
Text Notes 1250 8838 0    47   ~ 0
Pin 3 Sub-D
Text Notes 1262 9638 0    47   ~ 0
Signal Shield
Text Notes 1437 1525 0    59   ~ 0
Keyboard Shielding
Text Notes 1500 3075 0    59   ~ 0
Battery Charge LED
Text Notes 8362 925  0    59   ~ 0
DISPLAY BOARD CONNECTOR
Text Notes 7350 3500 0    59   ~ 0
POWER SUPPLY MANAGEMENT CONNECTOR
Text Notes 950  2175 0    56   ~ 0
BOTTOM(-)
Text Notes 15825 10788 0    59   ~ 0
A
Text Notes 16100 10788 0    59   ~ 0
05/03/14
Text Notes 16600 10800 0    59   ~ 0
JR
Text Notes 1325 8213 0    47   ~ 0
3V3
Text Notes 1250 8425 0    47   ~ 0
Serial Output
Text Notes 1250 8625 0    47   ~ 0
Ground
Text Notes 1150 9825 1    64   ~ 0
Capteur SPO2
Text Notes 1025 8625 1    64   ~ 0
Capteur SPO2
Text Notes 1150 8400 1    64   ~ 0
XPOD
Text Notes 12075 1625 0    59   ~ 0
DISPLAY BOARD
Wire Notes Line
	2550 3950 2550 4050
Wire Notes Line
	2637 3950 2637 4050
Wire Notes Line
	2550 3550 2550 3650
Wire Notes Line
	2637 3550 2637 3650
Wire Notes Line
	2637 2963 2637 3063
Wire Notes Line
	2537 4750 2537 4850
Wire Notes Line
	2625 4750 2625 4850
Wire Notes Line
	2550 4150 2550 4250
Wire Notes Line
	2637 4150 2637 4250
Wire Notes Line
	1400 2000 1400 2875
Wire Notes Line
	1987 2075 1987 2875
Wire Notes Line
	925  1800 925  2875
Wire Notes Line
	1125 2600 2812 2600
Wire Notes Line
	2637 3363 2637 3463
Wire Notes Line
	937  5675 937  6200
Wire Notes Line
	2537 5150 2537 5250
Wire Notes Line
	2625 5150 2625 5250
Wire Notes Line
	7237 3313 16062 3313
Wire Notes Line
	2062 9388 2062 9838
Wire Notes Line
	1125 2200 2812 2200
Wire Notes Line
	2362 3413 2362 3800
Wire Notes Line
	2375 4000 2375 4400
Wire Wire Line
	3000 5800 3100 5800
$Comp
L V_Resistor:R0805_180R_5% R31
U 1 1 63ABC06C
P 3400 5200
F 0 "R31" H 3325 5250 64  0000 L BNN
F 1 "180" H 3350 5100 42  0000 L BNN
F 2 "GR106772-A:R0805" H 3400 5200 50  0001 C CNN
F 3 "" H 3400 5200 50  0001 C CNN
F 4 "RESISTOR, 180 OHM, 0805, +/-5%" H 3400 5200 50  0001 C CNN "Description"
F 5 "10023240" H 3400 5200 50  0001 C CNN "Item Number"
F 6 "YAGEO_RMS1" H 3400 5200 50  0001 C CNN "Manufacturer"
F 7 "RC0805JR-07180RL" H 3400 5200 50  0001 C CNN "Manufacturer_No"
F 8 "KOA SPEER" H 3400 5200 50  0001 C CNN "Manufacturer2"
F 9 "RK73B2ATTD181J" H 3400 5200 50  0001 C CNN "Manufacturer_No2"
F 10 "YAGEO_RMS1" H 3400 5200 50  0001 C CNN "Manufacturer3"
F 11 "RC0805JR-07180RL" H 3400 5200 50  0001 C CNN "Manufacturer_No3"
F 12 "YAGEO_RMS1" H 3400 5200 50  0001 C CNN "Manufacturer4"
F 13 "RC0805JR-07180RL" H 3400 5200 50  0001 C CNN "Manufacturer_No4"
	1    3400 5200
	1    0    0    -1  
$EndComp
$Comp
L V_Resistor:R0805_620R_5% R27
U 1 1 4A61E0AF
P 3350 4200
F 0 "R27" H 3075 4287 64  0000 L BNN
F 1 "620" H 3075 4212 42  0000 L BNN
F 2 "GR106772-A:R0805" H 3350 4200 50  0001 C CNN
F 3 "" H 3350 4200 50  0001 C CNN
F 4 "RESISTOR, 620 OHM, 0.125W,+/-5%,0805" H 3350 4200 50  0001 C CNN "Description"
F 5 "10023190" H 3350 4200 50  0001 C CNN "Item Number"
F 6 "MULTICOMP                       (920630)" H 3350 4200 50  0001 C CNN "Manufacturer"
F 7 "MCWR08X621" H 3350 4200 50  0001 C CNN "Manufacturer_No"
F 8 "YAGEO_RMS1" H 0   0   50  0001 C CNN "Manufacturer2"
F 9 "RC0805FR-07620RL" H 0   0   50  0001 C CNN "Manufacturer_No2"
	1    3350 4200
	1    0    0    -1  
$EndComp
$Comp
L V_Transistor:Q_NMOS_GSD_10097274 T1
U 1 1 C746FFC6
P 4600 5150
F 0 "T1" H 4650 5450 64  0000 R TNN
F 1 "2N7002" H 4650 5375 59  0000 R TNN
F 2 "GR106772-A:SOT23-GSD" H 4600 5150 50  0001 C CNN
F 3 "" H 4600 5150 50  0001 C CNN
F 4 "TRANSISTOR MOSFET N CHANNEL 60V, 0.18A" H 4600 5150 50  0001 C CNN "Description"
F 5 "10097274" H 4600 5150 50  0001 C CNN "Item Number"
F 6 "ON SEMICONDUCTOR_RMS1" H 4600 5150 50  0001 C CNN "Manufacturer"
F 7 "2N7002LT1G" H 4600 5150 50  0001 C CNN "Manufacturer_No"
F 8 "NXP SEMICONDUCTORS_RMS1" H 4600 5150 50  0001 C CNN "Manufacturer2"
F 9 "2N7002,215" H 4600 5150 50  0001 C CNN "Manufacturer_No2"
F 10 "NXP SEMICONDUCTORS_RMS1" H 4600 5150 50  0001 C CNN "Manufacturer3"
F 11 "2N7002" H 4600 5150 50  0001 C CNN "Manufacturer_No3"
	1    4600 5150
	-1   0    0    -1  
$EndComp
Wire Wire Line
	5050 5150 5050 5350
Connection ~ 5050 5150
Connection ~ 5100 4750
Wire Wire Line
	5100 4750 5100 4800
Connection ~ 5100 3700
Wire Wire Line
	5100 3700 5100 3750
Wire Wire Line
	5700 3700 5700 4000
Wire Wire Line
	5700 3700 5850 3700
Connection ~ 5600 3200
Wire Wire Line
	5600 3200 5600 3250
Wire Wire Line
	5900 3000 6125 3000
Wire Wire Line
	6125 3000 6125 3200
Connection ~ 6125 3000
Connection ~ 5650 2300
Wire Wire Line
	5650 2300 5650 2350
Wire Wire Line
	5950 2100 6175 2100
Wire Wire Line
	6175 2100 6175 2300
Connection ~ 6175 2100
Wire Wire Line
	2875 8200 2875 8000
Wire Wire Line
	2875 8200 3200 8200
Wire Wire Line
	3200 8200 3200 8100
Connection ~ 2875 8200
Wire Wire Line
	3200 8200 3200 8350
Connection ~ 3200 8200
Wire Wire Line
	2550 7800 3850 7800
Wire Wire Line
	2550 8000 2875 8000
Wire Wire Line
	2550 8200 2875 8200
Wire Wire Line
	2550 8400 3650 8400
Wire Wire Line
	2550 9000 3200 9000
Wire Wire Line
	2550 9200 3000 9200
Wire Wire Line
	2550 9400 2800 9400
Wire Wire Line
	2550 9800 2600 9800
Wire Wire Line
	2550 8600 3200 8600
Wire Wire Line
	3200 8600 3200 8550
Wire Wire Line
	3250 8600 3200 8600
Connection ~ 3200 8600
Wire Wire Line
	2550 8800 3450 8800
Wire Wire Line
	3450 8800 3450 10350
Connection ~ 3450 8800
Wire Wire Line
	2600 9800 2600 10350
Wire Wire Line
	3200 9000 3200 10350
Wire Wire Line
	3000 9200 3000 10350
Wire Wire Line
	2800 9400 2800 10350
Wire Wire Line
	2600 10650 2600 10725
Wire Wire Line
	2800 10650 2800 10725
Wire Wire Line
	3000 10650 3000 10725
Wire Wire Line
	3200 10650 3200 10725
Wire Wire Line
	3650 8400 3650 10350
Wire Wire Line
	3850 7800 3850 10350
Wire Wire Line
	3450 10650 3450 10725
Wire Wire Line
	3650 10650 3650 10725
Wire Wire Line
	3850 10650 3850 10725
Wire Wire Line
	4050 10650 4050 10725
NoConn ~ 4050 10350
Wire Wire Line
	3000 9200 4725 9200
Wire Wire Line
	3200 9000 4700 9000
Wire Wire Line
	3450 8800 4700 8800
$Comp
L V_IC:LVC1G07DBVT IC6
U 1 1 BE050152
P 7050 10350
F 0 "IC6" H 7000 10025 64  0000 R TNN
F 1 "DNP" H 7550 10000 59  0000 R TNN
F 2 "GR106772-A:SOT23-5" H 7050 10350 50  0001 C CNN
F 3 "http://www.ti.com/lit/ds/symlink/sn74lvc1g07.pdf" H 7050 10350 50  0001 C CNN
F 4 "10022964" H 7050 10350 50  0001 C CNN "Item Number"
F 5 "SN74LVC1G07DBVT" H 7050 10350 50  0001 C CNN "Manufacturer_No"
F 6 "TEXAS INSTRUMENTS_RMS1" H 7050 10350 50  0001 C CNN "Manufacturer"
F 7 "BUFFER WITH OPEN DRAIN OUTPUT,SOT23" H 0   0   50  0001 C CNN "Description"
F 8 "NXP SEMICONDUCTORS_RMS1" H 0   0   50  0001 C CNN "Manufacturer2"
F 9 "NXP SEMICONDUCTORS_RMS1" H 0   0   50  0001 C CNN "Manufacturer3"
F 10 "74LVC1G07GV,125" H 0   0   50  0001 C CNN "Manufacturer_No2"
F 11 "74LVC1G07GV" H 0   0   50  0001 C CNN "Manufacturer_No3"
	1    7050 10350
	1    0    0    -1  
$EndComp
Wire Wire Line
	7825 8200 7750 8200
Connection ~ 7750 8200
$Comp
L V_IC:LVC1G07DBVT IC20
U 1 1 7427DFBC
P 7050 8200
F 0 "IC20" H 7075 7850 64  0000 R TNN
F 1 "SN74LVC1G07DBVT" H 7575 7738 59  0000 R TNN
F 2 "GR106772-A:SOT23-5" H 7050 8200 50  0001 C CNN
F 3 "http://www.ti.com/lit/ds/symlink/sn74lvc1g07.pdf" H 7050 8200 50  0001 C CNN
F 4 "BUFFER WITH OPEN DRAIN OUTPUT,SOT23" H 7050 8200 50  0001 C CNN "Description"
F 5 "10022964" H 7050 8200 50  0001 C CNN "Item Number"
F 6 "TEXAS INSTRUMENTS_RMS1" H 7050 8200 50  0001 C CNN "Manufacturer"
F 7 "SN74LVC1G07DBVT" H 7050 8200 50  0001 C CNN "Manufacturer_No"
F 8 "NXP SEMICONDUCTORS_RMS1" H 7050 8200 50  0001 C CNN "Manufacturer2"
F 9 "74LVC1G07GV,125" H 7050 8200 50  0001 C CNN "Manufacturer_No2"
F 10 "NXP SEMICONDUCTORS_RMS1" H 7050 8200 50  0001 C CNN "Manufacturer3"
F 11 "74LVC1G07GV" H 7050 8200 50  0001 C CNN "Manufacturer_No3"
	1    7050 8200
	1    0    0    -1  
$EndComp
Wire Wire Line
	7350 9000 7350 9050
Wire Wire Line
	6650 7450 6650 9250
Wire Wire Line
	7050 9250 6650 9250
Connection ~ 6650 9250
$Comp
L V_Connector:87606-408 J6
U 1 1 C649B669
P 5250 10100
F 0 "J6" H 5312 9975 73  0000 L BNN
F 1 "DNP" H 5600 10000 50  0000 C CNN
F 2 "GR106772-A:SPO2-16_0x861861865961861861861f63861" H 5250 10100 50  0001 C CNN
F 3 "" H 5250 10100 50  0001 C CNN
F 4 "CARTE-SPO2" H 5500 9850 50  0000 C CNN "Description"
F 5 "CARTE-SPO2" H 5250 10100 50  0001 C CNN "Item Number"
	1    5250 10100
	1    0    0    -1  
$EndComp
Wire Wire Line
	2550 10000 4700 10000
Wire Wire Line
	4700 10050 4700 10000
Connection ~ 4700 10000
Wire Wire Line
	8400 4250 8500 4250
Wire Wire Line
	8400 4350 8500 4350
Wire Wire Line
	8400 4450 8500 4450
Wire Wire Line
	8400 4550 8500 4550
Wire Wire Line
	8400 4650 8500 4650
Wire Wire Line
	8400 4750 8500 4750
Wire Wire Line
	8400 4850 8500 4850
Wire Wire Line
	8400 5050 8500 5050
Wire Wire Line
	14350 6475 14350 6550
Wire Wire Line
	14350 6550 14150 6550
Wire Wire Line
	11250 6550 11250 6650
Wire Wire Line
	11250 6550 10400 6550
Wire Wire Line
	8850 6550 8850 6475
Connection ~ 11250 6550
Wire Wire Line
	9050 6475 9050 6550
Connection ~ 9050 6550
Wire Wire Line
	9050 6550 8850 6550
Wire Wire Line
	9250 6475 9250 6550
Connection ~ 9250 6550
Wire Wire Line
	9250 6550 9050 6550
Wire Wire Line
	9450 6475 9450 6550
Connection ~ 9450 6550
Wire Wire Line
	9450 6550 9250 6550
Wire Wire Line
	9800 6550 9800 6475
Wire Wire Line
	10000 6475 10000 6550
Wire Wire Line
	10200 6475 10200 6550
Wire Wire Line
	10400 6475 10400 6550
Connection ~ 9800 6550
Wire Wire Line
	9800 6550 9450 6550
Connection ~ 10000 6550
Wire Wire Line
	10000 6550 9800 6550
Connection ~ 10200 6550
Wire Wire Line
	10200 6550 10000 6550
Connection ~ 10400 6550
Wire Wire Line
	10400 6550 10200 6550
Wire Wire Line
	12850 6550 12850 6475
Wire Wire Line
	13050 6475 13050 6550
Wire Wire Line
	13250 6475 13250 6550
Wire Wire Line
	13450 6475 13450 6550
Connection ~ 13050 6550
Wire Wire Line
	13050 6550 12850 6550
Connection ~ 13250 6550
Wire Wire Line
	13250 6550 13050 6550
Wire Wire Line
	13450 6550 13250 6550
Connection ~ 12850 6550
Connection ~ 13450 6550
Wire Wire Line
	12850 6550 12550 6550
Wire Wire Line
	11950 6550 11950 6475
Wire Wire Line
	12150 6475 12150 6550
Wire Wire Line
	12350 6475 12350 6550
Wire Wire Line
	12550 6475 12550 6550
Connection ~ 12150 6550
Wire Wire Line
	12150 6550 11950 6550
Connection ~ 12350 6550
Wire Wire Line
	12350 6550 12150 6550
Wire Wire Line
	12550 6550 12350 6550
Connection ~ 11950 6550
Connection ~ 12550 6550
Wire Wire Line
	11950 6550 11250 6550
Wire Wire Line
	13750 6550 13750 6475
Wire Wire Line
	13950 6475 13950 6550
Wire Wire Line
	14150 6475 14150 6550
Connection ~ 13950 6550
Wire Wire Line
	13950 6550 13750 6550
Connection ~ 14150 6550
Wire Wire Line
	14150 6550 13950 6550
Connection ~ 13750 6550
Wire Wire Line
	13750 6550 13450 6550
Wire Wire Line
	8800 5050 8850 5050
Wire Wire Line
	8800 4850 9250 4850
Wire Wire Line
	8800 4750 9450 4750
Wire Wire Line
	8800 4650 9800 4650
Wire Wire Line
	8800 4550 10000 4550
Wire Wire Line
	8800 4450 10200 4450
Wire Wire Line
	8800 4350 10400 4350
Wire Wire Line
	10400 4350 10400 6175
Connection ~ 10400 4350
Wire Wire Line
	10200 4450 10200 6175
Connection ~ 10200 4450
Wire Wire Line
	10000 4550 10000 6175
Connection ~ 10000 4550
Wire Wire Line
	9800 4650 9800 6175
Connection ~ 9800 4650
Wire Wire Line
	8850 6175 8850 5050
Connection ~ 8850 5050
Wire Wire Line
	9050 6175 9050 4950
Connection ~ 9050 4950
Wire Wire Line
	9250 6175 9250 4850
Connection ~ 9250 4850
Wire Wire Line
	9450 6175 9450 4750
Connection ~ 9450 4750
Wire Wire Line
	11950 6000 10600 6000
Wire Wire Line
	10600 6000 10600 4250
Wire Wire Line
	11950 6000 11950 6175
Connection ~ 10600 4250
Wire Wire Line
	10600 4250 8800 4250
Wire Wire Line
	14400 4150 14350 4150
Wire Wire Line
	14400 4350 13950 4350
Wire Wire Line
	14400 4550 13450 4550
Wire Wire Line
	14400 4750 13250 4750
Wire Wire Line
	14400 4950 12850 4950
Wire Wire Line
	14400 5150 12150 5150
Wire Wire Line
	10900 4000 10900 4050
Wire Wire Line
	11700 4050 11700 4000
Wire Wire Line
	10950 5250 10950 5475
Wire Wire Line
	10725 5150 10725 5475
Wire Wire Line
	11700 5250 11700 5475
Wire Wire Line
	12150 5150 12150 6175
Connection ~ 12150 5150
Wire Wire Line
	12350 5050 12350 6175
Connection ~ 12350 5050
Wire Wire Line
	12350 5050 14400 5050
Wire Wire Line
	12550 4650 12550 6175
Connection ~ 12550 4650
Wire Wire Line
	12550 4650 14400 4650
Wire Wire Line
	12850 6175 12850 4950
Connection ~ 12850 4950
Wire Wire Line
	13050 6175 13050 4850
Connection ~ 13050 4850
Wire Wire Line
	13050 4850 14400 4850
Wire Wire Line
	13250 6175 13250 4750
Connection ~ 13250 4750
Wire Wire Line
	13450 6175 13450 4550
Connection ~ 13450 4550
Wire Wire Line
	13750 4450 13750 6175
Connection ~ 13750 4450
Wire Wire Line
	13750 4450 14400 4450
Wire Wire Line
	13950 4350 13950 6175
Connection ~ 13950 4350
Wire Wire Line
	14150 4250 14150 6175
Connection ~ 14150 4250
Wire Wire Line
	14150 4250 14400 4250
Wire Wire Line
	14350 4150 14350 6175
Connection ~ 14350 4150
Wire Wire Line
	14700 4150 15050 4150
Wire Wire Line
	15050 4150 15050 4000
Wire Wire Line
	14700 4250 14850 4250
Wire Wire Line
	14700 4350 14850 4350
Wire Wire Line
	14700 4450 14850 4450
Wire Wire Line
	14700 4550 14850 4550
Wire Wire Line
	14700 4650 14850 4650
Wire Wire Line
	14700 4750 14850 4750
Wire Wire Line
	14700 4850 14850 4850
Wire Wire Line
	14700 4950 14850 4950
Wire Wire Line
	14700 5050 14850 5050
$Comp
L V_Connector:FH_40BR J17
U 1 1 E8FF25C4
P 12600 2150
F 0 "J17" V 12800 100 73  0000 C CNN
F 1 "FH_40BR" V 12675 -25 73  0001 C CNN
F 2 "GR106772-A:AMP177983-40_0x861ffffffffffffffffffffffffffffffffffffffffffffffffffffffffffff" H 12600 2150 50  0001 C CNN
F 3 "" H 12600 2150 50  0001 C CNN
F 4 "CONNECTOR, 40 CONTACTS" H 12600 2150 50  0001 C CNN "Description"
F 5 "10097263" H 12600 2150 50  0001 C CNN "Item Number"
F 6 "TYCO ELECTRONICS" H 12600 2150 50  0001 C CNN "Manufacturer"
F 7 "5177983-1" H 12600 2150 50  0001 C CNN "Manufacturer_No"
F 8 "TYCO ELECTRONICS" H 12600 2150 50  0001 C CNN "Manufacturer2"
F 9 "5177985-1" H 12600 2150 50  0001 C CNN "Manufacturer_No2"
	1    12600 2150
	0    -1   -1   0   
$EndComp
$Comp
L V_Capacitor:C_1uF_35V_10% C34
U 1 1 555B33A9
P 14375 1300
F 0 "C34" V 14575 1200 56  0000 C CNN
F 1 "1uF" V 14500 1225 42  0000 C CNN
F 2 "GR106772-A:C3216" H 14375 1300 50  0001 C CNN
F 3 "https://4donline.ihs.com/images/VipMasterIC/IC/KEME/KEME-S-A0006487387/KEME-S-A0006487387-1.pdf?hkey=52A5661711E402568146F3353EA87419" H 14375 1300 50  0001 C CNN
F 4 "CAPACITOR TANTALUM, 1UF,35V, +/-10%" H 14375 1300 50  0001 C CNN "Description"
F 5 "10022959" H 14375 1300 50  0001 C CNN "Item Number"
F 6 "KEMET" H 14375 1300 50  0001 C CNN "Manufacturer"
F 7 "T491A105M035AT" H 14375 1300 50  0001 C CNN "Manufacturer_No"
F 8 "KEMET" H 14375 1300 50  0001 C CNN "Manufacturer2"
F 9 "T495A105K035ATE3K0" H 14375 1300 50  0001 C CNN "Manufacturer_No2"
	1    14375 1300
	0    -1   -1   0   
$EndComp
Wire Wire Line
	14575 1300 14525 1300
Wire Wire Line
	14275 1300 14200 1300
Wire Wire Line
	14200 1300 14200 1025
Wire Wire Line
	14200 1300 14200 1750
Connection ~ 14200 1300
Wire Wire Line
	14400 2150 14400 2375
Wire Wire Line
	14200 2150 14200 2375
Wire Wire Line
	14000 2150 14000 2700
Wire Wire Line
	13800 2150 13800 2950
Wire Wire Line
	13600 2150 13600 2425
Wire Wire Line
	13200 2150 13200 2700
Wire Wire Line
	13000 2150 13000 2950
Wire Wire Line
	12800 2150 12800 2700
Wire Wire Line
	12600 2150 12600 2700
Wire Wire Line
	12400 2150 12400 2950
Wire Wire Line
	12200 2150 12200 2950
Wire Wire Line
	12000 2150 12000 2375
Wire Wire Line
	11800 2150 11800 2950
Wire Wire Line
	11600 2150 11600 2950
Wire Wire Line
	11400 2150 11400 2950
Wire Wire Line
	10800 2150 10800 2800
Wire Wire Line
	10800 2800 10700 2800
Connection ~ 10800 2800
Wire Wire Line
	10800 2800 10800 2975
Wire Wire Line
	10500 2800 10450 2800
Wire Wire Line
	10450 2800 10450 2925
Wire Wire Line
	10450 2800 10450 2425
Wire Wire Line
	10450 2425 10600 2425
Wire Wire Line
	10600 2425 10600 2150
Connection ~ 10450 2800
Wire Wire Line
	11000 1750 11000 1475
Wire Wire Line
	10800 1025 10800 1300
Wire Wire Line
	10800 1300 10700 1300
Connection ~ 10800 1300
Wire Wire Line
	10800 1300 10800 1750
Wire Wire Line
	10450 1050 10450 1300
Wire Wire Line
	10450 1300 10500 1300
Wire Wire Line
	10450 1300 10450 1550
Wire Wire Line
	10450 1550 10600 1550
Wire Wire Line
	10600 1550 10600 1750
Connection ~ 10450 1300
Wire Wire Line
	14400 1750 14400 1500
Wire Wire Line
	14400 1500 14525 1500
Wire Wire Line
	14525 1500 14525 1300
Connection ~ 14525 1300
Wire Wire Line
	14525 1300 14475 1300
NoConn ~ 14000 1750
NoConn ~ 13800 1750
NoConn ~ 13600 1750
NoConn ~ 13400 1750
NoConn ~ 13200 1750
NoConn ~ 13000 1750
NoConn ~ 12800 1750
NoConn ~ 12600 1750
NoConn ~ 12400 1750
NoConn ~ 12200 1750
NoConn ~ 12000 1750
NoConn ~ 11800 1750
NoConn ~ 11600 1750
NoConn ~ 11400 1750
NoConn ~ 11200 1750
NoConn ~ 11200 2150
NoConn ~ 11000 2150
Text Label 13400 2300 1    50   ~ 0
D5
Text Label 13000 2300 1    50   ~ 0
D4
Text Label 12400 2300 1    50   ~ 0
D6
Text Label 13800 2300 1    50   ~ 0
D3
Text Label 12200 2300 1    50   ~ 0
D0
Text Label 11800 2300 1    50   ~ 0
D2
Text Label 11600 2300 1    50   ~ 0
D1
Text Label 11400 2300 1    50   ~ 0
D7
Entry Wire Line
	11400 2950 11500 3050
Entry Wire Line
	11600 2950 11700 3050
Entry Wire Line
	11800 2950 11900 3050
Entry Wire Line
	12200 2950 12300 3050
Entry Wire Line
	12400 2950 12500 3050
Entry Wire Line
	13000 2950 13100 3050
Entry Wire Line
	13400 2950 13500 3050
Entry Wire Line
	13800 2950 13900 3050
Text HLabel 14200 3050 2    50   Input ~ 0
D[0..15]
Wire Wire Line
	13400 2150 13400 2950
Entry Wire Line
	12600 2700 12700 2800
Entry Wire Line
	12800 2700 12900 2800
Entry Wire Line
	13200 2700 13300 2800
Entry Wire Line
	14000 2700 14100 2800
Text Label 12600 2200 3    50   ~ 0
A1
Text Label 12800 2200 3    50   ~ 0
A2
Text Label 13200 2200 3    50   ~ 0
A0
Text Label 14000 2200 3    50   ~ 0
A3
Text HLabel 14225 2800 2    50   Input ~ 0
A[0..19]
Wire Wire Line
	3000 4400 3300 4400
Wire Wire Line
	3000 5400 3300 5400
Wire Wire Line
	3000 5600 3300 5600
Wire Wire Line
	3000 3800 3300 3800
$Comp
L V_Connector:ZIF-52610-2290 J1
U 1 1 449C7C68
P 2800 5900
AR Path="/449C7C68" Ref="J1"  Part="1" 
AR Path="/5E926050/449C7C68" Ref="J1"  Part="1" 
F 0 "J1" H 2987 5775 73  0000 L BNN
F 1 "ZIF-52610-2290" H 3000 5900 50  0001 C CNN
F 2 "GR106772-A:MOL52610-22" H 3000 5900 50  0001 C CNN
F 3 "" H 3000 5900 50  0001 C CNN
F 4 "CONNECTOR, 22 CONTACTS" H 3000 5900 50  0001 C CNN "Description"
F 5 "10097256" H 3000 5900 50  0001 C CNN "Item Number"
F 6 "MOLEX_RMS1" H 3000 5900 50  0001 C CNN "Manufacturer"
F 7 "0526102272" H 3000 5900 50  0001 C CNN "Manufacturer_No"
F 8 "MOLEX_RMS1" H 3000 5900 50  0001 C CNN "Manufacturer2"
F 9 "0526102271" H 3000 5900 50  0001 C CNN "Manufacturer_No2"
	1    2800 5900
	1    0    0    -1  
$EndComp
Wire Wire Line
	2800 3800 3000 3800
Wire Wire Line
	2800 5800 3000 5800
Connection ~ 3000 3800
Connection ~ 3000 5800
$Comp
L V_Power:PWR_FLAG #FLG0102
U 1 1 5EB97020
P 15050 4150
F 0 "#FLG0102" H 15050 4225 50  0001 C CNN
F 1 "PWR_FLAG" V 15050 4278 50  0000 L CNN
F 2 "" H 15050 4150 50  0001 C CNN
F 3 "" H 15050 4150 50  0001 C CNN
	1    15050 4150
	0    1    1    0   
$EndComp
Connection ~ 15050 4150
$Comp
L V_Power:PWR_FLAG #FLG0110
U 1 1 600678A7
P 7350 7450
F 0 "#FLG0110" H 7350 7525 50  0001 C CNN
F 1 "PWR_FLAG" V 7275 7525 50  0000 L CNN
F 2 "" H 7350 7450 50  0001 C CNN
F 3 "" H 7350 7450 50  0001 C CNN
	1    7350 7450
	0    1    1    0   
$EndComp
$Comp
L V_Power:PWR_FLAG #FLG0111
U 1 1 60083738
P 7350 9700
F 0 "#FLG0111" H 7350 9775 50  0001 C CNN
F 1 "PWR_FLAG" H 7138 9845 50  0000 L CNN
F 2 "" H 7350 9700 50  0001 C CNN
F 3 "" H 7350 9700 50  0001 C CNN
	1    7350 9700
	0    1    1    0   
$EndComp
Connection ~ 7350 9700
Wire Wire Line
	7350 9700 7350 9450
Wire Wire Line
	3000 5200 3250 5200
Wire Wire Line
	3550 5200 3650 5200
Wire Wire Line
	3000 4800 3400 4800
Wire Wire Line
	3700 4800 4500 4800
Wire Wire Line
	4500 4950 4500 4800
Wire Wire Line
	4500 5400 4500 5350
Wire Wire Line
	4650 5350 4500 5350
Connection ~ 4500 5350
Wire Wire Line
	4800 5150 5050 5150
Wire Wire Line
	4950 5350 5050 5350
Wire Wire Line
	5100 4750 5200 4750
Wire Wire Line
	5400 4550 5650 4550
Wire Wire Line
	5650 4750 5650 4550
Wire Wire Line
	5500 4750 5650 4750
Connection ~ 5650 4550
Wire Wire Line
	3500 4200 5100 4200
Wire Wire Line
	5100 4200 5100 4350
Wire Wire Line
	3500 4000 5700 4000
Wire Wire Line
	5100 3700 5250 3700
Wire Wire Line
	5400 3500 5600 3500
Wire Wire Line
	5550 3700 5600 3700
Wire Wire Line
	5600 3700 5600 3500
Connection ~ 5600 3500
Wire Wire Line
	5850 3850 5850 3700
$Comp
L V_Transistor:Q_NMOS_GSD_10097274 T5
U 1 1 58A3FA22
P 5950 4050
F 0 "T5" H 5900 4300 64  0000 L BNN
F 1 "2N7002" H 5675 4225 59  0000 L BNN
F 2 "GR106772-A:SOT23-GSD" H 5950 4050 50  0001 C CNN
F 3 "" H 5950 4050 50  0001 C CNN
F 4 "TRANSISTOR MOSFET N CHANNEL 60V, 0.18A" H 5950 4050 50  0001 C CNN "Description"
F 5 "10097274" H 5950 4050 50  0001 C CNN "Item Number"
F 6 "ON SEMICONDUCTOR_RMS1" H 5950 4050 50  0001 C CNN "Manufacturer"
F 7 "2N7002LT1G" H 5950 4050 50  0001 C CNN "Manufacturer_No"
F 8 "NXP SEMICONDUCTORS_RMS1" H 5950 4050 50  0001 C CNN "Manufacturer2"
F 9 "2N7002,215" H 5950 4050 50  0001 C CNN "Manufacturer_No2"
F 10 "NXP SEMICONDUCTORS_RMS1" H 5950 4050 50  0001 C CNN "Manufacturer3"
F 11 "2N7002" H 5950 4050 50  0001 C CNN "Manufacturer_No3"
	1    5950 4050
	-1   0    0    -1  
$EndComp
Wire Wire Line
	6000 4250 5850 4250
Connection ~ 5850 4250
Wire Wire Line
	5850 4250 5850 4300
Wire Wire Line
	6300 4250 6400 4250
Wire Wire Line
	6400 4250 6400 4050
Wire Wire Line
	6150 4050 6400 4050
Wire Wire Line
	6400 4050 6550 4050
Connection ~ 6400 4050
Wire Wire Line
	5100 3100 5100 3300
Wire Wire Line
	5100 3100 4850 3100
Wire Wire Line
	4850 3100 4850 3600
Wire Wire Line
	4850 3600 3500 3600
Wire Wire Line
	5600 2600 5600 2800
Wire Wire Line
	5600 2600 4650 2600
Wire Wire Line
	4650 2600 4650 3400
Wire Wire Line
	4650 3400 3500 3400
Wire Wire Line
	3500 3000 4400 3000
Wire Wire Line
	4400 1700 4400 3000
Wire Wire Line
	4400 1700 5650 1700
Wire Wire Line
	5650 1700 5650 1900
Wire Wire Line
	6050 3200 6125 3200
Wire Wire Line
	5600 3200 5750 3200
Wire Wire Line
	5650 2300 5800 2300
Wire Wire Line
	6100 2300 6175 2300
Wire Wire Line
	6175 2100 6500 2100
Wire Wire Line
	6125 3000 6650 3000
Wire Wire Line
	5600 3500 6550 3500
Wire Wire Line
	5650 4550 6550 4550
Wire Wire Line
	5050 5150 6250 5150
Wire Wire Line
	8400 4950 8500 4950
Wire Wire Line
	8800 4950 9050 4950
Wire Wire Line
	9050 4950 10950 4950
Wire Wire Line
	10600 4250 10950 4250
Wire Wire Line
	10900 4050 10950 4050
Wire Wire Line
	10725 5150 10950 5150
Wire Wire Line
	10400 4350 10950 4350
Wire Wire Line
	10200 4450 10950 4450
Wire Wire Line
	10000 4550 10950 4550
Wire Wire Line
	9800 4650 10950 4650
Wire Wire Line
	9450 4750 10950 4750
Wire Wire Line
	9250 4850 10950 4850
Wire Wire Line
	8850 5050 10950 5050
Wire Wire Line
	11550 4250 14150 4250
Wire Wire Line
	11550 4450 13750 4450
Wire Wire Line
	11550 4650 12550 4650
Wire Wire Line
	11550 4850 13050 4850
Wire Wire Line
	11550 5050 12350 5050
Wire Wire Line
	11550 4050 11700 4050
Wire Wire Line
	11550 5250 11700 5250
Wire Wire Line
	11550 4150 14350 4150
Wire Wire Line
	11550 4350 13950 4350
Wire Wire Line
	11550 4550 13450 4550
Wire Wire Line
	11550 4750 13250 4750
Wire Wire Line
	11550 4950 12850 4950
Wire Wire Line
	11550 5150 12150 5150
Wire Wire Line
	10500 4150 10950 4150
Wire Wire Line
	10500 4150 10500 4000
Wire Wire Line
	14700 5150 15050 5150
Wire Wire Line
	15050 5300 15050 5150
Wire Wire Line
	7750 8050 7750 8200
Wire Wire Line
	7750 7750 7750 7700
Wire Wire Line
	7650 8200 7750 8200
Wire Wire Line
	5100 8200 6750 8200
Wire Wire Line
	7350 7750 7350 7450
Wire Wire Line
	7050 7700 7050 7750
Wire Wire Line
	5100 7450 5950 7450
Connection ~ 5950 7450
Wire Wire Line
	5950 7450 6650 7450
Wire Wire Line
	5950 7450 5950 7600
Wire Wire Line
	5950 7925 5950 7900
Connection ~ 6650 7450
Wire Wire Line
	6650 7450 7350 7450
Wire Wire Line
	7650 10350 7750 10350
Wire Wire Line
	7750 8200 7750 10350
Wire Wire Line
	6750 10350 6450 10350
Wire Wire Line
	6650 9650 6650 9750
Wire Wire Line
	7050 9800 7050 9900
Wire Wire Line
	7350 9700 7350 9900
Wire Wire Line
	6650 9250 6650 9350
Wire Wire Line
	5750 9000 6450 9000
Wire Wire Line
	6450 9000 6450 10350
Wire Wire Line
	5000 8800 5250 8800
Wire Wire Line
	5000 9000 5250 9000
Wire Wire Line
	5025 9200 5250 9200
Wire Wire Line
	5025 9400 5250 9400
Wire Wire Line
	2550 9600 5250 9600
Wire Wire Line
	5025 9800 5250 9800
Wire Wire Line
	4700 10000 5250 10000
Wire Wire Line
	5750 8600 5900 8600
Wire Wire Line
	6200 8600 6300 8600
NoConn ~ 5750 8800
NoConn ~ 5750 9200
NoConn ~ 5750 9400
NoConn ~ 5750 9600
NoConn ~ 5250 8600
Wire Wire Line
	4700 10450 4700 10500
Wire Wire Line
	3650 8200 4800 8200
Wire Wire Line
	3650 8200 3650 8400
Wire Notes Line
	825  10950 8237 10950
Wire Wire Line
	2800 9400 4725 9400
Wire Wire Line
	2600 9800 4725 9800
Wire Wire Line
	4800 7450 3850 7450
Wire Wire Line
	3850 7450 3850 7800
Connection ~ 7350 7450
Wire Wire Line
	5750 9800 5900 9800
Wire Wire Line
	5900 9800 5900 9750
Wire Wire Line
	5900 9750 5950 9750
Wire Wire Line
	5950 9750 6100 9750
Connection ~ 5950 9750
Wire Wire Line
	5750 10000 5900 10000
Wire Wire Line
	5900 10000 5900 10050
Wire Wire Line
	5900 10050 5950 10050
Wire Wire Line
	6175 10050 5950 10050
Connection ~ 5950 10050
$Comp
L V_Power:+5V #0118
U 1 1 5ED0CD1A
P 3300 4400
F 0 "#0118" H 3350 4450 50  0001 C CNN
F 1 "+5V" V 3300 4525 59  0000 L CNN
F 2 "" H 3300 4500 50  0001 C CNN
F 3 "" H 3300 4500 50  0001 C CNN
	1    3300 4400
	0    1    1    0   
$EndComp
$Comp
L V_Power:GND #PWR0164
U 1 1 5ED0EEF0
P 3100 5800
F 0 "#PWR0164" H 3250 5750 50  0001 C CNN
F 1 "GND" H 3100 5650 50  0000 C CNN
F 2 "" H 3100 5700 50  0001 C CNN
F 3 "" H 3100 5700 50  0001 C CNN
	1    3100 5800
	0    -1   -1   0   
$EndComp
$Comp
L V_Power:GND #PWR0165
U 1 1 5ED1451E
P 3650 5200
F 0 "#PWR0165" H 3800 5150 50  0001 C CNN
F 1 "GND" H 3650 5050 50  0000 C CNN
F 2 "" H 3650 5100 50  0001 C CNN
F 3 "" H 3650 5100 50  0001 C CNN
	1    3650 5200
	0    -1   -1   0   
$EndComp
$Comp
L V_Power:GND #PWR0166
U 1 1 5ED15810
P 4500 5400
F 0 "#PWR0166" H 4650 5350 50  0001 C CNN
F 1 "GND" H 4500 5250 50  0000 C CNN
F 2 "" H 4500 5300 50  0001 C CNN
F 3 "" H 4500 5300 50  0001 C CNN
	1    4500 5400
	1    0    0    -1  
$EndComp
$Comp
L V_Power:GND #PWR0167
U 1 1 5ED15E5E
P 5100 4800
F 0 "#PWR0167" H 5250 4750 50  0001 C CNN
F 1 "GND" H 5100 4650 50  0000 C CNN
F 2 "" H 5100 4700 50  0001 C CNN
F 3 "" H 5100 4700 50  0001 C CNN
	1    5100 4800
	1    0    0    -1  
$EndComp
$Comp
L V_Power:GND #PWR0168
U 1 1 5ED16F79
P 5850 4300
F 0 "#PWR0168" H 6000 4250 50  0001 C CNN
F 1 "GND" H 5850 4150 50  0000 C CNN
F 2 "" H 5850 4200 50  0001 C CNN
F 3 "" H 5850 4200 50  0001 C CNN
	1    5850 4300
	1    0    0    -1  
$EndComp
$Comp
L V_Power:GND #PWR0169
U 1 1 5ED176E4
P 5100 3750
F 0 "#PWR0169" H 5250 3700 50  0001 C CNN
F 1 "GND" H 5100 3600 50  0000 C CNN
F 2 "" H 5100 3650 50  0001 C CNN
F 3 "" H 5100 3650 50  0001 C CNN
	1    5100 3750
	1    0    0    -1  
$EndComp
$Comp
L V_Power:GND #PWR0170
U 1 1 5ED18812
P 5600 3250
F 0 "#PWR0170" H 5750 3200 50  0001 C CNN
F 1 "GND" H 5600 3100 50  0000 C CNN
F 2 "" H 5600 3150 50  0001 C CNN
F 3 "" H 5600 3150 50  0001 C CNN
	1    5600 3250
	1    0    0    -1  
$EndComp
$Comp
L V_Power:GND #PWR0171
U 1 1 5ED19A4B
P 5650 2350
F 0 "#PWR0171" H 5800 2300 50  0001 C CNN
F 1 "GND" H 5650 2200 50  0000 C CNN
F 2 "" H 5650 2250 50  0001 C CNN
F 3 "" H 5650 2250 50  0001 C CNN
	1    5650 2350
	1    0    0    -1  
$EndComp
$Comp
L V_Power:+5V #U0136
U 1 1 5ED4D9F0
P 3300 3800
F 0 "#U0136" H 3350 3850 50  0001 C CNN
F 1 "+5V" V 3300 3925 59  0000 L CNN
F 2 "" H 3300 3900 50  0001 C CNN
F 3 "" H 3300 3900 50  0001 C CNN
	1    3300 3800
	0    1    1    0   
$EndComp
$Comp
L V_Power:GND #PWR0172
U 1 1 5ED53263
P 3800 1700
F 0 "#PWR0172" H 3950 1650 50  0001 C CNN
F 1 "GND" H 3800 1550 50  0000 C CNN
F 2 "" H 3800 1600 50  0001 C CNN
F 3 "" H 3800 1600 50  0001 C CNN
	1    3800 1700
	1    0    0    -1  
$EndComp
$Comp
L V_Power:GND #PWR0173
U 1 1 5ED5DD7D
P 10450 2925
F 0 "#PWR0173" H 10600 2875 50  0001 C CNN
F 1 "GND" H 10450 2775 50  0000 C CNN
F 2 "" H 10450 2825 50  0001 C CNN
F 3 "" H 10450 2825 50  0001 C CNN
	1    10450 2925
	1    0    0    -1  
$EndComp
$Comp
L V_Power:GND #PWR0174
U 1 1 5ED61FB4
P 14575 1300
F 0 "#PWR0174" H 14725 1250 50  0001 C CNN
F 1 "GND" H 14575 1150 50  0000 C CNN
F 2 "" H 14575 1200 50  0001 C CNN
F 3 "" H 14575 1200 50  0001 C CNN
	1    14575 1300
	0    -1   -1   0   
$EndComp
$Comp
L V_Power:GND #PWR0175
U 1 1 5ED65AF8
P 10450 1050
F 0 "#PWR0175" H 10600 1000 50  0001 C CNN
F 1 "GND" H 10450 900 50  0000 C CNN
F 2 "" H 10450 950 50  0001 C CNN
F 3 "" H 10450 950 50  0001 C CNN
	1    10450 1050
	-1   0    0    1   
$EndComp
$Comp
L V_Power:GND #PWR0176
U 1 1 5ED69ABD
P 11700 4000
F 0 "#PWR0176" H 11850 3950 50  0001 C CNN
F 1 "GND" H 11700 3850 50  0000 C CNN
F 2 "" H 11700 3900 50  0001 C CNN
F 3 "" H 11700 3900 50  0001 C CNN
	1    11700 4000
	-1   0    0    1   
$EndComp
$Comp
L V_Power:GND #PWR0177
U 1 1 5ED6DCD4
P 11250 6650
F 0 "#PWR0177" H 11400 6600 50  0001 C CNN
F 1 "GND" H 11250 6500 50  0000 C CNN
F 2 "" H 11250 6550 50  0001 C CNN
F 3 "" H 11250 6550 50  0001 C CNN
	1    11250 6650
	1    0    0    -1  
$EndComp
$Comp
L V_Power:GND #PWR0178
U 1 1 5ED715DC
P 11700 5475
F 0 "#PWR0178" H 11850 5425 50  0001 C CNN
F 1 "GND" H 11700 5325 50  0000 C CNN
F 2 "" H 11700 5375 50  0001 C CNN
F 3 "" H 11700 5375 50  0001 C CNN
	1    11700 5475
	1    0    0    -1  
$EndComp
$Comp
L V_Power:GND #PWR0179
U 1 1 5ED73A7E
P 10725 5475
F 0 "#PWR0179" H 10875 5425 50  0001 C CNN
F 1 "GND" H 10725 5325 50  0000 C CNN
F 2 "" H 10725 5375 50  0001 C CNN
F 3 "" H 10725 5375 50  0001 C CNN
	1    10725 5475
	1    0    0    -1  
$EndComp
$Comp
L V_Power:GND #PWR0180
U 1 1 5ED73E23
P 2900 10750
F 0 "#PWR0180" H 3050 10700 50  0001 C CNN
F 1 "GND" H 2900 10600 50  0000 C CNN
F 2 "" H 2900 10650 50  0001 C CNN
F 3 "" H 2900 10650 50  0001 C CNN
	1    2900 10750
	1    0    0    -1  
$EndComp
$Comp
L V_Power:GND #PWR0181
U 1 1 5ED7BF9E
P 3250 8600
F 0 "#PWR0181" H 3400 8550 50  0001 C CNN
F 1 "GND" H 3250 8450 50  0000 C CNN
F 2 "" H 3250 8500 50  0001 C CNN
F 3 "" H 3250 8500 50  0001 C CNN
	1    3250 8600
	1    0    0    -1  
$EndComp
$Comp
L V_Power:GND #PWR0182
U 1 1 5ED7EA8F
P 5950 7925
F 0 "#PWR0182" H 6100 7875 50  0001 C CNN
F 1 "GND" H 5950 7775 50  0000 C CNN
F 2 "" H 5950 7825 50  0001 C CNN
F 3 "" H 5950 7825 50  0001 C CNN
	1    5950 7925
	1    0    0    -1  
$EndComp
$Comp
L V_Power:GND #PWR0183
U 1 1 5ED8153D
P 6300 8600
F 0 "#PWR0183" H 6450 8550 50  0001 C CNN
F 1 "GND" H 6300 8450 50  0000 C CNN
F 2 "" H 6300 8500 50  0001 C CNN
F 3 "" H 6300 8500 50  0001 C CNN
	1    6300 8600
	0    -1   -1   0   
$EndComp
$Comp
L V_Power:GND #PWR0184
U 1 1 5ED852BB
P 7050 7700
F 0 "#PWR0184" H 7200 7650 50  0001 C CNN
F 1 "GND" H 7050 7550 50  0000 C CNN
F 2 "" H 7050 7600 50  0001 C CNN
F 3 "" H 7050 7600 50  0001 C CNN
	1    7050 7700
	-1   0    0    1   
$EndComp
$Comp
L V_Power:GND #PWR0185
U 1 1 5ED89F28
P 6650 9750
F 0 "#PWR0185" H 6800 9700 50  0001 C CNN
F 1 "GND" H 6650 9600 50  0000 C CNN
F 2 "" H 6650 9650 50  0001 C CNN
F 3 "" H 6650 9650 50  0001 C CNN
	1    6650 9750
	1    0    0    -1  
$EndComp
$Comp
L V_Power:GND #PWR0186
U 1 1 5ED8C2A8
P 7050 9800
F 0 "#PWR0186" H 7200 9750 50  0001 C CNN
F 1 "GND" H 7050 9650 50  0000 C CNN
F 2 "" H 7050 9700 50  0001 C CNN
F 3 "" H 7050 9700 50  0001 C CNN
	1    7050 9800
	-1   0    0    1   
$EndComp
$Comp
L V_Power:GND #PWR0187
U 1 1 5ED8C795
P 6100 9750
F 0 "#PWR0187" H 6250 9700 50  0001 C CNN
F 1 "GND" H 6100 9600 50  0000 C CNN
F 2 "" H 6100 9650 50  0001 C CNN
F 3 "" H 6100 9650 50  0001 C CNN
	1    6100 9750
	0    -1   -1   0   
$EndComp
$Comp
L V_Power:GND #PWR0188
U 1 1 5ED8D3C2
P 4700 10500
F 0 "#PWR0188" H 4850 10450 50  0001 C CNN
F 1 "GND" H 4700 10350 50  0000 C CNN
F 2 "" H 4700 10400 50  0001 C CNN
F 3 "" H 4700 10400 50  0001 C CNN
	1    4700 10500
	1    0    0    -1  
$EndComp
$Comp
L V_Power:+5V #0120
U 1 1 5EDA1418
P 7750 7700
F 0 "#0120" H 7800 7750 50  0001 C CNN
F 1 "+5V" H 7650 7850 59  0000 L CNN
F 2 "" H 7750 7800 50  0001 C CNN
F 3 "" H 7750 7800 50  0001 C CNN
	1    7750 7700
	1    0    0    -1  
$EndComp
$Comp
L V_Power:+5V #U0139
U 1 1 5EDA2046
P 10800 1025
F 0 "#U0139" H 10850 1075 50  0001 C CNN
F 1 "+5V" H 10700 1175 59  0000 L CNN
F 2 "" H 10800 1125 50  0001 C CNN
F 3 "" H 10800 1125 50  0001 C CNN
	1    10800 1025
	1    0    0    -1  
$EndComp
$Comp
L V_Power:GND #PWR0189
U 1 1 5EDA7CD5
P 10500 4000
F 0 "#PWR0189" H 10650 3950 50  0001 C CNN
F 1 "GND" H 10500 3850 50  0000 C CNN
F 2 "" H 10500 3900 50  0001 C CNN
F 3 "" H 10500 3900 50  0001 C CNN
	1    10500 4000
	-1   0    0    1   
$EndComp
$Comp
L V_Power:+5V #U0140
U 1 1 5EDB2612
P 14200 1025
F 0 "#U0140" H 14250 1075 50  0001 C CNN
F 1 "+5V" H 14100 1175 59  0000 L CNN
F 2 "" H 14200 1125 50  0001 C CNN
F 3 "" H 14200 1125 50  0001 C CNN
	1    14200 1025
	1    0    0    -1  
$EndComp
$Comp
L V_Power:+5V #U0141
U 1 1 5EDB345D
P 10800 2975
F 0 "#U0141" H 10850 3025 50  0001 C CNN
F 1 "+5V" H 10700 3125 59  0000 L CNN
F 2 "" H 10800 3075 50  0001 C CNN
F 3 "" H 10800 3075 50  0001 C CNN
	1    10800 2975
	-1   0    0    1   
$EndComp
$Comp
L V_Power:+24V #PWR0190
U 1 1 5EDBA3BE
P 11000 1475
F 0 "#PWR0190" H 11150 1375 50  0001 C CNN
F 1 "+24V" H 11015 1648 50  0000 C CNN
F 2 "" H 11000 1475 50  0001 C CNN
F 3 "" H 11000 1475 50  0001 C CNN
	1    11000 1475
	1    0    0    -1  
$EndComp
$Comp
L V_Power:+24VUTIL #0121
U 1 1 5EDC1B68
P 15050 4000
F 0 "#0121" H 15100 4050 50  0001 C CNN
F 1 "+24VUTIL" H 14825 4150 59  0000 L CNN
F 2 "" H 15050 4100 50  0001 C CNN
F 3 "" H 15050 4100 50  0001 C CNN
	1    15050 4000
	1    0    0    -1  
$EndComp
$Comp
L V_Power:+24VUTIL #U0142
U 1 1 5EDC2EEE
P 15050 5300
F 0 "#U0142" H 15100 5350 50  0001 C CNN
F 1 "+24VUTIL" H 14825 5450 59  0000 L CNN
F 2 "" H 15050 5400 50  0001 C CNN
F 3 "" H 15050 5400 50  0001 C CNN
	1    15050 5300
	-1   0    0    1   
$EndComp
Wire Wire Line
	3200 4200 3000 4200
Wire Wire Line
	3200 4000 3000 4000
Wire Wire Line
	3200 3600 3000 3600
Wire Wire Line
	3200 3400 3000 3400
Wire Wire Line
	3200 3000 3000 3000
Wire Wire Line
	3300 1800 3000 1800
Wire Wire Line
	3000 2000 3300 2000
Wire Wire Line
	3000 2200 3300 2200
Wire Wire Line
	3800 1600 3800 1700
Wire Wire Line
	3000 1600 3800 1600
Wire Wire Line
	3300 2400 3000 2400
Wire Wire Line
	3000 4600 3300 4600
Wire Wire Line
	3000 3200 3300 3200
$Comp
L V_Power:+3.3V #PWR?
U 1 1 5ED9CEB0
P 3200 8100
AR Path="/5E92540F/5ED9CEB0" Ref="#PWR?"  Part="1" 
AR Path="/5E924110/5ED9CEB0" Ref="#PWR?"  Part="1" 
AR Path="/5E9258C0/5ED9CEB0" Ref="#PWR?"  Part="1" 
AR Path="/5E926050/5ED9CEB0" Ref="#PWR0222"  Part="1" 
F 0 "#PWR0222" H 3200 7950 50  0001 C CNN
F 1 "+3.3V" H 3215 8273 50  0000 C CNN
F 2 "" H 3200 8100 50  0001 C CNN
F 3 "" H 3200 8100 50  0001 C CNN
	1    3200 8100
	1    0    0    -1  
$EndComp
$Comp
L V_Power:+3.3V #PWR?
U 1 1 5EDCC7E0
P 7350 9000
AR Path="/5E92540F/5EDCC7E0" Ref="#PWR?"  Part="1" 
AR Path="/5E924110/5EDCC7E0" Ref="#PWR?"  Part="1" 
AR Path="/5E9258C0/5EDCC7E0" Ref="#PWR?"  Part="1" 
AR Path="/5E926050/5EDCC7E0" Ref="#PWR0223"  Part="1" 
F 0 "#PWR0223" H 7350 8850 50  0001 C CNN
F 1 "+3.3V" H 7365 9173 50  0000 C CNN
F 2 "" H 7350 9000 50  0001 C CNN
F 3 "" H 7350 9000 50  0001 C CNN
	1    7350 9000
	1    0    0    -1  
$EndComp
$Comp
L V_Power:+3.3V #PWR?
U 1 1 5EDD0CA5
P 6175 10050
AR Path="/5E92540F/5EDD0CA5" Ref="#PWR?"  Part="1" 
AR Path="/5E924110/5EDD0CA5" Ref="#PWR?"  Part="1" 
AR Path="/5E9258C0/5EDD0CA5" Ref="#PWR?"  Part="1" 
AR Path="/5E926050/5EDD0CA5" Ref="#PWR0224"  Part="1" 
F 0 "#PWR0224" H 6175 9900 50  0001 C CNN
F 1 "+3.3V" V 6100 10025 50  0000 L CNN
F 2 "" H 6175 10050 50  0001 C CNN
F 3 "" H 6175 10050 50  0001 C CNN
	1    6175 10050
	0    1    1    0   
$EndComp
Wire Wire Line
	3000 2600 3300 2600
Text HLabel 3300 2600 2    56   Output ~ 0
KEY-2
Text Label 9450 11075 0    50   ~ 0
N$39
Text GLabel 9450 11075 0    50   Input ~ 0
N$39
Text Label 6225 8200 0    50   ~ 0
N$39
Text Label 9500 10200 0    50   ~ 0
N$113
Text GLabel 9500 10200 0    50   Input ~ 0
N$113
Text Label 9450 10550 0    50   ~ 0
N$93
Text GLabel 9450 10550 0    50   Input ~ 0
N$93
Text Label 9500 10900 0    50   ~ 0
N$112
Text GLabel 9500 10900 0    50   Input ~ 0
N$112
Text Label 9500 10050 0    50   ~ 0
N$103
Text GLabel 9500 10050 0    50   Input ~ 0
N$103
Text Label 9450 9400 0    50   ~ 0
N$46
Text GLabel 9450 9400 0    50   Input ~ 0
N$46
Text Label 9500 10725 0    50   ~ 0
N$105
Text GLabel 9500 10725 0    50   Input ~ 0
N$105
Text Label 9500 9550 0    50   ~ 0
N$623
Text GLabel 9500 9550 0    50   Input ~ 0
N$623
Text Label 9500 9875 0    50   ~ 0
N$629
Text GLabel 9500 9875 0    50   Input ~ 0
N$629
Text Label 9500 9700 0    50   ~ 0
N$625
Text GLabel 9500 9700 0    50   Input ~ 0
N$625
Text Label 9500 10375 0    50   ~ 0
N$104
Text GLabel 9500 10375 0    50   Input ~ 0
N$104
Text Label 11650 4950 0    50   ~ 0
N$46
Text Label 11650 4850 0    50   ~ 0
N$623
Text Label 11650 4750 0    50   ~ 0
N$625
Text Label 11650 4550 0    50   ~ 0
N$629
Text Label 10650 4350 0    50   ~ 0
N$113
Text Label 10650 4250 0    50   ~ 0
N$103
Text Label 10650 4450 0    50   ~ 0
N$104
Text Label 11650 4650 0    50   ~ 0
N$93
Text Label 11650 5050 0    50   ~ 0
N$105
Text Label 11650 5150 0    50   ~ 0
N$112
Text Label 9500 9250 0    50   ~ 0
N$118
Text GLabel 9500 9250 0    50   Input ~ 0
N$118
Text Label 4075 4000 0    50   ~ 0
N$118
Text Label 9450 9125 0    50   ~ 0
N$24
Text GLabel 9450 9125 0    50   Input ~ 0
N$24
Text Label 6100 7450 0    50   ~ 0
N$24
Text Label 9500 9000 0    50   ~ 0
N$122
Text GLabel 9500 9000 0    50   Input ~ 0
N$122
Text Label 4075 4200 0    50   ~ 0
N$122
Text Label 9450 8875 0    50   ~ 0
N$50
Text GLabel 9450 8875 0    50   Input ~ 0
N$50
Text Label 3050 5200 0    50   ~ 0
N$50
Text Label 9450 8750 0    50   ~ 0
N$18
Text GLabel 9450 8750 0    50   Input ~ 0
N$18
Text Label 5050 9400 0    50   ~ 0
N$18
Text Label 9450 8625 0    50   ~ 0
N$22
Text GLabel 9450 8625 0    50   Input ~ 0
N$22
Text Label 5050 9200 0    50   ~ 0
N$22
Text Label 9450 8500 0    50   ~ 0
N$37
Text GLabel 9450 8500 0    50   Input ~ 0
N$37
Text Label 5025 8800 0    50   ~ 0
N$37
Text Label 9450 8375 0    50   ~ 0
N$25
Text GLabel 9450 8375 0    50   Input ~ 0
N$25
Text Label 5025 9000 0    50   ~ 0
N$25
Text Label 9450 8250 0    50   ~ 0
N$47
Text GLabel 9450 8250 0    50   Input ~ 0
N$47
Text Label 4325 7450 0    50   ~ 0
N$47
Text Label 9450 8125 0    50   ~ 0
N$17
Text GLabel 9450 8125 0    50   Input ~ 0
N$17
Text Label 5050 9800 0    50   ~ 0
N$17
Text Label 9400 8000 0    50   ~ 0
N$1
Text GLabel 9400 8000 0    50   Input ~ 0
N$1
Text Label 3050 4800 0    50   ~ 0
N$1
Text Label 15750 8700 0    50   ~ 0
+5VSUPPLY-BOARD
Text GLabel 15750 8700 0    50   Input ~ 0
+5VSUPPLY-BOARD
Text HLabel 14000 9500 2    56   Output ~ 0
SIGNAL-SHIELD
Text Label 14000 9250 2    50   ~ 0
SENSOR-TYPE-LINE
Text Label 14000 9500 2    50   ~ 0
SIGNAL-SHIELD
Text Label 14000 9375 2    50   ~ 0
CABLE-SHIELD
Text HLabel 14000 9375 2    56   Output ~ 0
CABLE-SHIELD
Text HLabel 14000 9250 2    56   Output ~ 0
SENSOR-TYPE-LINE
Text HLabel 14000 9100 2    56   Output ~ 0
PHOTO-DIODE-BIAS
Text Label 14000 9100 2    50   ~ 0
PHOTO-DIODE-BIAS
Wire Wire Line
	2800 5600 3000 5600
Connection ~ 3000 5600
Wire Wire Line
	2800 5400 3000 5400
Connection ~ 3000 5400
Wire Wire Line
	2800 5200 3000 5200
Connection ~ 3000 5200
Wire Wire Line
	3000 5000 2800 5000
Wire Wire Line
	3000 2600 2800 2600
Connection ~ 3000 2600
Wire Wire Line
	3000 2400 2800 2400
Connection ~ 3000 2400
Wire Wire Line
	3000 2200 2800 2200
Connection ~ 3000 2200
Wire Wire Line
	2800 2000 3000 2000
Connection ~ 3000 2000
Wire Wire Line
	3000 1800 2800 1800
Connection ~ 3000 1800
Wire Wire Line
	2800 1600 3000 1600
Connection ~ 3000 1600
Wire Wire Line
	3000 4800 2800 4800
Connection ~ 3000 4800
Wire Wire Line
	2800 4600 3000 4600
Connection ~ 3000 4600
Wire Wire Line
	3000 4400 2800 4400
Connection ~ 3000 4400
Wire Wire Line
	3000 4200 2800 4200
Connection ~ 3000 4200
Wire Wire Line
	3000 4000 2800 4000
Connection ~ 3000 4000
Wire Wire Line
	3000 3600 2800 3600
Connection ~ 3000 3600
Wire Wire Line
	3000 3400 2800 3400
Connection ~ 3000 3400
Wire Wire Line
	3000 3200 2800 3200
Connection ~ 3000 3200
Wire Wire Line
	3000 3000 2800 3000
Connection ~ 3000 3000
Text Label 3900 8200 0    50   ~ 0
SPO2-SERIAL-OUT
Wire Wire Line
	2800 2800 3000 2800
Connection ~ 3000 2800
Wire Wire Line
	3000 2800 3300 2800
Text Label 3300 2800 0    50   ~ 0
$BN000001
Text Label 5900 8600 3    50   ~ 0
SPO2-SERIAL-DATA-FORMAT
Text HLabel 8400 4550 0    50   Input ~ 0
LED_PRESENCE_DC
Text HLabel 3250 5000 2    50   Input ~ 0
LED_PRESENCE_DC
Text HLabel 6500 2100 2    50   Input ~ 0
LED_BAT
Text HLabel 14850 4450 2    50   Input ~ 0
LED_BAT
Wire Wire Line
	3000 5000 3250 5000
Connection ~ 3000 5000
Text Label 14000 9650 2    50   ~ 0
SPO2-SERIAL-OUT
Text HLabel 14000 9650 2    56   Output ~ 0
SPO2-SERIAL-OUT
Wire Bus Line
	12600 2800 14225 2800
Wire Bus Line
	11400 3050 14200 3050
$EndSCHEMATC
