(module C-SC10 (layer F.Cu) (tedit 0)
  (attr smd)
  (fp_text reference REF** (at 0 0) (layer F.SilkS)
    (effects (font (size 1 1) (thickness 0.15)))
  )
  (fp_text value C-SC10 (at 0 2) (layer F.Fab) hide
    (effects (font (size 1 1) (thickness 0.15)))
  )
  (fp_arc (start 0 0) (end 5 0) (angle 360) (layer F.Fab) (width 0.1))
  (fp_line (start -5.3 6.1) (end -5.3 -6.1) (layer Dwgs.User) (width 0.05))
  (fp_line (start -5.3 -6.1) (end 5.3 -6.1) (layer Dwgs.User) (width 0.05))
  (fp_line (start 5.3 -6.1) (end 5.3 6.1) (layer Dwgs.User) (width 0.05))
  (fp_line (start 5.3 6.1) (end -5.3 6.1) (layer Dwgs.User) (width 0.05))
  (fp_line (start -1.27 5.2) (end -5.2 5.2) (layer F.SilkS) (width 0.18))
  (fp_line (start -5.2 5.2) (end -5.2 -4.2) (layer F.SilkS) (width 0.18))
  (fp_line (start -5.2 -4.2) (end -4.2 -5.2) (layer F.SilkS) (width 0.18))
  (fp_line (start -4.2 -5.2) (end -1.27 -5.2) (layer F.SilkS) (width 0.18))
  (fp_line (start 1.27 -5.2) (end 4.2 -5.2) (layer F.SilkS) (width 0.18))
  (fp_line (start 4.2 -5.2) (end 5.2 -4.2) (layer F.SilkS) (width 0.18))
  (fp_line (start 5.2 -4.2) (end 5.2 5.2) (layer F.SilkS) (width 0.18))
  (fp_line (start 5.2 5.2) (end 1.27 5.2) (layer F.SilkS) (width 0.18))
  (fp_line (start -5.3 5.3) (end -5.3 -4.3) (layer F.CrtYd) (width 0.02))
  (fp_line (start -5.3 -4.3) (end -4.3 -5.3) (layer F.CrtYd) (width 0.02))
  (fp_line (start -4.3 -5.3) (end -1.4 -5.3) (layer F.CrtYd) (width 0.02))
  (fp_line (start -1.4 -5.3) (end -1.4 -6.1) (layer F.CrtYd) (width 0.02))
  (fp_line (start -1.4 -6.1) (end 1.4 -6.1) (layer F.CrtYd) (width 0.02))
  (fp_line (start 1.4 -6.1) (end 1.4 -5.3) (layer F.CrtYd) (width 0.02))
  (fp_line (start 1.4 -5.3) (end 4.3 -5.3) (layer F.CrtYd) (width 0.02))
  (fp_line (start 4.3 -5.3) (end 5.3 -4.3) (layer F.CrtYd) (width 0.02))
  (fp_line (start 5.3 -4.3) (end 5.3 5.3) (layer F.CrtYd) (width 0.02))
  (fp_line (start 5.3 5.3) (end 1.4 5.3) (layer F.CrtYd) (width 0.02))
  (fp_line (start 1.4 5.3) (end 1.4 6.1) (layer F.CrtYd) (width 0.02))
  (fp_line (start 1.4 6.1) (end -1.4 6.1) (layer F.CrtYd) (width 0.02))
  (fp_line (start -1.4 6.1) (end -1.4 5.3) (layer F.CrtYd) (width 0.02))
  (fp_line (start -1.4 5.3) (end -5.3 5.3) (layer F.CrtYd) (width 0.02))
  (fp_line (start -2.6924 4.2164) (end 2.7178 4.2164) (layer F.Fab) (width 0.1))
  (fp_line (start -1.27 4.8006) (end 1.27 4.8006) (layer F.Fab) (width 0.1))
  (fp_line (start -2.1082 4.5212) (end 2.159 4.5212) (layer F.Fab) (width 0.1))
  (fp_line (start 0.5 5.2) (end -0.5 5.2) (layer F.Fab) (width 0.1))
  (fp_line (start -0.5 5.2) (end -0.5 5.5) (layer F.Fab) (width 0.1))
  (fp_line (start -0.5 5.5) (end 0.5 5.5) (layer F.Fab) (width 0.1))
  (fp_line (start 0.5 5.5) (end 0.5 5.2) (layer F.Fab) (width 0.1))
  (fp_line (start 0.5 -5.2) (end 0.5 -5.5) (layer F.Fab) (width 0.1))
  (fp_line (start 0.5 -5.5) (end -0.5 -5.5) (layer F.Fab) (width 0.1))
  (fp_line (start -0.5 -5.5) (end -0.5 -5.2) (layer F.Fab) (width 0.1))
  (fp_line (start -0.5 -5.2) (end 0.5 -5.2) (layer F.Fab) (width 0.1))
  (fp_line (start 5.2 5.2) (end 5.2 -4.2) (layer F.Fab) (width 0.1))
  (fp_line (start 5.2 -4.2) (end 4.2 -5.2) (layer F.Fab) (width 0.1))
  (fp_line (start 4.2 -5.2) (end -4.2 -5.2) (layer F.Fab) (width 0.1))
  (fp_line (start -4.2 -5.2) (end -5.2 -4.2) (layer F.Fab) (width 0.1))
  (fp_line (start -5.2 -4.2) (end -5.2 5.2) (layer F.Fab) (width 0.1))
  (fp_line (start -5.2 5.2) (end 5.2 5.2) (layer F.Fab) (width 0.1))
  (pad + smd rect (at 0 -4.2 180) (size 1.905 4.4196) (layers F.Cu F.Mask F.Paste)
    (clearance 0.2032) (solder_mask_margin 0.1143)
    (zone_connect 2))
  (pad - smd rect (at 0 4.2 180) (size 1.905 4.4196) (layers F.Cu F.Mask F.Paste)
    (clearance 0.2032) (solder_mask_margin 0.1143)
    (zone_connect 2))
  (fp_text user + (at -0.5207 -3.02012) (layer F.Fab)
    (effects (font (size 1 1) (thickness 0.1524)) (justify left))
  )
  (model ${KISYS3DMOD}/Capacitor_SMD.3dshapes/CP_Elec_10x10.5.wrl
    (offset (xyz 0 0 0))
    (scale (xyz 1 1 1))
    (rotate (xyz 0 0 90))
  )
)