(module FGP0.8-1.1X1.8 (layer F.Cu) (tedit 0)
  (fp_text reference REF** (at 0 0) (layer F.SilkS) hide
    (effects (font (size 1 1) (thickness 0.15)))
  )
  (fp_text value FGP0.8-1.1X1.8 (at 0 2) (layer F.Fab) hide
    (effects (font (size 1 1) (thickness 0.15)))
  )
  (pad ~ thru_hole oval (at 0 0) (size 1.1176 1.778) (drill 0.8128 (offset 0 0 )) (layers *.Cu *.Mask)
    (clearance 0.127) (solder_mask_margin 0.127)
    (zone_connect 2))
)