(module FIX40 (layer F.Cu) (tedit 0)
  (fp_text reference REF** (at 0 0) (layer F.SilkS)
    (effects (font (size 1 1) (thickness 0.15)))
  )
  (fp_text value FIX40 (at 0 2) (layer F.Fab) hide
    (effects (font (size 1 1) (thickness 0.15)))
  )
  (fp_arc (start 0 0) (end 2.6 0) (angle 360) (layer F.CrtYd) (width 0.02))
  (fp_arc (start 0 0) (end 1.27 0) (angle 360) (layer B.CrtYd) (width 0.02))
  (fp_arc (start 0 0) (end -2 0) (angle 360) (layer F.Fab) (width 0.1))
  (fp_line (start -2.6 2.6) (end -2.6 -2.6) (layer Dwgs.User) (width 0.05))
  (fp_line (start -2.6 -2.6) (end 2.6 -2.6) (layer Dwgs.User) (width 0.05))
  (fp_line (start 2.6 -2.6) (end 2.6 2.6) (layer Dwgs.User) (width 0.05))
  (fp_line (start 2.6 2.6) (end -2.6 2.6) (layer Dwgs.User) (width 0.05))
  (pad 1 np_thru_hole circle (at 0 0) (size 2.54 2.54) (drill 4.0132 (offset 0 0 )) (layers *.Cu *.Mask)
    (clearance 0.3048) (solder_mask_margin 1.27)
    (zone_connect 2) (thermal_width 0.381) (thermal_gap 0.3302))
  (model "${KIPRJMOD}/../Library/Footprints.3dshapes/entretoise richco - recenter.stp"
    (offset (xyz 0 0 0))
    (scale (xyz 1 1 1))
    (rotate (xyz 0 0 0))
  )
)