(module FNG2.7X1.7-TH (layer F.Cu) (tedit 0)
  (fp_text reference REF** (at 0 0) (layer F.SilkS) hide
    (effects (font (size 1 1) (thickness 0.15)))
  )
  (fp_text value FNG2.7X1.7-TH (at 0 2) (layer F.Fab) hide
    (effects (font (size 1 1) (thickness 0.15)))
  )
  (fp_line (start -1.32 1.92) (end -1.32 -1.92) (layer F.CrtYd) (width 0.05))
  (fp_line (start -1.32 -1.92) (end 1.32 -1.92) (layer F.CrtYd) (width 0.05))
  (fp_line (start 1.32 -1.92) (end 1.32 1.92) (layer F.CrtYd) (width 0.05))
  (fp_line (start 1.32 1.92) (end -1.32 1.92) (layer F.CrtYd) (width 0.05))
  (pad ~ smd custom (at 0 0) (size 0.2 0.2) (layers F.Cu F.Mask F.Paste)
    (options (clearance outline) (anchor circle))
    (primitives
      (gr_arc (start 0.002319 0.495974) (end 0.25 1.31331) (angle -66.145116) (width 0))
      (gr_arc (start 0 0.499996) (end -0.25 1.57121) (angle 76.863219) (width 0))
      (gr_arc (start -0.00076 -0.499235) (end 0.85 -0.5) (angle -72.80606) (width 0))
      (gr_arc (start 0 -0.499996) (end -1.1 -0.5) (angle 76.863219) (width 0))
      (gr_arc (start 0 -0.499996) (end 0.25 -1.57121) (angle 76.863219) (width 0))
      (gr_arc (start -0.000756 -0.499239) (end -0.25 -1.31267) (angle -69.543745) (width 0))
      (gr_arc (start 0 0.499996) (end 1.1 0.5) (angle 76.863219) (width 0))
      (gr_arc (start 0.002329 0.495967) (end -0.85 0.55) (angle -69.187874) (width 0))
      (gr_line (start 0.85 -0.25) (end -1.1 -0.25) (width 0))
      (gr_line (start -1.1 -0.25) (end 0.25 1.31331) (width 0))
      (gr_line (start 0.85 0.6) (end -0.25 1.57121) (width 0))
      (gr_line (start -1.1 0.5) (end 0.85 0.25) (width 0))
      (gr_line (start 0.85 0.25) (end -1.1 0.25) (width 0))
      (gr_line (start -1.1 0.25) (end 0.85 -0.5) (width 0))
      (gr_line (start 0.25 -1.3122) (end -1.1 -0.5) (width 0))
      (gr_line (start -0.25 -1.57121) (end 1.1 0.25) (width 0))
      (gr_line (start 1.1 0.25) (end -0.85 0.25) (width 0))
      (gr_line (start -0.85 0.25) (end 0.25 -1.57121) (width 0))
      (gr_line (start 1.1 -0.5) (end -0.25 -1.31267) (width 0))
      (gr_line (start -0.85 -0.55) (end 1.1 -0.25) (width 0))
      (gr_line (start 1.1 -0.25) (end -0.85 -0.25) (width 0))
      (gr_line (start -0.85 -0.25) (end 1.1 0.5) (width 0))
      (gr_line (start 0.25 1.57121) (end -0.85 0.55) (width 0))
    )
    (zone_connect 2))
)