(module FNG2.9X1.9 (layer F.Cu) (tedit 0)
  (fp_text reference REF** (at 0 0) (layer F.SilkS) hide
    (effects (font (size 1 1) (thickness 0.15)))
  )
  (fp_text value FNG2.9X1.9 (at 0 2) (layer F.Fab) hide
    (effects (font (size 1 1) (thickness 0.15)))
  )
  (fp_line (start -1.14 1.74) (end -1.14 -1.74) (layer F.CrtYd) (width 0.05))
  (fp_line (start -1.14 -1.74) (end 1.14 -1.74) (layer F.CrtYd) (width 0.05))
  (fp_line (start 1.14 -1.74) (end 1.14 1.74) (layer F.CrtYd) (width 0.05))
  (fp_line (start 1.14 1.74) (end -1.14 1.74) (layer F.CrtYd) (width 0.05))
  (pad ~ smd oval (at 0 0) (size 1.9 2.9) (layers F.Cu F.Mask F.Paste)
    (zone_connect 2))
)