(module FNGS70L15R15A90 (layer F.Cu) (tedit 0)
  (fp_text reference REF** (at 0 0) (layer F.SilkS) hide
    (effects (font (size 1 1) (thickness 0.15)))
  )
  (fp_text value FNGS70L15R15A90 (at 0 2) (layer F.Fab) hide
    (effects (font (size 1 1) (thickness 0.15)))
  )
  (fp_line (start -1.0668 1.524) (end -1.0668 -1.524) (layer F.CrtYd) (width 0.05))
  (fp_line (start -1.0668 -1.524) (end 1.0668 -1.524) (layer F.CrtYd) (width 0.05))
  (fp_line (start 1.0668 -1.524) (end 1.0668 1.524) (layer F.CrtYd) (width 0.05))
  (fp_line (start 1.0668 1.524) (end -1.0668 1.524) (layer F.CrtYd) (width 0.05))
  (pad ~ smd oval (at 0 0) (size 1.778 2.54) (layers F.Cu F.Mask F.Paste)
    (zone_connect 2))
)