(module FNGS52L14R14A90 (layer F.Cu) (tedit 0)
  (fp_text reference REF** (at 0 0) (layer F.SilkS) hide
    (effects (font (size 1 1) (thickness 0.15)))
  )
  (fp_text value FNGS52L14R14A90 (at 0 2) (layer F.Fab) hide
    (effects (font (size 1 1) (thickness 0.15)))
  )
  (fp_line (start -0.79248 1.2192) (end -0.79248 -1.2192) (layer F.CrtYd) (width 0.05))
  (fp_line (start -0.79248 -1.2192) (end 0.79248 -1.2192) (layer F.CrtYd) (width 0.05))
  (fp_line (start 0.79248 -1.2192) (end 0.79248 1.2192) (layer F.CrtYd) (width 0.05))
  (fp_line (start 0.79248 1.2192) (end -0.79248 1.2192) (layer F.CrtYd) (width 0.05))
  (pad ~ smd oval (at 0 0) (size 1.3208 2.032) (layers F.Cu F.Mask F.Paste)
    (zone_connect 2))
)