(module MOL41815-03 (layer F.Cu) (tedit 0)
  (fp_text reference REF** (at 0 0) (layer F.SilkS)
    (effects (font (size 1 1) (thickness 0.15)))
  )
  (fp_text value MOL41815-03 (at 0 2) (layer F.Fab) hide
    (effects (font (size 1 1) (thickness 0.15)))
  )
  (fp_arc (start 3.96 0) (end 5.23 0) (angle 360) (layer B.CrtYd) (width 0.02))
  (fp_arc (start 7.92 0) (end 9.19 0) (angle 360) (layer B.CrtYd) (width 0.02))
  (fp_line (start -2.04 5.69) (end -2.04 -6.49) (layer Dwgs.User) (width 0.05))
  (fp_line (start -2.04 -6.49) (end 9.99 -6.49) (layer Dwgs.User) (width 0.05))
  (fp_line (start 9.99 -6.49) (end 9.99 5.69) (layer Dwgs.User) (width 0.05))
  (fp_line (start 9.99 5.69) (end -2.04 5.69) (layer Dwgs.User) (width 0.05))
  (fp_line (start -1.95 5.6) (end -1.95 -4.9) (layer F.SilkS) (width 0.18))
  (fp_line (start -1.95 -4.9) (end 9.9 -4.9) (layer F.SilkS) (width 0.18))
  (fp_line (start 9.9 -4.9) (end 9.9 5.6) (layer F.SilkS) (width 0.18))
  (fp_line (start 9.9 5.6) (end 8.4 5.6) (layer F.SilkS) (width 0.18))
  (fp_line (start 8.4 5.6) (end 8.4 1.5) (layer F.SilkS) (width 0.18))
  (fp_line (start 8.4 1.5) (end -0.45 1.5) (layer F.SilkS) (width 0.18))
  (fp_line (start -0.45 1.5) (end -0.45 5.6) (layer F.SilkS) (width 0.18))
  (fp_line (start -0.45 5.6) (end -1.95 5.6) (layer F.SilkS) (width 0.18))
  (fp_line (start -1.95 -4.9) (end -1.95 -6.4) (layer F.SilkS) (width 0.18))
  (fp_line (start -1.95 -6.4) (end 2 -6.4) (layer F.SilkS) (width 0.18))
  (fp_line (start 2 -6.4) (end 2 -4.9) (layer F.SilkS) (width 0.18))
  (fp_line (start 5.95 -4.9) (end 5.95 -6.4) (layer F.SilkS) (width 0.18))
  (fp_line (start 5.95 -6.4) (end 9.9 -6.4) (layer F.SilkS) (width 0.18))
  (fp_line (start 9.9 -6.4) (end 9.9 -4.9) (layer F.SilkS) (width 0.18))
  (fp_line (start -1.95 -4.9) (end -0.45 -6.4) (layer F.SilkS) (width 0.18))
  (fp_line (start -1.95 -6.4) (end 9.85 -6.4) (layer F.CrtYd) (width 0.02))
  (fp_line (start 9.85 -6.4) (end 9.85 5.6) (layer F.CrtYd) (width 0.02))
  (fp_line (start 9.85 5.6) (end -1.95 5.6) (layer F.CrtYd) (width 0.02))
  (fp_line (start -1.95 5.6) (end -1.95 -6.4) (layer F.CrtYd) (width 0.02))
  (fp_line (start 1.27 -1.27) (end 1.27 1.27) (layer B.CrtYd) (width 0.02))
  (fp_line (start 1.27 1.27) (end -1.27 1.27) (layer B.CrtYd) (width 0.02))
  (fp_line (start -1.27 1.27) (end -1.27 -1.27) (layer B.CrtYd) (width 0.02))
  (fp_line (start -1.27 -1.27) (end 1.27 -1.27) (layer B.CrtYd) (width 0.02))
  (fp_line (start -1.95 5.6) (end -1.95 -4.9) (layer F.Fab) (width 0.1))
  (fp_line (start -1.95 -4.9) (end 9.9 -4.9) (layer F.Fab) (width 0.1))
  (fp_line (start 9.9 -4.9) (end 9.9 5.6) (layer F.Fab) (width 0.1))
  (fp_line (start 9.9 5.6) (end 8.45 5.6) (layer F.Fab) (width 0.1))
  (fp_line (start 8.45 5.6) (end 8.45 1.5) (layer F.Fab) (width 0.1))
  (fp_line (start 8.45 1.5) (end -0.45 1.5) (layer F.Fab) (width 0.1))
  (fp_line (start -0.45 1.5) (end -0.45 5.6) (layer F.Fab) (width 0.1))
  (fp_line (start -0.45 5.6) (end -1.95 5.6) (layer F.Fab) (width 0.1))
  (fp_line (start -1.95 -4.9) (end -1.95 -6.4) (layer F.Fab) (width 0.1))
  (fp_line (start -1.95 -6.4) (end 2 -6.4) (layer F.Fab) (width 0.1))
  (fp_line (start 2 -6.4) (end 2 -4.9) (layer F.Fab) (width 0.1))
  (fp_line (start 5.95 -4.9) (end 5.95 -6.4) (layer F.Fab) (width 0.1))
  (fp_line (start 5.95 -6.4) (end 9.9 -6.4) (layer F.Fab) (width 0.1))
  (fp_line (start 9.9 -6.4) (end 9.9 -4.9) (layer F.Fab) (width 0.1))
  (fp_line (start -1 -2.15) (end 1 -2.15) (layer F.Fab) (width 0.1))
  (fp_line (start 1 -2.15) (end 1 -4.15) (layer F.Fab) (width 0.1))
  (fp_line (start 1 -4.15) (end -1 -4.15) (layer F.Fab) (width 0.1))
  (fp_line (start -1 -4.15) (end -1 -2.15) (layer F.Fab) (width 0.1))
  (fp_line (start 2.96 -2.15) (end 4.96 -2.15) (layer F.Fab) (width 0.1))
  (fp_line (start 4.96 -2.15) (end 4.96 -4.15) (layer F.Fab) (width 0.1))
  (fp_line (start 4.96 -4.15) (end 2.96 -4.15) (layer F.Fab) (width 0.1))
  (fp_line (start 2.96 -4.15) (end 2.96 -2.15) (layer F.Fab) (width 0.1))
  (fp_line (start 6.92 -2.15) (end 8.92 -2.15) (layer F.Fab) (width 0.1))
  (fp_line (start 8.92 -2.15) (end 8.92 -4.15) (layer F.Fab) (width 0.1))
  (fp_line (start 8.92 -4.15) (end 6.92 -4.15) (layer F.Fab) (width 0.1))
  (fp_line (start 6.92 -4.15) (end 6.92 -2.15) (layer F.Fab) (width 0.1))
  (fp_line (start -0.35 1.5) (end 0.35 1.5) (layer F.Fab) (width 0.1))
  (fp_line (start 0.35 1.5) (end 0.35 -0.35) (layer F.Fab) (width 0.1))
  (fp_line (start 0.35 -0.35) (end -0.35 -0.35) (layer F.Fab) (width 0.1))
  (fp_line (start -0.35 -0.35) (end -0.35 1.5) (layer F.Fab) (width 0.1))
  (fp_line (start 3.61 1.5) (end 4.31 1.5) (layer F.Fab) (width 0.1))
  (fp_line (start 4.31 1.5) (end 4.31 -0.35) (layer F.Fab) (width 0.1))
  (fp_line (start 4.31 -0.35) (end 3.61 -0.35) (layer F.Fab) (width 0.1))
  (fp_line (start 3.61 -0.35) (end 3.61 1.5) (layer F.Fab) (width 0.1))
  (fp_line (start 7.57 1.5) (end 8.27 1.5) (layer F.Fab) (width 0.1))
  (fp_line (start 8.27 1.5) (end 8.27 -0.35) (layer F.Fab) (width 0.1))
  (fp_line (start 8.27 -0.35) (end 7.57 -0.35) (layer F.Fab) (width 0.1))
  (fp_line (start 7.57 -0.35) (end 7.57 1.5) (layer F.Fab) (width 0.1))
  (fp_line (start -0.35 0) (end 0.35 0) (layer F.Fab) (width 0.1))
  (fp_line (start 0.35 0) (end -0.35 0) (layer F.Fab) (width 0.1))
  (fp_line (start 3.61 0) (end 4.31 0) (layer F.Fab) (width 0.1))
  (fp_line (start 4.31 0) (end 3.61 0) (layer F.Fab) (width 0.1))
  (fp_line (start 7.57 0) (end 8.27 0) (layer F.Fab) (width 0.1))
  (fp_line (start 8.27 0) (end 7.57 0) (layer F.Fab) (width 0.1))
  (fp_line (start -1.95 -4.9) (end -0.45 -6.4) (layer F.Fab) (width 0.1))
  (fp_line (start 7.35 0.57) (end 8.49 0.57) (layer Dwgs.User) (width 0.1))
  (fp_line (start 8.49 0.57) (end 8.49 -0.57) (layer Dwgs.User) (width 0.1))
  (fp_line (start 8.49 -0.57) (end 7.35 -0.57) (layer Dwgs.User) (width 0.1))
  (fp_line (start 7.35 -0.57) (end 7.35 0.57) (layer Dwgs.User) (width 0.1))
  (fp_line (start 3.39 0.57) (end 4.53 0.57) (layer Dwgs.User) (width 0.1))
  (fp_line (start 4.53 0.57) (end 4.53 -0.57) (layer Dwgs.User) (width 0.1))
  (fp_line (start 4.53 -0.57) (end 3.39 -0.57) (layer Dwgs.User) (width 0.1))
  (fp_line (start 3.39 -0.57) (end 3.39 0.57) (layer Dwgs.User) (width 0.1))
  (fp_line (start -0.57 0.57) (end 0.57 0.57) (layer Dwgs.User) (width 0.3048))
  (fp_line (start 0.57 0.57) (end 0.57 -0.57) (layer Dwgs.User) (width 0.3048))
  (fp_line (start 0.57 -0.57) (end -0.57 -0.57) (layer Dwgs.User) (width 0.3048))
  (fp_line (start -0.57 -0.57) (end -0.57 0.57) (layer Dwgs.User) (width 0.3048))
  (pad 1 thru_hole rect (at 0 0) (size 2.54 2.54) (drill 1.524 (offset 0 0 )) (layers *.Cu *.Mask)
    (solder_mask_margin 0.1016)
    (zone_connect 2))
  (pad 2 thru_hole circle (at 3.96 0) (size 2.54 2.54) (drill 1.524 (offset 0 0 )) (layers *.Cu *.Mask)
    (clearance 0.1016) (solder_mask_margin 0.1016)
    (zone_connect 2))
  (pad 3 thru_hole circle (at 7.92 0) (size 2.54 2.54) (drill 1.524 (offset 0 0 )) (layers *.Cu *.Mask)
    (clearance 0.1016) (solder_mask_margin 0.1016)
    (zone_connect 2))
  (model ${KIPRJMOD}/../Library/Footprints.3dshapes/009484038.stp
    (offset (xyz 3.96 -5.52 11.38))
    (scale (xyz 1 1 1))
    (rotate (xyz 0 0 0))
  )
)