(module MOL43650-02D (layer F.Cu) (tedit 0)
  (attr smd)
  (fp_text reference REF** (at 0 0) (layer F.SilkS)
    (effects (font (size 1 1) (thickness 0.15)))
  )
  (fp_text value MOL43650-02D (at 0 2) (layer F.Fab) hide
    (effects (font (size 1 1) (thickness 0.15)))
  )
  (fp_line (start -7.25 2.17) (end -7.25 -4.82) (layer Dwgs.User) (width 0.05))
  (fp_line (start -7.25 -4.82) (end 7.2392 -4.82) (layer Dwgs.User) (width 0.05))
  (fp_line (start 7.2392 -4.82) (end 7.2392 2.17) (layer Dwgs.User) (width 0.05))
  (fp_line (start 7.2392 2.17) (end -7.25 2.17) (layer Dwgs.User) (width 0.05))
  (fp_line (start 4 -2.02) (end 4.85 -1.17) (layer F.SilkS) (width 0.18))
  (fp_line (start -4.85 1.08) (end -4.85 2.08) (layer F.SilkS) (width 0.18))
  (fp_line (start -4.85 2.08) (end 4.85 2.08) (layer F.SilkS) (width 0.18))
  (fp_line (start 4.85 2.08) (end 4.85 1.08) (layer F.SilkS) (width 0.18))
  (fp_line (start -4.85 -1.12) (end -4.85 -2.02) (layer F.SilkS) (width 0.18))
  (fp_line (start -4.85 -2.02) (end -2.35 -2.02) (layer F.SilkS) (width 0.18))
  (fp_line (start 4.85 -1.12) (end 4.85 -2.02) (layer F.SilkS) (width 0.18))
  (fp_line (start 4.85 -2.02) (end 2.3 -2.02) (layer F.SilkS) (width 0.18))
  (fp_line (start -4.85 2.08) (end -4.85 0.98) (layer F.CrtYd) (width 0.02))
  (fp_line (start -4.85 0.98) (end -7.25 0.98) (layer F.CrtYd) (width 0.02))
  (fp_line (start -7.25 0.98) (end -7.25 -0.97) (layer F.CrtYd) (width 0.02))
  (fp_line (start -7.25 -0.97) (end -4.85 -0.97) (layer F.CrtYd) (width 0.02))
  (fp_line (start -4.85 -0.97) (end -4.85 -2.02) (layer F.CrtYd) (width 0.02))
  (fp_line (start -4.85 -2.02) (end -2.2366 -2.02) (layer F.CrtYd) (width 0.02))
  (fp_line (start -2.2366 -2.02) (end -2.2366 -4.82) (layer F.CrtYd) (width 0.02))
  (fp_line (start -2.2366 -4.82) (end -0.7634 -4.82) (layer F.CrtYd) (width 0.02))
  (fp_line (start -0.7634 -4.82) (end -0.7634 -3.32) (layer F.CrtYd) (width 0.02))
  (fp_line (start -0.7634 -3.32) (end 0.7634 -3.32) (layer F.CrtYd) (width 0.02))
  (fp_line (start 0.7634 -3.32) (end 0.7634 -4.82) (layer F.CrtYd) (width 0.02))
  (fp_line (start 0.7634 -4.82) (end 2.2366 -4.82) (layer F.CrtYd) (width 0.02))
  (fp_line (start 2.2366 -4.82) (end 2.2366 -2.02) (layer F.CrtYd) (width 0.02))
  (fp_line (start 2.2366 -2.02) (end 4.85 -2.02) (layer F.CrtYd) (width 0.02))
  (fp_line (start 4.85 -2.02) (end 4.85 -0.97) (layer F.CrtYd) (width 0.02))
  (fp_line (start 4.85 -0.97) (end 7.2392 -0.97) (layer F.CrtYd) (width 0.02))
  (fp_line (start 7.2392 -0.97) (end 7.2392 0.98) (layer F.CrtYd) (width 0.02))
  (fp_line (start 7.2392 0.98) (end 4.85 0.98) (layer F.CrtYd) (width 0.02))
  (fp_line (start 4.85 0.98) (end 4.85 2.08) (layer F.CrtYd) (width 0.02))
  (fp_line (start 4.85 2.08) (end -4.85 2.08) (layer F.CrtYd) (width 0.02))
  (fp_line (start -4.85 2.08) (end 4.85 2.08) (layer F.Fab) (width 0.1))
  (fp_line (start 4.85 2.08) (end 4.85 -2.02) (layer F.Fab) (width 0.1))
  (fp_line (start 4.85 -2.02) (end -4.85 -2.02) (layer F.Fab) (width 0.1))
  (fp_line (start -4.85 -2.02) (end -4.85 2.08) (layer F.Fab) (width 0.1))
  (fp_line (start -4.85 0.68) (end -6.85 0.68) (layer F.Fab) (width 0.1))
  (fp_line (start -6.85 0.68) (end -6.85 -0.72) (layer F.Fab) (width 0.1))
  (fp_line (start -6.85 -0.72) (end -4.85 -0.72) (layer F.Fab) (width 0.1))
  (fp_line (start -4.85 -0.72) (end -4.85 0.68) (layer F.Fab) (width 0.1))
  (fp_line (start 6.85 0.68) (end 4.85 0.68) (layer F.Fab) (width 0.1))
  (fp_line (start 4.85 0.68) (end 4.85 -0.72) (layer F.Fab) (width 0.1))
  (fp_line (start 4.85 -0.72) (end 6.85 -0.72) (layer F.Fab) (width 0.1))
  (fp_line (start 6.85 -0.72) (end 6.85 0.68) (layer F.Fab) (width 0.1))
  (fp_line (start -1.85 -2.02) (end -1.15 -2.02) (layer F.Fab) (width 0.1))
  (fp_line (start -1.15 -2.02) (end -1.15 -4.32) (layer F.Fab) (width 0.1))
  (fp_line (start -1.15 -4.32) (end -1.85 -4.32) (layer F.Fab) (width 0.1))
  (fp_line (start -1.85 -4.32) (end -1.85 -2.02) (layer F.Fab) (width 0.1))
  (fp_line (start 1.15 -2.02) (end 1.85 -2.02) (layer F.Fab) (width 0.1))
  (fp_line (start 1.85 -2.02) (end 1.85 -4.32) (layer F.Fab) (width 0.1))
  (fp_line (start 1.85 -4.32) (end 1.15 -4.32) (layer F.Fab) (width 0.1))
  (fp_line (start 1.15 -4.32) (end 1.15 -2.02) (layer F.Fab) (width 0.1))
  (fp_line (start -1 -2.02) (end 1 -2.02) (layer F.Fab) (width 0.1))
  (fp_line (start 1 -2.02) (end 1 -3.22) (layer F.Fab) (width 0.1))
  (fp_line (start 1 -3.22) (end -1 -3.22) (layer F.Fab) (width 0.1))
  (fp_line (start -1 -3.22) (end -1 -2.02) (layer F.Fab) (width 0.1))
  (fp_line (start -2.5 -1.02) (end -2.5 0.48) (layer F.Fab) (width 0.1))
  (fp_line (start -2.5 0.48) (end -2 0.98) (layer F.Fab) (width 0.1))
  (fp_line (start -2 0.98) (end -0.5 0.98) (layer F.Fab) (width 0.1))
  (fp_line (start -0.5 0.98) (end -0.5 -1.02) (layer F.Fab) (width 0.1))
  (fp_line (start -0.5 -1.02) (end -2.5 -1.02) (layer F.Fab) (width 0.1))
  (fp_line (start 0.5 0.98) (end 2 0.98) (layer F.Fab) (width 0.1))
  (fp_line (start 2 0.98) (end 2.5 0.48) (layer F.Fab) (width 0.1))
  (fp_line (start 2.5 0.48) (end 2.5 -1.02) (layer F.Fab) (width 0.1))
  (fp_line (start 2.5 -1.02) (end 0.5 -1.02) (layer F.Fab) (width 0.1))
  (fp_line (start 0.5 -1.02) (end 0.5 0.98) (layer F.Fab) (width 0.1))
  (fp_line (start 4 -2.02) (end 4.85 -1.17) (layer F.Fab) (width 0.1))
  (pad 1 smd rect (at 1.5 -2.94) (size 1.27 3.5) (layers F.Cu F.Mask F.Paste)
    (solder_mask_margin 0.1)
    (zone_connect 2))
  (pad 2 smd rect (at -1.5 -2.94) (size 1.27 3.5) (layers F.Cu F.Mask F.Paste)
    (solder_mask_margin 0.1)
    (zone_connect 2))
  (pad 3 smd rect (at -4.95 0 90) (size 1.7 4.3) (layers F.Cu F.Mask F.Paste)
    (solder_mask_margin 0.1)
    (zone_connect 2))
  (pad 4 smd rect (at 4.95 0 90) (size 1.7 4.3) (layers F.Cu F.Mask F.Paste)
    (solder_mask_margin 0.1)
    (zone_connect 2))
  (model ${KIPRJMOD}/../Library/Footprints.3dshapes/436500224.stp
    (offset (xyz 0 0 5))
    (scale (xyz 1 1 1))
    (rotate (xyz 0 0 0))
  )
)