(module MOL6410-2 (layer F.Cu) (tedit 0)
  (fp_text reference REF** (at 0 0) (layer F.SilkS)
    (effects (font (size 1 1) (thickness 0.15)))
  )
  (fp_text value MOL6410-2 (at 0 2) (layer F.Fab) hide
    (effects (font (size 1 1) (thickness 0.15)))
  )
  (fp_arc (start 2.54 0) (end 3.429 0) (angle 360) (layer B.CrtYd) (width 0.02))
  (fp_line (start -1.36 3.265) (end -1.36 -3.265) (layer Dwgs.User) (width 0.05))
  (fp_line (start -1.36 -3.265) (end 3.9 -3.265) (layer Dwgs.User) (width 0.05))
  (fp_line (start 3.9 -3.265) (end 3.9 3.265) (layer Dwgs.User) (width 0.05))
  (fp_line (start 3.9 3.265) (end -1.36 3.265) (layer Dwgs.User) (width 0.05))
  (fp_line (start 0 3.175) (end 0 1.905) (layer F.SilkS) (width 0.18))
  (fp_line (start 0 1.905) (end 2.54 1.905) (layer F.SilkS) (width 0.18))
  (fp_line (start 2.54 1.905) (end 2.54 3.175) (layer F.SilkS) (width 0.18))
  (fp_line (start -1.27 -3.175) (end -1.27 3.175) (layer F.SilkS) (width 0.18))
  (fp_line (start -1.27 3.175) (end 3.81 3.175) (layer F.SilkS) (width 0.18))
  (fp_line (start 3.81 3.175) (end 3.81 -3.175) (layer F.SilkS) (width 0.18))
  (fp_line (start 3.81 -3.175) (end -1.27 -3.175) (layer F.SilkS) (width 0.18))
  (fp_line (start -1.27 -1.905) (end 0 -3.175) (layer F.SilkS) (width 0.18))
  (fp_line (start -1.27 -3.175) (end 3.81 -3.175) (layer F.CrtYd) (width 0.02))
  (fp_line (start 3.81 -3.175) (end 3.81 3.175) (layer F.CrtYd) (width 0.02))
  (fp_line (start 3.81 3.175) (end -1.27 3.175) (layer F.CrtYd) (width 0.02))
  (fp_line (start -1.27 3.175) (end -1.27 -3.175) (layer F.CrtYd) (width 0.02))
  (fp_line (start 0.889 -0.889) (end 0.889 0.889) (layer B.CrtYd) (width 0.02))
  (fp_line (start 0.889 0.889) (end -0.889 0.889) (layer B.CrtYd) (width 0.02))
  (fp_line (start -0.889 0.889) (end -0.889 -0.889) (layer B.CrtYd) (width 0.02))
  (fp_line (start -0.889 -0.889) (end 0.889 -0.889) (layer B.CrtYd) (width 0.02))
  (fp_line (start -1.27 -3.175) (end -1.27 3.175) (layer F.Fab) (width 0.1))
  (fp_line (start -1.27 3.175) (end 3.81 3.175) (layer F.Fab) (width 0.1))
  (fp_line (start 3.81 3.175) (end 3.81 -3.175) (layer F.Fab) (width 0.1))
  (fp_line (start 3.81 -3.175) (end -1.27 -3.175) (layer F.Fab) (width 0.1))
  (fp_line (start 0 3.175) (end 0 1.905) (layer F.Fab) (width 0.1))
  (fp_line (start 0 1.905) (end 2.54 1.905) (layer F.Fab) (width 0.1))
  (fp_line (start 2.54 1.905) (end 2.54 3.175) (layer F.Fab) (width 0.1))
  (fp_line (start -1.27 -1.905) (end 0 -3.175) (layer F.Fab) (width 0.1))
  (pad 1 thru_hole rect (at 0 0) (size 1.778 1.778) (drill 1.1176 (offset 0 0 )) (layers *.Cu *.Mask)
    (solder_mask_margin 0.1016)
    (zone_connect 2))
  (pad 2 thru_hole circle (at 2.54 0) (size 1.778 1.778) (drill 1.1176 (offset 0 0 )) (layers *.Cu *.Mask)
    (clearance 0.1016) (solder_mask_margin 0.1016)
    (zone_connect 2))
  (model ${KISYS3DMOD}/Connector_Molex.3dshapes/Molex_KK-254_AE-6410-02A_1x02_P2.54mm_Vertical.wrl
    (offset (xyz 0 0 0))
    (scale (xyz 1 1 1))
    (rotate (xyz 0 0 0))
  )
)