(module OBLS72L90R90A90 (layer F.Cu) (tedit 0)
  (fp_text reference REF** (at 0 0) (layer F.SilkS) hide
    (effects (font (size 1 1) (thickness 0.15)))
  )
  (fp_text value OBLS72L90R90A90 (at 0 2) (layer F.Fab) hide
    (effects (font (size 1 1) (thickness 0.15)))
  )
  (fp_line (start -1.09728 2.7432) (end -1.09728 -2.7432) (layer F.CrtYd) (width 0.05))
  (fp_line (start -1.09728 -2.7432) (end 1.09728 -2.7432) (layer F.CrtYd) (width 0.05))
  (fp_line (start 1.09728 -2.7432) (end 1.09728 2.7432) (layer F.CrtYd) (width 0.05))
  (fp_line (start 1.09728 2.7432) (end -1.09728 2.7432) (layer F.CrtYd) (width 0.05))
  (pad ~ smd rect (at 0 0) (size 1.8288 4.572) (layers F.Cu F.Mask F.Paste)
    (zone_connect 2))
)