(module OBLS126L79R79A90 (layer F.Cu) (tedit 0)
  (fp_text reference REF** (at 0 0) (layer F.SilkS) hide
    (effects (font (size 1 1) (thickness 0.15)))
  )
  (fp_text value OBLS126L79R79A90 (at 0 2) (layer F.Fab) hide
    (effects (font (size 1 1) (thickness 0.15)))
  )
  (fp_line (start -1.92024 2.40792) (end -1.92024 -2.40792) (layer F.CrtYd) (width 0.05))
  (fp_line (start -1.92024 -2.40792) (end 1.92024 -2.40792) (layer F.CrtYd) (width 0.05))
  (fp_line (start 1.92024 -2.40792) (end 1.92024 2.40792) (layer F.CrtYd) (width 0.05))
  (fp_line (start 1.92024 2.40792) (end -1.92024 2.40792) (layer F.CrtYd) (width 0.05))
  (pad ~ smd rect (at 0 0) (size 3.2004 4.0132) (layers F.Cu F.Mask F.Paste)
    (zone_connect 2))
)