(module P.E (layer F.Cu) (tedit 0)
  (fp_text reference REF** (at 0 0) (layer F.SilkS) hide
    (effects (font (size 1 1) (thickness 0.15)))
  )
  (fp_text value P.E (at 0 2) (layer F.Fab) hide
    (effects (font (size 1 1) (thickness 0.15)))
  )
  (pad ~ thru_hole circle (at 0 0) (size 1.778 1.778) (drill 1.1176 (offset 0 0 )) (layers *.Cu *.Mask)
    (clearance 0.1016) (solder_mask_margin 0.1016)
    (zone_connect 2))
)