(module P.V-1 (layer F.Cu) (tedit 0)
  (fp_text reference REF** (at 0 0) (layer F.SilkS) hide
    (effects (font (size 1 1) (thickness 0.15)))
  )
  (fp_text value P.V-1 (at 0 2) (layer F.Fab) hide
    (effects (font (size 1 1) (thickness 0.15)))
  )
  (pad ~ thru_hole rect (at 0 0) (size 1.5748 1.5748) (drill 0.9144 (offset 0 0 )) (layers *.Cu *.Mask)
    (clearance 0.1524) (solder_mask_margin 0.1016)
    (zone_connect 2) (thermal_width 0.2032) (thermal_gap 0.2032))
)