(module PR-0.7X5.1 (layer F.Cu) (tedit 0)
  (fp_text reference REF** (at 0 0) (layer F.SilkS) hide
    (effects (font (size 1 1) (thickness 0.15)))
  )
  (fp_text value masque_comp (at 0 2) (layer F.Fab) hide
    (effects (font (size 1 1) (thickness 0.15)))
  )
  (fp_line (start -0.54 3.18) (end -0.54 -3.18) (layer F.CrtYd) (width 0.05))
  (fp_line (start -0.54 -3.18) (end 0.54 -3.18) (layer F.CrtYd) (width 0.05))
  (fp_line (start 0.54 -3.18) (end 0.54 3.18) (layer F.CrtYd) (width 0.05))
  (fp_line (start 0.54 3.18) (end -0.54 3.18) (layer F.CrtYd) (width 0.05))
  (pad ~ smd rect (at 0 0) (size 0.7 5.1) (layers F.Cu F.Mask F.Paste)
    (solder_mask_margin 0.1)
    (zone_connect 2))
)