(module PR.H1 (layer F.Cu) (tedit 0)
  (fp_text reference REF** (at 0 0) (layer F.SilkS) hide
    (effects (font (size 1 1) (thickness 0.15)))
  )
  (fp_text value masque_comp (at 0 2) (layer F.Fab) hide
    (effects (font (size 1 1) (thickness 0.15)))
  )
  (fp_line (start -1.6764 2.22504) (end -1.6764 -2.22504) (layer F.CrtYd) (width 0.05))
  (fp_line (start -1.6764 -2.22504) (end 1.6764 -2.22504) (layer F.CrtYd) (width 0.05))
  (fp_line (start 1.6764 -2.22504) (end 1.6764 2.22504) (layer F.CrtYd) (width 0.05))
  (fp_line (start 1.6764 2.22504) (end -1.6764 2.22504) (layer F.CrtYd) (width 0.05))
  (pad ~ smd rect (at 0 0) (size 2.286 3.2004) (layers F.Cu F.Mask F.Paste)
    (clearance 0.2032) (solder_mask_margin 0.127)
    (zone_connect 2))
)