(module PR.J (layer F.Cu) (tedit 0)
  (fp_text reference REF** (at 0 0) (layer F.SilkS) hide
    (effects (font (size 1 1) (thickness 0.15)))
  )
  (fp_text value masque_comp (at 0 2) (layer F.Fab) hide
    (effects (font (size 1 1) (thickness 0.15)))
  )
  (fp_line (start -1.4478 3.6576) (end -1.4478 -3.6576) (layer F.CrtYd) (width 0.05))
  (fp_line (start -1.4478 -3.6576) (end 1.4478 -3.6576) (layer F.CrtYd) (width 0.05))
  (fp_line (start 1.4478 -3.6576) (end 1.4478 3.6576) (layer F.CrtYd) (width 0.05))
  (fp_line (start 1.4478 3.6576) (end -1.4478 3.6576) (layer F.CrtYd) (width 0.05))
  (pad ~ smd rect (at 0 0) (size 1.905 5.588) (layers F.Cu F.Mask F.Paste)
    (clearance 0.2032) (solder_mask_margin 0.1143)
    (zone_connect 2))
)