(module RECT1.7X2.2 (layer F.Cu) (tedit 0)
  (fp_text reference REF** (at 0 0) (layer F.SilkS) hide
    (effects (font (size 1 1) (thickness 0.15)))
  )
  (fp_text value RECT1.7X2.2 (at 0 2) (layer F.Fab) hide
    (effects (font (size 1 1) (thickness 0.15)))
  )
  (fp_line (start -1.02 1.32) (end -1.02 -1.32) (layer F.CrtYd) (width 0.05))
  (fp_line (start -1.02 -1.32) (end 1.02 -1.32) (layer F.CrtYd) (width 0.05))
  (fp_line (start 1.02 -1.32) (end 1.02 1.32) (layer F.CrtYd) (width 0.05))
  (fp_line (start 1.02 1.32) (end -1.02 1.32) (layer F.CrtYd) (width 0.05))
  (pad ~ smd rect (at 0 0) (size 1.7 2.2) (layers F.Cu F.Mask F.Paste)
    (zone_connect 2))
)