(module RNDS52 (layer F.Cu) (tedit 0)
  (fp_text reference REF** (at 0 0) (layer F.SilkS) hide
    (effects (font (size 1 1) (thickness 0.15)))
  )
  (fp_text value RNDS52 (at 0 2) (layer F.Fab) hide
    (effects (font (size 1 1) (thickness 0.15)))
  )
  (fp_line (start -0.79248 0.79248) (end -0.79248 -0.79248) (layer F.CrtYd) (width 0.05))
  (fp_line (start -0.79248 -0.79248) (end 0.79248 -0.79248) (layer F.CrtYd) (width 0.05))
  (fp_line (start 0.79248 -0.79248) (end 0.79248 0.79248) (layer F.CrtYd) (width 0.05))
  (fp_line (start 0.79248 0.79248) (end -0.79248 0.79248) (layer F.CrtYd) (width 0.05))
  (pad ~ smd circle (at 0 0) (size 1.3208 1.3208) (layers F.Cu F.Mask F.Paste)
    (zone_connect 2))
)