(module RNDS166 (layer F.Cu) (tedit 0)
  (fp_text reference REF** (at 0 0) (layer F.SilkS) hide
    (effects (font (size 1 1) (thickness 0.15)))
  )
  (fp_text value RNDS166 (at 0 2) (layer F.Fab) hide
    (effects (font (size 1 1) (thickness 0.15)))
  )
  (fp_line (start -2.52984 2.52984) (end -2.52984 -2.52984) (layer F.CrtYd) (width 0.05))
  (fp_line (start -2.52984 -2.52984) (end 2.52984 -2.52984) (layer F.CrtYd) (width 0.05))
  (fp_line (start 2.52984 -2.52984) (end 2.52984 2.52984) (layer F.CrtYd) (width 0.05))
  (fp_line (start 2.52984 2.52984) (end -2.52984 2.52984) (layer F.CrtYd) (width 0.05))
  (pad ~ smd circle (at 0 0) (size 4.2164 4.2164) (layers F.Cu F.Mask F.Paste)
    (zone_connect 2))
)