(module SF-3863-WESI_101111101111100001 (layer F.Cu) (tedit 0)
  (fp_text reference REF** (at 0 0) (layer F.SilkS)
    (effects (font (size 1 1) (thickness 0.15)))
  )
  (fp_text value SF-3863-WESI_101111101111100001 (at 0 2) (layer F.Fab) hide
    (effects (font (size 1 1) (thickness 0.15)))
  )
  (fp_arc (start 0 0) (end 6 0) (angle 360) (layer F.Fab) (width 0.1))
  (fp_arc (start 0 0) (end 14 0) (angle 360) (layer F.Fab) (width 0.1))
  (fp_arc (start 0 0) (end 1.27 0) (angle 360) (layer B.CrtYd) (width 0.02))
  (fp_arc (start 6 0) (end 8.0066 0) (angle 360) (layer B.CrtYd) (width 0.02))
  (fp_arc (start 15 0) (end 17.0066 0) (angle 360) (layer B.CrtYd) (width 0.02))
  (fp_arc (start 0 0) (end 15 0) (angle 360) (layer F.CrtYd) (width 0.02))
  (fp_arc (start 0 0) (end 14 0) (angle 360) (layer F.SilkS) (width 0.18))
  (fp_line (start -15 15) (end -15 -15) (layer Dwgs.User) (width 0.05))
  (fp_line (start -15 -15) (end 17.3368 -15) (layer Dwgs.User) (width 0.05))
  (fp_line (start 17.3368 -15) (end 17.3368 15) (layer Dwgs.User) (width 0.05))
  (fp_line (start 17.3368 15) (end -15 15) (layer Dwgs.User) (width 0.05))
  (fp_line (start 5.5 14) (end 15.5 14) (layer F.SilkS) (width 0.18))
  (fp_line (start 15.5 14) (end 15.5 -14) (layer F.SilkS) (width 0.18))
  (fp_line (start 15.5 -14) (end 5.5 -14) (layer F.SilkS) (width 0.18))
  (fp_line (start 5.5 -14) (end 5.5 14) (layer F.SilkS) (width 0.18))
  (fp_line (start 5.5 -14) (end 15.5 -14) (layer F.CrtYd) (width 0.02))
  (fp_line (start 15.5 -14) (end 15.5 14) (layer F.CrtYd) (width 0.02))
  (fp_line (start 15.5 14) (end 5.5 14) (layer F.CrtYd) (width 0.02))
  (fp_line (start 5.5 14) (end 5.5 -14) (layer F.CrtYd) (width 0.02))
  (fp_line (start 5.5 14) (end 15.5 14) (layer F.Fab) (width 0.1))
  (fp_line (start 15.5 14) (end 15.5 -14) (layer F.Fab) (width 0.1))
  (fp_line (start 15.5 -14) (end 5.5 -14) (layer F.Fab) (width 0.1))
  (fp_line (start 5.5 -14) (end 5.5 14) (layer F.Fab) (width 0.1))
  (pad 3 np_thru_hole circle (at 0 0) (size 2.54 2.54) (drill 2.9972) (layers F&B.Cu *.Mask)
    (solder_mask_margin 0.4826) (clearance 0.7366) (zone_connect 2))
  (pad 2 thru_hole circle (at 6 0) (size 3.81 3.81) (drill 2.5146) (layers *.Mask F.Cu In2.Cu In3.Cu In4.Cu B.Cu)
    (solder_mask_margin 0.1016) (clearance 0.4064) (zone_connect 2))
  (pad 1 thru_hole circle (at 15 0) (size 3.81 3.81) (drill 2.5146) (layers *.Mask F.Cu In2.Cu In3.Cu In4.Cu B.Cu)
    (solder_mask_margin 0.1016) (clearance 0.4064) (zone_connect 2))
  (model ${KIPRJMOD}/../Library/Footprints.3dshapes/Bourns_2209-V-RC.step
    (offset (xyz 10.5 0 0))
    (scale (xyz 1 1 1))
    (rotate (xyz 0 0 90))
  )
)
