(module SOD123-AK (layer F.Cu) (tedit 0)
  (attr smd)
  (fp_text reference REF** (at 0 0) (layer F.SilkS)
    (effects (font (size 1 1) (thickness 0.15)))
  )
  (fp_text value SOD123-AK (at 0 2) (layer F.Fab) hide
    (effects (font (size 1 1) (thickness 0.15)))
  )
  (fp_line (start -2.47125 1.20125) (end -2.47125 -1.20125) (layer Dwgs.User) (width 0.05))
  (fp_line (start -2.47125 -1.20125) (end 2.47125 -1.20125) (layer Dwgs.User) (width 0.05))
  (fp_line (start 2.47125 -1.20125) (end 2.47125 1.20125) (layer Dwgs.User) (width 0.05))
  (fp_line (start 2.47125 1.20125) (end -2.47125 1.20125) (layer Dwgs.User) (width 0.05))
  (fp_line (start 2.38125 -1.11125) (end -2.06375 -1.11125) (layer F.SilkS) (width 0.18))
  (fp_line (start -2.06375 -1.11125) (end -2.38125 -0.79375) (layer F.SilkS) (width 0.18))
  (fp_line (start -2.38125 -0.79375) (end -2.38125 0.79375) (layer F.SilkS) (width 0.18))
  (fp_line (start -2.38125 0.79375) (end -2.06375 1.11125) (layer F.SilkS) (width 0.18))
  (fp_line (start -2.06375 1.11125) (end 2.38125 1.11125) (layer F.SilkS) (width 0.18))
  (fp_line (start 2.38125 1.11125) (end 2.38125 -1.11125) (layer F.SilkS) (width 0.18))
  (fp_line (start -2.413 1.11125) (end -2.413 -1.11125) (layer F.CrtYd) (width 0.02))
  (fp_line (start -2.413 -1.11125) (end 2.413 -1.11125) (layer F.CrtYd) (width 0.02))
  (fp_line (start 2.413 -1.11125) (end 2.413 1.11125) (layer F.CrtYd) (width 0.02))
  (fp_line (start 2.413 1.11125) (end -2.413 1.11125) (layer F.CrtYd) (width 0.02))
  (fp_line (start -1.7272 0.9398) (end 1.778 0.9398) (layer F.Fab) (width 0.1))
  (fp_line (start 1.778 0.9398) (end 1.778 -0.9398) (layer F.Fab) (width 0.1))
  (fp_line (start 1.778 -0.9398) (end -1.7272 -0.9398) (layer F.Fab) (width 0.1))
  (fp_line (start -1.7272 -0.9398) (end -1.7272 0.9398) (layer F.Fab) (width 0.1))
  (pad A smd rect (at 1.4224 0) (size 1.27 1.4224) (layers F.Cu F.Mask F.Paste)
    (clearance 0.2032) (solder_mask_margin 0.1016)
    (zone_connect 2))
  (pad K smd rect (at -1.4224 0) (size 1.27 1.4224) (layers F.Cu F.Mask F.Paste)
    (clearance 0.2032) (solder_mask_margin 0.1016)
    (zone_connect 2))
  (fp_poly (pts (xy -1.27 0.889) (xy -1.27 -0.889) (xy -0.889 -0.889) (xy -0.889 0.889)
     (xy -1.27 0.889)) (layer F.Fab) (width 0.02))
)