(module TFNGO90I70W12L15R15A90 (layer F.Cu) (tedit 0)
  (fp_text reference REF** (at 0 0) (layer F.SilkS) hide
    (effects (font (size 1 1) (thickness 0.15)))
  )
  (fp_text value TFNGO90I70W12L15R15A90 (at 0 2) (layer F.Fab) hide
    (effects (font (size 1 1) (thickness 0.15)))
  )
  (fp_line (start -1.2192 1.6294) (end -1.2192 -1.6294) (layer F.CrtYd) (width 0.05))
  (fp_line (start -1.2192 -1.6294) (end 1.2192 -1.6294) (layer F.CrtYd) (width 0.05))
  (fp_line (start 1.2192 -1.6294) (end 1.2192 1.6294) (layer F.CrtYd) (width 0.05))
  (fp_line (start 1.2192 1.6294) (end -1.2192 1.6294) (layer F.CrtYd) (width 0.05))
)