(module TOBLO31I11W12L20R20A0 (layer F.Cu) (tedit 0)
  (fp_text reference REF** (at 0 0) (layer F.SilkS) hide
    (effects (font (size 1 1) (thickness 0.15)))
  )
  (fp_text value TOBLO31I11W12L20R20A0 (at 0 2) (layer F.Fab) hide
    (effects (font (size 1 1) (thickness 0.15)))
  )
  (fp_line (start -0.9144 0.47244) (end -0.9144 -0.47244) (layer F.CrtYd) (width 0.05))
  (fp_line (start -0.9144 -0.47244) (end 0.9144 -0.47244) (layer F.CrtYd) (width 0.05))
  (fp_line (start 0.9144 -0.47244) (end 0.9144 0.47244) (layer F.CrtYd) (width 0.05))
  (fp_line (start 0.9144 0.47244) (end -0.9144 0.47244) (layer F.CrtYd) (width 0.05))
)