(module TRNDO58I32W15 (layer F.Cu) (tedit 0)
  (fp_text reference REF** (at 0 0) (layer F.SilkS) hide
    (effects (font (size 1 1) (thickness 0.15)))
  )
  (fp_text value TRNDO58I32W15 (at 0 2) (layer F.Fab) hide
    (effects (font (size 1 1) (thickness 0.15)))
  )
  (fp_line (start -0.88392 0.88392) (end -0.88392 -0.88392) (layer F.CrtYd) (width 0.05))
  (fp_line (start -0.88392 -0.88392) (end 0.88392 -0.88392) (layer F.CrtYd) (width 0.05))
  (fp_line (start 0.88392 -0.88392) (end 0.88392 0.88392) (layer F.CrtYd) (width 0.05))
  (fp_line (start 0.88392 0.88392) (end -0.88392 0.88392) (layer F.CrtYd) (width 0.05))
  (pad ~ smd circle (at 0 0) (size 0.4064 0.4064) (layers F.Cu F.Mask F.Paste)
    (zone_connect 1) (thermal_width 0.381) (thermal_gap 0.3302))
)