(module TRNDO56I36W12 (layer F.Cu) (tedit 0)
  (fp_text reference REF** (at 0 0) (layer F.SilkS) hide
    (effects (font (size 1 1) (thickness 0.15)))
  )
  (fp_text value TRNDO56I36W12 (at 0 2) (layer F.Fab) hide
    (effects (font (size 1 1) (thickness 0.15)))
  )
  (fp_line (start -0.85344 0.85344) (end -0.85344 -0.85344) (layer F.CrtYd) (width 0.05))
  (fp_line (start -0.85344 -0.85344) (end 0.85344 -0.85344) (layer F.CrtYd) (width 0.05))
  (fp_line (start 0.85344 -0.85344) (end 0.85344 0.85344) (layer F.CrtYd) (width 0.05))
  (fp_line (start 0.85344 0.85344) (end -0.85344 0.85344) (layer F.CrtYd) (width 0.05))
  (pad ~ smd circle (at 0 0) (size 0.4572 0.4572) (layers F.Cu F.Mask F.Paste)
    (zone_connect 1) (thermal_width 0.3048) (thermal_gap 0.254))
)