(module TSOP2-44 (layer F.Cu) (tedit 0)
  (attr smd)
  (fp_text reference REF** (at 0 0) (layer F.SilkS)
    (effects (font (size 1 1) (thickness 0.15)))
  )
  (fp_text value TSOP2-44 (at 0 2) (layer F.Fab) hide
    (effects (font (size 1 1) (thickness 0.15)))
  )
  (fp_arc (start -7.855 3.72751) (end -7.855 4.1275) (angle 360) (layer F.SilkS) (width 0.02))
  (fp_arc (start -7.855 3.72751) (end -7.855 4.1275) (angle 360) (layer F.Fab) (width 0.02))
  (fp_line (start -9.615 6.731) (end -9.615 -6.731) (layer Dwgs.User) (width 0.05))
  (fp_line (start -9.615 -6.731) (end 9.615 -6.731) (layer Dwgs.User) (width 0.05))
  (fp_line (start 9.615 -6.731) (end 9.615 6.731) (layer Dwgs.User) (width 0.05))
  (fp_line (start 9.615 6.731) (end -9.615 6.731) (layer Dwgs.User) (width 0.05))
  (fp_line (start 9.525 -4.7625) (end -9.525 -4.7625) (layer F.SilkS) (width 0.18))
  (fp_line (start -9.525 -4.7625) (end -9.525 4.7625) (layer F.SilkS) (width 0.18))
  (fp_line (start -9.525 4.7625) (end 9.525 4.7625) (layer F.SilkS) (width 0.18))
  (fp_line (start 9.525 4.7625) (end 9.525 -4.7625) (layer F.SilkS) (width 0.18))
  (fp_line (start 9.525 -6.731) (end 9.525 6.731) (layer F.CrtYd) (width 0.02))
  (fp_line (start 9.525 6.731) (end -9.525 6.731) (layer F.CrtYd) (width 0.02))
  (fp_line (start -9.525 6.731) (end -9.525 -6.731) (layer F.CrtYd) (width 0.02))
  (fp_line (start -9.525 -6.731) (end 9.525 -6.731) (layer F.CrtYd) (width 0.02))
  (fp_line (start 8.4 -5.715) (end 8.4 -5.08) (layer F.Fab) (width 0.1))
  (fp_line (start 7.6 -5.715) (end 7.6 -5.08) (layer F.Fab) (width 0.1))
  (fp_line (start 6.8 -5.715) (end 6.8 -5.08) (layer F.Fab) (width 0.1))
  (fp_line (start 6 -5.715) (end 6 -5.08) (layer F.Fab) (width 0.1))
  (fp_line (start 5.2 -5.715) (end 5.2 -5.08) (layer F.Fab) (width 0.1))
  (fp_line (start 4.4 -5.715) (end 4.4 -5.08) (layer F.Fab) (width 0.1))
  (fp_line (start 3.6 -5.715) (end 3.6 -5.08) (layer F.Fab) (width 0.1))
  (fp_line (start 2.8 -5.715) (end 2.8 -5.08) (layer F.Fab) (width 0.1))
  (fp_line (start 2 -5.715) (end 2 -5.08) (layer F.Fab) (width 0.1))
  (fp_line (start 1.2 -5.715) (end 1.2 -5.08) (layer F.Fab) (width 0.1))
  (fp_line (start 0.4 -5.715) (end 0.4 -5.08) (layer F.Fab) (width 0.1))
  (fp_line (start -0.4 -5.715) (end -0.4 -5.08) (layer F.Fab) (width 0.1))
  (fp_line (start -1.2 -5.715) (end -1.2 -5.08) (layer F.Fab) (width 0.1))
  (fp_line (start -2 -5.715) (end -2 -5.08) (layer F.Fab) (width 0.1))
  (fp_line (start -2.8 -5.715) (end -2.8 -5.08) (layer F.Fab) (width 0.1))
  (fp_line (start -3.6 -5.715) (end -3.6 -5.08) (layer F.Fab) (width 0.1))
  (fp_line (start -4.4 -5.715) (end -4.4 -5.08) (layer F.Fab) (width 0.1))
  (fp_line (start -5.2 -5.715) (end -5.2 -5.08) (layer F.Fab) (width 0.1))
  (fp_line (start -6 -5.715) (end -6 -5.08) (layer F.Fab) (width 0.1))
  (fp_line (start -6.8 -5.715) (end -6.8 -5.08) (layer F.Fab) (width 0.1))
  (fp_line (start -7.6 -5.715) (end -7.6 -5.08) (layer F.Fab) (width 0.1))
  (fp_line (start -8.4 -5.715) (end -8.4 -5.08) (layer F.Fab) (width 0.1))
  (fp_line (start 8.4 5.715) (end 8.4 5.08) (layer F.Fab) (width 0.1))
  (fp_line (start 7.6 5.715) (end 7.6 5.08) (layer F.Fab) (width 0.1))
  (fp_line (start 6.8 5.715) (end 6.8 5.08) (layer F.Fab) (width 0.1))
  (fp_line (start 6 5.715) (end 6 5.08) (layer F.Fab) (width 0.1))
  (fp_line (start 5.2 5.715) (end 5.2 5.08) (layer F.Fab) (width 0.1))
  (fp_line (start 4.4 5.715) (end 4.4 5.08) (layer F.Fab) (width 0.1))
  (fp_line (start 3.6 5.715) (end 3.6 5.08) (layer F.Fab) (width 0.1))
  (fp_line (start 2.8 5.715) (end 2.8 5.08) (layer F.Fab) (width 0.1))
  (fp_line (start 2 5.715) (end 2 5.08) (layer F.Fab) (width 0.1))
  (fp_line (start 1.2 5.715) (end 1.2 5.08) (layer F.Fab) (width 0.1))
  (fp_line (start 0.4 5.715) (end 0.4 5.08) (layer F.Fab) (width 0.1))
  (fp_line (start -0.4 5.715) (end -0.4 5.08) (layer F.Fab) (width 0.1))
  (fp_line (start -1.2 5.715) (end -1.2 5.08) (layer F.Fab) (width 0.1))
  (fp_line (start -2 5.715) (end -2 5.08) (layer F.Fab) (width 0.1))
  (fp_line (start -2.8 5.715) (end -2.8 5.08) (layer F.Fab) (width 0.1))
  (fp_line (start -3.6 5.715) (end -3.6 5.08) (layer F.Fab) (width 0.1))
  (fp_line (start -4.4 5.715) (end -4.4 5.08) (layer F.Fab) (width 0.1))
  (fp_line (start -5.2 5.715) (end -5.2 5.08) (layer F.Fab) (width 0.1))
  (fp_line (start -6 5.715) (end -6 5.08) (layer F.Fab) (width 0.1))
  (fp_line (start -6.8 5.715) (end -6.8 5.08) (layer F.Fab) (width 0.1))
  (fp_line (start -7.6 5.715) (end -7.6 5.08) (layer F.Fab) (width 0.1))
  (fp_line (start -8.4 5.715) (end -8.4 5.08) (layer F.Fab) (width 0.1))
  (fp_line (start 9.525 -5.08) (end -9.525 -5.08) (layer F.Fab) (width 0.1))
  (fp_line (start -9.525 -5.08) (end -9.525 5.08) (layer F.Fab) (width 0.1))
  (fp_line (start -9.525 5.08) (end 9.525 5.08) (layer F.Fab) (width 0.1))
  (fp_line (start 9.525 5.08) (end 9.525 -5.08) (layer F.Fab) (width 0.1))
  (pad 1 smd rect (at -8.4 5.715) (size 0.508 1.524) (layers F.Cu F.Mask F.Paste)
    (clearance 0.2032) (solder_mask_margin 0.1016)
    (zone_connect 2))
  (pad 2 smd rect (at -7.6 5.715) (size 0.508 1.524) (layers F.Cu F.Mask F.Paste)
    (clearance 0.2032) (solder_mask_margin 0.1016)
    (zone_connect 2))
  (pad 3 smd rect (at -6.8 5.715) (size 0.508 1.524) (layers F.Cu F.Mask F.Paste)
    (clearance 0.2032) (solder_mask_margin 0.1016)
    (zone_connect 2))
  (pad 4 smd rect (at -6 5.715) (size 0.508 1.524) (layers F.Cu F.Mask F.Paste)
    (clearance 0.2032) (solder_mask_margin 0.1016)
    (zone_connect 2))
  (pad 5 smd rect (at -5.2 5.715) (size 0.508 1.524) (layers F.Cu F.Mask F.Paste)
    (clearance 0.2032) (solder_mask_margin 0.1016)
    (zone_connect 2))
  (pad 6 smd rect (at -4.4 5.715) (size 0.508 1.524) (layers F.Cu F.Mask F.Paste)
    (clearance 0.2032) (solder_mask_margin 0.1016)
    (zone_connect 2))
  (pad 7 smd rect (at -3.6 5.715) (size 0.508 1.524) (layers F.Cu F.Mask F.Paste)
    (clearance 0.2032) (solder_mask_margin 0.1016)
    (zone_connect 2))
  (pad 8 smd rect (at -2.8 5.715) (size 0.508 1.524) (layers F.Cu F.Mask F.Paste)
    (clearance 0.2032) (solder_mask_margin 0.1016)
    (zone_connect 2))
  (pad 9 smd rect (at -2 5.715) (size 0.508 1.524) (layers F.Cu F.Mask F.Paste)
    (clearance 0.2032) (solder_mask_margin 0.1016)
    (zone_connect 2))
  (pad 10 smd rect (at -1.2 5.715) (size 0.508 1.524) (layers F.Cu F.Mask F.Paste)
    (clearance 0.2032) (solder_mask_margin 0.1016)
    (zone_connect 2))
  (pad 11 smd rect (at -0.4 5.715) (size 0.508 1.524) (layers F.Cu F.Mask F.Paste)
    (clearance 0.2032) (solder_mask_margin 0.1016)
    (zone_connect 2))
  (pad 12 smd rect (at 0.4 5.715) (size 0.508 1.524) (layers F.Cu F.Mask F.Paste)
    (clearance 0.2032) (solder_mask_margin 0.1016)
    (zone_connect 2))
  (pad 13 smd rect (at 1.2 5.715) (size 0.508 1.524) (layers F.Cu F.Mask F.Paste)
    (clearance 0.2032) (solder_mask_margin 0.1016)
    (zone_connect 2))
  (pad 14 smd rect (at 2 5.715) (size 0.508 1.524) (layers F.Cu F.Mask F.Paste)
    (clearance 0.2032) (solder_mask_margin 0.1016)
    (zone_connect 2))
  (pad 15 smd rect (at 2.8 5.715) (size 0.508 1.524) (layers F.Cu F.Mask F.Paste)
    (clearance 0.2032) (solder_mask_margin 0.1016)
    (zone_connect 2))
  (pad 16 smd rect (at 3.6 5.715) (size 0.508 1.524) (layers F.Cu F.Mask F.Paste)
    (clearance 0.2032) (solder_mask_margin 0.1016)
    (zone_connect 2))
  (pad 17 smd rect (at 4.4 5.715) (size 0.508 1.524) (layers F.Cu F.Mask F.Paste)
    (clearance 0.2032) (solder_mask_margin 0.1016)
    (zone_connect 2))
  (pad 18 smd rect (at 5.2 5.715) (size 0.508 1.524) (layers F.Cu F.Mask F.Paste)
    (clearance 0.2032) (solder_mask_margin 0.1016)
    (zone_connect 2))
  (pad 19 smd rect (at 6 5.715) (size 0.508 1.524) (layers F.Cu F.Mask F.Paste)
    (clearance 0.2032) (solder_mask_margin 0.1016)
    (zone_connect 2))
  (pad 20 smd rect (at 6.8 5.715) (size 0.508 1.524) (layers F.Cu F.Mask F.Paste)
    (clearance 0.2032) (solder_mask_margin 0.1016)
    (zone_connect 2))
  (pad 21 smd rect (at 7.6 5.715) (size 0.508 1.524) (layers F.Cu F.Mask F.Paste)
    (clearance 0.2032) (solder_mask_margin 0.1016)
    (zone_connect 2))
  (pad 22 smd rect (at 8.4 5.715) (size 0.508 1.524) (layers F.Cu F.Mask F.Paste)
    (clearance 0.2032) (solder_mask_margin 0.1016)
    (zone_connect 2))
  (pad 23 smd rect (at 8.4 -5.715) (size 0.508 1.524) (layers F.Cu F.Mask F.Paste)
    (clearance 0.2032) (solder_mask_margin 0.1016)
    (zone_connect 2))
  (pad 24 smd rect (at 7.6 -5.715) (size 0.508 1.524) (layers F.Cu F.Mask F.Paste)
    (clearance 0.2032) (solder_mask_margin 0.1016)
    (zone_connect 2))
  (pad 25 smd rect (at 6.8 -5.715) (size 0.508 1.524) (layers F.Cu F.Mask F.Paste)
    (clearance 0.2032) (solder_mask_margin 0.1016)
    (zone_connect 2))
  (pad 26 smd rect (at 6 -5.715) (size 0.508 1.524) (layers F.Cu F.Mask F.Paste)
    (clearance 0.2032) (solder_mask_margin 0.1016)
    (zone_connect 2))
  (pad 27 smd rect (at 5.2 -5.715) (size 0.508 1.524) (layers F.Cu F.Mask F.Paste)
    (clearance 0.2032) (solder_mask_margin 0.1016)
    (zone_connect 2))
  (pad 28 smd rect (at 4.4 -5.715) (size 0.508 1.524) (layers F.Cu F.Mask F.Paste)
    (clearance 0.2032) (solder_mask_margin 0.1016)
    (zone_connect 2))
  (pad 29 smd rect (at 3.6 -5.715) (size 0.508 1.524) (layers F.Cu F.Mask F.Paste)
    (clearance 0.2032) (solder_mask_margin 0.1016)
    (zone_connect 2))
  (pad 30 smd rect (at 2.8 -5.715) (size 0.508 1.524) (layers F.Cu F.Mask F.Paste)
    (clearance 0.2032) (solder_mask_margin 0.1016)
    (zone_connect 2))
  (pad 31 smd rect (at 2 -5.715) (size 0.508 1.524) (layers F.Cu F.Mask F.Paste)
    (clearance 0.2032) (solder_mask_margin 0.1016)
    (zone_connect 2))
  (pad 32 smd rect (at 1.2 -5.715) (size 0.508 1.524) (layers F.Cu F.Mask F.Paste)
    (clearance 0.2032) (solder_mask_margin 0.1016)
    (zone_connect 2))
  (pad 33 smd rect (at 0.4 -5.715) (size 0.508 1.524) (layers F.Cu F.Mask F.Paste)
    (clearance 0.2032) (solder_mask_margin 0.1016)
    (zone_connect 2))
  (pad 34 smd rect (at -0.4 -5.715) (size 0.508 1.524) (layers F.Cu F.Mask F.Paste)
    (clearance 0.2032) (solder_mask_margin 0.1016)
    (zone_connect 2))
  (pad 35 smd rect (at -1.2 -5.715) (size 0.508 1.524) (layers F.Cu F.Mask F.Paste)
    (clearance 0.2032) (solder_mask_margin 0.1016)
    (zone_connect 2))
  (pad 36 smd rect (at -2 -5.715) (size 0.508 1.524) (layers F.Cu F.Mask F.Paste)
    (clearance 0.2032) (solder_mask_margin 0.1016)
    (zone_connect 2))
  (pad 37 smd rect (at -2.8 -5.715) (size 0.508 1.524) (layers F.Cu F.Mask F.Paste)
    (clearance 0.2032) (solder_mask_margin 0.1016)
    (zone_connect 2))
  (pad 38 smd rect (at -3.6 -5.715) (size 0.508 1.524) (layers F.Cu F.Mask F.Paste)
    (clearance 0.2032) (solder_mask_margin 0.1016)
    (zone_connect 2))
  (pad 39 smd rect (at -4.4 -5.715) (size 0.508 1.524) (layers F.Cu F.Mask F.Paste)
    (clearance 0.2032) (solder_mask_margin 0.1016)
    (zone_connect 2))
  (pad 40 smd rect (at -5.2 -5.715) (size 0.508 1.524) (layers F.Cu F.Mask F.Paste)
    (clearance 0.2032) (solder_mask_margin 0.1016)
    (zone_connect 2))
  (pad 41 smd rect (at -6 -5.715) (size 0.508 1.524) (layers F.Cu F.Mask F.Paste)
    (clearance 0.2032) (solder_mask_margin 0.1016)
    (zone_connect 2))
  (pad 42 smd rect (at -6.8 -5.715) (size 0.508 1.524) (layers F.Cu F.Mask F.Paste)
    (clearance 0.2032) (solder_mask_margin 0.1016)
    (zone_connect 2))
  (pad 43 smd rect (at -7.6 -5.715) (size 0.508 1.524) (layers F.Cu F.Mask F.Paste)
    (clearance 0.2032) (solder_mask_margin 0.1016)
    (zone_connect 2))
  (pad 44 smd rect (at -8.4 -5.715) (size 0.508 1.524) (layers F.Cu F.Mask F.Paste)
    (clearance 0.2032) (solder_mask_margin 0.1016)
    (zone_connect 2))
  (model ${KISYS3DMOD}/Package_SO.3dshapes/TSOP-II-44_10.16x18.41mm_P0.8mm.wrl
    (offset (xyz 0 0 0))
    (scale (xyz 1 1 1))
    (rotate (xyz 0 0 -90))
  )
)